# vtk DataFile Version 2.0
Generated by lpp.py
ASCII
DATASET POLYDATA
POINTS 337 float
-0.0275373 -0.0407972 0.00886856
-0.0135145 -0.0389568 0.00555405
-0.0203865 -0.0271192 0.0069533
0.00468245 -0.0300511 0.00754564
0.0398506 -0.0305555 0.00586926
-0.0112824 -0.0167968 0.0055835
0.0328367 -0.0179321 0.00673994
0.0162128 -0.0106887 0.00706151
-0.0172667 -0.00168621 0.00888181
0.00512534 -0.00219944 0.00738327
-0.0326047 0.0126468 0.00663443
0.0430248 0.0182279 0.0091041
-0.00808455 0.0229045 0.00911745
0.0155068 0.0310849 0.00882356
0.00854097 0.0396918 0.00790369
0.010386 -0.0423478 0.0159318
0.0267376 -0.0343659 0.013912
-0.0330927 -0.0227452 0.0156604
-0.00540084 -0.0245154 0.0162813
0.0124323 -0.026127 0.0144735
-0.0189773 -0.0197042 0.0151059
0.0385919 -0.020131 0.0159857
-0.038875 -0.00609359 0.0133916
0.0279881 -0.00792039 0.0159513
0.018011 0.00251593 0.015053
-0.0244819 0.00837338 0.0163235
-0.0123644 0.0115145 0.0120879
0.0305742 0.00944899 0.0132198
-0.0438616 0.0185434 0.0125122
-0.0164832 0.0209127 0.0163436
0.0103974 0.0185122 0.0137666
0.0287944 0.0271279 0.012871
-0.0312676 0.0407583 0.0126341
-0.0145114 0.0350669 0.0142672
0.00675554 0.0320788 0.0171275
0.0405807 0.0399096 0.0147474
-0.00320752 0.0436897 0.016809
0.0163743 0.0423733 0.0153119
-0.000965908 -0.0442914 0.0205854
0.0310874 -0.0428278 0.0247776
-0.0424034 -0.0359817 0.0230739
-0.0187511 -0.0393568 0.0242326
0.00370662 -0.0342825 0.0217803
0.0389725 -0.0308242 0.0263052
-0.0443555 -0.0165688 0.0222652
0.00403677 -0.0213847 0.0267716
0.0184804 -0.0211601 0.027225
0.0323723 -0.0174199 0.0259032
-0.0143897 -0.0105586 0.0233459
0.00182068 -0.0086814 0.0198593
0.0396572 -0.00916218 0.0243677
-0.0377987 0.0130022 0.0219219
-0.0101714 0.00559874 0.0263509
0.00364215 0.00561736 0.0221504
0.0427503 0.00503166 0.0256114
0.0160251 0.0210906 0.0272522
0.0404903 0.0208285 0.0218043
-0.0297298 0.0248958 0.0204977
0.0254442 0.0431697 0.0216779
0.0353865 0.0409771 0.0261257
-0.0371645 -0.0383415 0.0363246
-0.0159061 -0.0229927 0.0305336
-0.000782757 -0.0312514 0.0361641
0.0279186 -0.0298109 0.0355448
-0.0411176 -0.021032 0.0356136
-0.044214 -0.00496395 0.0312857
-0.029508 -0.00863873 0.0282779
-0.000138691 -0.00779894 0.0374991
0.0163198 0.00165589 0.0293696
0.035527 0.00305069 0.0343188
-0.0357231 0.00887089 0.0359082
-0.0217238 0.0111027 0.0331466
-0.0114091 0.0178293 0.0339266
0.00290564 0.0174394 0.0320589
0.0276205 0.0182763 0.0297583
-0.0435414 0.0285275 0.0284698
-0.0359989 0.0325074 0.0355912
-0.00976127 0.0345495 0.0374804
0.00356945 0.0352004 0.0319631
0.0194164 0.0321812 0.0284512
0.0408789 0.0320548 0.0360667
-0.0423548 0.0422544 0.028933
-0.0238619 0.0411176 0.0287842
-0.00817251 0.0444459 0.0299486
0.00554595 -0.042335 0.0458384
-0.0165192 -0.0386639 0.0389513
0.0170401 -0.0391512 0.0376971
0.0387099 -0.040465 0.0458109
-0.0275086 -0.024413 0.0390065
0.0374658 -0.0270804 0.0405294
0.0114574 -0.0161991 0.0393862
0.0430503 -0.0148815 0.0425284
-0.038298 -0.00944991 0.0437697
0.0261579 -0.0098974 0.0386183
-0.0181902 -0.00130944 0.0426094
0.044422 -0.00387665 0.0418474
0.0115 0.00615941 0.0422179
0.0236872 0.010405 0.0392852
-0.0327836 0.0227172 0.0397455
-0.0197583 0.020221 0.0454638
0.0380716 0.0187481 0.0409272
-0.0440702 0.0379162 0.0409804
0.0175654 0.0408914 0.0413195
-0.0270093 0.0417767 0.0428642
0.0319402 0.0419236 0.0422623
0.0426436 0.043758 0.0456067
-0.043669 -0.0444459 0.0503077
0.00157511 -0.0414952 0.0561789
-0.0436981 -0.0331715 0.0548493
0.0172432 -0.0399327 0.0554506
-0.0230396 -0.0281941 0.052206
-0.00256619 -0.0299349 0.0511422
-0.0103877 -0.0221081 0.0488169
0.00311648 -0.021272 0.047029
0.0205727 -0.0226466 0.0522588
-0.0298491 -0.00612557 0.0503792
0.00285035 -0.00994157 0.0514621
0.0423925 -0.00881857 0.0544295
0.0152702 -0.00399383 0.0558272
0.0336213 0.00198001 0.0495102
-0.00139045 0.011354 0.0524828
0.0151923 0.00994424 0.0520415
0.0393679 0.0149236 0.0522222
0.0140814 0.0241393 0.0547104
0.0314166 0.0269599 0.0520621
0.00161176 0.0372932 0.049503
0.0441219 0.0406139 0.0561601
-0.0439126 -0.0397636 0.064903
-0.0332742 -0.0401625 0.0580686
-0.0195409 -0.0408748 0.0615208
-0.00924568 -0.039423 0.0576049
0.0315583 -0.0348606 0.0570374
0.0444206 -0.0380069 0.0588468
-0.011128 -0.0282328 0.0617098
0.041117 -0.0236693 0.0590433
-0.0320478 -0.0168249 0.0624728
0.00680552 -0.0182325 0.0625929
-0.0107419 -0.00978419 0.0563398
-0.000261316 -0.00167414 0.0620819
0.0401129 0.00226307 0.0624172
-0.0290648 0.00479409 0.0597991
-0.041117 0.0175592 0.0567831
-0.0193358 0.0202331 0.0599001
-0.0097946 0.0157293 0.0633831
0.0444695 0.0183162 0.0614532
-0.000107698 0.0251762 0.0571744
-0.0408964 0.0333963 0.0623989
-0.0245469 0.0336217 0.0584224
-0.00681066 0.0331703 0.0641183
0.0158194 0.0373263 0.0633566
-0.00227622 0.0435945 0.0651894
0.0290737 0.0419165 0.0609216
-0.0166022 -0.0423861 0.0721291
0.0290687 -0.041117 0.072393
-0.0304476 -0.031988 0.0708241
-0.00273322 -0.037306 0.072277
0.0174849 -0.0322643 0.0692394
-0.0422817 -0.0286668 0.07142
-0.0217448 -0.0252219 0.0686152
-0.0134423 -0.0180259 0.0702678
0.0150999 -0.00927221 0.0703064
0.029505 -0.00787195 0.0684584
-0.0369133 0.00137221 0.0749412
-0.0181559 -0.00442176 0.0715749
0.00888219 -0.000299567 0.0682421
0.00313433 0.00789184 0.0730695
-0.0304427 0.0182845 0.0664848
0.00231024 0.019172 0.0717237
0.0276247 0.0181331 0.0670256
-0.00769409 0.0240795 0.0712491
0.038874 0.0327869 0.0671046
-0.0422298 0.0442849 0.0692929
-0.0182993 0.0432912 0.0678726
0.00811232 0.0428665 0.0691314
0.00913971 -0.0444535 0.083841
0.044448 -0.044448 0.0798922
-0.0322766 -0.0392845 0.0831524
0.0137182 -0.0354833 0.0791775
-0.0079727 -0.0278002 0.0833499
0.0118551 -0.0240931 0.0771316
0.0423972 -0.0302254 0.0778629
-0.0435168 -0.016274 0.0841732
-0.0192475 -0.0203391 0.0794543
-0.00935799 -0.016549 0.0829613
-0.000470427 -0.0217866 0.0773876
-0.0375834 -0.00937666 0.0776835
0.00241543 -0.00828805 0.0816421
0.0193151 -0.0134778 0.0834688
0.039721 -0.0132862 0.0771172
0.016959 0.00394892 0.0809126
-0.0131166 0.0131 0.0789066
0.0393781 0.00957348 0.0810292
-0.0400786 0.0150071 0.0785131
-0.0116964 0.0318196 0.0842502
0.00699454 0.0293571 0.0808293
0.0289596 0.0240201 0.0837968
-0.0343405 0.0322699 0.0752185
0.044446 0.0331305 0.0804243
-0.024168 0.041753 0.0791147
0.0229526 0.041117 0.0753291
0.0374928 0.04184 0.0819333
-0.0428416 -0.0444461 0.0915376
-0.0191707 -0.0444542 0.0863066
-0.00019886 -0.0422318 0.0897616
0.0389703 -0.0409662 0.0889097
0.013068 -0.0363832 0.0903791
0.00576963 -0.0239282 0.0902259
0.0293376 -0.0255562 0.0918043
-0.0337683 -0.020418 0.0875252
-0.0231153 0.000339705 0.0891331
-0.00434948 -0.00171879 0.0934608
0.0391839 -0.00444052 0.0933093
-0.0377958 0.00503208 0.0887031
0.00225942 0.0113295 0.0876395
-0.039551 0.0193127 0.0922924
-0.0261649 0.0219147 0.0871447
0.0441495 0.0158658 0.0931215
-0.0419791 0.0302096 0.0930808
-0.0444458 0.0371229 0.0847403
-0.0302144 0.0434635 0.0882775
0.0018342 0.0438658 0.0917559
0.0125578 0.0410184 0.0911718
-0.0140391 -0.0340349 0.094878
0.0073759 -0.033247 0.10168
0.0211143 -0.0407649 0.101539
-0.0390112 -0.0292445 0.100195
-0.0296596 -0.0184787 0.097664
-0.0103142 -0.0157651 0.0994253
0.0199829 -0.0162234 0.097633
0.0190309 0.00289767 0.101245
-0.0411173 0.00973083 0.102988
-0.0121926 0.00962744 0.102557
-0.0110693 0.0225858 0.0962798
0.032019 0.017211 0.100842
-0.0314915 0.0230867 0.102813
0.000371957 0.023331 0.0982761
0.0145826 0.0253459 0.0966799
-0.0172507 0.0380364 0.0999429
0.0290377 0.0372473 0.0980004
-0.0430786 0.0410711 0.0951454
-0.0425766 -0.0418067 0.106365
0.0060668 -0.0437748 0.112166
-0.0284514 -0.0396005 0.109183
-0.00486803 -0.0345721 0.110088
0.0384076 -0.0367085 0.107681
-0.0299696 -0.0255992 0.110851
-0.0217622 -0.0234794 0.103669
0.0223642 -0.0248157 0.109101
0.00482589 -0.0205907 0.10425
0.0356444 -0.0187179 0.106947
-0.0400198 -0.00820242 0.107884
0.0104162 -0.00910108 0.111126
-0.0274183 -0.00174542 0.103257
0.0396879 0.0026116 0.109614
0.00624446 0.0154172 0.108834
0.0206348 0.0162824 0.109678
-0.0405467 0.0314702 0.104201
-0.00847886 0.0276087 0.112183
0.0440637 0.0296316 0.11207
-0.0292834 0.0376038 0.107906
0.00416757 0.0374509 0.104484
-0.0399724 0.0431174 0.105615
0.0162384 0.0444309 0.108268
0.0275767 -0.0435715 0.114328
0.0364005 -0.0444459 0.121022
-0.0219665 -0.0336576 0.11597
0.00514991 -0.0368001 0.121021
0.04443 -0.0367727 0.121326
-0.00799813 -0.0245832 0.120614
0.00252381 -0.0228197 0.115183
-0.0134436 -0.0171243 0.11346
-0.0241962 -0.00781635 0.115959
-0.00305891 -0.013264 0.114209
0.0263784 -0.00557574 0.118083
-0.0351068 0.0015267 0.117455
-0.00568845 0.00146272 0.117059
0.0162249 0.00484503 0.117643
-0.0334946 0.0172526 0.117299
-0.01506 0.014014 0.121554
0.0436911 0.0168576 0.112701
-0.0242879 0.02838 0.117212
0.0246403 0.0245789 0.115888
0.0376163 0.0303667 0.12175
0.035765 0.0369602 0.113001
-0.00161593 0.0409847 0.118737
0.0233979 0.0411202 0.120368
-0.0233321 -0.0417958 0.13089
-0.035069 -0.038279 0.123083
0.0196911 -0.0363853 0.124062
0.00310222 -0.0255975 0.129909
-0.0375558 -0.020697 0.123799
-0.00669528 -0.0142989 0.125599
0.0265057 -0.0197494 0.122747
-0.0376931 -0.007772 0.130242
-0.0161822 -0.0077302 0.127969
0.0112684 -0.0127664 0.126523
0.0411225 -0.00929428 0.127262
0.00816932 2.33386e-05 0.1278
0.0301804 0.0107166 0.12407
0.00212183 0.0197442 0.126763
0.0420936 0.017237 0.13014
-0.0352508 0.0390452 0.123829
0.00751722 0.0363604 0.130021
-0.00498168 -0.0411307 0.132867
-0.0199904 -0.0270878 0.134233
0.0221662 -0.0236126 0.136169
0.0390712 -0.0264329 0.131456
-0.0406748 -0.0210482 0.138434
-0.029812 -0.015493 0.134824
-0.00548597 -0.0159043 0.136526
-0.0057134 0.00156724 0.131502
0.0196966 0.00281593 0.136055
0.039454 0.0033345 0.139293
-0.0315899 0.00906147 0.132955
-0.0411171 0.0236945 0.13626
-0.0171234 0.0253152 0.136814
0.0220253 0.0270222 0.13428
0.0380006 0.0270136 0.133472
-0.0219319 0.0383413 0.132841
-0.00446454 0.0322418 0.137417
0.0364051 0.0379868 0.13417
0.00482561 -0.0413774 0.143467
0.0357843 -0.0411194 0.140896
-0.0313961 -0.0327013 0.141088
0.018716 -0.0407483 0.140783
-0.00119501 -0.030799 0.142682
0.0223294 -0.00957069 0.143033
0.0418364 -0.00813032 0.141635
-0.0217892 -0.00427279 0.140822
-0.000849836 0.0168053 0.144333
0.0187551 0.0164007 0.143662
0.0427928 0.0188044 0.142336
0.00824837 0.0303175 0.144275
-0.0408538 0.0358377 0.144075
-0.0287296 0.0419911 0.141284
0.0244268 0.0420447 0.142516
0.0415911 0.0428152 0.142727
VERTICES 337 674
1 0
1 1
1 2
1 3
1 4
1 5
1 6
1 7
1 8
1 9
1 10
1 11
1 12
1 13
1 14
1 15
1 16
1 17
1 18
1 19
1 20
1 21
1 22
1 23
1 24
1 25
1 26
1 27
1 28
1 29
1 30
1 31
1 32
1 33
1 34
1 35
1 36
1 37
1 38
1 39
1 40
1 41
1 42
1 43
1 44
1 45
1 46
1 47
1 48
1 49
1 50
1 51
1 52
1 53
1 54
1 55
1 56
1 57
1 58
1 59
1 60
1 61
1 62
1 63
1 64
1 65
1 66
1 67
1 68
1 69
1 70
1 71
1 72
1 73
1 74
1 75
1 76
1 77
1 78
1 79
1 80
1 81
1 82
1 83
1 84
1 85
1 86
1 87
1 88
1 89
1 90
1 91
1 92
1 93
1 94
1 95
1 96
1 97
1 98
1 99
1 100
1 101
1 102
1 103
1 104
1 105
1 106
1 107
1 108
1 109
1 110
1 111
1 112
1 113
1 114
1 115
1 116
1 117
1 118
1 119
1 120
1 121
1 122
1 123
1 124
1 125
1 126
1 127
1 128
1 129
1 130
1 131
1 132
1 133
1 134
1 135
1 136
1 137
1 138
1 139
1 140
1 141
1 142
1 143
1 144
1 145
1 146
1 147
1 148
1 149
1 150
1 151
1 152
1 153
1 154
1 155
1 156
1 157
1 158
1 159
1 160
1 161
1 162
1 163
1 164
1 165
1 166
1 167
1 168
1 169
1 170
1 171
1 172
1 173
1 174
1 175
1 176
1 177
1 178
1 179
1 180
1 181
1 182
1 183
1 184
1 185
1 186
1 187
1 188
1 189
1 190
1 191
1 192
1 193
1 194
1 195
1 196
1 197
1 198
1 199
1 200
1 201
1 202
1 203
1 204
1 205
1 206
1 207
1 208
1 209
1 210
1 211
1 212
1 213
1 214
1 215
1 216
1 217
1 218
1 219
1 220
1 221
1 222
1 223
1 224
1 225
1 226
1 227
1 228
1 229
1 230
1 231
1 232
1 233
1 234
1 235
1 236
1 237
1 238
1 239
1 240
1 241
1 242
1 243
1 244
1 245
1 246
1 247
1 248
1 249
1 250
1 251
1 252
1 253
1 254
1 255
1 256
1 257
1 258
1 259
1 260
1 261
1 262
1 263
1 264
1 265
1 266
1 267
1 268
1 269
1 270
1 271
1 272
1 273
1 274
1 275
1 276
1 277
1 278
1 279
1 280
1 281
1 282
1 283
1 284
1 285
1 286
1 287
1 288
1 289
1 290
1 291
1 292
1 293
1 294
1 295
1 296
1 297
1 298
1 299
1 300
1 301
1 302
1 303
1 304
1 305
1 306
1 307
1 308
1 309
1 310
1 311
1 312
1 313
1 314
1 315
1 316
1 317
1 318
1 319
1 320
1 321
1 322
1 323
1 324
1 325
1 326
1 327
1 328
1 329
1 330
1 331
1 332
1 333
1 334
1 335
1 336
POINT_DATA 337
VECTORS i float
0.0 0.0 0.0
0.0 0.0 0.0
0.0 0.0 0.0
0.0 0.0 0.0
0.0 0.0 0.0
0.0 0.0 0.0
0.0 0.0 0.0
0.0 0.0 0.0
0.0 0.0 0.0
0.0 0.0 0.0
0.0 0.0 0.0
0.0 0.0 0.0
0.0 0.0 0.0
0.0 0.0 0.0
0.0 0.0 0.0
0.0 0.0 0.0
0.0 0.0 0.0
0.0 0.0 0.0
0.0 0.0 0.0
0.0 0.0 0.0
0.0 0.0 0.0
0.0 0.0 0.0
0.0 0.0 0.0
0.0 0.0 0.0
0.0 0.0 0.0
0.0 0.0 0.0
0.0 0.0 0.0
0.0 0.0 0.0
0.0 0.0 0.0
0.0 0.0 0.0
0.0 0.0 0.0
0.0 0.0 0.0
0.0 0.0 0.0
0.0 0.0 0.0
0.0 0.0 0.0
0.0 0.0 0.0
0.0 0.0 0.0
0.0 0.0 0.0
0.0 0.0 0.0
0.0 0.0 0.0
0.0 0.0 0.0
0.0 0.0 0.0
0.0 0.0 0.0
0.0 0.0 0.0
0.0 0.0 0.0
0.0 0.0 0.0
0.0 0.0 0.0
0.0 0.0 0.0
0.0 0.0 0.0
0.0 0.0 0.0
0.0 0.0 0.0
0.0 0.0 0.0
0.0 0.0 0.0
0.0 0.0 0.0
0.0 0.0 0.0
0.0 0.0 0.0
0.0 0.0 0.0
0.0 0.0 0.0
0.0 0.0 0.0
0.0 0.0 0.0
0.0 0.0 0.0
0.0 0.0 0.0
0.0 0.0 0.0
0.0 0.0 0.0
0.0 0.0 0.0
0.0 0.0 0.0
0.0 0.0 0.0
0.0 0.0 0.0
0.0 0.0 0.0
0.0 0.0 0.0
0.0 0.0 0.0
0.0 0.0 0.0
0.0 0.0 0.0
0.0 0.0 0.0
0.0 0.0 0.0
0.0 0.0 0.0
0.0 0.0 0.0
0.0 0.0 0.0
0.0 0.0 0.0
0.0 0.0 0.0
0.0 0.0 0.0
0.0 0.0 0.0
0.0 0.0 0.0
0.0 0.0 0.0
0.0 0.0 0.0
0.0 0.0 0.0
0.0 0.0 0.0
0.0 0.0 0.0
0.0 0.0 0.0
0.0 0.0 0.0
0.0 0.0 0.0
0.0 0.0 0.0
0.0 0.0 0.0
0.0 0.0 0.0
0.0 0.0 0.0
0.0 0.0 0.0
0.0 0.0 0.0
0.0 0.0 0.0
0.0 0.0 0.0
0.0 0.0 0.0
0.0 0.0 0.0
0.0 0.0 0.0
0.0 0.0 0.0
0.0 0.0 0.0
0.0 0.0 0.0
0.0 0.0 0.0
0.0 0.0 0.0
0.0 0.0 0.0
0.0 0.0 0.0
0.0 0.0 0.0
0.0 0.0 0.0
0.0 0.0 0.0
0.0 0.0 0.0
0.0 0.0 0.0
0.0 0.0 0.0
0.0 0.0 0.0
0.0 0.0 0.0
0.0 0.0 0.0
0.0 0.0 0.0
0.0 0.0 0.0
0.0 0.0 0.0
0.0 0.0 0.0
0.0 0.0 0.0
0.0 0.0 0.0
0.0 0.0 0.0
0.0 0.0 0.0
0.0 0.0 0.0
0.0 0.0 0.0
0.0 0.0 0.0
0.0 0.0 0.0
0.0 0.0 0.0
0.0 0.0 0.0
0.0 0.0 0.0
0.0 0.0 0.0
0.0 0.0 0.0
0.0 0.0 0.0
0.0 0.0 0.0
0.0 0.0 0.0
0.0 0.0 0.0
0.0 0.0 0.0
0.0 0.0 0.0
0.0 0.0 0.0
0.0 0.0 0.0
0.0 0.0 0.0
0.0 0.0 0.0
0.0 0.0 0.0
0.0 0.0 0.0
0.0 0.0 0.0
0.0 0.0 0.0
0.0 0.0 0.0
0.0 0.0 0.0
0.0 0.0 0.0
0.0 0.0 0.0
0.0 0.0 0.0
0.0 0.0 0.0
0.0 0.0 0.0
0.0 0.0 0.0
0.0 0.0 0.0
0.0 0.0 0.0
0.0 0.0 0.0
0.0 0.0 0.0
0.0 0.0 0.0
0.0 0.0 0.0
0.0 0.0 0.0
0.0 0.0 0.0
0.0 0.0 0.0
0.0 0.0 0.0
0.0 0.0 0.0
0.0 0.0 0.0
0.0 0.0 0.0
0.0 0.0 0.0
0.0 0.0 0.0
0.0 0.0 0.0
0.0 0.0 0.0
0.0 0.0 0.0
0.0 0.0 0.0
0.0 0.0 0.0
0.0 0.0 0.0
0.0 0.0 0.0
0.0 0.0 0.0
0.0 0.0 0.0
0.0 0.0 0.0
0.0 0.0 0.0
0.0 0.0 0.0
0.0 0.0 0.0
0.0 0.0 0.0
0.0 0.0 0.0
0.0 0.0 0.0
0.0 0.0 0.0
0.0 0.0 0.0
0.0 0.0 0.0
0.0 0.0 0.0
0.0 0.0 0.0
0.0 0.0 0.0
0.0 0.0 0.0
0.0 0.0 0.0
0.0 0.0 0.0
0.0 0.0 0.0
0.0 0.0 0.0
0.0 0.0 0.0
0.0 0.0 0.0
0.0 0.0 0.0
0.0 0.0 0.0
0.0 0.0 0.0
0.0 0.0 0.0
0.0 0.0 0.0
0.0 0.0 0.0
0.0 0.0 0.0
0.0 0.0 0.0
0.0 0.0 0.0
0.0 0.0 0.0
0.0 0.0 0.0
0.0 0.0 0.0
0.0 0.0 0.0
0.0 0.0 0.0
0.0 0.0 0.0
0.0 0.0 0.0
0.0 0.0 0.0
0.0 0.0 0.0
0.0 0.0 0.0
0.0 0.0 0.0
0.0 0.0 0.0
0.0 0.0 0.0
0.0 0.0 0.0
0.0 0.0 0.0
0.0 0.0 0.0
0.0 0.0 0.0
0.0 0.0 0.0
0.0 0.0 0.0
0.0 0.0 0.0
0.0 0.0 0.0
0.0 0.0 0.0
0.0 0.0 0.0
0.0 0.0 0.0
0.0 0.0 0.0
0.0 0.0 0.0
0.0 0.0 0.0
0.0 0.0 0.0
0.0 0.0 0.0
0.0 0.0 0.0
0.0 0.0 0.0
0.0 0.0 0.0
0.0 0.0 0.0
0.0 0.0 0.0
0.0 0.0 0.0
0.0 0.0 0.0
0.0 0.0 0.0
0.0 0.0 0.0
0.0 0.0 0.0
0.0 0.0 0.0
0.0 0.0 0.0
0.0 0.0 0.0
0.0 0.0 0.0
0.0 0.0 0.0
0.0 0.0 0.0
0.0 0.0 0.0
0.0 0.0 0.0
0.0 0.0 0.0
0.0 0.0 0.0
0.0 0.0 0.0
0.0 0.0 0.0
0.0 0.0 0.0
0.0 0.0 0.0
0.0 0.0 0.0
0.0 0.0 0.0
0.0 0.0 0.0
0.0 0.0 0.0
0.0 0.0 0.0
0.0 0.0 0.0
0.0 0.0 0.0
0.0 0.0 0.0
0.0 0.0 0.0
0.0 0.0 0.0
0.0 0.0 0.0
0.0 0.0 0.0
0.0 0.0 0.0
0.0 0.0 0.0
0.0 0.0 0.0
0.0 0.0 0.0
0.0 0.0 0.0
0.0 0.0 0.0
0.0 0.0 0.0
0.0 0.0 0.0
0.0 0.0 0.0
0.0 0.0 0.0
0.0 0.0 0.0
0.0 0.0 0.0
0.0 0.0 0.0
0.0 0.0 0.0
0.0 0.0 0.0
0.0 0.0 0.0
0.0 0.0 0.0
0.0 0.0 0.0
0.0 0.0 0.0
0.0 0.0 0.0
0.0 0.0 0.0
0.0 0.0 0.0
0.0 0.0 0.0
0.0 0.0 0.0
0.0 0.0 0.0
0.0 0.0 0.0
0.0 0.0 0.0
0.0 0.0 0.0
0.0 0.0 0.0
0.0 0.0 0.0
0.0 0.0 0.0
0.0 0.0 0.0
0.0 0.0 0.0
0.0 0.0 0.0
0.0 0.0 0.0
0.0 0.0 0.0
0.0 0.0 0.0
0.0 0.0 0.0
0.0 0.0 0.0
0.0 0.0 0.0
0.0 0.0 0.0
0.0 0.0 0.0
0.0 0.0 0.0
0.0 0.0 0.0
0.0 0.0 0.0
0.0 0.0 0.0
0.0 0.0 0.0
0.0 0.0 0.0
0.0 0.0 0.0
0.0 0.0 0.0
0.0 0.0 0.0
0.0 0.0 0.0
0.0 0.0 0.0
0.0 0.0 0.0
0.0 0.0 0.0
0.0 0.0 0.0
0.0 0.0 0.0
0.0 0.0 0.0
0.0 0.0 0.0
0.0 0.0 0.0
0.0 0.0 0.0
0.0 0.0 0.0
VECTORS f float
-0.00165585 -0.00393959 0.00584924
0.0 0.0 -2.77281e-05
0.000215275 0.000399447 0.000742735
-0.000723364 -8.74613e-05 0.000183533
0.0 0.0 0.0
-0.000286746 -0.000523182 0.000121873
-0.000133694 0.000672997 0.000156916
0.0 0.0 0.0
-0.000326925 0.000544462 -0.00559123
9.01074e-05 0.000170947 -0.000126406
0.0 0.0 0.0
0.0 0.0 0.0
0.0 0.0 0.0
0.00049779 0.000132973 0.000195054
-0.000182369 -0.000564335 -0.000416992
0.0 0.0 0.0
0.000122644 -8.34735e-05 0.000240418
0.00356244 0.0017355 -0.000239633
-0.00313595 -0.00333372 -0.00498091
-0.000716881 -3.95814e-05 -4.63047e-05
-0.000109145 -0.00158233 -1.31665e-05
-9.53813e-05 0.000164945 -8.35913e-05
0.000704664 -0.000745492 -0.000482296
0.000898077 0.00452486 -0.00313949
5.03904e-06 0.00010131 -0.000511278
0.00121929 -0.0015297 -0.00168922
-0.000550167 -0.000904727 -0.000403649
-0.00149067 1.46102e-06 -2.34551e-05
0.0 0.0 0.0
0.000344449 -0.000446692 -7.48746e-05
0.000174748 0.00074925 9.81394e-05
-0.00089725 -0.00387914 -6.07174e-05
0.000437207 -0.000419841 -0.000587384
-0.000987749 -9.29689e-05 9.3229e-05
0.00016598 -0.000474851 -0.000111786
0.0 0.0 0.0
-0.000114513 5.72827e-05 -3.28586e-05
4.66622e-05 -0.000102679 9.73091e-05
6.96665e-05 -0.000174145 4.98923e-05
1.38003e-06 0.000168171 -8.33529e-05
-2.65425e-05 -1.78924e-05 -5.33312e-05
0.00348483 -0.00352427 0.0101936
-5.83751e-05 -0.000217856 -0.000164193
-0.000556439 -7.33355e-05 0.000223377
0.00145596 -0.000422606 -0.000798809
0.00229236 -0.00210563 0.00397954
-0.00196482 -0.00471943 -0.00460453
-0.00668129 -0.00256539 0.000623909
-0.00036327 0.000413163 -0.000229633
0.00185311 0.00450879 0.000163157
0.00236864 0.000923854 -7.95627e-05
9.99395e-05 0.000134681 -4.93672e-06
-0.00294159 -0.0017281 -0.00069676
0.00292869 0.000189611 -0.000724358
0.0 0.0 0.0
0.000776442 0.00056326 -0.000313157
0.0 0.0 0.0
0.000100286 1.91303e-05 -0.000108882
0.000330568 0.000106292 0.000293398
0.000243981 -4.9907e-05 0.000179925
-0.00480932 -0.000108252 -0.000309132
0.0144431 0.00193703 0.00481284
0.00235136 0.00273165 -0.00409031
0.000480312 -2.10771e-05 -0.000319571
-0.0301993 0.00483579 -0.00336746
0.0 0.0 0.0
0.000513481 -0.000480087 0.000466271
0.00147448 0.00742683 -0.00652542
-0.00180573 0.000399282 0.000261376
0.0 0.0 0.0
5.99454e-05 9.5567e-06 -1.18255e-05
-5.99454e-05 -9.5567e-06 1.18255e-05
0.000100115 0.000376686 0.000255518
-0.000736366 0.00574871 0.000745973
0.0 0.0 0.0
8.80407e-06 -8.74235e-07 1.22476e-05
-0.000130463 8.34754e-05 5.15792e-05
-4.70794e-05 -2.89388e-05 2.95239e-05
0.00184579 -0.00428536 0.00247824
0.0 0.0 0.0
9.60877e-05 0.00065342 -0.00029699
0.0 0.0 0.0
-0.000360666 0.000367564 -0.000327526
0.0 3.33572e-05 0.0
-0.000442258 -0.000276637 0.000425068
0.0 0.0 0.0
0.00118928 0.000245438 -0.000194035
-6.47265e-05 0.000259942 0.000138774
0.0176573 0.000532258 0.00347944
2.71579e-05 -0.000179552 3.70203e-05
-6.86699e-05 0.000515174 -0.000192191
3.80287e-05 0.000304514 -1.9019e-05
-0.00219686 -0.000625856 -0.000526526
-0.00456003 -0.012817 0.00125198
-0.000789203 0.000183933 0.000209529
-3.80287e-05 -0.000304514 1.9019e-05
-9.2779e-05 -6.22509e-06 -0.000177355
0.0 0.0 0.0
-0.000103315 -4.88702e-06 1.63879e-05
-0.000151859 0.000946284 0.00095699
-0.000129206 -0.000613316 0.000224155
0.000125029 -6.37514e-05 -7.47666e-05
-0.00117709 -0.00123205 -0.0010195
3.67193e-05 7.05286e-07 -7.08669e-05
-0.000687369 -4.24759e-05 -8.79447e-05
-8.40267e-05 -0.000221111 0.000124586
0.0 -3.33281e-05 0.0
-0.000143788 -9.6009e-05 0.000351824
0.0 0.0 0.0
7.89589e-05 3.02316e-05 -0.00112775
0.00596744 -0.00219832 0.00466056
0.0 0.0 0.0
-3.31461e-06 0.000147597 0.000363815
0.0 0.0 0.0
0.000764659 -0.000340616 -0.000141675
9.56607e-06 9.07696e-05 7.88845e-05
-0.00731363 0.00901178 -0.011765
0.0 0.0 0.0
-0.00599984 -0.00121713 -0.0017852
-0.00512275 -0.0118801 -0.00777779
-0.000177123 8.96165e-05 0.000168927
-0.000209218 -0.00101448 0.000133183
-0.00215782 0.00275056 0.000649058
-0.014751 0.00213701 0.00162315
-0.0114798 -0.00995838 -0.0129936
-0.000399031 -0.00200526 -0.000982808
0.00042079 0.000755307 -0.000389211
0.0 0.0 0.0
0.0 0.0 0.0
-0.000402997 -2.33196e-06 0.000108647
-0.000249283 6.82116e-05 0.000615634
4.82288e-05 -5.39203e-05 -9.31851e-05
-5.85571e-05 -1.67541e-05 -0.000143481
0.0 0.0 0.0
7.45061e-05 0.0 0.0
-2.40175e-05 3.51272e-05 7.91382e-05
0.0152853 -0.0133398 0.0223608
-0.00232394 0.000554595 0.000298273
-0.000268723 0.000242225 -8.72681e-05
-0.00217599 0.000220011 -0.00485776
-9.56607e-06 -9.07696e-05 -7.88845e-05
3.10055e-05 6.59665e-06 8.82399e-05
-4.51281e-05 0.000289845 8.52376e-05
-0.000118419 6.96784e-05 -0.000283444
-0.00333626 0.00564266 0.00942051
-0.00428477 0.000825965 -5.30122e-05
0.000156869 -0.000231638 5.36115e-06
0.000146371 -0.000389255 0.000193396
0.0 0.0 0.0
2.35986e-06 7.66585e-05 0.000159893
0.0 0.0 0.0
0.0 0.0 0.0
-2.99145e-05 3.10962e-05 -0.000179389
0.0 -6.64591e-05 0.0
-6.66175e-05 0.000113426 -0.000158848
0.0 0.0 0.0
0.00411071 0.00687994 -0.00629743
0.0 0.0 0.0
7.54733e-05 6.27874e-05 1.08637e-05
-0.000140465 -9.1465e-05 0.00010022
-0.000412605 0.00159244 -0.00113329
-0.00319446 0.00169299 -0.00270755
-0.000603663 0.00144253 0.000822858
0.000174737 -0.000320748 -0.000363577
-0.000349653 0.000399271 -0.000290053
0.00012335 -0.000109722 -3.29311e-05
-7.74068e-05 -5.65479e-06 -7.5641e-05
3.80924e-05 8.28241e-05 7.40461e-05
0.000398842 -0.00231367 -0.0150306
-5.66646e-05 -0.000105815 6.93097e-05
0.0145228 0.0248231 0.0160763
0.0 0.0 0.0
0.0 0.0 0.0
4.81903e-05 -4.41172e-05 -5.42245e-05
-0.0064297 -0.00451101 0.0130526
-0.00107186 0.001052 6.37979e-05
-0.00291302 0.000408647 -0.00168672
0.0024847 0.00267682 -0.00741882
0.000404072 0.000856106 -1.40871e-07
-0.00211861 -0.00226366 0.000276613
0.0 0.0 0.0
8.79216e-05 -5.12565e-05 1.75971e-06
6.49913e-05 2.86777e-05 -0.000111084
0.000384421 -6.20673e-05 -5.98427e-05
-0.00774812 0.00375297 -0.0172231
-6.77969e-05 0.00244133 -0.000244712
0.00157692 -0.00455805 -0.00382429
0.00143756 -0.000305179 0.00383135
0.00319446 -0.00169299 0.00270755
0.000194932 0.000909681 0.000292441
0.00056367 -0.000539603 0.000791706
0.000222425 -9.962e-05 -0.000319699
0.00024693 -0.00316672 0.00170224
0.00196174 -0.00153408 -0.00330563
-3.80924e-05 -8.28241e-05 -7.40461e-05
0.0 0.0 0.0
-0.00728815 0.0139195 0.00344824
0.000236787 -0.000866969 0.00113394
-5.26515e-05 -1.58884e-05 5.77634e-05
-5.84706e-05 3.61885e-05 -0.00012029
0.0 0.0 0.0
-0.000268328 0.000112333 -2.00392e-05
-0.000182841 0.000669274 -0.00052239
0.0 0.0 0.0
5.85485e-05 -4.43058e-05 -6.39702e-05
0.000102097 -0.000119346 -0.000111292
0.00838534 -0.00357222 0.0127963
0.000248817 0.000137798 0.000363614
-0.000106076 0.000112851 4.54245e-05
0.0 0.0 0.0
0.0 0.0 0.0
0.000545907 0.000175439 -0.000487104
0.000236764 -0.00157579 0.00143876
-0.000395564 0.00066641 -2.59997e-05
-0.000196992 -0.00167974 -0.000958927
0.00684758 -0.0112886 -0.00351985
0.000202182 -3.88373e-05 -0.000258809
-3.79549e-05 0.000189047 -3.191e-05
-7.75397e-05 -3.75349e-05 5.09841e-05
5.30157e-05 1.68576e-05 -5.75958e-05
-2.25133e-06 -0.000317139 0.000517977
-0.000188496 -5.56377e-05 0.000187703
0.00155017 0.00563263 0.000763003
0.0 0.0 0.0
0.0016837 -0.000260681 0.00189317
8.79377e-05 -7.08725e-05 0.000184145
-6.66532e-05 -5.90342e-05 -9.34094e-05
-0.000631717 -0.000503831 0.00124608
-0.000300612 -3.60302e-05 -0.000754241
5.08894e-05 4.33199e-05 -0.000109792
-0.000123448 0.00129225 -0.00324043
9.13474e-06 0.000105377 -5.10498e-05
-9.13474e-06 -0.000105377 5.10498e-05
0.00119031 0.000176189 -0.000115011
0.0 0.0 0.0
-0.00106318 -0.000411956 0.000681218
-0.0026209 0.0022104 0.00267256
0.00305301 0.000893361 -0.000327412
0.0 0.0 0.0
4.05812e-05 -0.00012754 7.86144e-05
3.0752e-05 0.000104851 -5.32442e-05
0.000215704 -0.000125354 0.000178871
4.30309e-05 3.94342e-05 4.50388e-05
0.00187038 0.000840705 0.0033902
-8.50763e-05 -5.70015e-05 4.70404e-05
-6.20973e-05 -5.04164e-05 -0.000132797
-0.000287852 6.25066e-06 -9.96654e-05
0.0 0.0 0.0
-0.00189145 0.00461539 0.00587567
-0.000188193 -0.000190878 -0.000367075
-0.00397808 0.0010826 -0.00255086
-0.00208106 0.0001256 -0.0046435
-0.000144687 0.000125949 -0.000239374
0.000879037 -1.31579e-06 -0.00104157
-0.000947633 -0.000102463 1.39768e-05
-5.51937e-05 1.57962e-05 6.27823e-05
0.0 0.0 0.0
0.00500648 0.000598292 -0.0013439
-5.82756e-05 5.57643e-05 -1.23473e-06
-0.00522481 4.49795e-05 0.00369555
-0.000454111 -0.00339016 0.00109782
-3.05257e-05 -2.29077e-05 -0.000103561
-0.0021945 -0.00364578 0.000610877
0.000192931 5.85989e-05 4.81235e-05
-4.76153e-05 1.77851e-05 -7.81473e-05
-4.30309e-05 -3.94342e-05 -4.50388e-05
-0.000250038 0.00323371 0.00161113
-6.29487e-05 -4.93453e-05 -5.30681e-06
0.0 0.0 0.0
-9.77132e-05 2.44151e-05 5.1391e-05
-0.00145713 -0.00140402 -0.0006857
-0.00334237 -0.00187509 -0.0018244
-0.00134933 -0.00147195 0.00026999
0.000327458 0.0144226 0.00148426
-0.000464178 0.00027743 -6.63141e-05
0.00061437 -0.000144804 0.000687109
0.0 0.0 0.0
0.00013527 -2.11802e-05 0.000180861
0.00206495 0.00366807 -0.00251745
0.0 0.0 0.0
-7.66258e-05 -8.68372e-05 -6.60926e-06
-3.18958e-05 4.82445e-05 0.000147855
-1.98372e-05 5.13723e-05 -5.89252e-05
7.81128e-05 -0.000107137 6.016e-05
0.0 0.0 0.0
-0.00344563 -0.00422546 -0.00403856
0.0 0.0 0.0
-3.04035e-05 0.000167933 -4.02922e-06
0.00142655 0.000418947 0.000237064
0.00664868 0.0148641 -0.00162925
9.98772e-05 -2.61809e-05 0.000156823
8.0244e-06 -1.06533e-05 7.25073e-05
0.0 0.0 0.0
-3.2679e-06 -0.000101217 -5.79611e-05
0.00497601 0.0027328 0.00264779
0.0 0.0 0.0
-0.00304682 -0.00359533 -0.0027915
-0.000414764 0.00096977 0.00182481
-0.00736983 -0.00158031 0.000148263
3.63558e-05 0.000168696 2.66827e-05
-2.34139e-05 5.05379e-05 2.02621e-05
0.0 0.0 0.0
9.67315e-05 -0.000275457 1.06257e-05
-0.00213886 0.0046502 0.00101489
-9.27506e-05 -4.56484e-05 5.57426e-05
0.00413487 -0.000141711 -0.000651653
0.000117992 -0.00372068 0.00219913
0.0 0.0 0.0
-6.62058e-05 -4.05343e-05 -9.48325e-05
-8.0244e-06 1.06533e-05 -7.25073e-05
0.00859659 0.000722384 0.00264774
-0.00521977 0.0030606 -0.00543418
0.0 0.0 0.0
-3.88609e-05 0.000181277 -0.000186607
6.93598e-05 -6.43131e-05 6.57855e-05
6.73778e-05 0.000171251 -2.89279e-05
-0.000133087 0.000106761 -3.73084e-05
1.28214e-05 3.01257e-06 -2.66116e-05
3.40993e-05 -0.000109297 3.22241e-05
-0.000101477 -6.19544e-05 -3.29623e-06
4.59429e-05 -3.10753e-05 6.19809e-05
-0.000589269 0.000690124 -0.00045963
-0.00355137 -0.00317671 0.0010808
9.27506e-05 4.56484e-05 -5.57426e-05
0.0 0.0 0.0
0.00108001 0.00260084 -0.00223312
0.0 0.0 0.0
-0.000102513 0.000928803 0.00391581
-0.00265653 -0.00234658 -0.00114545
0.0 0.0 0.0
0.0 0.0 0.0
0.0 0.0 0.0
0.0 0.0 0.0
-3.02169e-06 -8.26044e-05 -5.93617e-05
0.0 0.0 0.0
0.0 0.0 0.0
-3.53504e-05 -2.24752e-05 -5.56314e-05
VECTORS omega float
0.854569 -0.702484 -0.680262
0.0 0.0 0.0
-0.532376 -1.27292 1.25435
0.736529 0.279657 0.975099
0.0 0.0 0.0
1.76604 0.491929 -0.826226
-0.0302237 0.237666 -0.390894
0.0 0.0 0.0
1.31767 0.0502878 -1.45088
1.14182 -0.119702 0.243384
0.0 0.0 0.0
0.0 0.0 0.0
0.0 0.0 0.0
-0.769896 -0.349601 1.74576
0.490208 0.34387 -0.680376
0.0 0.0 0.0
-0.182043 0.390013 -0.0192946
-0.0988432 -0.888277 0.546915
-0.563909 0.265168 0.177662
-0.180685 -1.38728 0.985617
1.22087 -0.0085079 -0.721672
-2.30549 -2.08645 0.939821
0.699337 0.451883 -2.39105
-0.38005 0.747008 1.14139
-0.717527 -0.802094 0.206554
-2.3732 -1.82372 0.149172
-0.725757 3.30678 -0.0514734
0.702022 -1.0042 -0.820489
0.0 0.0 0.0
-0.623142 -2.07522 1.73871
-0.0668983 0.113163 0.148384
0.172571 -0.114268 0.642375
1.30802 -0.0415582 0.528058
-1.32541 -0.729968 0.420302
-0.117137 0.0701491 -0.409347
0.0 0.0 0.0
0.572772 -0.321745 -1.4254
0.306421 -0.242845 -0.332781
1.07761 -0.235869 -2.19226
-0.361979 -0.391471 0.34608
1.1924 0.76371 -0.335822
-0.0283681 0.957969 1.03901
-0.39289 -0.0237226 0.611804
-0.821551 0.448334 -0.83644
-1.29907 2.9643 -2.49877
-1.28764 -1.21237 -3.14183
-1.22781 2.10569 -0.650449
2.40845 -2.09312 4.0761
1.0656 -0.382327 -0.309275
-1.09368 -0.562923 0.42064
-2.95039 -0.270079 1.44462
0.996091 -0.683825 -0.0661793
-0.355649 -0.554578 0.804398
0.147559 -0.403347 0.483382
0.0 0.0 0.0
0.497547 -0.128145 1.25524
0.0 0.0 0.0
-1.6063 -0.161035 0.246177
-0.185171 0.886856 1.06403
0.127638 -0.0513225 -0.664922
-0.188403 0.00345129 -0.772598
-2.20738 0.129421 0.237991
0.730563 0.026191 0.385009
-1.01591 -1.8759 1.11764
0.175161 -0.053765 0.0656959
0.0 0.0 0.0
-0.468346 0.418642 0.362722
1.05897 0.506232 0.0564376
1.1133 0.56641 -0.149237
0.0 0.0 0.0
2.30002e-16 -1.60657e-15 -1.32419e-16
1.50678e-15 -1.05252e-14 -8.67718e-16
-0.0797969 -0.169026 -2.14578
-0.733173 -0.257314 0.354293
0.0 0.0 0.0
-1.59173 0.38859 1.4805
0.68596 -0.332917 -1.35389
-0.171986 1.27303 -0.281873
0.14303 -0.0382439 0.85966
0.0 0.0 0.0
0.0555844 -0.246776 -0.241953
0.0 0.0 0.0
0.0632081 0.546069 -0.146177
0.0 0.0 0.0
0.0576832 1.48668 -0.788401
0.0 0.0 0.0
0.326393 -0.41744 0.869922
0.304807 -1.20278 -0.233545
3.82101 -2.10622 0.378222
1.61677 1.52701 -1.7103
-0.592909 -0.858342 -0.15544
0.114158 0.0624812 1.13573
-0.37678 -0.0748482 1.21892
0.354271 -3.53175 3.43486
0.254535 -0.0841832 -0.190024
0.718985 0.648505 -0.527243
-1.71779 -2.06808 -0.21642
0.0 0.0 0.0
-0.443763 -1.95352 -0.237511
0.881877 0.696457 0.776186
0.211632 -0.0984535 -0.148304
0.983975 0.414118 1.06927
0.654922 -0.502495 -0.640698
-0.771535 -0.490363 -0.15313
-0.488304 2.36232 0.171146
-0.408359 -0.854973 0.698247
0.0 0.0 0.0
-0.827216 0.925678 -0.728809
0.0 0.0 0.0
-0.479151 0.617983 0.032613
-0.751729 1.65441 -0.506006
0.0 0.0 0.0
1.00564 -0.749602 0.562306
0.0 0.0 0.0
0.131637 -0.503294 0.386704
0.649645 0.0645428 -0.973605
0.42098 -0.170087 -1.77612
0.0 0.0 0.0
-0.699481 -0.507671 -0.0160882
-0.916455 1.88503 -2.19311
0.1137 0.229942 -0.00581164
0.998262 5.24643 1.41832
-3.6008 -8.95558 1.14527
-0.789972 0.623953 1.3634
2.20986 0.936373 -0.161191
-0.127326 -0.11864 -1.15414
0.522447 -1.75377 -0.537117
0.0 0.0 0.0
0.0 0.0 0.0
0.123136 1.22935 0.593831
-0.427138 -2.49697 0.107907
-9.98608e-05 1.79823 -0.888973
-0.772863 1.23147 0.116343
0.0 0.0 0.0
0.0 0.0 0.0
-0.720532 -0.731273 0.112135
-0.588641 -0.0655116 0.198635
-0.0348681 -0.575865 0.0071051
-1.1064 0.572908 0.226096
0.691882 -0.580248 -0.329035
-0.418827 -0.706509 0.869009
-1.80625e-16 0.118252 -0.00884032
-0.796409 -0.962761 -0.427386
0.611088 1.94022 0.869722
2.90118 4.21354 -3.02564
-0.0890708 -1.3677 0.812075
0.224506 -0.201263 -0.131645
-0.709247 -0.298035 -0.186509
0.0 0.0 0.0
0.698276 -0.0487775 -0.622689
0.0 0.0 0.0
0.0 0.0 0.0
-0.0195751 0.857294 0.127434
0.0 0.0 0.0
-0.521827 -0.841884 -0.786985
0.0 0.0 0.0
-0.208893 0.0348298 -0.107895
0.0 0.0 0.0
0.692789 -1.49315 -1.14401
0.722526 -1.45542 0.617438
2.416 2.87891 -0.217973
2.7074e-19 2.9195e-18 1.50609e-18
-0.0805849 -0.171669 0.495161
-0.260995 0.670457 -0.363341
-1.72349 -0.952455 -1.06844
0.985093 -0.201382 1.81485
-1.18366e-15 -0.72706 0.0543537
2.2688e-14 -7.28962e-15 -3.5179e-15
0.598206 -0.189767 0.0459576
0.699358 -0.434656 -0.128066
0.433205 -1.04796 -0.144338
0.0 0.0 0.0
0.0 0.0 0.0
0.104809 0.666396 -0.502319
-1.1564 3.24486 -0.530439
-0.312153 -0.312174 0.00013803
-0.981077 1.03674 -0.359167
0.114587 -1.28841 0.750054
-4.36736 0.933571 2.51132
-2.11796 0.226698 -1.52043
0.0 0.0 0.0
0.533868 0.912529 -0.415748
1.85044 -2.41403 -0.661869
5.43549 1.59591 0.140455
0.756239 0.372378 0.767131
-0.894817 -0.0890253 -0.573173
-0.234653 0.390418 -0.797884
0.483686 -0.614256 -0.869636
1.77356e-18 1.91277e-17 9.86773e-18
-0.305087 1.17558 -0.0892513
-0.0251445 -0.362708 0.0811544
-0.163281 0.901965 -0.403492
-0.353758 -1.22202 0.935883
-0.22355 0.310755 -0.451125
3.46298e-15 -1.11262e-15 -5.3698e-16
0.0 0.0 0.0
-0.16275 0.072614 -0.0734879
-0.430939 1.44499 0.15271
-0.192803 0.131413 0.0674319
-0.127325 -0.109164 0.123576
0.0 0.0 0.0
1.412 0.0740689 1.85683
-0.437193 -0.808263 -0.0151226
0.0 0.0 0.0
0.648314 0.720779 0.116061
3.06044 -2.89751 0.349097
-0.675747 -1.46799 2.42099
-0.258866 0.0585739 0.241153
-0.571212 -0.167559 0.248866
0.0 0.0 0.0
0.0 0.0 0.0
-0.985363 0.82873 -0.292313
0.00430474 1.32924 1.3213
0.147036 -0.587204 1.23375
-0.405529 4.3249 -0.198918
0.403169 0.436953 -0.862245
-0.307812 0.129492 -0.429347
-0.353997 -0.960959 -0.201191
0.775645 0.481939 0.0364887
0.550275 -0.857146 0.522055
-0.651326 -0.250246 -0.156507
-0.518087 -1.76153 -0.923285
-0.00792427 -0.622429 -0.788389
0.0 0.0 0.0
0.280156 0.0398059 -0.192637
0.120291 -0.34362 0.0347088
-0.00570691 -1.30456 -0.946724
1.00886 -0.171682 0.371993
-0.453853 0.375176 -0.523391
1.08508 -1.32632 -0.750699
0.990365 -0.741526 -0.233923
8.64053e-16 -1.0664e-16 -6.55136e-17
5.66111e-15 -6.98728e-16 -4.29323e-16
0.122296 -0.138217 0.404561
0.0 0.0 0.0
-0.812254 2.57459 -4.05432
-1.11845 -1.824 1.78392
0.516979 -0.529919 0.381941
0.0 0.0 0.0
-0.487762 -0.135583 0.418526
-0.365053 0.270351 0.338399
0.767734 0.804951 -0.457316
-1.323e-14 2.53709e-14 -9.57356e-15
0.415352 0.455779 -0.241453
0.455808 -0.840341 -0.111378
0.162686 -1.45203 -0.919885
-0.393685 2.49694 -0.744028
0.0 0.0 0.0
-0.514325 -0.680631 3.34616
-1.05839 -0.461776 0.641366
-0.461898 -0.449268 0.872379
-0.814006 0.826317 -1.44323
-0.161494 -0.421115 -0.140823
-0.783812 -1.89648 -2.67471
-1.64105 -0.344359 -0.526711
-0.327498 -0.0877557 1.11836
0.0 0.0 0.0
-0.458003 1.18329 0.594533
-0.204502 -0.216364 -0.119785
-0.031794 -0.100296 -0.0532652
1.23853 0.38551 -2.091
0.64188 0.0997804 -0.210478
1.09166 0.209646 1.67781
-1.45226 0.153355 1.08563
0.249543 -0.438704 -0.196745
-1.323e-14 2.53709e-14 -9.57356e-15
-1.2443 0.0244094 -0.318884
-0.349939 0.37218 -0.0955963
0.0 0.0 0.0
0.884437 0.31662 -1.21387
4.02452 -3.75273 -2.83292
0.106477 0.203361 -1.86822
0.00845352 2.01907 5.82046
-0.99657 -0.208058 2.37371
-0.293027 -0.149464 1.50108
-0.767071 -1.85644 0.0117593
2.31056 2.02455 -2.27851
0.511613 0.556037 0.23903
0.226992 0.170113 0.410587
0.0 0.0 0.0
0.496274 -0.4195 -0.191276
-0.627682 0.682263 -0.488092
0.204542 0.216406 0.119808
3.99092e-05 4.2224e-05 2.33764e-05
0.0 0.0 0.0
-0.986216 -1.00647 0.848778
0.0 0.0 0.0
-0.145524 -0.0240462 0.0849658
0.881946 -0.199169 0.384443
-0.137968 -0.0538022 -0.754606
-0.00995561 -0.00279842 0.00420646
-4.59397e-15 -6.89169e-15 -5.04163e-16
1.3725 -1.17499 -0.748912
0.431338 0.0988675 -0.189138
0.440434 -0.244092 1.61896
0.0 0.0 0.0
1.96871 -0.347648 -2.12684
0.209979 -0.29638 -1.92681
2.04497 1.98779 -2.512
-0.123209 -0.0295778 0.354875
0.280036 0.0731478 0.109012
0.0 0.0 0.0
3.08171e-05 7.398e-06 -8.87614e-05
0.0107474 0.012644 0.319491
-3.5131e-16 7.20724e-16 5.66265e-18
-0.514662 -0.206252 0.157972
-2.47733 1.24437 1.76544
0.0 0.0 0.0
0.45683 0.0403408 -0.339948
-4.59397e-15 -6.89169e-15 -5.04163e-16
0.0455216 1.073 0.378625
0.131592 -0.923887 1.50453
0.0 0.0 0.0
-0.0296462 0.537729 -0.710286
-0.405356 -0.244301 0.259384
1.49744e-06 -2.00634e-06 -8.38963e-06
0.12324 0.0295852 -0.354964
-0.381525 -0.0373861 0.301835
0.0373714 -0.050072 -0.209379
-0.0373552 0.0500503 0.209288
-0.0554407 0.00642752 -0.235595
0.795435 0.242293 -0.730351
1.68576 -1.04159 -0.361077
-2.30219e-15 4.72267e-15 3.68327e-17
0.0 0.0 0.0
1.93105 -0.217445 0.560067
0.0 0.0 0.0
0.110732 0.800878 -0.0725302
-0.998018 0.0890947 -0.470034
0.0 0.0 0.0
0.0 0.0 0.0
0.0 0.0 0.0
0.0 0.0 0.0
0.394185 -0.190987 0.275739
0.0 0.0 0.0
0.0 0.0 0.0
0.60612 0.116961 -0.428418
VECTORS v float
-0.00560232 -0.0075027 0.00940536
0.0 0.0 0.00366664
-0.00571156 -0.00799892 -0.0105483
0.00816627 -0.00802673 -0.00833994
0.0 0.0 0.0
-0.00461632 0.000490073 -0.00289722
0.00965959 -0.0168557 -0.0140354
0.0 0.0 0.0
0.000340968 -0.011404 0.00962664
0.00472498 0.00716845 -0.0188813
0.0 0.0 0.0
0.0 0.0 0.0
0.0 0.0 0.0
-0.00712158 0.00623663 -0.00650144
-0.0166831 0.00866044 -0.0084326
0.0 0.0 0.0
-0.00267987 0.000253527 -0.00521213
-0.0232758 -0.00606475 -0.00777882
0.000609445 -0.0095316 -0.00109053
0.00631434 3.65698e-06 0.00116196
-0.0115703 -0.00454761 -0.00011788
0.00560939 -0.006206 -2.66864e-05
-0.0116974 0.0107368 -0.00539318
0.00582054 -0.00980719 -0.00785201
-0.00476272 -0.00363125 -0.0144984
-0.00156026 0.00272734 0.0096431
0.0206308 -0.00777886 0.0129895
0.00561774 0.00437711 -0.00659585
0.0 0.0 0.0
0.0117253 -0.000942931 0.0128014
-0.0012873 -0.00370662 0.00031768
0.00601302 0.0185029 -0.00019737
-0.0100947 0.00419767 -0.0091573
0.00318963 0.00906782 -0.00149227
-0.00241692 0.00539561 0.0016156
0.0 0.0 0.0
0.0116545 0.0128011 0.00152826
-0.0104861 0.00354709 -0.00345535
-4.41571e-06 -0.0121188 0.00130004
0.0022084 -0.00222317 0.00381611
-0.000314795 -0.00192311 -0.00548461
0.0034196 -0.0107173 0.0229037
0.0109369 -0.00983086 0.00619094
0.0120481 0.00355017 -0.0039589
-0.0233452 0.00879748 -0.000976334
0.0100426 -0.0107095 0.0109346
0.0235692 -0.0315437 -0.00171186
0.0290803 -0.0129352 -0.0069485
0.000223551 0.0114453 -0.00904553
0.000166363 0.00508544 -0.0104726
0.0168349 0.0145113 -0.00384798
-0.00825046 -0.0122829 0.00399854
-0.00422033 -0.00966854 -0.00696892
0.00892447 -0.00111761 -0.00365663
0.0 0.0 0.0
0.0136864 0.000700922 -0.00538596
0.0 0.0 0.0
-0.00395752 -0.00434882 -0.00119969
-0.00284603 0.00693893 -0.00222353
0.0056353 0.0076452 -0.00357476
0.00530967 -0.0113667 0.000479393
-0.00132869 0.00989392 0.00748597
-0.00782228 -0.0127139 0.0158035
0.000239969 0.0134528 -0.00328149
0.00519617 0.00291231 -0.000513752
0.0 0.0 0.0
-0.00192175 -0.00192818 -0.000238275
-0.00263425 0.00425276 0.000420257
-0.00538302 -0.0100018 -0.00508663
0.0 0.0 0.0
-0.00180606 -0.000287929 0.000356284
0.00739764 0.00117936 -0.00145934
-0.00418098 0.00164334 -0.00529774
0.00631883 -0.00937834 -0.00391552
0.0 0.0 0.0
-0.00708405 0.00118423 -0.00791458
-0.00223236 0.00749586 -0.00530986
-0.0103964 -0.00119477 0.000996024
-0.00392859 0.00456286 -0.00890968
0.0 0.0 0.0
0.0038237 -0.00107916 0.00298566
0.0 0.0 0.0
-0.00110622 -0.00587637 -0.000120145
0.0 -0.00365907 0.0
-0.00887853 -0.00959604 0.00193112
0.0 0.0 0.0
-0.00433586 -0.00287455 -0.00618199
-0.00462422 -0.00342142 -0.00478278
-0.00425042 0.00250094 0.00421691
0.00602249 0.0107641 0.00231928
0.00463395 -0.00289276 -0.00146292
-0.00328442 -0.00562768 0.000640223
0.00314717 0.0120248 0.00453834
0.00546821 -0.00813339 0.00703359
-0.00472127 0.00363118 -0.00786778
-0.00598122 0.00224249 0.00429355
-0.0133223 -0.00657559 0.00135267
0.0 0.0 0.0
-0.0127569 -0.00185173 -0.00019673
-0.00523777 -0.000531037 0.00685837
-0.00163124 -0.00953547 0.00400434
-0.00657646 0.00767863 0.00307863
0.00329463 0.00691371 0.00399039
-0.0010195 -0.00134624 0.00943695
0.0143861 0.002719 -0.00368013
0.0253206 0.00830764 -0.0075166
0.0 0.00365908 0.0
0.00195042 -0.00189537 0.0139998
0.0 0.0 0.0
-0.00211461 -0.00195211 0.00581375
-0.00420909 -0.0124438 0.00590487
0.0 0.0 0.0
0.00195826 -0.00958251 -0.00629019
0.0 0.0 0.0
0.0043581 -0.00318567 -0.00563015
0.00986929 0.000671274 0.00241672
0.0011631 -0.00633254 0.000886739
0.0 0.0 0.0
0.0164798 -0.00864956 0.00867944
-0.00548095 0.00775572 0.0177808
0.00252558 -0.00129341 -0.00179501
0.0027694 0.0007157 0.00573132
0.00456617 0.0170481 0.0089822
-0.00779098 0.0142512 0.00924682
-0.00175182 0.0270241 -0.00506851
-0.00641934 0.00633441 0.00264202
0.0125904 0.00540541 0.00118243
0.0 0.0 0.0
0.0 0.0 0.0
-0.0142103 -0.00023216 0.000941788
-0.0058235 0.00380641 0.00451637
-0.00716888 0.00164682 0.00333522
-0.00409082 -0.000926334 0.00508937
0.0 0.0 0.0
-0.00583729 0.0 0.0
-0.00327209 0.00447016 0.00837661
-0.00731013 -0.00325748 -0.00163232
-0.00565716 -0.00401259 0.00278398
-2.57299e-05 0.00458521 0.00448654
0.0118039 0.00227673 0.020949
0.00477213 0.00807669 0.00886636
0.00583515 -7.89915e-05 -0.00105663
-0.00394532 -0.00386473 0.016199
0.00510576 -0.00445986 0.0142684
-0.00698666 0.0190047 0.0294542
-0.0177205 -0.000400277 0.00811622
-0.00453416 9.43516e-05 -0.00787769
-0.00289363 0.00550896 0.00220138
0.0 0.0 0.0
-0.00318033 -0.0048993 -0.00810448
0.0 0.0 0.0
0.0 0.0 0.0
-0.000855285 -0.000644702 0.00420587
0.0 0.00584081 0.0
-0.00995202 0.00577386 -0.0200794
0.0 0.0 0.0
0.00553487 0.00608421 -0.0155488
0.0 0.0 0.0
0.00435856 0.00704479 -0.0152877
0.00931005 0.00844568 0.00312081
0.00528933 -0.000411608 -0.00124007
-0.000184011 9.75218e-05 -0.000155964
0.00155464 -0.00739223 -0.00542272
-0.0088308 0.00320327 0.0123056
0.00522709 0.0104675 0.00831756
-0.00459753 0.0156682 0.00518521
0.0108517 0.000564554 0.00755173
-0.00248412 -0.0054012 -0.00482876
0.00150737 0.00424598 -0.00294409
0.00248528 0.00590808 -0.00633547
-0.00586882 -0.000407609 -8.2008e-05
0.0 0.0 0.0
0.0 0.0 0.0
-0.00335393 0.00078502 0.000341987
0.00343043 0.00687789 -0.00495697
-0.00360082 0.00360462 -0.00174945
-0.0116782 0.0117118 -0.00512212
0.000396619 0.00673977 -0.0155901
0.00240632 -0.00168942 -0.0137617
-0.00173373 -0.00424249 -0.0128616
0.0 0.0 0.0
-0.00736221 0.0020798 -0.00489007
-0.0123623 -0.00478366 -0.00502282
-0.00856574 0.010782 -0.00806234
-0.00472371 0.00286888 -0.00881824
0.000428879 -0.0142878 0.00154867
0.00181985 0.0133061 -0.00295428
0.00870382 -0.00453053 -0.00167826
0.00075371 -0.000399449 0.000638828
0.0148409 0.00842046 -0.00146035
-0.00409781 -0.00330154 -0.00616403
0.00143488 -0.00253044 -0.00623751
-0.0140891 0.00134299 -0.0090399
0.00656065 0.00317418 -0.00454211
0.000606475 0.00131865 0.0011789
0.0 0.0 0.0
-0.00058719 -0.00141237 0.000678193
-0.00361489 -0.000850455 0.00813863
0.00701399 0.00475172 0.000675788
0.00110252 -0.00583915 0.0011386
0.0 0.0 0.0
-0.0104284 0.00357201 0.00792633
-0.00149424 0.00549627 -0.00296625
0.0 0.0 0.0
-0.00560725 0.00409918 0.00590966
0.0144367 0.0156307 0.000871951
-0.0120073 0.0173862 -0.00401359
0.00891618 -0.0167677 0.00518941
7.37886e-05 -0.00147 -0.00624211
0.0 0.0 0.0
0.0 0.0 0.0
0.00288608 -0.000652883 -0.0115837
-0.00432452 0.000150998 -0.000206898
0.00290492 0.00516412 0.00681271
-0.00342738 0.00920122 2.94821e-05
-0.00846057 0.0055172 0.00190305
0.0147501 0.00224265 -0.00274775
0.00271658 -0.00630297 0.00194581
0.00365156 0.00020614 -0.00267762
-0.000832237 0.00240577 0.00482706
-0.00310707 0.00914227 -0.015966
0.00304905 0.00132498 -0.00423821
0.00129549 0.0113043 0.00459075
0.0 0.0 0.0
0.00848413 -0.00319889 0.0120641
-0.00195622 0.000689788 -0.00165919
-0.00400235 0.00143014 0.00308134
0.00502954 -0.00100613 -0.00574964
0.00412632 -0.00831248 0.00749189
-0.000319447 0.00553387 -0.0101637
0.00616263 -0.00201123 0.00646583
-0.000145435 -0.00167771 0.000812768
0.000595702 0.0068719 -0.0033291
0.00633134 0.00235229 0.00156268
0.0 0.0 0.0
-0.00847302 -0.0065384 -0.00968964
0.00227653 -0.0136893 -0.0101855
0.00205189 0.00503023 0.00536198
0.0 0.0 0.0
-0.000321166 0.00166164 -0.00187101
-0.00306852 -0.0077327 0.00286773
0.0111655 -0.00789333 0.00483703
-0.00214141 -0.00196242 -0.00224133
0.00572073 0.00291855 0.0151249
0.00357532 0.0027408 -0.00615101
-0.00298601 -0.00138367 0.0128195
0.000619419 -0.00765141 0.00346706
0.0 0.0 0.0
-0.0212969 -0.0115281 -0.00166073
0.00705401 0.00056595 0.0120456
-0.0186005 0.00288316 -0.00774697
-0.0217631 0.00529396 -0.00810316
-0.00398311 0.00489408 -0.00944337
0.00530107 0.0177782 -0.00710691
-0.0104409 -0.00865841 0.00274441
-0.00129725 -0.00562052 0.00644356
0.0 0.0 0.0
-0.0189168 -0.00529329 5.09878e-05
0.00257077 -0.00191199 -0.000935368
-0.0102638 -0.000505809 0.00706681
-0.00881481 -0.00477479 -0.0111702
0.00132947 0.00253205 0.00525491
0.0052549 -0.0132139 -0.00364889
-0.00422857 -0.00373416 -0.00483593
0.0010724 0.00364877 0.00138619
0.00214141 0.00196242 0.00224133
0.00061068 0.00171866 -0.00223234
0.00747876 0.00754296 0.0014625
0.0 0.0 0.0
0.00705006 -0.00864554 0.00329378
-0.0208288 -0.0301547 -0.00406945
-0.00973844 -0.00298269 -0.00110889
-0.0203793 -0.0140174 0.0134644
-0.0116487 0.0221968 -0.0113386
-0.0114066 0.00954153 0.000282928
-0.00411336 0.00167396 -0.00828686
-0.032496 0.0281331 -0.00792383
0.000457203 -0.000583868 -0.00550032
-0.0101179 -0.0165317 0.0124095
0.0 0.0 0.0
0.00569906 0.00747287 -0.00158378
0.000662796 0.00412212 0.00526749
4.21945e-06 -0.00161971 0.00291843
-0.00257499 0.00353169 -0.00198306
0.0 0.0 0.0
0.0078764 -0.00588731 0.00919603
0.0 0.0 0.0
0.00077223 -0.00768682 -0.00085066
-0.014824 -0.00403964 0.000910119
0.00572303 0.015984 -0.00237569
-0.00166485 0.00384103 -0.00178764
-0.00039933 0.000530157 -0.00360829
-0.00173985 0.00812844 0.0032355
-0.000608698 0.011345 0.00454198
-0.00447809 -0.00965024 0.00539972
0.0 0.0 0.0
-0.00432862 0.019189 -0.0035998
0.00574258 -0.00205558 -0.00766937
0.00189175 0.0294487 0.000511402
-0.00301384 -0.00507036 -0.00146898
0.00281194 -0.00775724 -0.0020063
0.0 0.0 0.0
-0.0024695 0.00703532 -0.000271012
-0.00273241 0.00741669 0.000270323
0.00147669 0.000726774 -0.000887485
-0.018181 0.00283062 0.0116306
-0.00617456 0.0103746 0.00403927
0.0 0.0 0.0
0.00426488 0.00440731 0.0062645
0.00039933 -0.000530157 0.00360829
-0.00412775 0.00539847 0.00151376
0.0108413 0.000712845 0.00642775
0.0 0.0 0.0
0.00835549 -0.0102041 0.0017927
0.00587364 0.00233055 0.0021728
-0.000945462 -0.00240279 0.000405864
0.00548334 -0.00196496 0.00173999
-0.00183705 -0.00199167 -0.000229455
-0.00298542 0.00663978 -0.00212073
0.00685803 0.00320206 0.000458311
-0.00326686 0.00532882 -0.00221209
0.00522019 0.00226289 0.0064414
0.00311387 0.0041374 0.0156312
-0.00604854 -0.00297687 0.00363514
0.0 0.0 0.0
-0.000284289 0.00386772 0.00248818
0.0 0.0 0.0
-0.00136291 0.000959666 0.00860048
-0.00631775 -0.000555143 0.0133813
0.0 0.0 0.0
0.0 0.0 0.0
0.0 0.0 0.0
0.0 0.0 0.0
0.00107438 0.0111682 0.00619737
0.0 0.0 0.0
0.0 0.0 0.0
0.00229197 0.00442009 0.00444785
SCALARS radius float 1
LOOKUP_TABLE default
0.00889406
0.00555879
0.00555879
0.00555879
0.00555879
0.00555879
0.00555879
0.00555879
0.00889406
0.00555879
0.00555879
0.00555879
0.00555879
0.00555879
0.00555879
0.00555879
0.00889406
0.00889406
0.00889406
0.00555879
0.00555879
0.00555879
0.00889406
0.00889406
0.00555879
0.00555879
0.00555879
0.00889406
0.00555879
0.00555879
0.00889406
0.00889406
0.00889406
0.00889406
0.00555879
0.00555879
0.00555879
0.00555879
0.00555879
0.00555879
0.00555879
0.00889406
0.00555879
0.00889406
0.00555879
0.00555879
0.00889406
0.00555879
0.00555879
0.00889406
0.00555879
0.00555879
0.00889406
0.00555879
0.00555879
0.00555879
0.00555879
0.00889406
0.00555879
0.00555879
0.00889406
0.00889406
0.00889406
0.00555879
0.00889406
0.00555879
0.00889406
0.00889406
0.00889406
0.00555879
0.00889406
0.00555879
0.00555879
0.00889406
0.00555879
0.00555879
0.00555879
0.00555879
0.00889406
0.00555879
0.00889406
0.00555879
0.00889406
0.00555879
0.00555879
0.00555879
0.00889406
0.00889406
0.00555879
0.00555879
0.00555879
0.00555879
0.00555879
0.00889406
0.00889406
0.00555879
0.00555879
0.00555879
0.00555879
0.00889406
0.00555879
0.00555879
0.00889406
0.00555879
0.00555879
0.00555879
0.00555879
0.00555879
0.00555879
0.00889406
0.00889406
0.00555879
0.00555879
0.00555879
0.00889406
0.00555879
0.00555879
0.00555879
0.00889406
0.00889406
0.00889406
0.00555879
0.00555879
0.00889406
0.00889406
0.00889406
0.00555879
0.00555879
0.00555879
0.00555879
0.00555879
0.00555879
0.00555879
0.00555879
0.00889406
0.00889406
0.00889406
0.00889406
0.00555879
0.00555879
0.00889406
0.00889406
0.00555879
0.00555879
0.00555879
0.00555879
0.00555879
0.00889406
0.00555879
0.00555879
0.00555879
0.00555879
0.00555879
0.00889406
0.00555879
0.00889406
0.00555879
0.00555879
0.00555879
0.00555879
0.00555879
0.00889406
0.00555879
0.00889406
0.00555879
0.00555879
0.00555879
0.00555879
0.00889406
0.00555879
0.00889406
0.00555879
0.00555879
0.00555879
0.00555879
0.00555879
0.00889406
0.00555879
0.00555879
0.00555879
0.00555879
0.00555879
0.00555879
0.00555879
0.00555879
0.00555879
0.00889406
0.00889406
0.00555879
0.00889406
0.00889406
0.00889406
0.00889406
0.00889406
0.00889406
0.00889406
0.00889406
0.00555879
0.00555879
0.00889406
0.00555879
0.00555879
0.00555879
0.00555879
0.00555879
0.00555879
0.00889406
0.00889406
0.00555879
0.00889406
0.00555879
0.00889406
0.00555879
0.00889406
0.00555879
0.00889406
0.00555879
0.00555879
0.00555879
0.00555879
0.00555879
0.00555879
0.00889406
0.00555879
0.00889406
0.00889406
0.00555879
0.00889406
0.00555879
0.00889406
0.00889406
0.00889406
0.00555879
0.00889406
0.00555879
0.00555879
0.00889406
0.00889406
0.00889406
0.00555879
0.00555879
0.00555879
0.00555879
0.00889406
0.00889406
0.00555879
0.00555879
0.00555879
0.00555879
0.00889406
0.00889406
0.00889406
0.00555879
0.00889406
0.00889406
0.00555879
0.00555879
0.00889406
0.00555879
0.00555879
0.00889406
0.00555879
0.00555879
0.00555879
0.00555879
0.00555879
0.00555879
0.00555879
0.00555879
0.00555879
0.00555879
0.00889406
0.00555879
0.00889406
0.00555879
0.00555879
0.00555879
0.00889406
0.00889406
0.00555879
0.00555879
0.00555879
0.00555879
0.00555879
0.00555879
0.00889406
0.00555879
0.00889406
0.00889406
0.00889406
0.00889406
0.00555879
0.00555879
0.00555879
0.00555879
0.00555879
0.00889406
0.00555879
0.00889406
0.00889406
0.00555879
0.00889406
0.00889406
0.00889406
0.00889406
0.00889406
0.00889406
0.00555879
0.00555879
0.00555879
0.00889406
0.00889406
0.00555879
0.00889406
0.00889406
0.00889406
0.00889406
0.00555879
0.00555879
0.00555879
0.00555879
0.00555879
0.00889406
0.00555879
0.00555879
0.00555879
0.00555879
0.00555879
0.00889406
0.00555879
0.00555879
0.00555879
0.00555879
0.00555879
0.00555879
0.00555879
0.00555879
SCALARS type float 1
LOOKUP_TABLE default
1.0
1.0
1.0
1.0
1.0
1.0
1.0
1.0
1.0
1.0
1.0
1.0
1.0
1.0
1.0
1.0
1.0
1.0
1.0
1.0
1.0
1.0
1.0
1.0
1.0
1.0
1.0
1.0
1.0
1.0
1.0
1.0
1.0
1.0
1.0
1.0
1.0
1.0
1.0
1.0
1.0
1.0
1.0
1.0
1.0
1.0
1.0
1.0
1.0
1.0
1.0
1.0
1.0
1.0
1.0
1.0
1.0
1.0
1.0
1.0
1.0
1.0
1.0
1.0
1.0
1.0
1.0
1.0
1.0
1.0
1.0
1.0
1.0
1.0
1.0
1.0
1.0
1.0
1.0
1.0
1.0
1.0
1.0
1.0
1.0
1.0
1.0
1.0
1.0
1.0
1.0
1.0
1.0
1.0
1.0
1.0
1.0
1.0
1.0
1.0
1.0
1.0
1.0
1.0
1.0
1.0
1.0
1.0
1.0
1.0
1.0
1.0
1.0
1.0
1.0
1.0
1.0
1.0
1.0
1.0
1.0
1.0
1.0
1.0
1.0
1.0
1.0
1.0
1.0
1.0
1.0
1.0
1.0
1.0
1.0
1.0
1.0
1.0
1.0
1.0
1.0
1.0
1.0
1.0
1.0
1.0
1.0
1.0
1.0
1.0
1.0
1.0
1.0
1.0
1.0
1.0
1.0
1.0
1.0
1.0
1.0
1.0
1.0
1.0
1.0
1.0
1.0
1.0
1.0
1.0
1.0
1.0
1.0
1.0
1.0
1.0
1.0
1.0
1.0
1.0
1.0
1.0
1.0
1.0
1.0
1.0
1.0
1.0
1.0
1.0
1.0
1.0
1.0
1.0
1.0
1.0
1.0
1.0
1.0
1.0
1.0
1.0
1.0
1.0
1.0
1.0
1.0
1.0
1.0
1.0
1.0
1.0
1.0
1.0
1.0
1.0
1.0
1.0
1.0
1.0
1.0
1.0
1.0
1.0
1.0
1.0
1.0
1.0
1.0
1.0
1.0
1.0
1.0
1.0
1.0
1.0
1.0
1.0
1.0
1.0
1.0
1.0
1.0
1.0
1.0
1.0
1.0
1.0
1.0
1.0
1.0
1.0
1.0
1.0
1.0
1.0
1.0
1.0
1.0
1.0
1.0
1.0
1.0
1.0
1.0
1.0
1.0
1.0
1.0
1.0
1.0
1.0
1.0
1.0
1.0
1.0
1.0
1.0
1.0
1.0
1.0
1.0
1.0
1.0
1.0
1.0
1.0
1.0
1.0
1.0
1.0
1.0
1.0
1.0
1.0
1.0
1.0
1.0
1.0
1.0
1.0
1.0
1.0
1.0
1.0
1.0
1.0
1.0
1.0
1.0
1.0
1.0
1.0
1.0
1.0
1.0
1.0
1.0
1.0
1.0
1.0
1.0
1.0
1.0
1.0
1.0
1.0
1.0
1.0
1.0
1.0
1.0
1.0
1.0
1.0
1.0
1.0
SCALARS id float 1
LOOKUP_TABLE default
50.0
138.0
304.0
141.0
297.0
293.0
325.0
285.0
10.0
241.0
126.0
240.0
207.0
140.0
197.0
258.0
92.0
98.0
60.0
154.0
188.0
298.0
106.0
80.0
183.0
277.0
171.0
41.0
180.0
213.0
23.0
58.0
32.0
6.0
327.0
291.0
174.0
158.0
128.0
264.0
234.0
89.0
263.0
37.0
328.0
331.0
48.0
329.0
172.0
88.0
164.0
200.0
9.0
305.0
274.0
186.0
135.0
40.0
173.0
246.0
61.0
38.0
119.0
225.0
122.0
260.0
121.0
64.0
84.0
288.0
81.0
193.0
205.0
47.0
149.0
257.0
192.0
232.0
34.0
229.0
94.0
143.0
102.0
198.0
278.0
137.0
70.0
85.0
227.0
199.0
321.0
259.0
130.0
62.0
79.0
169.0
127.0
265.0
273.0
12.0
184.0
142.0
72.0
230.0
247.0
163.0
295.0
222.0
292.0
17.0
44.0
159.0
314.0
195.0
73.0
153.0
322.0
216.0
2.0
30.0
35.0
239.0
275.0
103.0
66.0
13.0
253.0
296.0
252.0
144.0
160.0
238.0
203.0
212.0
22.0
75.0
49.0
100.0
228.0
249.0
55.0
99.0
319.0
156.0
245.0
301.0
308.0
105.0
201.0
217.0
276.0
248.0
155.0
18.0
294.0
8.0
133.0
250.0
233.0
152.0
175.0
33.0
208.0
31.0
147.0
269.0
317.0
267.0
107.0
204.0
19.0
157.0
236.0
324.0
306.0
151.0
93.0
165.0
290.0
261.0
145.0
286.0
220.0
280.0
333.0
182.0
77.0
101.0
146.0
4.0
82.0
118.0
45.0
117.0
69.0
26.0
24.0
237.0
336.0
97.0
326.0
307.0
132.0
210.0
181.0
310.0
65.0
5.0
206.0
111.0
272.0
108.0
161.0
115.0
242.0
95.0
166.0
179.0
221.0
224.0
302.0
231.0
46.0
185.0
39.0
29.0
189.0
68.0
282.0
28.0
83.0
104.0
134.0
25.0
279.0
337.0
3.0
74.0
42.0
177.0
303.0
202.0
124.0
51.0
114.0
311.0
167.0
148.0
300.0
14.0
112.0
91.0
194.0
116.0
53.0
309.0
136.0
56.0
235.0
176.0
20.0
196.0
330.0
215.0
332.0
218.0
335.0
318.0
170.0
131.0
251.0
21.0
271.0
27.0
191.0
315.0
255.0
52.0
59.0
223.0
190.0
123.0
316.0
281.0
139.0
76.0
162.0
96.0
71.0
43.0
63.0
262.0
270.0
209.0
268.0
168.0
78.0
214.0
7.0
113.0
334.0
86.0
15.0
120.0
87.0
67.0
54.0
178.0
125.0
219.0
16.0
110.0
243.0
90.0
11.0
36.0
1.0
312.0
226.0
150.0
256.0
284.0
109.0
323.0
211.0
320.0
254.0
289.0
57.0
266.0
187.0
299.0
129.0
283.0
287.0
313.0
244.0

