# vtk DataFile Version 2.0
Generated by lpp.py
ASCII
DATASET POLYDATA
POINTS 337 float
-0.0275577 -0.0408244 0.00890405
-0.0135145 -0.0389568 0.00556685
-0.020408 -0.0271452 0.00691914
0.00471255 -0.0300814 0.00751433
0.0398506 -0.0305555 0.00586926
-0.0112992 -0.0167953 0.00557008
0.0328698 -0.0179885 0.00669163
0.0162128 -0.0106887 0.00706151
-0.0172656 -0.00172528 0.00890961
0.00514348 -0.0021716 0.00731451
-0.0326047 0.0126468 0.00663443
0.0430248 0.0182279 0.0091041
-0.00808455 0.0229045 0.00911745
0.0154839 0.0311067 0.00880105
0.00848297 0.0397194 0.00787271
0.010386 -0.0423478 0.0159318
0.0267282 -0.0343651 0.0138939
-0.0331716 -0.0227659 0.0156312
-0.00539652 -0.0245505 0.0162709
0.0124525 -0.0261273 0.0144771
-0.0190269 -0.019722 0.0151053
0.038611 -0.0201517 0.0159854
-0.0389154 -0.00605647 0.0133719
0.028009 -0.0079512 0.0159224
0.0179943 0.00250324 0.0150022
-0.0244842 0.00837876 0.016352
-0.0122946 0.011486 0.0121314
0.0305927 0.00946456 0.0131966
-0.0438616 0.0185434 0.0125122
-0.0164414 0.0209084 0.0163876
0.010393 0.0184991 0.0137678
0.0288147 0.027189 0.0128703
-0.031303 0.0407729 0.0126019
-0.0145007 0.0350976 0.014262
0.00674717 0.0320978 0.0171333
0.0405807 0.0399096 0.0147474
-0.00316707 0.0437344 0.0168143
0.016338 0.042386 0.0153004
-0.000965891 -0.0443346 0.02059
0.0310947 -0.0428355 0.0247906
-0.0424065 -0.0359886 0.0230526
-0.0187363 -0.039397 0.0243158
0.00374526 -0.0343174 0.0218014
0.0390144 -0.0308117 0.0262916
-0.0444317 -0.0165403 0.0222563
0.00406933 -0.0214279 0.0268161
0.0185622 -0.0212738 0.0272149
0.0324651 -0.0174686 0.0258792
-0.0143888 -0.0105184 0.0233138
0.00182262 -0.00866153 0.0198174
0.0397188 -0.00911012 0.0243544
-0.0378274 0.0129593 0.021936
-0.0101858 0.00556454 0.026326
0.00367257 0.00561345 0.0221378
0.0427503 0.00503166 0.0256114
0.0160738 0.0210943 0.0272332
0.0404903 0.0208285 0.0218043
-0.0297432 0.0248804 0.0204931
0.0254346 0.0431947 0.0216707
0.0354072 0.0410043 0.0261133
-0.0371506 -0.0383775 0.036326
-0.0158893 -0.0229593 0.0305616
-0.000809123 -0.0312944 0.0362179
0.0279201 -0.0297641 0.0355318
-0.0411178 -0.0210206 0.0356119
-0.044214 -0.00496395 0.0312857
-0.0295142 -0.0086457 0.0282775
-0.000149458 -0.00777472 0.0374877
0.0163004 0.00162066 0.0293519
0.035527 0.00305069 0.0343188
-0.0357294 0.00886989 0.0359095
-0.0216981 0.0111066 0.0331413
-0.0114229 0.0178348 0.0339077
0.00292751 0.0174106 0.032046
0.0276205 0.0182763 0.0297583
-0.0435664 0.0285317 0.028442
-0.0360069 0.0325339 0.0355726
-0.00979636 0.0345445 0.0374839
0.00355691 0.035214 0.0319334
0.0194164 0.0321812 0.0284512
0.0408925 0.0320512 0.0360772
-0.0423548 0.0422544 0.028933
-0.0238659 0.041097 0.0287836
-0.00817251 0.0444332 0.0299486
0.00551437 -0.042369 0.0458461
-0.0165192 -0.0386639 0.0389513
0.0170254 -0.0391612 0.0376756
0.0386937 -0.0404768 0.0457941
-0.0275034 -0.0244055 0.0390319
0.0374877 -0.0270429 0.0405379
0.0114709 -0.016204 0.0393789
0.0430388 -0.014901 0.0425306
-0.0382946 -0.00940977 0.043784
0.0261738 -0.00993365 0.0386426
-0.0182086 -0.00129604 0.0425814
0.044401 -0.00386896 0.0418625
0.0114529 0.00613654 0.0422227
0.0236872 0.010405 0.0392852
-0.0328285 0.0227107 0.0397448
-0.0197765 0.0202194 0.045488
0.0380656 0.0187134 0.0409417
-0.0440932 0.0379431 0.0409912
0.0175756 0.0409143 0.0413325
-0.0270129 0.041772 0.0428972
0.0319874 0.0419329 0.0422489
0.0427318 0.0437862 0.0455808
-0.043669 -0.0444332 0.0503077
0.00158199 -0.0415021 0.0562285
-0.0436981 -0.0331715 0.0548493
0.0172358 -0.0399395 0.0554701
-0.0230447 -0.0282416 0.0522369
-0.00256619 -0.0299349 0.0511422
-0.0103775 -0.0221406 0.0487982
0.00311648 -0.021272 0.047029
0.02059 -0.0226595 0.0522416
-0.0298141 -0.00612391 0.0503875
0.00284916 -0.00995036 0.0514572
0.0423925 -0.00881857 0.0544295
0.0153245 -0.00402391 0.055855
0.0336015 0.00200152 0.0495706
-0.00138179 0.0113496 0.0524766
0.0152016 0.00994505 0.0520613
0.0393833 0.0149884 0.0522623
0.014041 0.0241879 0.0547413
0.0313998 0.0270518 0.0520267
0.00158878 0.0373141 0.049512
0.0441691 0.0406373 0.0561657
-0.0439126 -0.0397636 0.064903
-0.0332742 -0.0401625 0.0580686
-0.0195922 -0.0408756 0.0615239
-0.0092663 -0.0394093 0.0576214
0.0315332 -0.0348548 0.057049
0.0444062 -0.0380102 0.0588645
-0.011128 -0.0282328 0.0617098
0.0410965 -0.0236693 0.0590433
-0.0320587 -0.0168096 0.0625018
0.00679015 -0.0182563 0.0626076
-0.0107649 -0.00979545 0.0563487
-0.000265523 -0.00165438 0.0620953
0.0401493 0.00227082 0.0624793
-0.0290449 0.00481997 0.0598297
-0.041099 0.0175608 0.0567801
-0.0193495 0.0202201 0.0599574
-0.0097769 0.0157139 0.0634326
0.0444392 0.01839 0.061575
-0.000184705 0.0251787 0.0572038
-0.0409144 0.0333968 0.0623646
-0.0245569 0.0336407 0.0584302
-0.00681066 0.0331703 0.0641183
0.0158089 0.037309 0.0633285
-0.00227978 0.0435956 0.0651894
0.0290737 0.0419165 0.0609216
-0.0166051 -0.0423884 0.0721443
0.0290687 -0.0410965 0.072393
-0.030483 -0.031968 0.0707542
-0.00273322 -0.037306 0.072277
0.0175152 -0.0322299 0.0691628
-0.0422817 -0.0286668 0.07142
-0.0217298 -0.0252001 0.0685615
-0.0134133 -0.0180021 0.0702808
0.0151153 -0.00926089 0.0702997
0.0295009 -0.00786978 0.0684549
-0.0369103 0.00134904 0.0749237
-0.0181861 -0.00440856 0.0716178
0.00889611 -0.000260105 0.0682648
0.00311851 0.00794645 0.0730879
-0.0304054 0.0182868 0.0665113
0.00230157 0.0191532 0.0717069
0.02763 0.0181467 0.0670029
-0.00768616 0.0240996 0.0712281
0.0388681 0.0328 0.0671225
-0.0422298 0.0442849 0.0692929
-0.0182993 0.0432912 0.0678726
0.00810339 0.0428683 0.0691325
0.00914582 -0.0444344 0.0838377
0.0444352 -0.0444352 0.0798861
-0.0323178 -0.039244 0.0831338
0.0137217 -0.0354446 0.0791261
-0.00796324 -0.027804 0.0833012
0.0118451 -0.024111 0.0770943
0.0423972 -0.0302254 0.0778629
-0.0435423 -0.0162668 0.0841562
-0.0192914 -0.0203582 0.0794377
-0.00938796 -0.016512 0.0829319
-0.000501913 -0.0217554 0.0773262
-0.037582 -0.00941942 0.0776883
0.00242297 -0.00824423 0.0816285
0.0193474 -0.0134963 0.0834654
0.0397377 -0.013295 0.0771314
0.0170117 0.00397768 0.0809076
-0.0131282 0.0130853 0.0788863
0.0393832 0.0095645 0.0810071
-0.0401264 0.0150082 0.0784841
-0.0116723 0.0318282 0.0842325
0.00699666 0.0293617 0.0808334
0.0289596 0.0240201 0.0837968
-0.0343543 0.0322828 0.0752143
0.0444384 0.0331277 0.0804684
-0.0241452 0.0417744 0.0791158
0.0229565 0.0410965 0.075333
0.0374928 0.04184 0.0819333
-0.0428786 -0.0444333 0.0915654
-0.0191773 -0.0444346 0.0862938
-0.00019886 -0.0422318 0.0897616
0.0389507 -0.0409519 0.0889303
0.0131153 -0.0363337 0.0903819
0.00573527 -0.0238786 0.0902141
0.0293694 -0.0256152 0.0918238
-0.0337682 -0.020423 0.0875035
-0.0231153 0.000339705 0.0891331
-0.00434948 -0.00171879 0.0934608
0.0391946 -0.00444266 0.0932676
-0.0378105 0.00502652 0.0887067
0.00227055 0.0113473 0.0876631
-0.039563 0.01934 0.0922902
-0.0261873 0.0219235 0.0871578
0.0442021 0.0158737 0.0931113
-0.0419696 0.0301878 0.0930877
-0.0444332 0.0371236 0.0847309
-0.0302174 0.0434728 0.0882946
0.00182321 0.0438968 0.091702
0.0125682 0.0410227 0.0911576
-0.0140341 -0.0339914 0.0948945
0.0073759 -0.033247 0.10168
0.0211439 -0.0407759 0.101581
-0.0390182 -0.0292421 0.100189
-0.0296732 -0.0184741 0.0976748
-0.0102971 -0.0157689 0.0994062
0.0199968 -0.0162527 0.0976606
0.0190295 0.00291713 0.101209
-0.041096 0.00972466 0.103008
-0.0121931 0.00962159 0.10256
-0.0110672 0.0226097 0.0962682
0.0320419 0.0172194 0.100848
-0.0314915 0.0230867 0.102813
0.000340778 0.0233077 0.0982427
0.0145891 0.0252991 0.0966459
-0.017244 0.0380543 0.0999632
0.0290377 0.0372473 0.0980004
-0.0430797 0.0410768 0.0951389
-0.0425873 -0.0418337 0.106375
0.00610665 -0.0438029 0.112183
-0.0284589 -0.0396074 0.109175
-0.00484683 -0.0345615 0.110143
0.0384201 -0.0366989 0.107659
-0.02998 -0.025604 0.110896
-0.0217606 -0.0235062 0.103681
0.0223642 -0.0248157 0.109101
0.00474015 -0.0206018 0.104276
0.0356691 -0.0187162 0.106989
-0.0400885 -0.0081917 0.107855
0.0103376 -0.00908159 0.111096
-0.0274325 -0.00172784 0.103223
0.0397084 0.00267634 0.109586
0.00620694 0.0153868 0.108844
0.0206301 0.0162628 0.109701
-0.0405467 0.0314702 0.104201
-0.00854218 0.0275905 0.112182
0.0440726 0.0296249 0.112067
-0.0293221 0.0376024 0.107933
0.00413618 0.0374315 0.104447
-0.0399677 0.0431262 0.105633
0.0162535 0.044379 0.108256
0.0275611 -0.0435852 0.11431
0.0363988 -0.0444336 0.121027
-0.021959 -0.0336508 0.115978
0.00515124 -0.0367854 0.121018
0.0444438 -0.0367519 0.121332
-0.00799813 -0.0245832 0.120614
0.0025477 -0.0228492 0.115194
-0.013522 -0.017235 0.113443
-0.0242316 -0.00782787 0.115955
-0.0031341 -0.0133175 0.114257
0.0263348 -0.00549282 0.118043
-0.0351475 0.00156067 0.117456
-0.00570147 0.00146826 0.117032
0.0161112 0.0049435 0.117616
-0.0334929 0.0172506 0.11728
-0.0150939 0.0139587 0.121595
0.0436911 0.0168576 0.112701
-0.024268 0.0284061 0.117206
0.0246425 0.0245935 0.115907
0.0376163 0.0303611 0.12176
0.035756 0.0369724 0.112994
-0.00161593 0.0409847 0.118737
0.0234241 0.0410973 0.120398
-0.0233321 -0.0417958 0.13089
-0.0350663 -0.0383058 0.12308
0.0196403 -0.0363992 0.124066
0.00312613 -0.0255331 0.1299
-0.0375616 -0.0206835 0.123793
-0.00669667 -0.014297 0.125587
0.0264996 -0.0197209 0.122758
-0.0376952 -0.0077324 0.130258
-0.0161944 -0.00776413 0.127992
0.0112684 -0.0127664 0.126523
0.0411055 -0.00922626 0.127251
0.00818762 1.82832e-05 0.127777
0.030184 0.0108193 0.124072
0.00211129 0.0197264 0.126758
0.0421034 0.0172099 0.130133
-0.0352508 0.0390452 0.123829
0.00750859 0.0363849 0.13002
-0.00499247 -0.0411021 0.132868
-0.0199853 -0.0270853 0.13423
0.022105 -0.0236027 0.136209
0.0390483 -0.026397 0.131472
-0.0406748 -0.0210482 0.138434
-0.0297971 -0.0154776 0.134846
-0.00548458 -0.0159062 0.136539
-0.00572312 0.00158746 0.131508
0.019729 0.0028233 0.136072
0.039454 0.0033345 0.139293
-0.0315607 0.00902578 0.132961
-0.0410965 0.0237027 0.136268
-0.0171267 0.0253068 0.136816
0.0220445 0.0270153 0.134286
0.0379942 0.0270067 0.133472
-0.0219423 0.0383644 0.132833
-0.00444062 0.032253 0.137419
0.0363937 0.0380054 0.134162
0.00484218 -0.0413681 0.143488
0.0357931 -0.0411062 0.140952
-0.0314172 -0.0327117 0.1411
0.018716 -0.0407483 0.140783
-0.00119288 -0.0307788 0.142684
0.0223439 -0.00958404 0.143045
0.0418317 -0.00812643 0.141668
-0.0218119 -0.00427528 0.140868
-0.000849836 0.0168053 0.144333
0.0187551 0.0164007 0.143662
0.0427928 0.0188044 0.142336
0.00824837 0.0303175 0.144275
-0.04085 0.0358767 0.144096
-0.0287296 0.0419911 0.141284
0.0244268 0.0420447 0.142516
0.0415991 0.0428307 0.142743
VERTICES 337 674
1 0
1 1
1 2
1 3
1 4
1 5
1 6
1 7
1 8
1 9
1 10
1 11
1 12
1 13
1 14
1 15
1 16
1 17
1 18
1 19
1 20
1 21
1 22
1 23
1 24
1 25
1 26
1 27
1 28
1 29
1 30
1 31
1 32
1 33
1 34
1 35
1 36
1 37
1 38
1 39
1 40
1 41
1 42
1 43
1 44
1 45
1 46
1 47
1 48
1 49
1 50
1 51
1 52
1 53
1 54
1 55
1 56
1 57
1 58
1 59
1 60
1 61
1 62
1 63
1 64
1 65
1 66
1 67
1 68
1 69
1 70
1 71
1 72
1 73
1 74
1 75
1 76
1 77
1 78
1 79
1 80
1 81
1 82
1 83
1 84
1 85
1 86
1 87
1 88
1 89
1 90
1 91
1 92
1 93
1 94
1 95
1 96
1 97
1 98
1 99
1 100
1 101
1 102
1 103
1 104
1 105
1 106
1 107
1 108
1 109
1 110
1 111
1 112
1 113
1 114
1 115
1 116
1 117
1 118
1 119
1 120
1 121
1 122
1 123
1 124
1 125
1 126
1 127
1 128
1 129
1 130
1 131
1 132
1 133
1 134
1 135
1 136
1 137
1 138
1 139
1 140
1 141
1 142
1 143
1 144
1 145
1 146
1 147
1 148
1 149
1 150
1 151
1 152
1 153
1 154
1 155
1 156
1 157
1 158
1 159
1 160
1 161
1 162
1 163
1 164
1 165
1 166
1 167
1 168
1 169
1 170
1 171
1 172
1 173
1 174
1 175
1 176
1 177
1 178
1 179
1 180
1 181
1 182
1 183
1 184
1 185
1 186
1 187
1 188
1 189
1 190
1 191
1 192
1 193
1 194
1 195
1 196
1 197
1 198
1 199
1 200
1 201
1 202
1 203
1 204
1 205
1 206
1 207
1 208
1 209
1 210
1 211
1 212
1 213
1 214
1 215
1 216
1 217
1 218
1 219
1 220
1 221
1 222
1 223
1 224
1 225
1 226
1 227
1 228
1 229
1 230
1 231
1 232
1 233
1 234
1 235
1 236
1 237
1 238
1 239
1 240
1 241
1 242
1 243
1 244
1 245
1 246
1 247
1 248
1 249
1 250
1 251
1 252
1 253
1 254
1 255
1 256
1 257
1 258
1 259
1 260
1 261
1 262
1 263
1 264
1 265
1 266
1 267
1 268
1 269
1 270
1 271
1 272
1 273
1 274
1 275
1 276
1 277
1 278
1 279
1 280
1 281
1 282
1 283
1 284
1 285
1 286
1 287
1 288
1 289
1 290
1 291
1 292
1 293
1 294
1 295
1 296
1 297
1 298
1 299
1 300
1 301
1 302
1 303
1 304
1 305
1 306
1 307
1 308
1 309
1 310
1 311
1 312
1 313
1 314
1 315
1 316
1 317
1 318
1 319
1 320
1 321
1 322
1 323
1 324
1 325
1 326
1 327
1 328
1 329
1 330
1 331
1 332
1 333
1 334
1 335
1 336
POINT_DATA 337
VECTORS i float
0.0 0.0 0.0
0.0 0.0 0.0
0.0 0.0 0.0
0.0 0.0 0.0
0.0 0.0 0.0
0.0 0.0 0.0
0.0 0.0 0.0
0.0 0.0 0.0
0.0 0.0 0.0
0.0 0.0 0.0
0.0 0.0 0.0
0.0 0.0 0.0
0.0 0.0 0.0
0.0 0.0 0.0
0.0 0.0 0.0
0.0 0.0 0.0
0.0 0.0 0.0
0.0 0.0 0.0
0.0 0.0 0.0
0.0 0.0 0.0
0.0 0.0 0.0
0.0 0.0 0.0
0.0 0.0 0.0
0.0 0.0 0.0
0.0 0.0 0.0
0.0 0.0 0.0
0.0 0.0 0.0
0.0 0.0 0.0
0.0 0.0 0.0
0.0 0.0 0.0
0.0 0.0 0.0
0.0 0.0 0.0
0.0 0.0 0.0
0.0 0.0 0.0
0.0 0.0 0.0
0.0 0.0 0.0
0.0 0.0 0.0
0.0 0.0 0.0
0.0 0.0 0.0
0.0 0.0 0.0
0.0 0.0 0.0
0.0 0.0 0.0
0.0 0.0 0.0
0.0 0.0 0.0
0.0 0.0 0.0
0.0 0.0 0.0
0.0 0.0 0.0
0.0 0.0 0.0
0.0 0.0 0.0
0.0 0.0 0.0
0.0 0.0 0.0
0.0 0.0 0.0
0.0 0.0 0.0
0.0 0.0 0.0
0.0 0.0 0.0
0.0 0.0 0.0
0.0 0.0 0.0
0.0 0.0 0.0
0.0 0.0 0.0
0.0 0.0 0.0
0.0 0.0 0.0
0.0 0.0 0.0
0.0 0.0 0.0
0.0 0.0 0.0
0.0 0.0 0.0
0.0 0.0 0.0
0.0 0.0 0.0
0.0 0.0 0.0
0.0 0.0 0.0
0.0 0.0 0.0
0.0 0.0 0.0
0.0 0.0 0.0
0.0 0.0 0.0
0.0 0.0 0.0
0.0 0.0 0.0
0.0 0.0 0.0
0.0 0.0 0.0
0.0 0.0 0.0
0.0 0.0 0.0
0.0 0.0 0.0
0.0 0.0 0.0
0.0 0.0 0.0
0.0 0.0 0.0
0.0 0.0 0.0
0.0 0.0 0.0
0.0 0.0 0.0
0.0 0.0 0.0
0.0 0.0 0.0
0.0 0.0 0.0
0.0 0.0 0.0
0.0 0.0 0.0
0.0 0.0 0.0
0.0 0.0 0.0
0.0 0.0 0.0
0.0 0.0 0.0
0.0 0.0 0.0
0.0 0.0 0.0
0.0 0.0 0.0
0.0 0.0 0.0
0.0 0.0 0.0
0.0 0.0 0.0
0.0 0.0 0.0
0.0 0.0 0.0
0.0 0.0 0.0
0.0 0.0 0.0
0.0 0.0 0.0
0.0 0.0 0.0
0.0 0.0 0.0
0.0 0.0 0.0
0.0 0.0 0.0
0.0 0.0 0.0
0.0 0.0 0.0
0.0 0.0 0.0
0.0 0.0 0.0
0.0 0.0 0.0
0.0 0.0 0.0
0.0 0.0 0.0
0.0 0.0 0.0
0.0 0.0 0.0
0.0 0.0 0.0
0.0 0.0 0.0
0.0 0.0 0.0
0.0 0.0 0.0
0.0 0.0 0.0
0.0 0.0 0.0
0.0 0.0 0.0
0.0 0.0 0.0
0.0 0.0 0.0
0.0 0.0 0.0
0.0 0.0 0.0
0.0 0.0 0.0
0.0 0.0 0.0
0.0 0.0 0.0
0.0 0.0 0.0
0.0 0.0 0.0
0.0 0.0 0.0
0.0 0.0 0.0
0.0 0.0 0.0
0.0 0.0 0.0
0.0 0.0 0.0
0.0 0.0 0.0
0.0 0.0 0.0
0.0 0.0 0.0
0.0 0.0 0.0
0.0 0.0 0.0
0.0 0.0 0.0
0.0 0.0 0.0
0.0 0.0 0.0
0.0 0.0 0.0
0.0 0.0 0.0
0.0 0.0 0.0
0.0 0.0 0.0
0.0 0.0 0.0
0.0 0.0 0.0
0.0 0.0 0.0
0.0 0.0 0.0
0.0 0.0 0.0
0.0 0.0 0.0
0.0 0.0 0.0
0.0 0.0 0.0
0.0 0.0 0.0
0.0 0.0 0.0
0.0 0.0 0.0
0.0 0.0 0.0
0.0 0.0 0.0
0.0 0.0 0.0
0.0 0.0 0.0
0.0 0.0 0.0
0.0 0.0 0.0
0.0 0.0 0.0
0.0 0.0 0.0
0.0 0.0 0.0
0.0 0.0 0.0
0.0 0.0 0.0
0.0 0.0 0.0
0.0 0.0 0.0
0.0 0.0 0.0
0.0 0.0 0.0
0.0 0.0 0.0
0.0 0.0 0.0
0.0 0.0 0.0
0.0 0.0 0.0
0.0 0.0 0.0
0.0 0.0 0.0
0.0 0.0 0.0
0.0 0.0 0.0
0.0 0.0 0.0
0.0 0.0 0.0
0.0 0.0 0.0
0.0 0.0 0.0
0.0 0.0 0.0
0.0 0.0 0.0
0.0 0.0 0.0
0.0 0.0 0.0
0.0 0.0 0.0
0.0 0.0 0.0
0.0 0.0 0.0
0.0 0.0 0.0
0.0 0.0 0.0
0.0 0.0 0.0
0.0 0.0 0.0
0.0 0.0 0.0
0.0 0.0 0.0
0.0 0.0 0.0
0.0 0.0 0.0
0.0 0.0 0.0
0.0 0.0 0.0
0.0 0.0 0.0
0.0 0.0 0.0
0.0 0.0 0.0
0.0 0.0 0.0
0.0 0.0 0.0
0.0 0.0 0.0
0.0 0.0 0.0
0.0 0.0 0.0
0.0 0.0 0.0
0.0 0.0 0.0
0.0 0.0 0.0
0.0 0.0 0.0
0.0 0.0 0.0
0.0 0.0 0.0
0.0 0.0 0.0
0.0 0.0 0.0
0.0 0.0 0.0
0.0 0.0 0.0
0.0 0.0 0.0
0.0 0.0 0.0
0.0 0.0 0.0
0.0 0.0 0.0
0.0 0.0 0.0
0.0 0.0 0.0
0.0 0.0 0.0
0.0 0.0 0.0
0.0 0.0 0.0
0.0 0.0 0.0
0.0 0.0 0.0
0.0 0.0 0.0
0.0 0.0 0.0
0.0 0.0 0.0
0.0 0.0 0.0
0.0 0.0 0.0
0.0 0.0 0.0
0.0 0.0 0.0
0.0 0.0 0.0
0.0 0.0 0.0
0.0 0.0 0.0
0.0 0.0 0.0
0.0 0.0 0.0
0.0 0.0 0.0
0.0 0.0 0.0
0.0 0.0 0.0
0.0 0.0 0.0
0.0 0.0 0.0
0.0 0.0 0.0
0.0 0.0 0.0
0.0 0.0 0.0
0.0 0.0 0.0
0.0 0.0 0.0
0.0 0.0 0.0
0.0 0.0 0.0
0.0 0.0 0.0
0.0 0.0 0.0
0.0 0.0 0.0
0.0 0.0 0.0
0.0 0.0 0.0
0.0 0.0 0.0
0.0 0.0 0.0
0.0 0.0 0.0
0.0 0.0 0.0
0.0 0.0 0.0
0.0 0.0 0.0
0.0 0.0 0.0
0.0 0.0 0.0
0.0 0.0 0.0
0.0 0.0 0.0
0.0 0.0 0.0
0.0 0.0 0.0
0.0 0.0 0.0
0.0 0.0 0.0
0.0 0.0 0.0
0.0 0.0 0.0
0.0 0.0 0.0
0.0 0.0 0.0
0.0 0.0 0.0
0.0 0.0 0.0
0.0 0.0 0.0
0.0 0.0 0.0
0.0 0.0 0.0
0.0 0.0 0.0
0.0 0.0 0.0
0.0 0.0 0.0
0.0 0.0 0.0
0.0 0.0 0.0
0.0 0.0 0.0
0.0 0.0 0.0
0.0 0.0 0.0
0.0 0.0 0.0
0.0 0.0 0.0
0.0 0.0 0.0
0.0 0.0 0.0
0.0 0.0 0.0
0.0 0.0 0.0
0.0 0.0 0.0
0.0 0.0 0.0
0.0 0.0 0.0
0.0 0.0 0.0
0.0 0.0 0.0
0.0 0.0 0.0
0.0 0.0 0.0
0.0 0.0 0.0
0.0 0.0 0.0
0.0 0.0 0.0
0.0 0.0 0.0
0.0 0.0 0.0
0.0 0.0 0.0
0.0 0.0 0.0
0.0 0.0 0.0
0.0 0.0 0.0
0.0 0.0 0.0
0.0 0.0 0.0
0.0 0.0 0.0
0.0 0.0 0.0
0.0 0.0 0.0
0.0 0.0 0.0
0.0 0.0 0.0
0.0 0.0 0.0
0.0 0.0 0.0
0.0 0.0 0.0
0.0 0.0 0.0
0.0 0.0 0.0
0.0 0.0 0.0
0.0 0.0 0.0
0.0 0.0 0.0
0.0 0.0 0.0
0.0 0.0 0.0
0.0 0.0 0.0
0.0 0.0 0.0
VECTORS f float
0.00154957 0.0031804 -0.00204603
0.0 0.0 0.000287473
-0.00018651 -0.000225687 -0.000185845
0.00388648 -0.00229905 -0.00372457
0.0 0.0 0.0
0.00587554 -0.00721234 -0.000320515
-0.000136457 0.00013261 -0.000646609
0.0 0.0 0.0
4.79717e-05 -1.27828e-05 -0.00659037
0.00135057 0.00206589 -0.00461794
0.0 0.0 0.0
0.0 0.0 0.0
0.0 0.0 0.0
0.000526389 0.000537041 -0.000414252
-0.000124083 -0.000734905 -0.000722045
0.0 0.0 0.0
-0.00136589 0.000145747 -0.00164899
0.00372421 -0.00145516 -0.00698957
0.0077187 -0.00312943 -0.0187042
0.000253357 3.43142e-05 8.37605e-05
0.00167139 0.000699254 0.000644107
8.38095e-05 0.000261261 0.000458395
-0.00145854 0.00139545 -0.00142614
1.4598e-05 0.00267584 -4.44307e-05
0.00011164 -2.86164e-05 -0.000416754
-0.0001537 0.000208164 1.98391e-05
-0.000198854 0.000584915 -0.00096232
-0.000515004 2.02933e-05 4.55523e-05
0.0 0.0 0.0
0.000338399 -0.00052781 -0.000379502
-0.000185895 -0.00224974 0.000216852
-0.000436736 -0.00273829 0.000146357
-0.00211171 0.00134412 -0.00232173
0.000846844 -0.00250424 -0.000326345
-0.000261011 0.000959101 0.0002536
0.0 0.0 0.0
0.000405406 0.000172504 0.000138419
-0.000192649 0.000279312 7.60012e-05
-0.000205822 -0.000518161 -6.87623e-05
-0.000305635 -0.00123134 0.000473784
-0.00107403 0.000593473 -0.00187634
0.00357066 -0.000447795 -0.00531971
0.000926753 -7.47308e-05 -0.000431362
0.00213541 0.00102815 0.000762517
0.0172092 -0.0139877 -0.0108317
0.00113394 0.00219297 -0.00215102
-0.00453731 -0.00410426 -0.00417261
0.00151065 0.000691414 -0.000673725
0.000358682 0.000470914 -0.000317011
0.0034441 0.00144439 -0.019741
0.000161103 7.21787e-05 9.1567e-05
-0.000382612 -0.000757651 9.45203e-05
0.00534203 0.000164214 -0.000789089
-0.000424709 -0.000189742 -4.07671e-05
0.0 0.0 0.0
0.000438002 0.000279882 -0.000124001
0.0 0.0 0.0
0.000337535 -0.00102973 0.000446866
-3.23742e-05 0.000458113 0.000160913
0.000469018 0.000666889 -0.000454491
-0.00216802 0.00726365 0.000864796
0.0242006 -0.00287859 -0.00116675
-0.00113394 -0.00219297 0.00215102
-0.0010745 -8.21722e-05 0.000133086
0.0124919 0.0015081 0.00108146
0.0 0.0 0.0
0.00138267 -0.000650473 0.000979272
-0.00501209 0.00934282 -0.00900853
0.000165544 -0.000224206 -0.000351117
0.0 0.0 0.0
-0.00205103 0.000919261 0.00138671
-0.0032354 -0.000619 -0.000280703
0.000357397 0.000448775 -4.93685e-05
-0.000281267 -0.000325592 0.000485486
0.0 0.0 0.0
-0.000367708 -0.000159579 -0.000368743
0.000538187 0.000404476 -0.000160942
-0.000325146 -6.37673e-05 0.000246764
0.000802821 0.000252325 -0.001761
0.0 0.0 0.0
0.00099754 -0.000315372 0.00090447
0.0 0.0 0.0
0.000676283 -0.000990739 0.000329447
0.0 -0.000293297 0.0
-0.000180999 -0.000128008 6.00888e-05
0.0 0.0 0.0
0.000372838 0.000174247 -0.0016864
0.000206445 -0.00124172 -0.00114727
0.00555518 -0.00184911 0.00275968
0.00048017 0.000898645 -4.09276e-05
-0.00235487 0.00246904 -0.000830578
-7.16993e-05 -0.000587693 3.37643e-05
0.000164271 0.000877461 0.000801204
-0.00089169 -0.00104249 -0.000827844
-0.00630156 0.00307189 -0.00383904
7.16993e-05 0.000587693 -3.37643e-05
-0.000260846 0.000179916 0.000797975
0.0 0.0 0.0
-0.000551049 -0.000349848 -0.000251604
0.00109246 -0.000482194 -0.000827918
-0.000141024 -0.000705684 0.000271496
-0.000432659 0.000321118 0.000279186
-0.00125398 -0.000854938 -0.000418594
-0.000177559 4.78187e-05 0.000791502
8.28124e-05 5.48808e-07 -3.46313e-05
-0.000157658 -0.000159171 5.2208e-05
0.0 0.000293281 0.0
0.000372069 -5.68754e-05 0.000158081
0.0 0.0 0.0
-4.68121e-05 -7.61549e-05 0.00138159
0.00996768 -0.0107814 0.0271419
0.0 0.0 0.0
0.00358035 -0.000397326 0.00322843
0.0 0.0 0.0
0.00107462 -0.000541587 -0.000219327
0.00126884 -0.00331924 -0.00124517
0.00264926 -0.000144266 0.00390395
0.0 0.0 0.0
-0.00195799 0.0020557 -0.00543764
0.00172299 -0.000436357 0.00261417
0.000275034 -0.000149244 -0.000564817
0.000111882 0.00148196 -0.000979016
0.00162099 -0.00103233 -0.00139957
-0.0109279 -0.00485696 -0.000272358
0.0011629 -3.7924e-05 -0.00816556
-1.97687e-05 0.000678959 0.00155395
0.000119552 -2.66249e-05 0.000606339
0.0 0.0 0.0
0.0 0.0 0.0
-0.000672286 9.94543e-06 -0.000341767
2.85633e-05 0.000160309 -0.000149693
-0.000423508 0.000340238 0.00067125
0.000347499 0.000142451 0.000796556
0.0 0.0 0.0
-0.000937735 0.0 0.0
-0.000198085 0.000339104 0.000716199
0.00824619 -0.0128003 0.0156349
-0.00459228 0.00600932 -0.000139448
-0.00287696 0.00453152 -0.00186284
0.00135751 -0.000161214 0.0025729
0.0236706 -0.0195569 0.00521571
-0.0111211 0.0137901 -0.00184212
8.38931e-06 -0.00055563 0.000706827
-1.91364e-06 8.82552e-05 0.000820585
0.000189735 1.51435e-05 0.000688739
-0.00546234 0.00053784 0.00105021
-0.00404975 0.00203829 -0.00778517
-0.000141401 0.000591969 3.65051e-06
0.0 0.0 0.0
0.00166367 -0.000929022 -0.000908199
-0.0069961 0.000796187 -0.00211577
0.0 0.0 0.0
0.000126627 -8.34628e-05 0.000578102
0.0 0.000928683 0.0
0.000217973 0.000175542 -0.000426867
0.0 0.0 0.0
-0.000369631 -0.000243104 0.00107738
0.0 0.0 0.0
-0.00149336 -0.00554301 -0.000764561
0.000392028 -0.00250684 0.00042659
0.00353439 -0.00442235 0.00577296
-4.89636e-05 2.59496e-05 -4.15005e-05
-1.85808e-05 -0.000550753 -0.0002566
-0.00186634 0.00879279 0.00268951
3.91877e-05 -0.00164283 -0.000842838
-0.000903109 0.00129908 0.000804003
-0.00104563 0.0012603 -0.000126689
-0.00028278 -0.000614846 -0.000549683
0.00185032 0.00401474 -0.0122354
-0.000132507 -1.35137e-05 0.000226911
2.69193e-05 0.00563065 0.00668665
0.0 0.0 0.0
0.0 0.0 0.0
0.00332695 0.000419572 0.00233292
-0.000113141 -0.000871992 -0.00183536
0.001825 -0.00173769 -0.000389991
0.00127739 -0.00123162 0.000204764
0.000357283 0.000201233 -0.000927261
0.000372455 0.000471654 -0.000681333
0.00616513 0.0071044 -0.000505713
0.0 0.0 0.0
-0.000301618 0.000196901 3.24193e-05
-0.000841836 -0.00467972 0.00239131
-0.000167444 -0.000572655 -2.54703e-05
0.000593846 -0.00167506 0.00185922
6.85604e-06 -2.03852e-05 1.32053e-05
0.00404274 0.00156756 0.000609779
0.00453812 0.00185451 0.00685914
4.89636e-05 -2.59496e-05 4.15005e-05
0.00447186 -0.00228007 0.00210596
0.00329627 -0.00563917 -0.00111943
-0.000141123 -0.000510575 -0.00108474
0.00281961 0.00071838 0.00561607
-0.000196299 -0.00264088 0.00191613
0.00028278 0.000614846 0.000549683
0.0 0.0 0.0
-0.0122128 0.0158209 -0.0126181
0.000893391 0.000834044 0.00299766
0.000880799 0.000385091 -0.000270472
0.00200896 -0.00111678 0.000813064
0.0 0.0 0.0
-0.00038123 3.33731e-05 0.000384252
0.000567039 -0.00029703 8.62653e-05
0.0 0.0 0.0
-0.000239932 0.00014867 0.000411953
-0.000562004 0.00104088 0.000730935
-0.00655719 -0.00818847 -0.000625782
0.00177037 -0.00411809 0.00289259
0.000783451 -0.000535026 0.000136068
0.0 0.0 0.0
0.0 0.0 0.0
0.00123983 -0.000374954 -0.00410424
-3.03478e-05 -0.00211474 0.00163568
0.00522882 -0.00198072 0.00046876
0.00140733 -0.00853968 0.00203097
0.000510754 -0.00487048 0.0129048
0.00105818 0.000294547 0.000192287
-0.00138756 0.00650609 -0.00170773
0.000128962 0.000638422 -0.000345875
-0.000488529 0.0005082 0.000311271
-0.000488256 0.000218774 -0.000187903
0.000480071 -0.000226803 0.000218746
-0.00128718 0.000738295 -0.00036963
0.0 0.0 0.0
-0.000896404 0.000964158 -0.00084629
-0.00860212 -0.00213007 -0.0015805
0.00565565 0.00219941 0.000464251
0.000991892 0.000261244 0.000180256
-0.000485085 -0.000509398 0.00276966
-0.000300065 0.0015269 -0.00179469
0.000243483 -3.67895e-05 -0.00132021
-6.78118e-05 -0.000782264 0.000378968
6.78118e-05 0.000782264 -0.000378968
0.000367577 0.000304844 0.000262139
0.0 0.0 0.0
-0.00114393 0.000273609 -0.000522701
0.00215481 -0.000521785 -0.00115054
-0.000793614 -0.000593604 0.00180233
0.0 0.0 0.0
-0.000235654 0.000612133 -0.000278146
-6.10986e-05 -0.000928726 0.000460668
0.000715204 -0.000591629 0.000161578
-0.000293358 -0.000268838 -0.000307047
0.000314383 0.000599229 0.00148504
-1.17291e-05 -0.000805037 0.000389501
-0.000131595 0.000518566 0.00049748
0.00135136 0.000287114 9.83548e-06
0.0 0.0 0.0
0.000513283 -0.000801587 -0.000586204
0.00165834 0.000196309 0.0031978
-0.0041541 0.000129502 -0.00200538
-0.00613198 -0.000645036 -0.00226983
-0.000132013 0.000413276 -0.00066136
0.00490571 0.00512433 -0.0022598
-0.00162126 -0.00163778 0.00179241
-7.24017e-05 -0.000304364 9.80213e-05
0.0 0.0 0.0
8.47229e-05 0.000368256 -0.000257702
0.000373523 -0.000328543 -4.42582e-05
0.0011229 6.99511e-05 -0.000795901
-0.000879294 0.000726828 0.0012702
0.000141065 0.000101742 0.000480822
0.000380755 0.000536323 2.76493e-05
-0.00374937 -0.00158516 -0.00233973
-0.00625957 -0.00200845 0.000986531
0.000293358 0.000268838 0.000307047
0.000108114 -0.000243019 -0.000240479
-0.00513719 0.00228159 0.00098872
0.0 0.0 0.0
0.000212321 -0.000441064 -2.42313e-05
-0.00069638 -0.00144321 0.000249186
0.000166772 -0.000808335 0.000392351
-0.00140896 -0.000536744 1.86703e-06
-0.00229764 0.000528604 -0.000548793
-0.000380477 0.00050699 0.000108653
0.000181647 5.22223e-05 -0.000585804
0.0 0.0 0.0
-0.000733906 6.19444e-05 -0.0013663
0.000428364 0.000444764 -0.000277822
0.0 0.0 0.0
0.000554405 0.00067371 -6.07295e-06
0.000131204 0.000327816 0.000236672
8.12376e-05 -0.000295213 0.000394543
-0.000454761 0.000623756 -0.000350284
0.0 0.0 0.0
3.63457e-06 -9.87397e-05 0.000180692
0.0 0.0 0.0
0.000219335 -0.00156698 -6.7361e-05
-0.00100367 -0.000805658 -0.000730284
0.00151579 0.00285711 -0.000654532
-0.000676585 0.000470132 -0.000985091
-5.47054e-05 7.26278e-05 -0.00049431
0.0 0.0 0.0
-9.79479e-06 0.000782694 0.000388002
0.000303342 -0.00123624 -0.000122784
0.0 0.0 0.0
-0.00135936 0.0041941 0.0011936
0.0 0.0 0.0
0.00989563 -0.0080848 -0.00192499
-0.000482241 -0.0014751 -0.000290375
0.000187537 -0.000448615 -0.000151851
0.0 0.0 0.0
-0.0008082 0.00230195 -8.8738e-05
-0.00299785 0.000965868 0.000349074
0.000688536 0.000338872 -0.000413806
-0.0021882 0.00209705 0.00187996
-0.000861695 0.00350229 -0.000313194
0.0 0.0 0.0
0.000467045 0.000314153 0.00066445
5.47054e-05 -7.26278e-05 0.00049431
0.00225579 0.00180071 0.0012543
-0.0170815 0.0163716 0.00110344
0.0 0.0 0.0
0.000992321 -0.00201068 0.00108976
3.59684e-05 0.000545963 -0.000182559
-0.000472585 -0.00120114 0.000202896
0.00129044 -0.000826852 0.000379113
-0.000115088 -5.61117e-05 0.000116606
-0.000291753 0.000784957 -0.000239793
0.000764338 0.000416178 3.68971e-05
-0.00030694 0.000284433 -0.000351991
0.000484183 0.000153693 0.000604568
-0.000281307 0.00176211 0.00267999
-0.000688536 -0.000338872 0.000413806
0.0 0.0 0.0
-2.66013e-05 3.71813e-05 0.000324429
0.000292636 -0.00365994 0.00120461
2.01879e-05 -0.000182605 -0.000220275
-0.000978409 -8.72498e-05 0.00142857
0.0 0.0 0.0
0.0 0.0 0.0
0.0 0.0 0.0
0.0 0.0 0.0
8.93157e-06 0.000728884 0.000467512
0.0 0.0 0.0
0.0 0.0 0.0
0.000234491 0.000220293 0.000387236
VECTORS omega float
0.826895 -0.70351 -0.666806
0.0 0.0 0.0
-0.426062 -1.6893 1.61429
0.842759 -0.0275037 1.3463
0.0 0.0 0.0
2.16811 0.799908 -0.83039
-0.257483 0.21454 -0.580606
0.0 0.0 0.0
1.25261 0.0191669 -1.42128
0.917514 0.0782837 0.286727
0.0 0.0 0.0
0.0 0.0 0.0
0.0 0.0 0.0
-0.713479 -0.391963 1.53767
0.365586 0.244517 -0.329936
0.0 0.0 0.0
-0.180014 0.379075 -0.0177082
-0.177329 -1.03881 0.541308
-0.860119 0.115208 0.0739481
-0.201463 -1.281 0.948587
1.18714 0.0280932 -0.998843
-2.08964 -1.97128 0.833069
0.789265 0.460813 -2.25001
-0.332418 0.729631 1.13799
-0.705932 -0.781601 0.209179
-2.00253 -1.57458 0.171108
-0.354418 3.08933 -0.133738
0.713261 -1.01318 -0.778764
0.0 0.0 0.0
-0.621477 -2.00716 1.61176
-0.064695 0.102524 0.131244
0.150163 -0.107181 0.604137
1.3435 -0.0523522 0.518853
-1.31897 -0.742473 0.452085
-0.125838 0.0624897 -0.387844
0.0 0.0 0.0
0.562994 -0.306834 -1.43249
0.296731 -0.288079 -0.308877
1.11044 -0.241368 -2.27448
-0.324173 -0.412374 0.339216
1.24708 0.448704 -0.413881
0.0189045 1.11277 0.668776
-0.59299 -0.189427 0.631473
-0.821193 0.439854 -0.82743
-0.734235 3.18473 -1.99824
-1.27335 -1.27884 -3.19583
-1.3299 2.06761 -0.654444
2.83813 -2.57776 4.14909
1.17791 -0.261955 -0.079168
-0.868879 -0.809222 0.544453
-2.78219 -0.52381 1.17451
0.999415 -0.690126 -0.0997166
-0.390015 -0.488646 0.724966
0.152368 -0.414483 0.499144
0.0 0.0 0.0
0.407057 -0.0952198 1.0333
0.0 0.0 0.0
-1.64066 -0.163418 0.26045
-0.173143 0.944246 1.07113
0.133684 -0.0573444 -0.703386
-0.283508 -0.0433244 -0.178022
-2.14561 1.86256 0.38963
0.732944 0.012648 0.372065
-0.988602 -1.93342 1.13264
0.276041 0.0250305 0.463987
0.0 0.0 0.0
-0.491436 0.370291 0.368925
0.499964 0.340333 0.179825
1.13063 0.52607 -0.233357
0.0 0.0 0.0
0.00337089 -0.00827783 0.0103978
-0.048708 0.351222 -0.381128
-0.0731528 -0.185459 -1.99287
-0.662779 -0.234852 0.295534
0.0 0.0 0.0
-1.61132 0.391063 1.49989
0.694568 -0.337876 -1.36147
-0.236571 1.1621 -0.450908
0.1207 -0.0542542 0.862084
0.0 0.0 0.0
0.0571699 -0.256864 -0.251501
0.0 0.0 0.0
0.0524781 0.556128 -0.144702
0.0 0.0 0.0
0.0987463 1.51378 -0.792867
0.0 0.0 0.0
0.334095 -0.444937 0.872941
0.305837 -1.20429 -0.236559
4.38642 -2.80557 0.398344
1.62923 1.44999 -1.72909
-0.765206 -1.25211 -0.851524
0.11267 0.0626235 1.13504
-0.372674 0.781182 0.00163983
0.628375 -3.6859 3.29407
0.199286 -0.340252 -0.318188
0.717497 0.648647 -0.527936
-1.71641 -2.01031 -0.236175
0.0 0.0 0.0
-0.439943 -1.93975 -0.234413
0.901831 0.67475 0.805216
0.220088 -0.10227 -0.153859
0.994465 0.417551 1.08152
0.593955 -0.473844 -0.573288
-0.760339 -0.494856 -0.150418
-0.481927 2.26486 0.179819
-0.250287 -0.97371 0.641039
0.0 0.0 0.0
-0.880026 0.973352 -0.773053
0.0 0.0 0.0
-0.480928 0.616841 0.032583
-1.06097 0.762451 -0.589749
0.0 0.0 0.0
0.376396 0.319946 1.56525
0.0 0.0 0.0
0.367628 -0.0594971 0.511876
0.898819 0.247916 -1.20652
0.597558 -0.10535 -1.04219
0.0 0.0 0.0
-0.801297 -0.69997 -0.135037
-1.17531 1.97794 -2.31283
0.107765 0.217584 -0.00543233
1.21779 5.23846 1.38288
-3.45087 -10.8306 1.33964
-0.860648 1.12759 1.47998
2.37004 1.57772 -0.352966
-0.185634 -0.224194 -1.26345
-0.0506823 -1.30794 -0.542266
0.0 0.0 0.0
0.0 0.0 0.0
0.129246 1.28826 0.623429
-0.453558 -2.61719 0.114056
0.00698329 1.79706 -0.883879
-0.768456 1.23209 0.114295
0.0 0.0 0.0
0.0 0.0 0.0
-0.754656 -0.78547 0.142453
-0.187143 -0.118673 -0.0388104
-0.0344012 -0.308219 0.336646
-1.25493 0.443557 0.381139
0.625203 -0.720524 -0.292191
-0.571603 -0.903034 0.648454
-0.164831 0.02119 0.0368596
-0.846727 -0.899389 -0.42856
0.622666 1.93219 0.827986
2.69609 5.6368 -3.43638
-0.280892 -1.96155 0.0297883
-0.00341983 0.0363118 0.00553461
-0.72379 -0.30295 -0.17996
0.0 0.0 0.0
0.742222 0.116367 -0.728623
-0.161053 -0.548566 0.322975
0.0 0.0 0.0
-0.0188218 0.884338 0.131079
0.0 0.0 0.0
-0.502289 -0.878087 -0.805579
0.0 0.0 0.0
-0.990032 0.390215 -0.289047
0.0 0.0 0.0
0.822004 -1.41134 -2.12121
1.48787 -1.22612 2.12726
0.153152 2.50637 0.745143
-2.06312e-16 -7.85095e-16 -2.47494e-16
-0.200198 -0.27432 0.684639
-0.236427 0.752729 -0.0150467
-0.830954 -0.434068 -1.34322
0.903367 -0.264173 1.82392
0.170202 -0.444121 -0.153848
3.07915e-14 -1.01718e-14 -4.46273e-15
-0.360758 0.167941 0.0152
0.516817 -0.421118 -0.23817
0.852996 -1.83311 -0.123503
0.0 0.0 0.0
0.0 0.0 0.0
0.0449903 0.464071 -0.376555
-0.456136 3.51926 -0.305589
-0.311718 -0.3117 0.000199378
-0.936092 1.08179 -0.491498
-0.235391 -1.30101 0.285735
-4.69169 1.05938 2.4087
-1.60809 -0.0921295 -1.89502
0.0 0.0 0.0
0.525337 0.897824 -0.409094
1.03696 -2.47825 -1.19843
5.26281 1.81793 -0.0129991
1.93424 0.160753 0.188614
-0.656187 -0.0814947 -0.485429
0.0362048 0.452536 -0.857291
0.484895 -0.959765 -0.784745
-1.35166e-15 -5.14319e-15 -1.62123e-15
-0.320755 1.24102 -0.11798
0.335219 -0.0206761 0.281022
-0.169505 0.93463 -0.418037
-0.0171685 -1.29311 0.528384
-0.324739 0.456824 -0.168245
4.69989e-15 -1.55257e-15 -6.81199e-16
0.0 0.0 0.0
-1.01258 -0.47787 -0.135195
-0.173068 2.44812 0.0178352
0.743933 0.0225016 -1.26787
-0.133636 -0.136807 0.137247
0.0 0.0 0.0
1.41347 0.112258 1.88561
-0.580802 -0.712008 0.101793
0.0 0.0 0.0
0.648504 0.72099 0.116095
1.91997 -2.18884 -0.310458
-0.393598 -1.15397 2.30654
-0.165185 0.131436 0.250343
-0.52443 -0.14941 0.226958
0.0 0.0 0.0
0.0 0.0 0.0
-1.09763 0.94027 -0.337282
-0.344957 1.45165 1.51965
0.0882309 -0.75671 1.30019
-0.633987 3.97691 -0.187459
0.219931 0.577667 -0.748147
-0.3275 0.13526 -0.455248
-0.298543 -0.942913 -0.198568
0.761798 0.47957 0.0414826
0.779796 -0.813976 0.665749
-0.630212 -0.275633 -0.162908
-0.469781 -1.597 -0.838628
0.100621 -0.633648 -0.862296
0.0 0.0 0.0
0.30398 0.0544579 -0.203947
0.104717 -0.299305 0.127941
-0.0333878 -1.12227 -0.465755
1.03764 -0.215692 0.381795
-0.599477 0.515453 -0.353847
1.15203 -1.42401 -0.810738
0.794706 -0.620814 -0.199178
1.84135e-15 -1.52639e-16 1.44099e-17
1.20637e-14 -1.00009e-15 9.4276e-17
0.125855 -0.12423 0.420463
0.0 0.0 0.0
-0.731668 2.57252 -3.98898
-1.03648 -1.87383 1.81107
0.446429 -0.523382 0.357924
0.0 0.0 0.0
-0.48693 -0.134781 0.415859
-0.360192 0.255728 0.311438
0.824282 0.865999 -0.484472
-7.76958e-15 2.42232e-14 -1.37856e-14
0.463011 0.464726 -0.26914
0.458062 -0.828236 -0.0951715
0.200573 -1.42663 -0.93587
-0.368359 2.4487 -0.837892
0.0 0.0 0.0
3.07885 0.733811 3.25581
-1.11601 -0.475464 0.671539
-0.50314 -0.421709 0.951864
-0.840658 0.736077 -1.36755
-0.19446 -0.41938 -0.131678
-0.820954 -2.07622 -2.8828
-1.65664 -0.331006 -0.501309
-0.324501 -0.13406 1.09529
0.0 0.0 0.0
-0.493026 1.18303 0.532779
-0.204198 -0.216042 -0.119607
0.021079 -0.184442 0.0220779
1.33889 0.364113 -2.07935
0.632971 0.0985418 -0.207594
1.21352 0.328437 1.61959
-1.1355 -0.052997 0.727654
0.360292 -0.673911 0.84197
-7.76958e-15 2.42232e-14 -1.37856e-14
-1.50317 0.0609472 -0.424503
-0.465987 0.359581 -0.876118
0.0 0.0 0.0
0.873398 0.316937 -1.14495
4.60239 -4.18659 -3.2714
0.185714 0.180637 -1.9982
-0.153676 2.32904 6.21677
-1.10294 -0.322723 2.54004
-0.287264 -0.146181 1.52277
-0.716268 -1.57439 0.00970633
2.31056 2.02455 -2.27851
0.510341 0.556249 0.239173
0.226842 0.146951 0.376905
0.0 0.0 0.0
0.49482 -0.418298 -0.191277
-0.651647 0.709584 -0.509191
0.204237 0.216084 0.11963
3.93864e-05 4.16709e-05 2.30701e-05
0.0 0.0 0.0
-0.996031 -0.943602 0.853559
0.0 0.0 0.0
-0.145213 -0.0239955 0.084799
0.866604 -0.105248 0.287271
-0.188139 -0.0517103 -0.947051
-0.0100204 -0.00280087 0.00425758
-5.25026e-15 -8.12107e-15 -6.12161e-16
1.3725 -1.17499 -0.748912
0.430333 0.0986942 -0.188812
-0.0118356 -0.0323099 1.55896
0.0 0.0 0.0
2.07046 -0.258302 -2.16714
0.118748 -0.30426 -1.87159
2.49106 2.32583 -2.72647
-0.123083 -0.0295475 0.354512
0.280202 0.0733483 0.108627
0.0 0.0 0.0
3.10253e-05 7.44797e-06 -8.9361e-05
0.081789 0.0382984 0.432558
-2.7732e-16 -1.6463e-17 -4.74916e-16
-0.513141 -0.188775 0.162304
-2.53324 1.17231 1.76492
0.0 0.0 0.0
0.45538 0.0401663 -0.338847
-5.25026e-15 -8.12107e-15 -6.12161e-16
-0.0561931 1.14687 0.488046
0.41581 -0.817352 1.5126
0.0 0.0 0.0
-0.030092 0.538588 -0.712078
-0.4047 -0.243828 0.261054
1.4899e-06 -1.99624e-06 -8.34738e-06
0.123114 0.029555 -0.354601
-0.380967 -0.0371184 0.301289
0.0373182 -0.0500008 -0.209081
-0.0373021 0.0499792 0.208991
-0.0556249 0.00634233 -0.23532
1.0048 0.29509 -0.922875
1.79442 -0.979464 -0.285952
-1.81749e-15 -1.0681e-16 -3.1116e-15
0.0 0.0 0.0
2.56236 -0.355562 0.716346
0.63805 -0.963932 -1.9529
0.115631 0.784461 -0.0715249
-1.05637 0.164063 -0.515701
0.0 0.0 0.0
0.0 0.0 0.0
0.0 0.0 0.0
0.0 0.0 0.0
0.394523 -0.188915 0.272507
0.0 0.0 0.0
0.0 0.0 0.0
0.605544 0.116809 -0.427983
VECTORS v float
-0.00577989 -0.00745051 0.010245
0.0 0.0 0.00366127
-0.00674219 -0.00708979 -0.00919262
0.0102942 -0.00978696 -0.0104649
0.0 0.0 0.0
-0.00456853 0.000381534 -0.0056336
0.00927775 -0.0154029 -0.0135279
0.0 0.0 0.0
0.000287408 -0.0108968 0.00627844
0.00596129 0.00916625 -0.0216155
0.0 0.0 0.0
0.0 0.0 0.0
0.0 0.0 0.0
-0.00594658 0.00612564 -0.00640321
-0.0162125 0.00701883 -0.00922005
0.0 0.0 0.0
-0.00270148 0.00022343 -0.00515741
-0.0219585 -0.0059187 -0.00926948
0.00248098 -0.0103809 -0.00615056
0.00553317 -0.000275132 0.00080124
-0.015487 -0.00532061 -4.86116e-05
0.00526877 -0.00561657 -7.94579e-05
-0.0114025 0.0105231 -0.00598563
0.00622976 -0.00800504 -0.00836094
-0.00474958 -0.00367453 -0.0142191
-0.000119592 0.000813559 0.00704546
0.0193008 -0.00816222 0.0116293
0.0050089 0.0045152 -0.00662769
0.0 0.0 0.0
0.0119424 -0.00142607 0.0123054
-0.00125049 -0.00390315 0.0003614
0.00555396 0.016444 -0.000189766
-0.0101431 0.00410639 -0.00927112
0.00301559 0.00834916 -0.00150539
-0.00243971 0.00567071 0.00170433
0.0 0.0 0.0
0.0114091 0.012634 0.00151549
-0.0103677 0.00378241 -0.00316582
1.86952e-07 -0.0125431 0.00133027
0.00197084 -0.0022969 0.00366163
-0.00169189 -0.00177854 -0.00703022
0.00497402 -0.0118443 0.0233809
0.011164 -0.0100141 0.00573498
0.0119398 0.00360791 -0.00381195
-0.0209468 0.00746601 -0.00421409
0.00931516 -0.0125354 0.0126587
0.0227821 -0.0333263 -0.00395075
0.0258928 -0.0136979 -0.00742668
0.000796276 0.0112428 -0.00921847
0.00104928 0.00593713 -0.0150612
0.0175419 0.0151799 -0.00403715
-0.00817585 -0.0123068 0.00401044
-0.00343867 -0.00952477 -0.0071113
0.00727784 -0.00115965 -0.00318453
0.0 0.0 0.0
0.0137879 0.0012733 -0.00534237
0.0 0.0 0.0
-0.0036992 -0.00442055 -0.00142729
-0.00268938 0.00739428 -0.00194975
0.0062146 0.00798485 -0.00363348
0.0027785 -0.00856381 0.000361436
0.0113986 0.00877836 0.00791346
-0.00752783 -0.0122495 0.0153741
0.000489919 0.0132757 -0.00404913
-0.00133361 0.00356614 -0.000256051
0.0 0.0 0.0
-0.00158361 -0.00206261 -2.83875e-05
-0.00415363 0.00950533 -0.00723521
-0.00554094 -0.010291 -0.00503287
0.0 0.0 0.0
-0.00185127 -0.000256865 0.000395669
0.00626466 0.000426828 -0.00197729
-0.00364319 0.00144351 -0.0054469
0.00621928 -0.00747632 -0.00353453
0.0 0.0 0.0
-0.00718725 0.00119328 -0.00802009
-0.00226964 0.00766488 -0.00536528
-0.00954039 -0.00156033 0.000908693
-0.0033106 0.00352548 -0.00818191
0.0 0.0 0.0
0.0039921 -0.00111948 0.00311504
0.0 0.0 0.0
-0.00117412 -0.00590476 -0.000196268
0.0 -0.00366067 0.0
-0.0088741 -0.00973024 0.00232596
0.0 0.0 0.0
-0.00416576 -0.00285083 -0.00605442
-0.00461375 -0.00337445 -0.00479586
0.0051175 0.00122276 0.0100912
0.00650667 0.0106886 0.00251065
0.00206596 0.00090102 -0.00297337
-0.00328856 -0.00567425 0.00063964
-0.000445515 0.0111533 0.00391345
0.00395365 -0.0114159 0.00661893
-0.00618564 0.00420866 -0.00839027
-0.00597708 0.00228906 0.00429414
-0.0135077 -0.00653415 0.00146118
0.0 0.0 0.0
-0.0128766 -0.00193061 -0.000241482
-0.00505625 -0.000457262 0.00680446
-0.00171927 -0.0100159 0.00420022
-0.00661327 0.0077408 0.0030928
0.00250064 0.00615185 0.00344848
-0.00100379 -0.00132179 0.0094126
0.0126208 0.00257384 -0.00401231
0.0250846 0.00784525 -0.00720802
0.0 0.00366068 0.0
0.0020281 -0.00200228 0.0141323
0.0 0.0 0.0
-0.00211479 -0.00194238 0.00544776
0.00133265 -0.0152068 0.0136203
0.0 0.0 0.0
0.00438933 -0.00883585 -0.00392026
0.0 0.0 0.0
0.00530555 -0.00406485 -0.00429957
0.0104714 -0.000532598 0.002113
0.00068922 -0.00114636 0.00159854
0.0 0.0 0.0
0.0151724 -0.0083827 0.00728726
-0.00522224 0.00550691 0.0175746
0.00242516 -0.0012435 -0.00174021
0.0026893 0.000364408 0.00531976
0.00507085 0.0181117 0.0124527
-0.0149692 0.0129691 0.00828663
-0.00653404 0.0263701 -0.0141263
-0.00676176 0.00578248 0.00263739
0.013842 0.00706149 0.00221146
0.0 0.0 0.0
0.0 0.0 0.0
-0.0149791 -0.000223037 0.000778639
-0.00587127 0.00395146 0.00476508
-0.00716031 0.00166305 0.00332706
-0.00410705 -0.000921784 0.00505586
0.0 0.0 0.0
-0.00584668 0.0 0.0
-0.00282572 0.00411846 0.00824994
-0.00162647 -0.01051 0.00975574
-0.00761517 -0.0021698 0.00243667
-0.00332996 0.00778719 0.00253787
0.00997691 0.00201664 0.0166302
0.00882213 0.00490687 0.00881725
0.00310934 0.00231121 -0.000625318
-0.00386016 -0.00362355 0.0164497
0.00507027 -0.00433899 0.0140703
-0.00934333 0.0213043 0.0372142
-0.0259782 0.00181348 0.00881561
-0.00725722 0.00123433 -0.0143746
-0.00281355 0.00536772 0.00227307
0.0 0.0 0.0
-0.00224349 -0.00513757 -0.00806257
-0.00489301 0.00111408 -0.000547772
0.0 0.0 0.0
-0.000816793 -0.000694758 0.00456955
0.0 0.00584886 0.0
-0.0100949 0.00553035 -0.0197525
0.0 0.0 0.0
0.00976107 0.0108792 -0.0243529
0.0 0.0 0.0
0.00369358 0.00355325 -0.0156686
0.00741692 0.00337987 0.0044512
0.00462077 0.00427931 -0.00269565
-0.00170143 0.00090172 -0.0014421
0.000277799 -0.00646957 -0.00478668
-0.00851565 0.00530086 0.0123035
0.00233914 0.0126848 0.00447412
-0.00472263 0.0158845 0.00555917
0.0098795 0.00112688 0.00752104
-0.00248339 -0.00539961 -0.00482734
0.00170038 0.00418686 -0.00970369
0.00188949 0.00535525 -0.00541582
0.00112012 0.00619438 0.0090202
0.0 0.0 0.0
0.0 0.0 0.0
0.000114613 6.2975e-05 0.000846815
0.0018314 0.00614206 -0.000841607
-0.00361895 0.00362105 -0.0017502
-0.0115598 0.0113122 -0.00538642
0.00147549 0.0138784 -0.0141964
0.00288326 -0.000656147 -0.0140023
-0.00200246 -0.00421141 -0.0092509
0.0 0.0 0.0
-0.00725021 0.00204909 -0.00481428
-0.0130856 -0.00734484 -0.0036207
-0.00854581 0.0103767 -0.00867112
-0.0099314 0.01198 -0.0195937
0.000442806 -0.0108282 0.00121308
0.00288485 0.0121465 -0.00424597
0.00977098 -0.00543229 1.0403e-05
0.00696907 -0.00369345 0.00590683
0.0154614 0.0076648 -0.00117651
-0.00227396 -0.00539266 -0.00553828
0.00149703 -0.00260508 -0.00643171
-0.0128894 -0.000421468 -0.00696675
0.0068814 0.00169747 -0.00486086
0.000606295 0.00131826 0.00117855
0.0 0.0 0.0
-0.00739373 0.00841017 -0.004486
-0.00023701 3.85861e-05 0.0188213
0.00594616 0.00764349 -0.000354896
0.0012225 -0.005877 0.00114754
0.0 0.0 0.0
-0.0105355 0.00373178 0.00790093
-0.00255733 0.00588199 -0.00421615
0.0 0.0 0.0
-0.00560759 0.00409954 0.00590928
0.0127921 0.0127821 0.00192467
-0.00923021 0.0120634 -0.00366483
0.00930725 -0.0171717 0.00626651
0.000151487 -0.00152236 -0.00604647
0.0 0.0 0.0
0.0 0.0 0.0
0.00329383 -0.000579324 -0.0124191
-0.00418344 -0.00324176 0.00213544
0.0039432 0.00474316 0.00666497
-0.00332945 0.00588388 -0.000895664
-0.00498293 0.000381651 0.00685648
0.0152629 0.00227929 -0.00299292
0.00262233 -0.00585403 0.00186935
0.00363117 0.000246495 -0.00268442
-0.000999976 0.00304041 0.0049042
-0.00319899 0.00860189 -0.0148175
0.00294044 0.00115846 -0.0038526
0.00141774 0.0130346 0.00475732
0.0 0.0 0.0
0.0081891 -0.00296332 0.0117469
-0.00246933 0.000624701 -0.00172704
-0.00239371 0.00150163 0.00320535
0.00477219 -0.00117198 -0.00517261
0.00395401 -0.00875457 0.00900932
-0.000535088 0.00567495 -0.0106337
0.00594792 -0.00154599 0.00507609
-0.000145392 -0.00167722 0.000812528
0.000595526 0.00686987 -0.00332811
0.00668144 0.00243833 0.0016066
0.0 0.0 0.0
-0.00920276 -0.00669068 -0.00950761
0.00163894 -0.0132811 -0.00940197
0.00152899 0.00501007 0.00628067
0.0 0.0 0.0
-0.000321768 0.00162889 -0.00187444
-0.00300096 -0.00773822 0.0028829
0.0115629 -0.00814827 0.00509157
-0.00213973 -0.00196089 -0.00223958
0.00625151 0.00310584 0.0161016
0.00352483 0.00263173 -0.00606252
-0.00301388 -0.00125987 0.0126607
0.000579667 -0.00755419 0.00337562
0.0 0.0 0.0
-0.0255644 0.000236179 0.013273
0.00720262 0.000424482 0.0122652
-0.0205317 0.00315552 -0.00884322
-0.0234465 0.00576585 -0.00932756
-0.00405648 0.00512466 -0.00975079
0.00662545 0.0195414 -0.00875468
-0.0108983 -0.00873516 0.00284661
-0.00141103 -0.00556322 0.00646993
0.0 0.0 0.0
-0.0176365 -0.00514223 -0.00041559
0.00256697 -0.00190916 -0.000933976
-0.00972929 -0.000283318 0.00694046
-0.00910109 -0.00601941 -0.0104269
0.00132347 0.00250511 0.00522481
0.00410196 -0.0153176 -0.00276502
-0.00574256 -0.00438842 -0.00580946
-0.00491759 0.00265127 0.00165251
0.00213973 0.00196089 0.00223958
0.000192475 0.00568605 0.00016686
-0.00246962 0.00467053 0.00209127
0.0 0.0 0.0
0.00665853 -0.00828453 0.00322877
-0.0236046 -0.0327628 -0.00537673
-0.0103296 -0.00347184 -0.00130654
-0.0224009 -0.0163478 0.0134979
-0.0134354 0.0243547 -0.0114862
-0.011575 0.00974983 0.000296433
-0.00348698 0.00156942 -0.00716696
-0.032496 0.0281331 -0.00792383
0.000459387 -0.000584634 -0.00549012
-0.00932316 -0.01521 0.011497
0.0 0.0 0.0
0.00569614 0.00746936 -0.00157953
0.000631636 0.00418787 0.00538805
4.22477e-06 -0.00161732 0.00291411
-0.00257119 0.00352649 -0.00198014
0.0 0.0 0.0
0.00727282 -0.00677278 0.00851782
0.0 0.0 0.0
0.00077179 -0.00767945 -0.000849241
-0.0143553 -0.00394162 0.000948347
0.00745494 0.0196801 -0.00274186
-0.00166412 0.00383847 -0.00178708
-0.000399018 0.000529742 -0.00360547
-0.00173985 0.00812844 0.0032355
-0.000607735 0.0113314 0.00453769
-0.00353934 -0.0103627 0.00692839
0.0 0.0 0.0
-0.00533766 0.0200373 -0.00248718
0.00497783 -0.00113613 -0.00632556
0.000937605 0.0292036 0.000165556
-0.00301312 -0.00507243 -0.0014689
0.00281402 -0.00775986 -0.00200678
0.0 0.0 0.0
-0.00247093 0.00703944 -0.000271166
-0.00331062 0.00874003 0.000499121
0.00147626 0.000726559 -0.000887223
-0.0172088 0.00286483 0.0114825
-0.00709095 0.0107917 0.00481896
0.0 0.0 0.0
0.00426271 0.00440126 0.00626067
0.000399018 -0.000529742 0.00360547
-0.00191905 0.00618375 0.00209148
0.00754788 0.00414962 0.00414212
0.0 0.0 0.0
0.00836751 -0.0102104 0.0017823
0.0058788 0.0023256 0.00217093
-0.000945143 -0.00240198 0.000405728
0.00548405 -0.00196701 0.00174006
-0.00183826 -0.00199255 -0.000228307
-0.00298377 0.00663732 -0.00211985
0.00685508 0.0032012 0.000457988
-0.00326674 0.00533536 -0.00221038
0.00445164 0.00291415 0.00578418
0.00223339 0.0038427 0.0163655
-0.00604675 -0.00297599 0.00363407
0.0 0.0 0.0
0.00117997 0.00681114 -0.000824501
0.00713541 -0.00975362 0.00714356
-0.00133341 0.000963204 0.00846452
-0.00662545 -0.00078398 0.0133986
0.0 0.0 0.0
0.0 0.0 0.0
0.0 0.0 0.0
0.0 0.0 0.0
0.00106563 0.0111609 0.00619177
0.0 0.0 0.0
0.0 0.0 0.0
0.00229097 0.00441706 0.00444546
SCALARS radius float 1
LOOKUP_TABLE default
0.00891513
0.00557196
0.00557196
0.00557196
0.00557196
0.00557196
0.00557196
0.00557196
0.00891513
0.00557196
0.00557196
0.00557196
0.00557196
0.00557196
0.00557196
0.00557196
0.00891513
0.00891513
0.00891513
0.00557196
0.00557196
0.00557196
0.00891513
0.00891513
0.00557196
0.00557196
0.00557196
0.00891513
0.00557196
0.00557196
0.00891513
0.00891513
0.00891513
0.00891513
0.00557196
0.00557196
0.00557196
0.00557196
0.00557196
0.00557196
0.00557196
0.00891513
0.00557196
0.00891513
0.00557196
0.00557196
0.00891513
0.00557196
0.00557196
0.00891513
0.00557196
0.00557196
0.00891513
0.00557196
0.00557196
0.00557196
0.00557196
0.00891513
0.00557196
0.00557196
0.00891513
0.00891513
0.00891513
0.00557196
0.00891513
0.00557196
0.00891513
0.00891513
0.00891513
0.00557196
0.00891513
0.00557196
0.00557196
0.00891513
0.00557196
0.00557196
0.00557196
0.00557196
0.00891513
0.00557196
0.00891513
0.00557196
0.00891513
0.00557196
0.00557196
0.00557196
0.00891513
0.00891513
0.00557196
0.00557196
0.00557196
0.00557196
0.00557196
0.00891513
0.00891513
0.00557196
0.00557196
0.00557196
0.00557196
0.00891513
0.00557196
0.00557196
0.00891513
0.00557196
0.00557196
0.00557196
0.00557196
0.00557196
0.00557196
0.00891513
0.00891513
0.00557196
0.00557196
0.00557196
0.00891513
0.00557196
0.00557196
0.00557196
0.00891513
0.00891513
0.00891513
0.00557196
0.00557196
0.00891513
0.00891513
0.00891513
0.00557196
0.00557196
0.00557196
0.00557196
0.00557196
0.00557196
0.00557196
0.00557196
0.00891513
0.00891513
0.00891513
0.00891513
0.00557196
0.00557196
0.00891513
0.00891513
0.00557196
0.00557196
0.00557196
0.00557196
0.00557196
0.00891513
0.00557196
0.00557196
0.00557196
0.00557196
0.00557196
0.00891513
0.00557196
0.00891513
0.00557196
0.00557196
0.00557196
0.00557196
0.00557196
0.00891513
0.00557196
0.00891513
0.00557196
0.00557196
0.00557196
0.00557196
0.00891513
0.00557196
0.00891513
0.00557196
0.00557196
0.00557196
0.00557196
0.00557196
0.00891513
0.00557196
0.00557196
0.00557196
0.00557196
0.00557196
0.00557196
0.00557196
0.00557196
0.00557196
0.00891513
0.00891513
0.00557196
0.00891513
0.00891513
0.00891513
0.00891513
0.00891513
0.00891513
0.00891513
0.00891513
0.00557196
0.00557196
0.00891513
0.00557196
0.00557196
0.00557196
0.00557196
0.00557196
0.00557196
0.00891513
0.00891513
0.00557196
0.00891513
0.00557196
0.00891513
0.00557196
0.00891513
0.00557196
0.00891513
0.00557196
0.00557196
0.00557196
0.00557196
0.00557196
0.00557196
0.00891513
0.00557196
0.00891513
0.00891513
0.00557196
0.00891513
0.00557196
0.00891513
0.00891513
0.00891513
0.00557196
0.00891513
0.00557196
0.00557196
0.00891513
0.00891513
0.00891513
0.00557196
0.00557196
0.00557196
0.00557196
0.00891513
0.00891513
0.00557196
0.00557196
0.00557196
0.00557196
0.00891513
0.00891513
0.00891513
0.00557196
0.00891513
0.00891513
0.00557196
0.00557196
0.00891513
0.00557196
0.00557196
0.00891513
0.00557196
0.00557196
0.00557196
0.00557196
0.00557196
0.00557196
0.00557196
0.00557196
0.00557196
0.00557196
0.00891513
0.00557196
0.00891513
0.00557196
0.00557196
0.00557196
0.00891513
0.00891513
0.00557196
0.00557196
0.00557196
0.00557196
0.00557196
0.00557196
0.00891513
0.00557196
0.00891513
0.00891513
0.00891513
0.00891513
0.00557196
0.00557196
0.00557196
0.00557196
0.00557196
0.00891513
0.00557196
0.00891513
0.00891513
0.00557196
0.00891513
0.00891513
0.00891513
0.00891513
0.00891513
0.00891513
0.00557196
0.00557196
0.00557196
0.00891513
0.00891513
0.00557196
0.00891513
0.00891513
0.00891513
0.00891513
0.00557196
0.00557196
0.00557196
0.00557196
0.00557196
0.00891513
0.00557196
0.00557196
0.00557196
0.00557196
0.00557196
0.00891513
0.00557196
0.00557196
0.00557196
0.00557196
0.00557196
0.00557196
0.00557196
0.00557196
SCALARS type float 1
LOOKUP_TABLE default
1.0
1.0
1.0
1.0
1.0
1.0
1.0
1.0
1.0
1.0
1.0
1.0
1.0
1.0
1.0
1.0
1.0
1.0
1.0
1.0
1.0
1.0
1.0
1.0
1.0
1.0
1.0
1.0
1.0
1.0
1.0
1.0
1.0
1.0
1.0
1.0
1.0
1.0
1.0
1.0
1.0
1.0
1.0
1.0
1.0
1.0
1.0
1.0
1.0
1.0
1.0
1.0
1.0
1.0
1.0
1.0
1.0
1.0
1.0
1.0
1.0
1.0
1.0
1.0
1.0
1.0
1.0
1.0
1.0
1.0
1.0
1.0
1.0
1.0
1.0
1.0
1.0
1.0
1.0
1.0
1.0
1.0
1.0
1.0
1.0
1.0
1.0
1.0
1.0
1.0
1.0
1.0
1.0
1.0
1.0
1.0
1.0
1.0
1.0
1.0
1.0
1.0
1.0
1.0
1.0
1.0
1.0
1.0
1.0
1.0
1.0
1.0
1.0
1.0
1.0
1.0
1.0
1.0
1.0
1.0
1.0
1.0
1.0
1.0
1.0
1.0
1.0
1.0
1.0
1.0
1.0
1.0
1.0
1.0
1.0
1.0
1.0
1.0
1.0
1.0
1.0
1.0
1.0
1.0
1.0
1.0
1.0
1.0
1.0
1.0
1.0
1.0
1.0
1.0
1.0
1.0
1.0
1.0
1.0
1.0
1.0
1.0
1.0
1.0
1.0
1.0
1.0
1.0
1.0
1.0
1.0
1.0
1.0
1.0
1.0
1.0
1.0
1.0
1.0
1.0
1.0
1.0
1.0
1.0
1.0
1.0
1.0
1.0
1.0
1.0
1.0
1.0
1.0
1.0
1.0
1.0
1.0
1.0
1.0
1.0
1.0
1.0
1.0
1.0
1.0
1.0
1.0
1.0
1.0
1.0
1.0
1.0
1.0
1.0
1.0
1.0
1.0
1.0
1.0
1.0
1.0
1.0
1.0
1.0
1.0
1.0
1.0
1.0
1.0
1.0
1.0
1.0
1.0
1.0
1.0
1.0
1.0
1.0
1.0
1.0
1.0
1.0
1.0
1.0
1.0
1.0
1.0
1.0
1.0
1.0
1.0
1.0
1.0
1.0
1.0
1.0
1.0
1.0
1.0
1.0
1.0
1.0
1.0
1.0
1.0
1.0
1.0
1.0
1.0
1.0
1.0
1.0
1.0
1.0
1.0
1.0
1.0
1.0
1.0
1.0
1.0
1.0
1.0
1.0
1.0
1.0
1.0
1.0
1.0
1.0
1.0
1.0
1.0
1.0
1.0
1.0
1.0
1.0
1.0
1.0
1.0
1.0
1.0
1.0
1.0
1.0
1.0
1.0
1.0
1.0
1.0
1.0
1.0
1.0
1.0
1.0
1.0
1.0
1.0
1.0
1.0
1.0
1.0
1.0
1.0
1.0
1.0
1.0
1.0
1.0
1.0
1.0
1.0
1.0
1.0
1.0
1.0
SCALARS id float 1
LOOKUP_TABLE default
50.0
138.0
304.0
141.0
297.0
293.0
325.0
285.0
10.0
241.0
126.0
240.0
207.0
140.0
197.0
258.0
92.0
98.0
60.0
154.0
188.0
298.0
106.0
80.0
183.0
277.0
171.0
41.0
180.0
213.0
23.0
58.0
32.0
6.0
327.0
291.0
174.0
158.0
128.0
264.0
234.0
89.0
263.0
37.0
328.0
331.0
48.0
329.0
172.0
88.0
164.0
200.0
9.0
305.0
274.0
186.0
135.0
40.0
173.0
246.0
61.0
38.0
119.0
225.0
122.0
260.0
121.0
64.0
84.0
288.0
81.0
193.0
205.0
47.0
149.0
257.0
192.0
232.0
34.0
229.0
94.0
143.0
102.0
198.0
278.0
137.0
70.0
85.0
227.0
199.0
321.0
259.0
130.0
62.0
79.0
169.0
127.0
265.0
273.0
12.0
184.0
142.0
72.0
230.0
247.0
163.0
295.0
222.0
292.0
17.0
44.0
159.0
314.0
195.0
73.0
153.0
322.0
216.0
2.0
30.0
35.0
239.0
275.0
103.0
66.0
13.0
253.0
296.0
252.0
144.0
160.0
238.0
203.0
212.0
22.0
75.0
49.0
100.0
228.0
249.0
55.0
99.0
319.0
156.0
245.0
301.0
308.0
105.0
201.0
217.0
276.0
248.0
155.0
18.0
294.0
8.0
133.0
250.0
233.0
152.0
175.0
33.0
208.0
31.0
147.0
269.0
317.0
267.0
107.0
204.0
19.0
157.0
236.0
324.0
306.0
151.0
93.0
165.0
290.0
261.0
145.0
286.0
220.0
280.0
333.0
182.0
77.0
101.0
146.0
4.0
82.0
118.0
45.0
117.0
69.0
26.0
24.0
237.0
336.0
97.0
326.0
307.0
132.0
210.0
181.0
310.0
65.0
5.0
206.0
111.0
272.0
108.0
161.0
115.0
242.0
95.0
166.0
179.0
221.0
224.0
302.0
231.0
46.0
185.0
39.0
29.0
189.0
68.0
282.0
28.0
83.0
104.0
134.0
25.0
279.0
337.0
3.0
74.0
42.0
177.0
303.0
202.0
124.0
51.0
114.0
311.0
167.0
148.0
300.0
14.0
112.0
91.0
194.0
116.0
53.0
309.0
136.0
56.0
235.0
176.0
20.0
196.0
330.0
215.0
332.0
218.0
335.0
318.0
170.0
131.0
251.0
21.0
271.0
27.0
191.0
315.0
255.0
52.0
59.0
223.0
190.0
123.0
316.0
281.0
139.0
76.0
162.0
96.0
71.0
43.0
63.0
262.0
270.0
209.0
268.0
168.0
78.0
214.0
7.0
113.0
334.0
86.0
15.0
120.0
87.0
67.0
54.0
178.0
125.0
219.0
16.0
110.0
243.0
90.0
11.0
36.0
1.0
312.0
226.0
150.0
256.0
284.0
109.0
323.0
211.0
320.0
254.0
289.0
57.0
266.0
187.0
299.0
129.0
283.0
287.0
313.0
244.0

