# vtk DataFile Version 2.0
Generated by lpp.py
ASCII
DATASET POLYDATA
POINTS 337 float
-0.0274983 -0.0407563 0.0088672
-0.0135145 -0.0389568 0.00551569
-0.0203622 -0.0270926 0.00699015
0.00458197 -0.0299614 0.00764262
0.0398506 -0.0305555 0.00586926
-0.0112341 -0.0168028 0.00562325
0.0327465 -0.0177779 0.00687143
0.0162128 -0.0106887 0.00706151
-0.0172651 -0.00156703 0.00885672
0.00507607 -0.00227798 0.00757443
-0.0326047 0.0126468 0.00663443
0.0430248 0.0182279 0.0091041
-0.00808455 0.0229045 0.00911745
0.0155622 0.0310265 0.00889252
0.00869694 0.0396192 0.0079981
0.010386 -0.0423478 0.0159318
0.0267657 -0.0343682 0.0139665
-0.00542032 -0.0244143 0.0162971
0.0123637 -0.0261276 0.0144609
-0.0328598 -0.0226693 0.015738
-0.0188743 -0.0196644 0.0151235
0.0385349 -0.0200717 0.0159808
-0.038765 -0.00620213 0.0134454
0.0279381 -0.00783739 0.0160241
0.0180775 0.00254495 0.0152054
-0.0244797 0.00836656 0.0162781
-0.0125515 0.0115937 0.0120142
0.0305203 0.00941567 0.013283
-0.0438616 0.0185434 0.0125122
-0.0165944 0.020937 0.0162331
0.0104163 0.018554 0.01376
0.0287329 0.0269698 0.0128735
-0.0311668 0.040719 0.0127287
-0.0145486 0.0349894 0.0142864
0.00677289 0.0320439 0.0171166
0.0405807 0.0399096 0.0147474
-0.00332904 0.0435665 0.0167911
0.0164782 0.0423267 0.0153426
-0.0009651 -0.044169 0.0205727
0.0310659 -0.0428047 0.0247395
-0.0423892 -0.0359636 0.0231362
-0.0187489 -0.0392621 0.0241214
0.00358683 -0.0341827 0.0217151
0.0388469 -0.0308622 0.0263456
-0.0441018 -0.0166508 0.0222919
0.00393709 -0.0212932 0.0266581
0.0182277 -0.0208824 0.0272202
0.0320615 -0.0173214 0.0259617
-0.0144018 -0.010651 0.0234106
0.00181915 -0.00873462 0.0199629
0.0394885 -0.00931293 0.0244
-0.0377134 0.0131356 0.0218794
-0.0101592 0.00567823 0.0264169
0.00362977 0.00562056 0.0221568
0.0427503 0.00503166 0.0256114
0.0158789 0.0210705 0.0273017
0.0404903 0.0208285 0.0218043
-0.029686 0.0249434 0.0205079
0.0353247 0.0408973 0.0261616
0.0254712 0.0430947 0.0216983
-0.0371997 -0.0382408 0.0363173
-0.0158585 -0.023051 0.0304691
-0.000704047 -0.0311229 0.0360061
0.0279118 -0.0299521 0.0355863
-0.0411387 -0.0210506 0.0356166
-0.044214 -0.00496395 0.0312857
-0.0294963 -0.00862629 0.0282721
-0.000104006 -0.00784219 0.0374857
0.0163866 0.00173155 0.0294254
0.035527 0.00305069 0.0343188
-0.0357045 0.00887386 0.0359046
-0.0218001 0.0110906 0.0331616
-0.0113751 0.0178024 0.0339834
0.00284014 0.0175002 0.0320949
0.0276205 0.0182763 0.0297583
-0.0434665 0.0285153 0.0285541
-0.0359757 0.0324265 0.035649
-0.00965326 0.0345627 0.0374699
0.00361371 0.0351809 0.0320536
0.0194164 0.0321812 0.0284512
0.0408382 0.0320695 0.0360335
-0.0423548 0.0422544 0.028933
-0.0238523 0.0411784 0.0287838
-0.00817251 0.0444841 0.0299486
0.00563756 -0.0422412 0.0458094
-0.0165192 -0.0386639 0.0389513
0.0170917 -0.0391196 0.0377575
0.0387581 -0.0404292 0.0458607
-0.0273256 -0.0244195 0.0389759
0.0373989 -0.027194 0.0405036
0.0114151 -0.0161709 0.039396
0.0430847 -0.01482 0.0425225
-0.0383046 -0.00956704 0.04373
0.0260718 -0.00988432 0.038532
-0.0181371 -0.00134871 0.0426933
0.0444855 -0.00389707 0.0418056
0.0116487 0.00621177 0.0422023
0.0236872 0.010405 0.0392852
-0.019713 0.0202322 0.0453988
0.0380864 0.018836 0.0408899
-0.0326546 0.0227413 0.0397508
-0.0439977 0.0378317 0.0409464
0.0175462 0.0408436 0.0412905
-0.0269983 0.0417901 0.0427661
0.031815 0.0418944 0.0423063
0.0423776 0.04367 0.0456867
-0.043669 -0.0444841 0.0503077
0.00155189 -0.0414758 0.0560574
-0.0436981 -0.0331715 0.0548493
0.0172657 -0.0399121 0.0553875
-0.0229932 -0.0280666 0.0521531
-0.00256619 -0.0299349 0.0511422
-0.0104093 -0.0220077 0.0488853
0.00311648 -0.021272 0.047029
0.020529 -0.0226144 0.0523195
-0.0299526 -0.00613304 0.0503534
0.00277692 -0.00984179 0.0513892
0.0423925 -0.00881857 0.0544295
0.0150905 -0.00390153 0.0557353
0.0336721 0.00183547 0.0492872
-0.00141631 0.0113673 0.052501
0.0151632 0.00994513 0.0519752
0.0392653 0.0147853 0.0521612
0.0141152 0.024007 0.0546267
0.0313627 0.026755 0.0520818
0.00167686 0.0372317 0.0494764
0.0439921 0.0405617 0.0561501
-0.0439126 -0.0397636 0.064903
-0.0332742 -0.0401625 0.0580686
-0.0193988 -0.0408716 0.0615057
-0.00919199 -0.0394587 0.0575587
0.0316332 -0.0348777 0.0570028
0.0444636 -0.0379969 0.0587937
-0.011128 -0.0282328 0.0617098
0.041178 -0.0236693 0.0590433
-0.0320142 -0.0168709 0.0623889
0.00689822 -0.0182087 0.0626292
-0.0106872 -0.0097418 0.0563171
-0.000259611 -0.00172725 0.062043
0.040037 0.00224856 0.0622716
-0.0291149 0.00470939 0.0597061
-0.041178 0.01756 0.0567941
-0.0192963 0.020271 0.0597364
-0.00984457 0.0157734 0.0632397
0.0444409 0.0182121 0.0613351
3.38268e-05 0.0251849 0.0570841
-0.040849 0.0333952 0.062481
-0.0245179 0.0335666 0.0584005
-0.00681066 0.0331703 0.0641183
0.0158527 0.0373774 0.0634411
-0.00227622 0.0435945 0.0651894
0.0290737 0.0419165 0.0609216
-0.0165968 -0.0423813 0.0720973
0.0290687 -0.041178 0.072393
-0.0303646 -0.0320226 0.0710061
-0.00273322 -0.037306 0.072277
0.0174437 -0.0322955 0.0693803
-0.0422817 -0.0286668 0.07142
-0.0217903 -0.0252957 0.068776
-0.0135407 -0.0181149 0.0702361
0.0150463 -0.00926764 0.0703358
0.0295051 -0.00787198 0.0684584
-0.0180692 -0.00445422 0.0714485
0.00882949 -0.000413875 0.0681606
0.00318247 0.0077322 0.0730125
-0.030556 0.0182786 0.066406
0.00233612 0.0192283 0.071774
0.027615 0.0181065 0.0670042
-0.00771905 0.0240183 0.0713142
0.0389452 0.0328128 0.0671144
-0.0422298 0.0442849 0.0692929
-0.0182993 0.0432912 0.0678726
0.00814747 0.0428583 0.069128
0.00911227 -0.0444841 0.0839001
0.0444862 -0.0444862 0.0799103
-0.0321994 -0.03936 0.0831937
0.013751 -0.0355363 0.0792601
-0.00798959 -0.0277687 0.0834937
0.0118746 -0.0240554 0.0771938
0.0423972 -0.0302254 0.0778629
-0.0434452 -0.0162945 0.0842202
-0.0191174 -0.0202888 0.0795057
-0.00926174 -0.0166612 0.0830462
-0.000447229 -0.021822 0.0773932
-0.0375861 -0.00928174 0.0776728
0.00240467 -0.00843124 0.0816693
0.0192361 -0.013423 0.0834821
0.0397208 -0.013286 0.077117
-0.0369259 0.00144615 0.0749889
0.0168044 0.00387059 0.0809293
-0.0130743 0.0131346 0.0789692
0.0393626 0.00960034 0.0810955
-0.0399282 0.0150019 0.0785893
-0.0117588 0.0317847 0.0842939
0.00698822 0.0293433 0.0808171
0.0289596 0.0240201 0.0837968
-0.0343362 0.0322883 0.0752125
0.0444841 0.0331375 0.0803412
-0.0242412 0.0417037 0.0791075
0.0229411 0.041178 0.0753172
0.0374928 0.04184 0.0819333
-0.0427432 -0.0444848 0.091458
-0.0191699 -0.0444721 0.0863334
-0.00019886 -0.0422318 0.0897616
0.0390291 -0.0410092 0.0888479
0.0129956 -0.036456 0.0903977
0.00584614 -0.0239754 0.0903412
0.0292461 -0.0253797 0.0917488
-0.033771 -0.0204029 0.087584
-0.0231153 0.000339705 0.0891331
-0.00434948 -0.00171879 0.0934608
0.0391535 -0.00443549 0.0934301
-0.0377568 0.00505069 0.0886883
0.00222603 0.011279 0.0875693
-0.039501 0.0192395 0.0922858
-0.0260775 0.0218585 0.0871126
0.0439992 0.0158423 0.0931485
-0.0420073 0.030275 0.0930607
-0.0444836 0.0371208 0.0847683
-0.0302058 0.0434382 0.088227
0.00186275 0.0437656 0.0919263
0.012522 0.0410048 0.0912165
-0.0140405 -0.0341241 0.094839
0.0073759 -0.033247 0.10168
0.0210629 -0.040746 0.101454
-0.0389902 -0.0292515 0.100213
-0.0296232 -0.0184916 0.0976317
-0.0103672 -0.0157542 0.0994848
0.0199377 -0.0161362 0.0975492
0.0190381 0.00283822 0.101349
-0.041178 0.00974705 0.102941
-0.0121911 0.00964492 0.102549
-0.0110755 0.0225142 0.0963145
0.0319556 0.0171866 0.100823
-0.0314915 0.0230867 0.102813
0.000447201 0.0233725 0.0983726
0.0145444 0.0254803 0.0967833
-0.017252 0.0379872 0.0998777
0.0290377 0.0372473 0.0980004
-0.0430755 0.041054 0.0951641
-0.0425444 -0.0417262 0.106335
0.00595269 -0.0436944 0.112116
-0.0284291 -0.0395801 0.109206
-0.00492185 -0.0345988 0.109941
0.0383703 -0.0367371 0.107745
-0.0299435 -0.0255879 0.110723
-0.0217714 -0.0234056 0.103633
0.0223642 -0.0248157 0.109101
0.00504177 -0.0204525 0.104276
0.0355711 -0.0187238 0.106822
-0.0398353 -0.00822896 0.10796
0.0106411 -0.00916271 0.111196
-0.0273773 -0.00179475 0.103355
0.0396201 0.00239498 0.109698
0.00634854 0.0154927 0.108805
0.0206488 0.0163316 0.109613
-0.0405467 0.0314702 0.104201
-0.00828331 0.0276517 0.112175
0.0440369 0.0296515 0.11208
-0.0292713 0.0376047 0.107898
0.00423681 0.0374791 0.104596
-0.039986 0.0430909 0.10556
0.0161485 0.0445079 0.108301
0.0276209 -0.0435338 0.114377
0.0363889 -0.0444842 0.121008
-0.0219888 -0.0336781 0.115947
0.00513611 -0.0367699 0.121067
0.0443515 -0.0368519 0.121311
-0.00799813 -0.0245832 0.120614
-0.0132489 -0.0168256 0.113495
0.00247571 -0.022748 0.115155
-0.0241134 -0.00779213 0.115969
-0.00283457 -0.0131346 0.114088
0.0265087 -0.00583587 0.118173
-0.034995 0.00143417 0.117452
-0.00567039 0.00145175 0.117133
0.0165661 0.00454964 0.117727
-0.0334993 0.0172586 0.117357
-0.0149479 0.0141985 0.121419
0.0436911 0.0168576 0.112701
-0.0243473 0.0283021 0.117228
0.024628 0.0245338 0.115832
0.0376163 0.0303836 0.121719
0.0357917 0.0369235 0.113022
-0.00161593 0.0409847 0.118737
0.023306 0.0411602 0.120264
-0.0233321 -0.0417958 0.13089
-0.0350771 -0.0381989 0.123092
0.0198499 -0.0363424 0.124053
0.00307305 -0.0256791 0.129925
-0.0375385 -0.020737 0.123818
-0.00669112 -0.0143044 0.125637
0.026524 -0.0198347 0.122713
-0.0376867 -0.0078902 0.130195
-0.0161476 -0.00763529 0.127918
0.0112684 -0.0127664 0.126523
0.0411779 -0.00954478 0.127263
0.00810683 4.07336e-05 0.127863
0.0301447 0.0105546 0.124098
0.00215339 0.0197971 0.126779
0.0420643 0.0173181 0.130161
-0.0352508 0.0390452 0.123829
0.00754297 0.036287 0.130024
-0.0049539 -0.0411274 0.132869
0.0357382 -0.0411781 0.140735
-0.0200058 -0.0270954 0.134242
0.0223715 -0.023642 0.136046
0.0391514 -0.0265738 0.131431
-0.0406748 -0.0210482 0.138434
-0.0298564 -0.015539 0.134758
-0.00549013 -0.0158988 0.136489
-0.0217427 -0.00427381 0.14069
-0.0056949 0.00151892 0.131477
0.019633 0.0028311 0.135987
0.039454 0.0033345 0.139293
-0.0316767 0.00916755 0.132936
-0.0411775 0.0236705 0.136238
-0.0171136 0.0253402 0.13681
0.021968 0.0270426 0.134262
0.0380198 0.0270345 0.133475
-0.0219008 0.0382721 0.132863
-0.00453601 0.0322085 0.137412
0.0364392 0.0379312 0.134193
0.00477558 -0.0413752 0.143404
-0.0313331 -0.0326703 0.14105
0.018716 -0.0407483 0.140783
-0.00118075 -0.0307985 0.14263
0.0223294 -0.00957069 0.143033
0.0418392 -0.00813087 0.141625
-0.000849836 0.0168053 0.144333
0.0187551 0.0164007 0.143662
0.0427928 0.0188044 0.142336
0.00824837 0.0303175 0.144275
-0.0408648 0.0357214 0.14401
-0.0287296 0.0419911 0.141284
0.0244268 0.0420447 0.142516
0.0415672 0.042769 0.142681
VERTICES 337 674
1 0
1 1
1 2
1 3
1 4
1 5
1 6
1 7
1 8
1 9
1 10
1 11
1 12
1 13
1 14
1 15
1 16
1 17
1 18
1 19
1 20
1 21
1 22
1 23
1 24
1 25
1 26
1 27
1 28
1 29
1 30
1 31
1 32
1 33
1 34
1 35
1 36
1 37
1 38
1 39
1 40
1 41
1 42
1 43
1 44
1 45
1 46
1 47
1 48
1 49
1 50
1 51
1 52
1 53
1 54
1 55
1 56
1 57
1 58
1 59
1 60
1 61
1 62
1 63
1 64
1 65
1 66
1 67
1 68
1 69
1 70
1 71
1 72
1 73
1 74
1 75
1 76
1 77
1 78
1 79
1 80
1 81
1 82
1 83
1 84
1 85
1 86
1 87
1 88
1 89
1 90
1 91
1 92
1 93
1 94
1 95
1 96
1 97
1 98
1 99
1 100
1 101
1 102
1 103
1 104
1 105
1 106
1 107
1 108
1 109
1 110
1 111
1 112
1 113
1 114
1 115
1 116
1 117
1 118
1 119
1 120
1 121
1 122
1 123
1 124
1 125
1 126
1 127
1 128
1 129
1 130
1 131
1 132
1 133
1 134
1 135
1 136
1 137
1 138
1 139
1 140
1 141
1 142
1 143
1 144
1 145
1 146
1 147
1 148
1 149
1 150
1 151
1 152
1 153
1 154
1 155
1 156
1 157
1 158
1 159
1 160
1 161
1 162
1 163
1 164
1 165
1 166
1 167
1 168
1 169
1 170
1 171
1 172
1 173
1 174
1 175
1 176
1 177
1 178
1 179
1 180
1 181
1 182
1 183
1 184
1 185
1 186
1 187
1 188
1 189
1 190
1 191
1 192
1 193
1 194
1 195
1 196
1 197
1 198
1 199
1 200
1 201
1 202
1 203
1 204
1 205
1 206
1 207
1 208
1 209
1 210
1 211
1 212
1 213
1 214
1 215
1 216
1 217
1 218
1 219
1 220
1 221
1 222
1 223
1 224
1 225
1 226
1 227
1 228
1 229
1 230
1 231
1 232
1 233
1 234
1 235
1 236
1 237
1 238
1 239
1 240
1 241
1 242
1 243
1 244
1 245
1 246
1 247
1 248
1 249
1 250
1 251
1 252
1 253
1 254
1 255
1 256
1 257
1 258
1 259
1 260
1 261
1 262
1 263
1 264
1 265
1 266
1 267
1 268
1 269
1 270
1 271
1 272
1 273
1 274
1 275
1 276
1 277
1 278
1 279
1 280
1 281
1 282
1 283
1 284
1 285
1 286
1 287
1 288
1 289
1 290
1 291
1 292
1 293
1 294
1 295
1 296
1 297
1 298
1 299
1 300
1 301
1 302
1 303
1 304
1 305
1 306
1 307
1 308
1 309
1 310
1 311
1 312
1 313
1 314
1 315
1 316
1 317
1 318
1 319
1 320
1 321
1 322
1 323
1 324
1 325
1 326
1 327
1 328
1 329
1 330
1 331
1 332
1 333
1 334
1 335
1 336
POINT_DATA 337
VECTORS i float
0.0 0.0 0.0
0.0 0.0 0.0
0.0 0.0 0.0
0.0 0.0 0.0
0.0 0.0 0.0
0.0 0.0 0.0
0.0 0.0 0.0
0.0 0.0 0.0
0.0 0.0 0.0
0.0 0.0 0.0
0.0 0.0 0.0
0.0 0.0 0.0
0.0 0.0 0.0
0.0 0.0 0.0
0.0 0.0 0.0
0.0 0.0 0.0
0.0 0.0 0.0
0.0 0.0 0.0
0.0 0.0 0.0
0.0 0.0 0.0
0.0 0.0 0.0
0.0 0.0 0.0
0.0 0.0 0.0
0.0 0.0 0.0
0.0 0.0 0.0
0.0 0.0 0.0
0.0 0.0 0.0
0.0 0.0 0.0
0.0 0.0 0.0
0.0 0.0 0.0
0.0 0.0 0.0
0.0 0.0 0.0
0.0 0.0 0.0
0.0 0.0 0.0
0.0 0.0 0.0
0.0 0.0 0.0
0.0 0.0 0.0
0.0 0.0 0.0
0.0 0.0 0.0
0.0 0.0 0.0
0.0 0.0 0.0
0.0 0.0 0.0
0.0 0.0 0.0
0.0 0.0 0.0
0.0 0.0 0.0
0.0 0.0 0.0
0.0 0.0 0.0
0.0 0.0 0.0
0.0 0.0 0.0
0.0 0.0 0.0
0.0 0.0 0.0
0.0 0.0 0.0
0.0 0.0 0.0
0.0 0.0 0.0
0.0 0.0 0.0
0.0 0.0 0.0
0.0 0.0 0.0
0.0 0.0 0.0
0.0 0.0 0.0
0.0 0.0 0.0
0.0 0.0 0.0
0.0 0.0 0.0
0.0 0.0 0.0
0.0 0.0 0.0
0.0 0.0 0.0
0.0 0.0 0.0
0.0 0.0 0.0
0.0 0.0 0.0
0.0 0.0 0.0
0.0 0.0 0.0
0.0 0.0 0.0
0.0 0.0 0.0
0.0 0.0 0.0
0.0 0.0 0.0
0.0 0.0 0.0
0.0 0.0 0.0
0.0 0.0 0.0
0.0 0.0 0.0
0.0 0.0 0.0
0.0 0.0 0.0
0.0 0.0 0.0
0.0 0.0 0.0
0.0 0.0 0.0
0.0 0.0 0.0
0.0 0.0 0.0
0.0 0.0 0.0
0.0 0.0 0.0
0.0 0.0 0.0
0.0 0.0 0.0
0.0 0.0 0.0
0.0 0.0 0.0
0.0 0.0 0.0
0.0 0.0 0.0
0.0 0.0 0.0
0.0 0.0 0.0
0.0 0.0 0.0
0.0 0.0 0.0
0.0 0.0 0.0
0.0 0.0 0.0
0.0 0.0 0.0
0.0 0.0 0.0
0.0 0.0 0.0
0.0 0.0 0.0
0.0 0.0 0.0
0.0 0.0 0.0
0.0 0.0 0.0
0.0 0.0 0.0
0.0 0.0 0.0
0.0 0.0 0.0
0.0 0.0 0.0
0.0 0.0 0.0
0.0 0.0 0.0
0.0 0.0 0.0
0.0 0.0 0.0
0.0 0.0 0.0
0.0 0.0 0.0
0.0 0.0 0.0
0.0 0.0 0.0
0.0 0.0 0.0
0.0 0.0 0.0
0.0 0.0 0.0
0.0 0.0 0.0
0.0 0.0 0.0
0.0 0.0 0.0
0.0 0.0 0.0
0.0 0.0 0.0
0.0 0.0 0.0
0.0 0.0 0.0
0.0 0.0 0.0
0.0 0.0 0.0
0.0 0.0 0.0
0.0 0.0 0.0
0.0 0.0 0.0
0.0 0.0 0.0
0.0 0.0 0.0
0.0 0.0 0.0
0.0 0.0 0.0
0.0 0.0 0.0
0.0 0.0 0.0
0.0 0.0 0.0
0.0 0.0 0.0
0.0 0.0 0.0
0.0 0.0 0.0
0.0 0.0 0.0
0.0 0.0 0.0
0.0 0.0 0.0
0.0 0.0 0.0
0.0 0.0 0.0
0.0 0.0 0.0
0.0 0.0 0.0
0.0 0.0 0.0
0.0 0.0 0.0
0.0 0.0 0.0
0.0 0.0 0.0
0.0 0.0 0.0
0.0 0.0 0.0
0.0 0.0 0.0
0.0 0.0 0.0
0.0 0.0 0.0
0.0 0.0 0.0
0.0 0.0 0.0
0.0 0.0 0.0
0.0 0.0 0.0
0.0 0.0 0.0
0.0 0.0 0.0
0.0 0.0 0.0
0.0 0.0 0.0
0.0 0.0 0.0
0.0 0.0 0.0
0.0 0.0 0.0
0.0 0.0 0.0
0.0 0.0 0.0
0.0 0.0 0.0
0.0 0.0 0.0
0.0 0.0 0.0
0.0 0.0 0.0
0.0 0.0 0.0
0.0 0.0 0.0
0.0 0.0 0.0
0.0 0.0 0.0
0.0 0.0 0.0
0.0 0.0 0.0
0.0 0.0 0.0
0.0 0.0 0.0
0.0 0.0 0.0
0.0 0.0 0.0
0.0 0.0 0.0
0.0 0.0 0.0
0.0 0.0 0.0
0.0 0.0 0.0
0.0 0.0 0.0
0.0 0.0 0.0
0.0 0.0 0.0
0.0 0.0 0.0
0.0 0.0 0.0
0.0 0.0 0.0
0.0 0.0 0.0
0.0 0.0 0.0
0.0 0.0 0.0
0.0 0.0 0.0
0.0 0.0 0.0
0.0 0.0 0.0
0.0 0.0 0.0
0.0 0.0 0.0
0.0 0.0 0.0
0.0 0.0 0.0
0.0 0.0 0.0
0.0 0.0 0.0
0.0 0.0 0.0
0.0 0.0 0.0
0.0 0.0 0.0
0.0 0.0 0.0
0.0 0.0 0.0
0.0 0.0 0.0
0.0 0.0 0.0
0.0 0.0 0.0
0.0 0.0 0.0
0.0 0.0 0.0
0.0 0.0 0.0
0.0 0.0 0.0
0.0 0.0 0.0
0.0 0.0 0.0
0.0 0.0 0.0
0.0 0.0 0.0
0.0 0.0 0.0
0.0 0.0 0.0
0.0 0.0 0.0
0.0 0.0 0.0
0.0 0.0 0.0
0.0 0.0 0.0
0.0 0.0 0.0
0.0 0.0 0.0
0.0 0.0 0.0
0.0 0.0 0.0
0.0 0.0 0.0
0.0 0.0 0.0
0.0 0.0 0.0
0.0 0.0 0.0
0.0 0.0 0.0
0.0 0.0 0.0
0.0 0.0 0.0
0.0 0.0 0.0
0.0 0.0 0.0
0.0 0.0 0.0
0.0 0.0 0.0
0.0 0.0 0.0
0.0 0.0 0.0
0.0 0.0 0.0
0.0 0.0 0.0
0.0 0.0 0.0
0.0 0.0 0.0
0.0 0.0 0.0
0.0 0.0 0.0
0.0 0.0 0.0
0.0 0.0 0.0
0.0 0.0 0.0
0.0 0.0 0.0
0.0 0.0 0.0
0.0 0.0 0.0
0.0 0.0 0.0
0.0 0.0 0.0
0.0 0.0 0.0
0.0 0.0 0.0
0.0 0.0 0.0
0.0 0.0 0.0
0.0 0.0 0.0
0.0 0.0 0.0
0.0 0.0 0.0
0.0 0.0 0.0
0.0 0.0 0.0
0.0 0.0 0.0
0.0 0.0 0.0
0.0 0.0 0.0
0.0 0.0 0.0
0.0 0.0 0.0
0.0 0.0 0.0
0.0 0.0 0.0
0.0 0.0 0.0
0.0 0.0 0.0
0.0 0.0 0.0
0.0 0.0 0.0
0.0 0.0 0.0
0.0 0.0 0.0
0.0 0.0 0.0
0.0 0.0 0.0
0.0 0.0 0.0
0.0 0.0 0.0
0.0 0.0 0.0
0.0 0.0 0.0
0.0 0.0 0.0
0.0 0.0 0.0
0.0 0.0 0.0
0.0 0.0 0.0
0.0 0.0 0.0
0.0 0.0 0.0
0.0 0.0 0.0
0.0 0.0 0.0
0.0 0.0 0.0
0.0 0.0 0.0
0.0 0.0 0.0
0.0 0.0 0.0
0.0 0.0 0.0
0.0 0.0 0.0
0.0 0.0 0.0
0.0 0.0 0.0
0.0 0.0 0.0
0.0 0.0 0.0
0.0 0.0 0.0
0.0 0.0 0.0
0.0 0.0 0.0
0.0 0.0 0.0
0.0 0.0 0.0
0.0 0.0 0.0
0.0 0.0 0.0
0.0 0.0 0.0
0.0 0.0 0.0
0.0 0.0 0.0
0.0 0.0 0.0
0.0 0.0 0.0
0.0 0.0 0.0
0.0 0.0 0.0
0.0 0.0 0.0
0.0 0.0 0.0
0.0 0.0 0.0
0.0 0.0 0.0
0.0 0.0 0.0
0.0 0.0 0.0
0.0 0.0 0.0
0.0 0.0 0.0
0.0 0.0 0.0
0.0 0.0 0.0
0.0 0.0 0.0
0.0 0.0 0.0
0.0 0.0 0.0
0.0 0.0 0.0
0.0 0.0 0.0
0.0 0.0 0.0
VECTORS f float
-0.00138734 -0.0012564 -0.00255838
0.0 0.0 0.000436244
0.0 0.0 0.0
0.000406021 -0.000561192 -0.000126924
0.0 0.0 0.0
7.26698e-05 0.00136051 -0.0045186
0.000372137 -0.000941327 -0.00115659
0.0 0.0 0.0
-0.00336794 -0.016917 -0.00471643
-0.000167282 -0.000489957 0.000138436
0.0 0.0 0.0
0.0 0.0 0.0
0.0 0.0 0.0
0.000272071 0.000418254 -6.94508e-05
0.000694103 0.000865895 0.000915156
0.0 0.0 0.0
-0.00230593 -0.000240627 -0.00227104
-0.00796448 -0.00289816 -0.0160501
0.000789425 8.133e-05 0.000263732
-0.0203537 -0.00429316 -0.00217884
-0.00378949 0.000834363 -0.0040442
0.000476352 -0.000341565 0.000297089
-0.014268 0.00647507 -0.00115781
0.00834759 -0.00492595 -0.00613335
-0.00038061 -0.000138537 0.00236044
0.00144842 -0.00161896 -0.00120154
0.00401892 0.00114072 0.00115273
-0.00601161 0.00429693 0.00148941
0.0 0.0 0.0
0.00144163 -0.000127845 0.00322928
-2.23513e-05 -0.00051945 0.000263073
0.000745822 0.000950359 1.56051e-05
-0.00433662 0.00363203 -0.00116675
0.00191689 0.0101839 0.00134503
0.0 0.0 0.0
0.0 0.0 0.0
0.000798037 0.00119214 -8.54907e-05
0.00103452 -0.000384539 0.000259403
-0.000707626 -0.00131929 -0.000180911
-0.000697363 -0.00183371 0.000482444
-0.00019928 -0.00491274 -0.00355468
-0.00222442 -0.00234742 -0.0011345
-0.00192713 0.00186818 -0.000342197
-0.00102543 0.00126841 0.00449477
-0.00461346 0.00117422 0.00110906
0.00042551 -0.00203187 0.002586
0.0193918 -0.0212243 -0.000960275
0.00275507 -0.00399197 -0.0063528
-0.000971852 0.00160741 -0.00199929
-0.00469436 -0.00626241 -0.00379582
0.000695621 0.00159306 0.00152178
-0.000508735 -0.00010525 -3.2605e-06
-1.05358e-05 -0.0009607 -0.000640162
0.0 0.0 0.0
0.0 0.0 0.0
0.000821468 0.00020979 -0.000304523
0.0 0.0 0.0
-0.00156862 0.00152275 0.000166902
-0.00100371 8.36078e-06 -0.000561983
-0.000284478 -0.000722423 -0.000164802
0.000339603 0.00342432 0.00298531
-0.000130813 0.00144922 -0.00829387
-0.00134281 -0.00487191 0.0122228
-0.000311365 -0.00132222 -0.00094226
-0.00302273 0.00127018 0.00395099
0.0 0.0 0.0
-0.0032792 -0.000797243 -0.00186419
0.009101 -7.46311e-05 -0.00870643
0.00485622 -6.98206e-05 0.00496039
0.0 0.0 0.0
-5.95888e-05 -9.49986e-06 1.17552e-05
5.95888e-05 9.49986e-06 -1.17552e-05
-0.000341028 0.000525753 -3.79874e-05
0.0002835 -0.000100987 0.000190277
0.0 0.0 0.0
-1.184e-05 -0.000189741 -0.00126281
-0.000504233 0.00187479 -0.00140318
-0.000883274 -4.16501e-05 0.000397626
-0.000291811 -0.000603954 -0.00222918
0.0 0.0 0.0
-0.00101104 0.00058583 -0.000755247
0.0 0.0 0.0
-0.000224065 -0.000466644 0.00125601
0.0 -0.000286246 0.0
0.00121897 0.000572163 -0.000636779
0.0 0.0 0.0
0.00393481 0.00221982 -0.00171907
0.000112935 -0.00176442 -0.000932929
-0.000132062 0.000402163 -0.00139185
-0.000971109 0.000563954 -0.000880063
0.00171753 -0.000762392 -0.00104307
-0.000737019 0.001663 0.00101314
0.000227492 0.000794092 0.000804128
0.0214339 0.00390825 0.00227776
0.00158775 -0.000497773 0.000642243
0.000836954 0.00391576 0.00358087
0.0013142 -0.000265706 0.000167196
0.0 0.0 0.0
0.00182597 -0.000993153 0.00124974
0.0 0.0 0.0
-0.000838948 -0.00146788 -0.000722823
-0.0019626 0.00192915 0.00121991
0.000427723 0.000449684 0.000927553
0.000271745 -9.9141e-06 -0.00106142
0.000823474 6.18031e-05 4.46813e-05
-6.56782e-05 0.000132978 -0.000445431
0.0 0.000286754 0.0
0.000368303 -7.64067e-05 -4.38699e-05
0.0 0.0 0.0
0.000136031 0.000124665 0.000933309
0.000377487 -0.00140208 0.00102382
0.0 0.0 0.0
0.000657919 -3.07644e-05 -0.000176224
0.0 0.0 0.0
0.0012376 -0.000400497 -0.000897912
-4.63226e-05 -0.000642338 -0.000553363
-0.00712622 0.0003592 -0.00484551
0.0 0.0 0.0
-0.00106035 0.00512015 -0.00100253
0.0160281 0.0304768 0.0276823
-0.000687149 0.000328516 -0.000271752
-0.000119781 -0.000277134 -0.000658348
0.000414697 -0.000767793 -3.05728e-05
0.00103723 -0.00644142 -0.000588643
0.000313414 0.00140648 -0.00142472
-0.00124683 0.00207813 0.000124841
0.000360005 0.00031335 -0.000175025
0.0 0.0 0.0
0.0 0.0 0.0
-0.000349325 -5.65302e-05 0.000138781
-1.89779e-05 0.000132937 -9.49107e-05
-0.000436313 0.000283679 0.000684654
0.00034476 0.000128283 0.00078697
0.0 0.0 0.0
-0.00100823 0.0 0.0
-0.000890851 0.00104308 0.0012967
-0.00200999 -0.000215372 0.000380397
0.000354623 -0.00228987 0.0090901
-7.9167e-05 -2.04431e-05 0.000251768
0.0 0.0 0.0
4.63226e-05 0.000642338 0.000553363
0.000293634 -4.25797e-05 -0.000569566
0.0008473 -0.000324625 0.0012916
-0.000502501 0.000586514 0.000554766
0.0 0.0 0.0
-7.81299e-05 -0.00126512 0.000679003
-0.000388807 6.47394e-05 -0.000757594
0.0010806 -0.00141743 0.000136952
0.0 0.0 0.0
-8.66256e-05 -0.000467516 -0.000953889
0.0 0.0 0.0
0.0 0.0 0.0
0.0 0.0 0.0
0.0 0.000907878 0.0
0.000116815 0.000158118 -0.000346157
0.0 0.0 0.0
0.000165292 0.000142228 -0.000436391
0.0 0.0 0.0
-0.000356945 -0.000311552 -5.78511e-05
0.000581356 0.000398772 -0.000291619
0.000216504 0.00102576 0.000596503
0.0 0.0 0.0
-0.00488106 0.00180415 0.00457385
0.000466785 0.000337185 0.000356455
0.000635846 -0.00084853 -0.000660519
0.000639128 4.30528e-05 0.000575893
-0.000276488 -0.000601166 -0.000537452
-0.000647897 -0.000627331 0.0013989
0.00031662 0.000642718 -0.000450493
-0.000618632 -0.000466935 -0.000157736
0.0 0.0 0.0
0.0 0.0 0.0
-0.000339146 0.000237349 0.000244338
-0.00017365 -6.14594e-05 -0.000289662
0.00174719 -0.00165359 -0.000370114
0.000564054 -1.41551e-05 6.83879e-05
-0.000165292 -0.000142228 0.000436391
0.000382236 0.000360268 -0.000895202
0.0 0.0 0.0
0.0 0.0 0.0
0.000513273 -7.65055e-05 0.00049351
-0.000224411 -8.72205e-05 0.000349471
-0.000635385 -0.000439411 7.58583e-05
-0.000168867 -0.000839648 -0.000259623
0.0 0.0 0.0
-0.000468259 0.00166 7.47714e-05
0.000708882 -0.000690814 -0.00109269
0.0 0.0 0.0
0.000168599 -0.000766053 -0.000206972
0.000912006 0.000793328 -0.000779824
-0.000507617 -0.00120421 -0.000946442
-0.00054699 -0.000258529 -0.000340235
-0.00146087 0.000497675 -0.00195588
0.00176666 0.000325158 -0.00161118
0.000276488 0.000601166 0.000537452
0.0 0.0 0.0
-0.000209299 -0.000623553 0.000522162
3.92774e-05 2.01871e-05 0.000775337
0.000858292 0.000479124 -0.000168466
0.000421513 -0.000702986 0.000700411
0.0 0.0 0.0
-0.000139692 0.000263126 0.000171726
-0.000344443 0.00076793 0.000278667
0.0 0.0 0.0
-0.000259373 0.000163314 0.000423577
-0.000302424 0.000614915 -0.000356831
0.0 0.0 0.0
0.00081258 -0.00201363 -0.000918582
0.000385808 -8.58414e-05 0.00067843
0.0 0.0 0.0
0.0 0.0 0.0
-7.21428e-05 -0.000588113 -0.00137591
0.00014182 -0.000604861 0.000613709
-1.79206e-05 0.000482485 0.00130511
4.73526e-05 0.000242894 0.000768285
-0.00104883 0.000436831 0.0017184
0.000475767 0.000310459 0.00066645
-1.58986e-05 -0.00016183 0.000362623
0.000145267 0.000289968 -0.000229533
-0.000260185 7.96896e-05 0.000403898
0.00100928 0.00232381 -0.00305235
0.00107571 0.000546427 -0.00121258
-0.00115743 -0.000583923 -0.000584757
0.0 0.0 0.0
0.000478275 -0.000253104 0.000652033
5.67371e-05 0.000606286 -0.0010054
0.000241673 -4.25539e-05 -0.000129266
-0.00153836 -6.38369e-05 -0.000606401
-0.000528401 0.000408742 0.00117806
0.000999131 0.000890943 -0.000549563
0.000907881 0.0 0.0
-6.63021e-05 -0.000764849 0.000370531
6.63021e-05 0.000764849 -0.000370531
-0.00244343 9.48545e-05 0.000727252
0.0 0.0 0.0
-0.00144329 -0.0028974 -0.0010994
0.000543888 -0.00845845 -0.0107684
-0.000494263 0.000508056 0.00134198
0.0 0.0 0.0
0.000110814 9.38204e-05 0.000490135
-0.000116171 -0.00056393 0.000321461
0.000953584 -0.000758072 0.000255177
-0.000286827 -0.000262853 -0.000300211
-0.000251533 0.000532333 0.000954454
0.000679071 0.000390506 -0.000504472
0.000897814 0.000561391 -0.000146165
-0.000304811 6.28053e-05 -0.00049495
0.0 0.0 0.0
0.0 0.0 0.0
0.000455902 0.00056073 0.00114552
-0.00163961 -0.000112049 -0.000814266
-0.000497485 -0.000796443 0.000334483
-0.000236219 0.000466203 -0.000930687
0.00173548 0.00150292 0.000499764
0.00168639 -0.00585558 0.000868181
-0.000335646 -0.00080603 -0.000290887
0.0 0.0 0.0
-0.0209966 -0.00487792 0.000303704
0.000365451 -0.000320875 -4.43273e-05
0.0 0.0 0.0
0.0083235 0.0046035 -0.0114677
-0.000181281 -0.000201856 -0.000644748
0.00349954 -0.0007 -0.000646067
-0.000565089 -0.000637485 -0.000404811
7.10808e-05 -7.07301e-05 0.00028023
0.000286827 0.000262853 0.000300211
0.000156474 -0.000512838 -0.000712218
0.000420421 0.000389618 3.4723e-05
0.0 0.0 0.0
0.000370472 -0.000906761 0.00106826
0.000240091 -0.000370275 4.95902e-05
0.00199431 -0.000388173 0.00142009
-0.00086897 0.000197231 0.000152749
0.000644534 -0.000969765 0.00139688
-0.000624922 0.000542966 0.000145375
-1.51925e-05 4.15483e-06 -0.000623162
0.0 0.0 0.0
-0.00073787 2.35546e-05 -0.00126972
-0.0143376 -0.0234513 0.017408
0.0 0.0 0.0
0.000526232 0.000630079 3.85977e-06
-0.000448028 -0.000356258 -0.000450563
7.85638e-05 -0.000288123 0.000386301
-0.000444014 0.000608998 -0.000341974
0.0 0.0 0.0
0.00514477 -0.00502654 0.00635684
0.0 0.0 0.0
0.000184304 -0.001229 -3.34845e-05
-0.00162254 -0.000891639 -0.000315029
0.00237992 0.00594237 -0.00200934
-0.000602255 0.000258133 -0.000921202
-5.34875e-05 7.10109e-05 -0.000483306
0.0 0.0 0.0
-4.78026e-06 0.000698927 0.000355832
-0.000861981 -0.0016528 -0.00189772
0.0 0.0 0.0
0.00247172 -0.00142355 0.000490131
0.000996469 -9.08325e-05 -0.000263072
0.000924026 0.000678931 -0.0010451
-0.000475228 -0.00144106 -0.000285103
0.000182131 -0.000439043 -0.000148747
0.0 0.0 0.0
-0.000788232 0.00224584 -8.64818e-05
-0.00277061 -0.00489661 0.0013495
0.000479576 4.47718e-05 0.000651406
0.000673216 0.000331332 -0.000404599
-0.00144072 0.000301186 0.00130804
-0.000820539 0.000183801 -0.000583774
0.0 0.0 0.0
0.000422731 0.000271942 0.000598855
5.34875e-05 -7.10109e-05 0.000483306
-0.000551858 0.000370691 0.0013044
0.000432563 0.00136879 0.00147955
-0.000924026 -0.000678931 0.0010451
0.0 0.0 0.0
0.000850614 -0.00192582 0.000995654
-0.000218657 0.000724179 -0.000136392
-0.000461588 -0.00117316 0.000198169
0.00126346 -0.000804782 0.000371585
-0.000111472 -5.44372e-05 0.000112955
-0.000286213 0.000767111 -0.000234536
0.000747801 0.000406053 3.63669e-05
-0.000298622 0.000275526 -0.000342236
0.000538574 -0.000249059 0.000814795
-0.000673216 -0.000331332 0.000404599
0.0 0.0 0.0
-0.000304363 -0.000283868 0.000557264
0.0 0.0 0.0
0.0 0.0 0.0
0.0 0.0 0.0
0.0 0.0 0.0
0.0 0.0 0.0
0.0 0.0 0.0
-1.75065e-05 0.000659021 0.000419629
0.0 0.0 0.0
0.0 0.0 0.0
0.000227963 0.000217954 0.000378029
VECTORS omega float
0.151812 0.0381219 -0.0934326
0.0 0.0 0.0
0.0 0.0 0.0
0.688128 0.445047 0.694668
0.0 0.0 0.0
1.53488 -0.0729723 -1.10263
-0.115381 0.540944 -0.966897
0.0 0.0 0.0
-0.229243 0.229402 -0.654826
0.30379 0.129157 0.152341
0.0 0.0 0.0
0.0 0.0 0.0
0.0 0.0 0.0
-0.803985 -0.418497 0.744113
0.196415 -0.00595758 0.942011
0.0 0.0 0.0
-0.179912 0.443451 -0.0441342
-0.553338 0.704408 0.566223
-0.116011 -1.02473 0.708411
-0.282517 -0.460052 0.603573
-0.0850054 -0.790076 -1.27671
-1.63673 -1.65748 0.62358
0.493918 0.17137 -0.86328
-0.453528 -0.0261959 1.07449
-0.64077 -0.981444 -0.352333
-0.0245068 -0.0698879 0.068653
1.06337 1.00196 -0.667973
0.583893 -1.18308 -0.537641
0.0 0.0 0.0
-0.429697 -0.853533 1.04115
-0.106789 0.122609 0.201841
0.169753 -0.124875 0.383822
1.0418 -0.0964419 -0.0282559
-0.762129 -0.752433 0.18691
0.0 0.0 0.0
0.0 0.0 0.0
0.178581 -0.0909325 -0.452803
0.463526 -0.422928 -0.430734
0.921909 -0.198188 -1.90032
-0.528399 -0.344238 0.415822
0.341217 0.074008 -0.121555
0.96599 -0.349932 0.500462
-0.197676 -0.395604 -0.415362
-0.906123 0.530304 -0.918375
-0.108511 0.0212322 -2.25056
-0.505201 -1.62398 -2.02227
-0.212031 1.71105 -0.0754277
0.833093 -0.873204 2.10353
-0.413133 0.593715 1.08771
-0.987085 -0.370012 0.546372
-0.218248 0.519533 0.895557
0.986053 -0.743922 -0.637636
-0.392899 -0.14656 0.170467
0.0 0.0 0.0
0.0 0.0 0.0
0.0499569 0.530065 0.528015
0.0 0.0 0.0
-1.49399 -0.0109945 0.59957
0.32698 -0.216905 -1.05447
-0.195104 1.13295 1.20458
-0.0975789 -0.0202668 0.00943166
-1.0747 -1.79529 -0.710757
0.0516501 0.207247 0.237574
-1.13555 -1.80019 0.991091
0.0734066 0.449238 1.03106
0.0 0.0 0.0
-0.0319961 0.108595 0.038035
1.53048 -0.295561 0.00918413
0.372119 0.417776 0.268053
0.0 0.0 0.0
8.18304e-17 -3.95233e-16 9.54068e-17
5.36051e-16 -2.58927e-15 6.2483e-16
-0.301433 -0.0978241 -0.175259
-0.0478852 -0.426737 -0.271676
0.0 0.0 0.0
-1.35647 0.404576 1.22308
0.536282 -0.311339 -1.25245
-0.190332 1.29883 -0.323711
-0.115667 -0.0327026 0.0937515
0.0 0.0 0.0
0.0517649 -0.298407 -0.294852
0.0 0.0 0.0
-0.0148464 0.42555 -0.0436712
0.0 0.0 0.0
-0.179377 1.56494 -0.911177
0.0 0.0 0.0
0.303051 -0.333272 0.929146
0.322206 -1.2079 -0.246108
2.92668 0.478907 0.786377
1.74678 1.75651 -1.94414
0.00778726 0.0270768 0.0865969
-0.497675 0.114946 0.742011
-0.298666 1.47063 -0.999582
-0.325391 -2.43214 2.21385
0.224215 -0.273966 -0.290458
0.583988 0.313996 -0.1655
-0.241027 -1.15853 0.0552204
0.0 0.0 0.0
0.76532 0.664545 0.632468
0.0 0.0 0.0
-0.620747 -1.84953 -0.310209
0.977698 0.399271 1.07448
0.168613 -0.550321 0.0677478
-0.718046 -0.463799 -0.142367
-0.453479 2.11073 -0.0671515
-0.429113 -0.842078 0.705031
0.0 0.0 0.0
-0.789855 0.813367 -0.679658
0.0 0.0 0.0
-0.514343 0.670973 0.0353364
-0.697553 1.53701 -0.609758
0.0 0.0 0.0
0.697505 -0.702555 0.699887
0.0 0.0 0.0
0.102523 -0.578079 0.379847
0.648452 0.0593244 -0.967452
-0.114136 0.705206 -1.19476
0.0 0.0 0.0
-0.368711 -0.529991 0.0415447
0.333869 0.765313 -0.678796
0.132232 0.268346 -0.00702935
0.830488 5.32877 1.46157
-0.898031 -0.304677 0.335724
-0.974964 0.708872 0.47416
0.238042 -0.00492771 -0.52331
-0.465901 0.0111992 -1.05205
0.722668 -1.88845 -0.530092
0.0 0.0 0.0
0.0 0.0 0.0
0.0915232 0.835846 0.500631
-0.427559 -1.78627 0.167943
-0.00016224 1.79268 -0.886245
-0.789773 1.22747 0.124525
0.0 0.0 0.0
0.0 0.0 0.0
-0.616689 -0.651334 0.115428
-0.715007 0.11501 0.387157
-0.00658546 -0.195534 0.0828365
-0.823891 0.0302434 0.469906
0.0 0.0 0.0
-0.419009 -0.707306 0.869948
-2.39447e-16 0.117645 -0.00879494
-0.581427 -0.967949 -0.447653
0.447845 1.62537 0.902341
0.0 0.0 0.0
0.190294 -1.5085 1.4204
0.22021 -0.204641 -0.129745
-0.622246 -0.264849 -0.195941
0.0 0.0 0.0
0.69763 -0.0492859 -0.620625
0.0 0.0 0.0
0.0 0.0 0.0
0.0 0.0 0.0
0.0 0.0 0.0
0.00167846 0.615494 0.15966
0.0 0.0 0.0
0.823118 -0.311056 0.170895
0.0 0.0 0.0
0.682869 -1.48178 -1.14379
0.726783 -1.47524 0.618818
2.36979 2.71182 -0.757505
0.0 0.0 0.0
-0.285848 0.31284 -0.250247
-1.15915 -0.544477 -0.649257
0.623551 -0.310706 1.57415
-1.56901e-15 -0.726395 0.054304
1.52568e-14 -4.95062e-15 -2.31125e-15
0.853748 -0.380647 -0.00143865
0.652906 -0.439749 -0.16808
0.0563806 -0.945624 0.0123002
0.0 0.0 0.0
0.0 0.0 0.0
0.107186 0.671217 -0.503756
-0.43789 -0.844411 0.972222
-0.308682 -0.308004 -0.000700015
-0.604859 1.06345 -1.79971
-1.74263 -0.709606 -0.0326575
-3.75475 0.522261 2.60965
0.0 0.0 0.0
0.0 0.0 0.0
0.517805 0.884742 -0.403155
1.86462 -2.44523 -0.66071
5.42603 1.63644 0.307589
-0.574485 -0.304542 1.29096
0.0 0.0 0.0
-0.25242 0.314501 -0.900913
0.236516 -0.290094 -1.03519
0.0 0.0 0.0
-0.396009 -0.153464 0.303485
-0.171076 1.1912 -0.178801
0.0157492 -0.303518 0.0910962
-0.17766 0.978338 -0.437526
0.0901117 -1.03195 1.11004
-0.131759 0.173003 -0.507123
2.32867e-15 -7.55599e-16 -3.52794e-16
0.0 0.0 0.0
-0.0806654 0.120012 -0.0878292
-0.35607 1.4318 0.122306
-0.197124 0.131519 0.0776324
-0.126995 -0.109978 0.123988
0.0 0.0 0.0
1.3796 -0.128497 1.68163
-0.119402 -0.727024 1.95245
0.0 0.0 0.0
0.644422 0.715825 0.115611
0.61546 0.518716 -0.661879
1.64262 -0.953246 0.309213
-0.315283 0.102093 0.339995
-0.515533 -0.126287 0.219485
0.0 0.0 0.0
0.0 0.0 0.0
-1.03076 0.82252 -0.288346
-0.309035 1.22154 1.28411
0.109944 -0.613012 1.19045
-0.0604054 3.23441 -1.00032
0.26328 0.823382 -0.656358
-0.351 0.138201 -0.486244
-0.358987 -0.956067 -0.183429
0.87703 0.503168 0.00650857
0.551508 -0.859308 0.523272
-0.502877 -0.184543 -0.0846442
-0.321662 -1.09662 -0.565579
-0.277967 -0.520023 -0.771017
0.0 0.0 0.0
0.265385 0.268989 -0.0931632
0.129356 -0.379106 0.0416386
-0.0486062 -1.3051 -0.895134
0.985653 -0.0784999 0.36273
-0.374307 0.320753 -0.705013
1.03946 -1.4105 -0.893555
0.0 0.0 0.0
1.91908e-15 -3.00963e-16 -2.77851e-16
1.2573e-14 -1.97181e-15 -1.82041e-15
0.152419 -0.163158 0.463381
0.0 0.0 0.0
-0.0450503 0.563754 -1.72808
-0.572038 -0.948188 0.311071
0.528957 -0.512629 0.391783
0.0 0.0 0.0
-0.504218 -0.137712 0.419339
-0.3958 0.295513 0.371826
0.788453 0.825418 -0.475669
-1.69407e-14 2.54316e-14 -6.08143e-15
0.328379 0.44688 -0.190307
0.450104 -0.83134 -0.111391
0.173907 -1.37546 -0.898279
-0.377246 2.40764 -0.714444
0.0 0.0 0.0
-1.16431 -0.989179 3.37623
-1.0357 -0.458185 0.630296
-0.401751 -0.441626 0.754037
-0.978485 0.657769 -1.10816
-0.0847902 -0.413153 -0.156544
-1.27071 -1.99597 -3.4506
-0.656474 -0.542355 -0.277201
-0.199942 0.155951 0.449263
0.0 0.0 0.0
-0.111383 0.515024 0.433126
-0.204948 -0.216835 -0.120046
0.0 0.0 0.0
0.532499 0.281459 -1.28018
0.731799 0.114141 -0.240012
0.504213 -0.184916 1.00712
-1.43152 0.159767 1.07604
0.244139 -0.429269 -0.185491
-1.69407e-14 2.54316e-14 -6.08143e-15
-0.233301 0.00931239 -0.0659939
-0.34453 0.366842 -0.103258
0.0 0.0 0.0
3.93034 -3.68672 -3.23115
0.631987 0.264111 -0.335044
0.0177787 0.330841 -1.59036
0.212652 1.58262 4.95913
-1.99043 -0.672518 3.01831
-0.320608 -0.170545 1.43159
-0.298835 0.638196 -0.00197972
2.31056 2.02455 -2.27851
0.512741 0.554246 0.238279
0.0833451 0.148902 0.276863
0.0 0.0 0.0
0.502876 -0.424987 -0.192807
-0.709237 0.428831 -0.0998131
0.204991 0.216881 0.120071
4.37431e-05 4.62803e-05 2.5622e-05
0.0 0.0 0.0
-0.169259 -0.505141 -0.0368686
0.0 0.0 0.0
-0.146515 -0.0242141 0.0856448
0.865347 -0.246022 0.435172
0.029055 -0.0185082 -0.0130063
-0.00996137 -0.00278292 0.00425044
-1.13437e-14 -1.04121e-14 -2.74419e-16
1.3725 -1.17499 -0.748912
0.43382 0.0994249 -0.190203
-0.0368879 0.578534 0.308852
0.0 0.0 0.0
3.10818 0.151146 -2.88565
-0.204356 0.661169 -1.06705
-6.36103e-16 4.40843e-15 2.30144e-15
-0.123506 -0.029649 0.35573
0.279347 0.0725298 0.10998
0.0 0.0 0.0
2.97015e-05 7.13018e-06 -8.55482e-05
0.0327754 -0.0184215 -0.0111882
1.73539 -1.19477 -0.516724
2.81792e-16 -3.11117e-16 2.14098e-16
-0.509577 -0.106761 0.201212
-2.69023 1.46561 2.36489
0.0 0.0 0.0
0.460803 0.0409848 -0.343044
-1.13437e-14 -1.04121e-14 -2.74419e-16
-0.614579 -0.586171 -0.122355
-0.194417 0.0602236 0.510094
-6.36103e-16 4.40843e-15 2.30144e-15
0.0 0.0 0.0
-0.0319615 0.533591 -0.703756
-0.408555 -0.245978 0.258441
1.51066e-06 -2.02406e-06 -8.46371e-06
0.123536 0.0296561 -0.355815
-0.38259 -0.0380744 0.303047
0.0374448 -0.0501704 -0.20979
-0.0374286 0.0501486 0.209699
-0.0546752 0.00670377 -0.236238
-0.0138283 0.014535 0.0131116
1.8455e-15 -2.0373e-15 1.40237e-15
0.0 0.0 0.0
0.195061 0.00465704 0.0671825
0.0 0.0 0.0
0.0 0.0 0.0
0.0 0.0 0.0
0.0 0.0 0.0
0.0 0.0 0.0
0.0 0.0 0.0
0.389185 -0.182695 0.263044
0.0 0.0 0.0
0.0 0.0 0.0
0.607261 0.117308 -0.429304
VECTORS v float
-0.00349121 -0.0013586 -0.00624667
0.0 0.0 0.00367019
0.0 0.0 0.0
0.00958489 -0.00875993 -0.00982617
0.0 0.0 0.0
-0.00380535 -0.00207728 0.00166819
0.00707655 -0.0104787 -0.0103909
0.0 0.0 0.0
-0.000330459 -0.00972537 -0.00347245
0.00496927 0.00854038 -0.0173872
0.0 0.0 0.0
0.0 0.0 0.0
0.0 0.0 0.0
-0.00344346 0.00496353 -0.00646145
-0.0140064 0.00381216 -0.0106529
0.0 0.0 0.0
-0.00233301 0.000424051 -0.00524007
0.00495536 -0.0104923 0.00251837
0.00545248 0.000449537 0.00154359
-0.0121396 -0.00622833 -0.00543215
-0.00271491 -0.00591933 0.00174599
0.00521237 -0.00471016 0.00116414
-0.00699943 0.00774087 -0.00527881
0.00303911 -0.00242828 -0.00635275
-0.00890088 -0.00100957 -0.0180984
-0.00104532 0.00163553 0.00133415
0.0118205 -0.00662572 -0.000388077
0.0052659 -0.00132768 -0.00541867
0.0 0.0 0.0
0.00822461 -0.00311137 0.00547998
-0.00235622 -0.0036485 0.000970244
0.00540767 0.0104438 -0.00018711
-0.00829712 0.00297767 -0.0095666
0.00296149 0.00308966 -0.00234183
0.0 0.0 0.0
0.0 0.0 0.0
0.00986523 0.00867788 0.00178202
-0.010757 0.00524464 -0.00296231
0.000261949 -0.00997571 0.00116576
0.00333698 -0.00131926 0.00432905
7.92464e-05 -0.000776904 -0.000250562
-0.000520715 -0.0077442 0.0057254
0.0136512 -0.0105551 0.00667592
0.0128045 0.00340062 -0.00518367
-0.0180628 0.00454532 -0.00621504
0.0080228 -0.00700901 0.00646144
0.0153445 -0.0195635 0.000245862
0.0195999 -0.00377888 -0.00172794
0.00306844 0.00526769 -0.00171172
0.00307335 0.00868228 -0.00694599
0.0133364 0.0116907 -0.00156091
-0.00757503 -0.0135512 0.00412042
-5.84162e-05 -0.00631091 -0.00566875
0.0 0.0 0.0
0.0 0.0 0.0
0.0159574 0.00309475 -0.00461548
0.0 0.0 0.0
-0.00360088 -0.0052848 -0.000854093
0.00747107 0.00712073 -0.0024656
-0.00197039 0.00841512 -0.00132844
0.00199267 -0.00952005 -8.28461e-05
-0.00560412 0.00288699 0.010655
-0.00502777 -0.00842296 0.00821511
-0.00117459 0.0146617 -0.00146789
-0.00973657 -0.000633241 -0.000285523
0.0 0.0 0.0
0.000977914 -0.000503704 0.00230355
-0.00471036 0.0050785 0.00389029
-0.0104337 -0.00334042 -0.00689323
0.0 0.0 0.0
-0.00167317 -0.000266742 0.000330068
0.0068533 0.00109258 -0.00135196
-0.00237689 0.00426974 -0.00526757
0.00724603 0.000325008 -0.00219435
0.0 0.0 0.0
-0.00629548 0.000757742 -0.00722036
-0.000454478 0.00623713 -0.00573883
-0.0115817 -0.00134775 0.00141814
-0.00544282 -0.00261231 -0.00855449
0.0 0.0 0.0
0.00395505 -0.00356062 0.00429841
0.0 0.0 0.0
-0.000339899 -0.00580722 0.000573541
0.0 -0.00362733 0.0
-0.0101972 -0.00934218 0.0039453
0.0 0.0 0.0
-0.00566633 -0.00337863 -0.0060078
-0.00458407 -0.00336522 -0.00472846
-0.022665 -0.000236517 0.00363019
0.00667947 0.0111841 0.00318174
0.00263775 -0.00211628 0.000649514
-0.00289542 -0.00945708 -0.000474937
-0.00395869 0.00813407 0.00157678
0.00326922 -0.000111997 0.00859581
-0.0060191 0.00425168 -0.00864891
-0.00633816 -5.89391e-05 0.000699248
-0.0176834 -0.00192271 0.00352038
0.0 0.0 0.0
-0.00404306 -0.00107724 0.00595351
0.0 0.0 0.0
-0.0104463 -0.00285505 -0.000151783
-0.00800182 0.00865468 0.00406699
0.000510072 0.00196847 0.00163929
-0.00129103 -0.00118373 0.0103739
0.0103279 0.00295312 -0.00451729
0.025322 0.00841444 -0.00771229
0.0 0.00362727 0.0
0.00210064 -0.00187578 0.0108529
0.0 0.0 0.0
-0.00229494 -0.0021094 0.00654405
-0.0044789 -0.012063 0.00441772
0.0 0.0 0.0
0.00228137 -0.00962758 -0.00697307
0.0 0.0 0.0
0.00415044 -0.00308743 -0.0058178
0.00985434 0.000714199 0.00245026
0.00788898 -0.0101535 0.00718702
0.0 0.0 0.0
0.017658 -0.0106978 0.00886168
-0.00795219 0.010063 0.0180092
0.00267898 -0.0013664 -0.00175837
0.00269529 0.00128016 0.00645111
0.0110938 0.00519885 0.00244112
-0.00307059 0.0138462 0.00771752
0.0081592 0.0145468 -0.000980546
-0.0059381 0.00473423 0.00236363
0.0123795 0.00498603 0.000907108
0.0 0.0 0.0
0.0 0.0 0.0
-0.0133962 -0.000561504 0.00339831
-0.00523076 0.00311886 0.0053981
-0.00714856 0.00164305 0.00332807
-0.00407106 -0.000963753 0.00511167
0.0 0.0 0.0
-0.00577419 0.0 0.0
-0.00310977 0.00429004 0.00763444
-0.00886778 -0.00226463 -0.00355236
-0.0043172 -0.00363199 0.0012059
0.000163815 0.00587604 0.00257427
0.0 0.0 0.0
0.00477578 0.00806621 0.00885818
0.0057868 -7.78864e-05 -0.00104184
-0.00402811 -0.00364738 0.0139141
0.0035017 -0.00380288 0.0122977
0.0 0.0 0.0
-0.0140827 -0.001121 0.00933765
-0.00450593 9.88361e-05 -0.00780594
-0.00285871 0.00532682 0.00188943
0.0 0.0 0.0
-0.00314757 -0.00487153 -0.00802954
0.0 0.0 0.0
0.0 0.0 0.0
0.0 0.0 0.0
0.0 0.00579544 0.0
-0.00675242 0.00201074 -0.016053
0.0 0.0 0.0
0.00383522 0.00280059 -0.0133316
0.0 0.0 0.0
0.00430508 0.00699897 -0.0153313
0.00945302 0.00852169 0.00288389
0.00542537 -0.000349057 -0.00326833
0.0 0.0 0.0
-0.00654436 0.00252087 0.0106482
0.00436223 0.0117089 0.00757108
-0.00576196 0.0163105 0.00665711
0.0107715 0.000559259 0.00748091
-0.00246074 -0.00535037 -0.00478332
0.000840379 0.00191745 0.00286018
0.00231857 0.00580716 -0.00612919
-0.00680947 -0.00254538 -0.000922626
0.0 0.0 0.0
0.0 0.0 0.0
-0.00336196 0.000786097 0.000332478
-0.00536896 0.00362187 -0.00242293
-0.00357224 0.00357193 -0.00172996
-0.00473742 0.00349874 -0.00352191
-0.00341422 0.00495381 -0.00722102
0.00148055 -0.00316467 -0.014177
0.0 0.0 0.0
0.0 0.0 0.0
-0.00698734 0.00195279 -0.00469022
-0.0124518 -0.00481385 -0.00474224
-0.00946571 0.0106051 -0.00807029
-0.0023074 0.00336387 -0.000238464
0.0 0.0 0.0
0.000673395 0.0136063 -0.00268297
0.00696213 -0.00596882 -0.00164417
0.0 0.0 0.0
0.000684839 -0.00797876 -0.00308986
0.0146992 0.00701785 -0.00166588
-0.00402754 -0.00330996 -0.00584555
0.00159656 -0.00268485 -0.00665233
-0.0146372 -0.00113251 -0.00413412
0.00571561 0.00331743 -0.00424654
0.000600767 0.00130624 0.0011678
0.0 0.0 0.0
-0.000399317 -0.00175548 0.000564299
-0.00360994 -0.000674325 0.00791223
0.00696055 0.00468458 0.000678686
0.00109691 -0.00578084 0.00112543
0.0 0.0 0.0
-0.00941509 0.00381209 0.00772003
0.00359894 -0.00355789 -0.00424299
0.0 0.0 0.0
-0.00555967 0.00406689 0.00585372
-0.00512321 0.00893488 0.00318963
-0.00285916 -0.0101957 -0.0162552
0.00867712 -0.0170534 0.00525225
0.000171124 -0.00137436 -0.00568884
0.0 0.0 0.0
0.0 0.0 0.0
0.0028676 -0.000402085 -0.0114077
-0.00316862 -0.00449449 0.00351583
0.00327108 0.00471977 0.00665418
-0.00730083 0.00132983 0.00474061
-0.00801061 0.0049587 0.00407583
0.0151113 0.00232258 -0.0029973
0.00264319 -0.00671373 0.00150251
0.00334646 -9.91515e-05 -0.00262292
-0.000819014 0.00240701 0.00481588
-0.0032251 0.00725481 -0.0119733
0.00271628 0.000590737 -0.00269023
-0.000632094 0.00758987 0.00294841
0.0 0.0 0.0
0.00288129 -0.000833846 0.00580058
-0.00215048 0.000628235 -0.00168391
-0.00353777 0.00116098 0.00325623
0.00530831 -0.000899919 -0.00544677
0.00420955 -0.00843557 0.0076256
-0.000931385 0.00572705 -0.0100797
0.00579543 0.0 0.0
-0.000144066 -0.00166192 0.000805119
0.000590096 0.00680724 -0.00329777
0.00676586 0.00238642 0.00173
0.0 0.0 0.0
-0.00770105 0.000570784 -0.0079326
0.00373829 -0.00816899 -0.00590131
-0.000181231 0.00462152 0.0062951
0.0 0.0 0.0
-0.000417938 0.00212337 -0.00190117
-0.00317347 -0.00780227 0.00282362
0.0112578 -0.00791571 0.00491744
-0.00212024 -0.00194302 -0.00221917
0.00541599 0.00257084 0.0145536
0.00353265 0.00271384 -0.00608223
-0.00269684 -0.0011972 0.0124909
0.000941909 -0.00698691 0.00375724
0.0 0.0 0.0
-0.0205348 -0.0132129 -0.00248176
0.00695251 0.000567202 0.0118381
-0.0171034 0.00244876 -0.0070138
-0.0220869 0.00579032 -0.00691715
-0.00399681 0.00476171 -0.00957306
0.00638853 0.0218905 -0.0084065
-0.0106417 -0.0047912 0.0031191
-0.000911998 -0.00342503 0.0071069
0.0 0.0 0.0
-0.0106455 -0.000305459 -0.000256914
0.00254908 -0.00189206 -0.000934337
0.0 0.0 0.0
-0.0034636 0.000990086 -0.00659405
0.00142013 0.00282494 0.0056732
0.00610925 -0.00239142 -0.00251397
-0.00419983 -0.00370081 -0.0047662
0.00108087 0.00360237 0.00139905
0.00212024 0.00194302 0.00221917
0.00130976 -0.00599098 -0.00547359
0.00741362 0.00750405 0.00144369
0.0 0.0 0.0
-0.0180934 -0.0279919 -0.0034607
0.00344161 -0.00630382 0.00240015
-0.00747417 -0.00233632 -0.00117558
-0.0232153 -0.0118447 0.0106747
-0.0150302 0.0332344 -0.00700666
-0.0104077 0.00848505 0.000208434
0.00141562 0.000651557 -0.00527254
-0.032496 0.0281331 -0.00792383
0.000460371 -0.000564726 -0.00551454
-0.0079688 -0.0134721 0.00964289
0.0 0.0 0.0
0.00566118 0.0074324 -0.00160247
0.00247054 0.00546737 0.00652818
-1.88069e-06 -0.00160149 0.00289593
-0.0025472 0.00349354 -0.00196159
0.0 0.0 0.0
0.00649151 -0.00270068 0.00724335
0.0 0.0 0.0
0.000765541 -0.00765678 -0.000852998
-0.0149259 -0.00400572 0.000834569
0.000296745 0.00218777 -0.000631167
-0.00165181 0.00382843 -0.00176779
-0.000395382 0.000524915 -0.00357262
-0.00173985 0.00812844 0.0032355
-0.000610617 0.011277 0.0045019
0.00236263 -0.00624877 0.00614624
0.0 0.0 0.0
-0.00676014 0.0267147 0.000734922
0.0130879 0.00105698 -0.00184197
0.00345515 0.00253869 -0.00390789
-0.00300428 -0.00503097 -0.00146237
0.00278889 -0.00770793 -0.00199123
0.0 0.0 0.0
-0.00244726 0.00697178 -0.000268587
-0.0012662 -7.97546e-05 -0.00120749
0.00448801 0.00589809 0.0153026
0.0014628 0.000719934 -0.000879133
-0.0197959 0.00306933 0.0116512
-0.00772348 0.0144526 0.00167371
0.0 0.0 0.0
0.00424078 0.00440392 0.00623284
0.000395382 -0.000524915 0.00357262
-0.00289184 0.000530238 0.0117099
0.00543093 0.0040724 0.00420689
-0.00345515 -0.00253869 0.00390789
0.0 0.0 0.0
0.00824128 -0.0100758 0.00183216
0.00565794 0.0022404 0.00216642
-0.000936103 -0.00237901 0.000401848
0.00545153 -0.00194081 0.00173096
-0.0018229 -0.00198345 -0.000241684
-0.0029631 0.0065766 -0.00210164
0.00679738 0.00316784 0.000455668
-0.00324021 0.00528361 -0.0021873
0.0051445 -0.000173733 0.00561829
-0.00599161 -0.00294885 0.00360093
0.0 0.0 0.0
-0.00248338 -0.00246974 0.00738644
0.0 0.0 0.0
0.0 0.0 0.0
0.0 0.0 0.0
0.0 0.0 0.0
0.0 0.0 0.0
0.0 0.0 0.0
0.00103847 0.0110623 0.00614238
0.0 0.0 0.0
0.0 0.0 0.0
0.00227423 0.00440776 0.00442021
SCALARS radius float 1
LOOKUP_TABLE default
0.00883348
0.00552092
0.00552092
0.00552092
0.00552092
0.00552092
0.00552092
0.00552092
0.00883348
0.00552092
0.00552092
0.00552092
0.00552092
0.00552092
0.00552092
0.00552092
0.00883348
0.00883348
0.00552092
0.00883348
0.00552092
0.00552092
0.00883348
0.00883348
0.00552092
0.00552092
0.00552092
0.00883348
0.00552092
0.00552092
0.00883348
0.00883348
0.00883348
0.00883348
0.00552092
0.00552092
0.00552092
0.00552092
0.00552092
0.00552092
0.00552092
0.00883348
0.00552092
0.00883348
0.00552092
0.00552092
0.00883348
0.00552092
0.00552092
0.00883348
0.00552092
0.00552092
0.00883348
0.00552092
0.00552092
0.00552092
0.00552092
0.00883348
0.00552092
0.00552092
0.00883348
0.00883348
0.00883348
0.00552092
0.00883348
0.00552092
0.00883348
0.00883348
0.00883348
0.00552092
0.00883348
0.00552092
0.00552092
0.00883348
0.00552092
0.00552092
0.00552092
0.00552092
0.00883348
0.00552092
0.00883348
0.00552092
0.00883348
0.00552092
0.00552092
0.00552092
0.00883348
0.00883348
0.00552092
0.00552092
0.00552092
0.00552092
0.00552092
0.00883348
0.00883348
0.00552092
0.00552092
0.00552092
0.00883348
0.00552092
0.00552092
0.00552092
0.00883348
0.00552092
0.00552092
0.00552092
0.00552092
0.00552092
0.00552092
0.00883348
0.00883348
0.00552092
0.00552092
0.00552092
0.00883348
0.00552092
0.00552092
0.00552092
0.00883348
0.00883348
0.00883348
0.00552092
0.00552092
0.00883348
0.00883348
0.00883348
0.00552092
0.00552092
0.00552092
0.00552092
0.00552092
0.00552092
0.00552092
0.00552092
0.00883348
0.00883348
0.00883348
0.00883348
0.00552092
0.00552092
0.00883348
0.00883348
0.00552092
0.00552092
0.00552092
0.00552092
0.00552092
0.00883348
0.00552092
0.00552092
0.00552092
0.00552092
0.00552092
0.00883348
0.00552092
0.00883348
0.00552092
0.00552092
0.00552092
0.00552092
0.00552092
0.00883348
0.00883348
0.00552092
0.00552092
0.00552092
0.00552092
0.00883348
0.00552092
0.00883348
0.00552092
0.00552092
0.00552092
0.00552092
0.00552092
0.00883348
0.00552092
0.00552092
0.00552092
0.00552092
0.00552092
0.00552092
0.00552092
0.00552092
0.00552092
0.00883348
0.00883348
0.00552092
0.00552092
0.00883348
0.00883348
0.00883348
0.00883348
0.00883348
0.00883348
0.00883348
0.00883348
0.00552092
0.00552092
0.00883348
0.00552092
0.00552092
0.00552092
0.00552092
0.00552092
0.00552092
0.00883348
0.00883348
0.00552092
0.00883348
0.00552092
0.00883348
0.00552092
0.00883348
0.00552092
0.00883348
0.00552092
0.00552092
0.00552092
0.00552092
0.00552092
0.00552092
0.00883348
0.00552092
0.00883348
0.00883348
0.00552092
0.00883348
0.00552092
0.00883348
0.00883348
0.00883348
0.00552092
0.00883348
0.00552092
0.00552092
0.00883348
0.00883348
0.00883348
0.00552092
0.00552092
0.00552092
0.00552092
0.00883348
0.00883348
0.00552092
0.00552092
0.00552092
0.00552092
0.00883348
0.00883348
0.00883348
0.00552092
0.00883348
0.00883348
0.00552092
0.00552092
0.00883348
0.00552092
0.00552092
0.00883348
0.00552092
0.00552092
0.00552092
0.00552092
0.00552092
0.00552092
0.00552092
0.00552092
0.00552092
0.00552092
0.00883348
0.00552092
0.00883348
0.00552092
0.00552092
0.00552092
0.00883348
0.00883348
0.00552092
0.00552092
0.00552092
0.00552092
0.00552092
0.00552092
0.00883348
0.00552092
0.00883348
0.00883348
0.00883348
0.00883348
0.00552092
0.00552092
0.00552092
0.00552092
0.00552092
0.00883348
0.00552092
0.00883348
0.00883348
0.00552092
0.00883348
0.00883348
0.00883348
0.00883348
0.00883348
0.00883348
0.00883348
0.00552092
0.00552092
0.00552092
0.00883348
0.00883348
0.00883348
0.00552092
0.00883348
0.00883348
0.00883348
0.00883348
0.00552092
0.00552092
0.00552092
0.00552092
0.00552092
0.00552092
0.00552092
0.00552092
0.00552092
0.00552092
0.00552092
0.00552092
0.00552092
0.00552092
0.00552092
0.00552092
0.00552092
0.00552092
SCALARS type float 1
LOOKUP_TABLE default
1.0
1.0
1.0
1.0
1.0
1.0
1.0
1.0
1.0
1.0
1.0
1.0
1.0
1.0
1.0
1.0
1.0
1.0
1.0
1.0
1.0
1.0
1.0
1.0
1.0
1.0
1.0
1.0
1.0
1.0
1.0
1.0
1.0
1.0
1.0
1.0
1.0
1.0
1.0
1.0
1.0
1.0
1.0
1.0
1.0
1.0
1.0
1.0
1.0
1.0
1.0
1.0
1.0
1.0
1.0
1.0
1.0
1.0
1.0
1.0
1.0
1.0
1.0
1.0
1.0
1.0
1.0
1.0
1.0
1.0
1.0
1.0
1.0
1.0
1.0
1.0
1.0
1.0
1.0
1.0
1.0
1.0
1.0
1.0
1.0
1.0
1.0
1.0
1.0
1.0
1.0
1.0
1.0
1.0
1.0
1.0
1.0
1.0
1.0
1.0
1.0
1.0
1.0
1.0
1.0
1.0
1.0
1.0
1.0
1.0
1.0
1.0
1.0
1.0
1.0
1.0
1.0
1.0
1.0
1.0
1.0
1.0
1.0
1.0
1.0
1.0
1.0
1.0
1.0
1.0
1.0
1.0
1.0
1.0
1.0
1.0
1.0
1.0
1.0
1.0
1.0
1.0
1.0
1.0
1.0
1.0
1.0
1.0
1.0
1.0
1.0
1.0
1.0
1.0
1.0
1.0
1.0
1.0
1.0
1.0
1.0
1.0
1.0
1.0
1.0
1.0
1.0
1.0
1.0
1.0
1.0
1.0
1.0
1.0
1.0
1.0
1.0
1.0
1.0
1.0
1.0
1.0
1.0
1.0
1.0
1.0
1.0
1.0
1.0
1.0
1.0
1.0
1.0
1.0
1.0
1.0
1.0
1.0
1.0
1.0
1.0
1.0
1.0
1.0
1.0
1.0
1.0
1.0
1.0
1.0
1.0
1.0
1.0
1.0
1.0
1.0
1.0
1.0
1.0
1.0
1.0
1.0
1.0
1.0
1.0
1.0
1.0
1.0
1.0
1.0
1.0
1.0
1.0
1.0
1.0
1.0
1.0
1.0
1.0
1.0
1.0
1.0
1.0
1.0
1.0
1.0
1.0
1.0
1.0
1.0
1.0
1.0
1.0
1.0
1.0
1.0
1.0
1.0
1.0
1.0
1.0
1.0
1.0
1.0
1.0
1.0
1.0
1.0
1.0
1.0
1.0
1.0
1.0
1.0
1.0
1.0
1.0
1.0
1.0
1.0
1.0
1.0
1.0
1.0
1.0
1.0
1.0
1.0
1.0
1.0
1.0
1.0
1.0
1.0
1.0
1.0
1.0
1.0
1.0
1.0
1.0
1.0
1.0
1.0
1.0
1.0
1.0
1.0
1.0
1.0
1.0
1.0
1.0
1.0
1.0
1.0
1.0
1.0
1.0
1.0
1.0
1.0
1.0
1.0
1.0
1.0
1.0
1.0
1.0
1.0
1.0
1.0
1.0
1.0
1.0
1.0
1.0
SCALARS id float 1
LOOKUP_TABLE default
50.0
138.0
304.0
141.0
297.0
293.0
325.0
285.0
10.0
241.0
126.0
240.0
207.0
140.0
197.0
258.0
92.0
60.0
154.0
98.0
188.0
298.0
106.0
80.0
183.0
277.0
171.0
41.0
180.0
213.0
23.0
58.0
32.0
6.0
327.0
291.0
174.0
158.0
128.0
264.0
234.0
89.0
263.0
37.0
328.0
331.0
48.0
329.0
172.0
88.0
164.0
200.0
9.0
305.0
274.0
186.0
135.0
40.0
246.0
173.0
61.0
38.0
119.0
225.0
122.0
260.0
121.0
64.0
84.0
288.0
81.0
193.0
205.0
47.0
149.0
257.0
192.0
232.0
34.0
229.0
94.0
143.0
102.0
198.0
278.0
137.0
70.0
85.0
227.0
199.0
321.0
259.0
130.0
62.0
79.0
169.0
127.0
265.0
12.0
184.0
273.0
142.0
72.0
230.0
247.0
163.0
295.0
222.0
292.0
17.0
44.0
159.0
314.0
195.0
73.0
153.0
322.0
216.0
2.0
30.0
35.0
239.0
275.0
103.0
66.0
13.0
253.0
296.0
252.0
144.0
160.0
238.0
203.0
212.0
22.0
75.0
49.0
100.0
228.0
249.0
55.0
99.0
319.0
156.0
245.0
301.0
308.0
105.0
201.0
217.0
276.0
248.0
155.0
18.0
294.0
8.0
133.0
250.0
233.0
152.0
175.0
33.0
31.0
147.0
269.0
317.0
267.0
107.0
204.0
19.0
157.0
236.0
324.0
306.0
151.0
93.0
165.0
290.0
261.0
145.0
286.0
220.0
280.0
333.0
182.0
77.0
101.0
146.0
208.0
4.0
82.0
118.0
45.0
117.0
69.0
26.0
24.0
237.0
336.0
97.0
326.0
307.0
132.0
210.0
181.0
310.0
65.0
5.0
206.0
111.0
272.0
108.0
161.0
115.0
242.0
95.0
166.0
179.0
221.0
224.0
302.0
231.0
46.0
185.0
39.0
29.0
189.0
68.0
282.0
28.0
83.0
104.0
134.0
25.0
279.0
337.0
3.0
74.0
42.0
177.0
303.0
202.0
124.0
51.0
114.0
311.0
167.0
148.0
300.0
14.0
112.0
91.0
194.0
116.0
53.0
309.0
136.0
56.0
235.0
176.0
20.0
196.0
330.0
215.0
332.0
218.0
335.0
318.0
170.0
251.0
131.0
21.0
271.0
27.0
191.0
315.0
255.0
52.0
59.0
223.0
190.0
123.0
316.0
281.0
139.0
76.0
162.0
96.0
71.0
43.0
63.0
262.0
270.0
209.0
268.0
168.0
78.0
214.0
7.0
113.0
334.0
86.0
15.0
120.0
109.0
87.0
67.0
54.0
178.0
125.0
219.0
57.0
16.0
110.0
243.0
90.0
11.0
36.0
1.0
312.0
226.0
150.0
256.0
284.0
323.0
211.0
320.0
254.0
289.0
266.0
187.0
299.0
129.0
283.0
287.0
313.0
244.0

