# vtk DataFile Version 2.0
Generated by lpp.py
ASCII
DATASET POLYDATA
POINTS 337 float
-0.0292956 -0.0405009 0.00986002
-0.0126991 -0.0405619 0.00561191
0.0115779 -0.0445034 0.0121473
-0.0182387 -0.0272518 0.00577055
0.00477146 -0.035696 0.00559494
0.0126441 -0.0252882 0.00994199
0.0264553 -0.0368889 0.00967586
0.0435635 -0.0369018 0.00660669
-0.0337372 -0.0209799 0.0103247
-0.00625922 -0.0183995 0.00555559
0.0366738 -0.0230596 0.00515126
-0.0403313 -0.00163198 0.00949556
-0.0174399 -0.00232823 0.00880302
0.0151977 -0.0123912 0.00581581
-0.0308722 0.0122017 0.00569422
-0.00562892 0.0108907 0.00660211
0.00530645 0.00153508 0.00533253
0.018042 0.00068216 0.00688292
0.032025 0.0103775 0.00924119
-0.0441225 0.0147106 0.00667874
-0.0192562 0.0196338 0.00691896
-0.00448932 0.0246384 0.00685197
0.0120676 0.0172199 0.00943793
0.0441386 0.0214529 0.00605892
-0.0168835 0.0372609 0.00976196
0.0152913 0.0342407 0.00570841
0.0301633 0.0307962 0.0121655
-0.0383567 0.040378 0.00965617
0.00470625 0.0418843 0.00542896
0.0430945 0.0429971 0.00683475
0.00226777 -0.044353 0.0214369
0.0303615 -0.0446036 0.024556
-0.0423185 -0.0340484 0.0229606
-0.00621809 -0.0305931 0.016841
0.0107314 -0.035003 0.0207132
-0.0443513 -0.0135011 0.0212146
-0.0175506 -0.0178446 0.0157509
0.0223553 -0.0239425 0.0249828
0.0442614 -0.0211288 0.0148557
-0.0122007 -0.00561676 0.0243393
0.00271744 -0.00963686 0.0170072
0.03087 -0.00979152 0.0126754
0.04407 -0.00457165 0.0223739
-0.0419867 0.00802778 0.0226516
-0.0281392 0.00748657 0.0175614
-0.0121619 0.01151 0.0230493
0.00316193 0.00721873 0.0189566
0.0188626 0.0032607 0.0239765
0.0442346 0.00846581 0.022104
-0.0350543 0.0225671 0.0184158
0.0184362 0.0226313 0.0245242
0.0422035 0.0203169 0.0186081
0.0051464 0.0319787 0.0133158
-0.00268409 0.0444808 0.0153491
-0.0119198 0.044274 0.024665
0.0115784 0.0435863 0.0167259
0.0241929 0.0441298 0.0210725
0.0375584 0.04453 0.0193186
-0.0200833 -0.040242 0.0284839
-0.000228604 -0.0344191 0.0357578
0.0410421 -0.032307 0.0269345
-0.0406076 -0.0208006 0.0369033
-0.014459 -0.0200014 0.0326561
0.00623742 -0.0234784 0.0250257
0.0129377 -0.0146329 0.0355145
0.0390803 -0.0159783 0.0259185
-0.0443772 -0.00544163 0.0313876
-0.0289443 -0.00737445 0.0255812
-0.000899289 -0.00518497 0.0367171
0.0290017 -0.00922928 0.0372527
0.0442 -0.000541465 0.0362234
0.0345877 0.00472062 0.0294718
-0.0275366 0.0132114 0.0295622
-0.00989829 0.0246352 0.0327868
0.00519458 0.0164018 0.0334694
0.0228543 0.0177935 0.0369752
0.0306598 0.0171547 0.0254905
0.0413944 0.0151687 0.0334106
-0.0441202 0.0315096 0.0290675
-0.0142207 0.0364057 0.0354576
0.0015307 0.0357522 0.0286437
0.0237011 0.0334882 0.0285122
0.0406691 0.0320114 0.030204
-0.0439206 0.0440719 0.0265094
-0.0279325 0.0398214 0.0275159
-0.0367407 -0.0405131 0.040375
-0.0127478 -0.0435245 0.0441341
0.00524013 -0.0447135 0.0468091
0.0190863 -0.0406037 0.03785
0.0398412 -0.040014 0.0475693
-0.026277 -0.0271799 0.0409661
-0.0100102 -0.0272224 0.0471816
0.0305095 -0.0292615 0.0389139
0.00448626 -0.0200206 0.0447035
0.0416145 -0.0237514 0.0423938
-0.0441973 -0.00671763 0.0447218
-0.0323596 -0.00530898 0.0485035
0.0443549 -0.0114877 0.0434683
-0.0401374 0.00855875 0.0392641
-0.0196612 0.00277442 0.0405218
0.0133307 0.00344334 0.0396229
0.0337234 0.00771068 0.04739
-0.0240363 0.023833 0.041814
0.0158631 0.0126472 0.048625
0.0447052 0.0199841 0.0455893
-0.0437837 0.0254322 0.0402544
0.0315385 0.0296444 0.0481164
-0.0390987 0.0375284 0.0403672
-0.0283187 0.044558 0.0433278
-0.00454195 0.0408596 0.0480669
0.0155306 0.0408949 0.0417431
0.0315958 0.0442635 0.0398865
0.0440806 0.0439409 0.0414808
-0.0443264 -0.0439651 0.0544364
-0.0336692 -0.0443624 0.0621882
-0.000578669 -0.0445421 0.0581914
0.0158375 -0.0404736 0.0589549
-0.0436438 -0.031095 0.0560538
-0.0229194 -0.0345094 0.0552867
-0.00885495 -0.0284748 0.0605642
4.4784e-05 -0.0333386 0.0525974
-0.0381197 -0.0156022 0.0605473
-0.0162267 -0.0134039 0.0535758
0.00487225 -0.0197966 0.0620967
0.0219909 -0.0226999 0.0511722
0.0410427 -0.0219788 0.0593716
0.000420597 -0.00759203 0.0527927
0.0169485 -0.00350372 0.0536869
0.0434616 -0.00555415 0.0551178
-0.0262073 0.00561376 0.0596369
-0.0013714 0.00861298 0.0516778
-0.0401566 0.0203777 0.0559823
-0.020459 0.0215936 0.0581035
-0.00898438 0.0242139 0.0507517
0.043766 0.0162824 0.0581033
-0.0442293 0.0357624 0.0609553
-0.0276724 0.0371331 0.0575868
-0.01169 0.034388 0.0613087
0.00815694 0.0263803 0.0544532
-0.0436606 0.0437208 0.0507012
0.0145972 0.041607 0.0583789
0.0291081 0.0442102 0.0562594
0.0430869 0.0431068 0.0551971
-0.0446417 -0.0419524 0.0672446
-0.0126232 -0.0442598 0.0641506
-0.0239486 -0.0441711 0.070859
0.0425114 -0.042664 0.0652792
-0.0439332 -0.0250767 0.0741823
-0.0354233 -0.0318532 0.066668
-0.000460388 -0.0370339 0.0729157
0.0296938 -0.0329272 0.0626358
-0.0164925 -0.0241891 0.0695979
0.0232616 -0.0227866 0.0700228
-0.0373579 -0.00300238 0.0723148
-0.020641 -0.00830367 0.0731046
-0.00652383 -0.0028931 0.0639069
0.0144351 -0.00829321 0.0697942
0.0311708 -0.00633045 0.0681796
-0.000846371 0.00945195 0.0721488
0.00811476 0.00451698 0.0652117
0.0438313 0.00455542 0.0630319
-0.027662 0.0199689 0.0683061
-0.0140707 0.0248583 0.068602
-0.0119091 0.0134475 0.0628287
-0.00194691 0.0205771 0.0661821
0.0246302 0.0177781 0.0631
0.040923 0.0300406 0.0672976
-0.0440054 0.0441611 0.070163
-0.0170024 0.043783 0.0690492
-0.00404223 0.0438583 0.0649866
0.00777403 0.0441963 0.0691512
0.0239853 0.0408251 0.0724216
-0.0376563 -0.0395611 0.0818693
-0.0138491 -0.0439155 0.0797538
0.0113174 -0.0445313 0.0816452
0.0287469 -0.04056 0.0769114
0.0443057 -0.0441417 0.0799985
-0.023621 -0.0326865 0.0757448
-0.0106735 -0.0295399 0.0835105
0.0147691 -0.0320343 0.0773496
0.0434994 -0.0309752 0.0767348
-0.0445257 -0.0202098 0.0868499
-0.0360516 -0.0150183 0.0778781
-0.0324324 -0.0241374 0.086603
-0.0210856 -0.0221328 0.0821302
-0.00524041 -0.0207677 0.0757344
-0.0117903 -0.0143298 0.0858822
0.00949057 -0.0207682 0.0775392
0.043261 -0.0173776 0.0762523
0.00102122 -0.00553506 0.0794544
0.020925 -0.0123737 0.0855276
-0.0160711 0.0114598 0.0786973
0.0183067 0.00674484 0.0786158
0.0404488 0.00823266 0.0792357
-0.0401806 0.0129298 0.0771972
0.0287294 0.0240567 0.0828184
-0.0332294 0.0330487 0.0765893
-0.0120091 0.032059 0.0835092
0.00751863 0.0291351 0.0767408
0.0440855 0.031514 0.0842216
-0.0446297 0.038747 0.0865825
-0.0223006 0.0447031 0.0809267
0.000927821 0.0437499 0.0837717
0.0401604 0.0436398 0.080376
-0.0440847 -0.04437 0.0959173
-0.0228649 -0.0443734 0.0887801
-0.00294734 -0.0409155 0.0910122
0.0381285 -0.0437317 0.0914628
-0.0202476 -0.0303095 0.0969882
0.0114682 -0.0350302 0.0896638
0.0336656 -0.0269836 0.0910752
-0.0381089 -0.0126884 0.0946124
0.00150995 -0.0221854 0.0921733
-0.0274367 -0.00062797 0.0908098
-0.00192589 -0.000497338 0.0969499
0.0405056 -0.00811458 0.0910374
-0.0441644 0.00101002 0.0892471
0.0210983 0.00340745 0.0989214
-0.0445017 0.0201177 0.092164
-0.0280916 0.0208489 0.0923233
0.00194656 0.0129987 0.088742
0.0444566 0.0174293 0.0929459
-0.0435168 0.0311985 0.098314
-0.0038641 0.0258113 0.0967922
0.0141589 0.0277251 0.0966433
-0.0435637 0.044092 0.09783
-0.0331635 0.0441448 0.0890241
0.013241 0.0436729 0.0899062
0.0303547 0.0408574 0.0946015
-0.0444397 -0.0433508 0.10857
-0.0280694 -0.0437938 0.104238
-0.00704736 -0.0404765 0.108652
0.00930054 -0.0441294 0.110639
0.0221293 -0.0407783 0.100425
0.0411374 -0.0376541 0.107228
-0.0403712 -0.0289344 0.100962
0.00738848 -0.0333967 0.102696
0.0235975 -0.0274848 0.112006
-0.028367 -0.0173428 0.103543
-0.00238048 -0.0243434 0.108667
0.0221669 -0.0175676 0.102594
0.0385967 -0.0175205 0.10985
-0.0408895 -0.0102221 0.111299
-0.0267781 -0.00220488 0.107543
-0.0128978 -0.0116135 0.102795
0.00717272 -0.00945798 0.108109
-0.0404356 0.00897417 0.10423
-0.0146443 0.0088386 0.104186
0.0406285 0.0033674 0.108111
-0.0294781 0.0237339 0.109236
0.00254991 0.0175836 0.1099
0.0186359 0.0146113 0.110768
0.0323031 0.0217769 0.103142
-0.0438828 0.029066 0.1114
-0.0334621 0.0367198 0.110314
-0.015176 0.0250701 0.101211
0.0447966 0.0308266 0.109979
-0.0438325 0.0438705 0.110396
-0.0211922 0.0404715 0.100116
-0.000125272 0.0407683 0.101922
0.0165452 0.0436906 0.10476
0.0357918 0.0395429 0.11041
-0.0368391 -0.040218 0.122677
0.00288462 -0.0431581 0.12153
0.0284593 -0.0445621 0.114919
0.0360315 -0.0441803 0.124694
-0.0221786 -0.0364294 0.115497
-0.0151509 -0.0255864 0.113114
0.00782294 -0.0304608 0.115576
0.0440358 -0.0344687 0.123142
-0.0314494 -0.0246385 0.114502
-0.00655379 -0.0170027 0.118286
0.0248043 -0.0212956 0.123929
-0.0226577 -0.011619 0.121271
0.00251081 -0.0102173 0.124043
0.0243756 -0.0047493 0.118044
-0.0367331 0.000898823 0.123471
-0.0186394 0.0108673 0.12426
-0.00340135 0.00209503 0.1177
0.0115166 0.00610218 0.11756
-0.0389686 0.0176655 0.122711
0.0304784 0.0148935 0.122685
0.0445806 0.0185776 0.114162
-0.0283378 0.0304733 0.120666
-0.0127569 0.0307037 0.116756
0.02108 0.0263055 0.115191
0.0398388 0.0345737 0.122345
-0.00324582 0.0443215 0.118122
0.0228165 0.0410566 0.120722
-0.0239562 -0.0446155 0.13131
-0.00833375 -0.0404429 0.133069
0.0179832 -0.0401591 0.126935
-0.0139751 -0.0254133 0.126842
-0.0406291 -0.0210928 0.128487
0.00417917 -0.0246388 0.13158
0.0152446 -0.0129152 0.128972
0.0402583 -0.0209679 0.132633
-0.0406501 -0.00555389 0.134629
-0.00818281 -0.0123311 0.130161
0.0101933 -0.00115966 0.127669
0.0412691 -0.00148701 0.128553
-0.00309961 0.00230928 0.136804
-2.94541e-05 0.0215659 0.129864
0.0446843 0.0172677 0.129983
0.0198126 0.0263054 0.135046
0.0374222 0.0296004 0.1347
-0.0399384 0.040372 0.126154
-0.0210418 0.0429528 0.127344
0.00533772 0.0411229 0.131849
0.0351533 0.0429442 0.132948
-0.0402415 -0.0410901 0.14199
0.00626913 -0.0401387 0.1428
0.019155 -0.0434804 0.143751
0.0392227 -0.040043 0.140273
-0.0251872 -0.0302681 0.140058
-0.00634026 -0.0279401 0.144358
0.022251 -0.0259429 0.140706
-0.0442029 -0.0240731 0.144267
-0.0342562 -0.016411 0.143749
-0.00400383 -0.0147754 0.143338
-0.0199645 -0.00858212 0.141303
0.027627 -0.0106439 0.144831
0.0422306 -0.00603771 0.144383
-0.0321777 0.00788048 0.139974
0.0225857 0.00273641 0.137574
0.0392989 0.00805612 0.143346
-0.000551517 0.0172107 0.145078
0.0146148 0.0144944 0.145154
0.0432549 0.0210861 0.14335
-0.0400575 0.0266599 0.140975
-0.0188295 0.0255338 0.139699
-0.00673588 0.0373873 0.143549
0.00667533 0.0303409 0.144673
-0.0433634 0.0434892 0.143422
-0.0285124 0.0427769 0.140054
0.0227872 0.0427144 0.14286
0.0433595 0.0432757 0.143359
VERTICES 337 674
1 0
1 1
1 2
1 3
1 4
1 5
1 6
1 7
1 8
1 9
1 10
1 11
1 12
1 13
1 14
1 15
1 16
1 17
1 18
1 19
1 20
1 21
1 22
1 23
1 24
1 25
1 26
1 27
1 28
1 29
1 30
1 31
1 32
1 33
1 34
1 35
1 36
1 37
1 38
1 39
1 40
1 41
1 42
1 43
1 44
1 45
1 46
1 47
1 48
1 49
1 50
1 51
1 52
1 53
1 54
1 55
1 56
1 57
1 58
1 59
1 60
1 61
1 62
1 63
1 64
1 65
1 66
1 67
1 68
1 69
1 70
1 71
1 72
1 73
1 74
1 75
1 76
1 77
1 78
1 79
1 80
1 81
1 82
1 83
1 84
1 85
1 86
1 87
1 88
1 89
1 90
1 91
1 92
1 93
1 94
1 95
1 96
1 97
1 98
1 99
1 100
1 101
1 102
1 103
1 104
1 105
1 106
1 107
1 108
1 109
1 110
1 111
1 112
1 113
1 114
1 115
1 116
1 117
1 118
1 119
1 120
1 121
1 122
1 123
1 124
1 125
1 126
1 127
1 128
1 129
1 130
1 131
1 132
1 133
1 134
1 135
1 136
1 137
1 138
1 139
1 140
1 141
1 142
1 143
1 144
1 145
1 146
1 147
1 148
1 149
1 150
1 151
1 152
1 153
1 154
1 155
1 156
1 157
1 158
1 159
1 160
1 161
1 162
1 163
1 164
1 165
1 166
1 167
1 168
1 169
1 170
1 171
1 172
1 173
1 174
1 175
1 176
1 177
1 178
1 179
1 180
1 181
1 182
1 183
1 184
1 185
1 186
1 187
1 188
1 189
1 190
1 191
1 192
1 193
1 194
1 195
1 196
1 197
1 198
1 199
1 200
1 201
1 202
1 203
1 204
1 205
1 206
1 207
1 208
1 209
1 210
1 211
1 212
1 213
1 214
1 215
1 216
1 217
1 218
1 219
1 220
1 221
1 222
1 223
1 224
1 225
1 226
1 227
1 228
1 229
1 230
1 231
1 232
1 233
1 234
1 235
1 236
1 237
1 238
1 239
1 240
1 241
1 242
1 243
1 244
1 245
1 246
1 247
1 248
1 249
1 250
1 251
1 252
1 253
1 254
1 255
1 256
1 257
1 258
1 259
1 260
1 261
1 262
1 263
1 264
1 265
1 266
1 267
1 268
1 269
1 270
1 271
1 272
1 273
1 274
1 275
1 276
1 277
1 278
1 279
1 280
1 281
1 282
1 283
1 284
1 285
1 286
1 287
1 288
1 289
1 290
1 291
1 292
1 293
1 294
1 295
1 296
1 297
1 298
1 299
1 300
1 301
1 302
1 303
1 304
1 305
1 306
1 307
1 308
1 309
1 310
1 311
1 312
1 313
1 314
1 315
1 316
1 317
1 318
1 319
1 320
1 321
1 322
1 323
1 324
1 325
1 326
1 327
1 328
1 329
1 330
1 331
1 332
1 333
1 334
1 335
1 336
POINT_DATA 337
VECTORS i float
0.0 0.0 0.0
0.0 0.0 0.0
0.0 0.0 0.0
0.0 0.0 0.0
0.0 0.0 0.0
0.0 0.0 0.0
0.0 0.0 0.0
0.0 0.0 0.0
0.0 0.0 0.0
0.0 0.0 0.0
0.0 0.0 0.0
0.0 0.0 0.0
0.0 0.0 0.0
0.0 0.0 0.0
0.0 0.0 0.0
0.0 0.0 0.0
0.0 0.0 0.0
0.0 0.0 0.0
0.0 0.0 0.0
0.0 0.0 0.0
0.0 0.0 0.0
0.0 0.0 0.0
0.0 0.0 0.0
0.0 0.0 0.0
0.0 0.0 0.0
0.0 0.0 0.0
0.0 0.0 0.0
0.0 0.0 0.0
0.0 0.0 0.0
0.0 0.0 0.0
0.0 0.0 0.0
0.0 0.0 0.0
0.0 0.0 0.0
0.0 0.0 0.0
0.0 0.0 0.0
0.0 0.0 0.0
0.0 0.0 0.0
0.0 0.0 0.0
0.0 0.0 0.0
0.0 0.0 0.0
0.0 0.0 0.0
0.0 0.0 0.0
0.0 0.0 0.0
0.0 0.0 0.0
0.0 0.0 0.0
0.0 0.0 0.0
0.0 0.0 0.0
0.0 0.0 0.0
0.0 0.0 0.0
0.0 0.0 0.0
0.0 0.0 0.0
0.0 0.0 0.0
0.0 0.0 0.0
0.0 0.0 0.0
0.0 0.0 0.0
0.0 0.0 0.0
0.0 0.0 0.0
0.0 0.0 0.0
0.0 0.0 0.0
0.0 0.0 0.0
0.0 0.0 0.0
0.0 0.0 0.0
0.0 0.0 0.0
0.0 0.0 0.0
0.0 0.0 0.0
0.0 0.0 0.0
0.0 0.0 0.0
0.0 0.0 0.0
0.0 0.0 0.0
0.0 0.0 0.0
0.0 0.0 0.0
0.0 0.0 0.0
0.0 0.0 0.0
0.0 0.0 0.0
0.0 0.0 0.0
0.0 0.0 0.0
0.0 0.0 0.0
0.0 0.0 0.0
0.0 0.0 0.0
0.0 0.0 0.0
0.0 0.0 0.0
0.0 0.0 0.0
0.0 0.0 0.0
0.0 0.0 0.0
0.0 0.0 0.0
0.0 0.0 0.0
0.0 0.0 0.0
0.0 0.0 0.0
0.0 0.0 0.0
0.0 0.0 0.0
0.0 0.0 0.0
0.0 0.0 0.0
0.0 0.0 0.0
0.0 0.0 0.0
0.0 0.0 0.0
0.0 0.0 0.0
0.0 0.0 0.0
0.0 0.0 0.0
0.0 0.0 0.0
0.0 0.0 0.0
0.0 0.0 0.0
0.0 0.0 0.0
0.0 0.0 0.0
0.0 0.0 0.0
0.0 0.0 0.0
0.0 0.0 0.0
0.0 0.0 0.0
0.0 0.0 0.0
0.0 0.0 0.0
0.0 0.0 0.0
0.0 0.0 0.0
0.0 0.0 0.0
0.0 0.0 0.0
0.0 0.0 0.0
0.0 0.0 0.0
0.0 0.0 0.0
0.0 0.0 0.0
0.0 0.0 0.0
0.0 0.0 0.0
0.0 0.0 0.0
0.0 0.0 0.0
0.0 0.0 0.0
0.0 0.0 0.0
0.0 0.0 0.0
0.0 0.0 0.0
0.0 0.0 0.0
0.0 0.0 0.0
0.0 0.0 0.0
0.0 0.0 0.0
0.0 0.0 0.0
0.0 0.0 0.0
0.0 0.0 0.0
0.0 0.0 0.0
0.0 0.0 0.0
0.0 0.0 0.0
0.0 0.0 0.0
0.0 0.0 0.0
0.0 0.0 0.0
0.0 0.0 0.0
0.0 0.0 0.0
0.0 0.0 0.0
0.0 0.0 0.0
0.0 0.0 0.0
0.0 0.0 0.0
0.0 0.0 0.0
0.0 0.0 0.0
0.0 0.0 0.0
0.0 0.0 0.0
0.0 0.0 0.0
0.0 0.0 0.0
0.0 0.0 0.0
0.0 0.0 0.0
0.0 0.0 0.0
0.0 0.0 0.0
0.0 0.0 0.0
0.0 0.0 0.0
0.0 0.0 0.0
0.0 0.0 0.0
0.0 0.0 0.0
0.0 0.0 0.0
0.0 0.0 0.0
0.0 0.0 0.0
0.0 0.0 0.0
0.0 0.0 0.0
0.0 0.0 0.0
0.0 0.0 0.0
0.0 0.0 0.0
0.0 0.0 0.0
0.0 0.0 0.0
0.0 0.0 0.0
0.0 0.0 0.0
0.0 0.0 0.0
0.0 0.0 0.0
0.0 0.0 0.0
0.0 0.0 0.0
0.0 0.0 0.0
0.0 0.0 0.0
0.0 0.0 0.0
0.0 0.0 0.0
0.0 0.0 0.0
0.0 0.0 0.0
0.0 0.0 0.0
0.0 0.0 0.0
0.0 0.0 0.0
0.0 0.0 0.0
0.0 0.0 0.0
0.0 0.0 0.0
0.0 0.0 0.0
0.0 0.0 0.0
0.0 0.0 0.0
0.0 0.0 0.0
0.0 0.0 0.0
0.0 0.0 0.0
0.0 0.0 0.0
0.0 0.0 0.0
0.0 0.0 0.0
0.0 0.0 0.0
0.0 0.0 0.0
0.0 0.0 0.0
0.0 0.0 0.0
0.0 0.0 0.0
0.0 0.0 0.0
0.0 0.0 0.0
0.0 0.0 0.0
0.0 0.0 0.0
0.0 0.0 0.0
0.0 0.0 0.0
0.0 0.0 0.0
0.0 0.0 0.0
0.0 0.0 0.0
0.0 0.0 0.0
0.0 0.0 0.0
0.0 0.0 0.0
0.0 0.0 0.0
0.0 0.0 0.0
0.0 0.0 0.0
0.0 0.0 0.0
0.0 0.0 0.0
0.0 0.0 0.0
0.0 0.0 0.0
0.0 0.0 0.0
0.0 0.0 0.0
0.0 0.0 0.0
0.0 0.0 0.0
0.0 0.0 0.0
0.0 0.0 0.0
0.0 0.0 0.0
0.0 0.0 0.0
0.0 0.0 0.0
0.0 0.0 0.0
0.0 0.0 0.0
0.0 0.0 0.0
0.0 0.0 0.0
0.0 0.0 0.0
0.0 0.0 0.0
0.0 0.0 0.0
0.0 0.0 0.0
0.0 0.0 0.0
0.0 0.0 0.0
0.0 0.0 0.0
0.0 0.0 0.0
0.0 0.0 0.0
0.0 0.0 0.0
0.0 0.0 0.0
0.0 0.0 0.0
0.0 0.0 0.0
0.0 0.0 0.0
0.0 0.0 0.0
0.0 0.0 0.0
0.0 0.0 0.0
0.0 0.0 0.0
0.0 0.0 0.0
0.0 0.0 0.0
0.0 0.0 0.0
0.0 0.0 0.0
0.0 0.0 0.0
0.0 0.0 0.0
0.0 0.0 0.0
0.0 0.0 0.0
0.0 0.0 0.0
0.0 0.0 0.0
0.0 0.0 0.0
0.0 0.0 0.0
0.0 0.0 0.0
0.0 0.0 0.0
0.0 0.0 0.0
0.0 0.0 0.0
0.0 0.0 0.0
0.0 0.0 0.0
0.0 0.0 0.0
0.0 0.0 0.0
0.0 0.0 0.0
0.0 0.0 0.0
0.0 0.0 0.0
0.0 0.0 0.0
0.0 0.0 0.0
0.0 0.0 0.0
0.0 0.0 0.0
0.0 0.0 0.0
0.0 0.0 0.0
0.0 0.0 0.0
0.0 0.0 0.0
0.0 0.0 0.0
0.0 0.0 0.0
0.0 0.0 0.0
0.0 0.0 0.0
0.0 0.0 0.0
0.0 0.0 0.0
0.0 0.0 0.0
0.0 0.0 0.0
0.0 0.0 0.0
0.0 0.0 0.0
0.0 0.0 0.0
0.0 0.0 0.0
0.0 0.0 0.0
0.0 0.0 0.0
0.0 0.0 0.0
0.0 0.0 0.0
0.0 0.0 0.0
0.0 0.0 0.0
0.0 0.0 0.0
0.0 0.0 0.0
0.0 0.0 0.0
0.0 0.0 0.0
0.0 0.0 0.0
0.0 0.0 0.0
0.0 0.0 0.0
0.0 0.0 0.0
0.0 0.0 0.0
0.0 0.0 0.0
0.0 0.0 0.0
0.0 0.0 0.0
0.0 0.0 0.0
0.0 0.0 0.0
0.0 0.0 0.0
0.0 0.0 0.0
0.0 0.0 0.0
0.0 0.0 0.0
0.0 0.0 0.0
0.0 0.0 0.0
0.0 0.0 0.0
0.0 0.0 0.0
0.0 0.0 0.0
0.0 0.0 0.0
0.0 0.0 0.0
0.0 0.0 0.0
0.0 0.0 0.0
0.0 0.0 0.0
0.0 0.0 0.0
0.0 0.0 0.0
0.0 0.0 0.0
0.0 0.0 0.0
0.0 0.0 0.0
0.0 0.0 0.0
0.0 0.0 0.0
0.0 0.0 0.0
0.0 0.0 0.0
VECTORS f float
8.96703e-05 8.53158e-05 9.4275e-05
2.67158e-05 5.15994e-05 2.23131e-05
-1.86189e-05 3.16734e-05 2.17163e-05
2.62333e-05 4.71993e-05 2.04129e-05
-1.82448e-06 3.58029e-05 2.21414e-05
-4.22815e-06 4.51988e-05 3.41976e-05
-6.19741e-05 0.000107631 8.36179e-05
-2.9621e-06 -1.62872e-05 1.16183e-05
0.000183128 0.00015386 0.000162522
-2.00355e-05 6.27064e-05 3.1438e-05
-5.45773e-06 4.22367e-06 1.96537e-05
0.000118226 0.000106227 0.000122306
0.000190876 0.000210644 0.000245874
-3.19551e-05 3.67184e-05 2.77938e-05
2.38422e-05 2.14537e-05 2.1016e-05
7.83138e-05 2.12026e-05 3.68716e-05
-6.13308e-06 5.58926e-05 3.97763e-05
-6.37513e-07 2.92509e-05 5.49737e-05
5.35092e-05 6.1152e-05 8.99266e-05
1.6093e-05 1.5077e-05 2.236e-05
1.88774e-06 6.6427e-06 -1.72737e-07
4.59397e-05 4.8028e-06 2.10257e-05
0.000101482 0.000143844 0.000191967
8.93271e-06 9.28041e-06 1.0087e-05
5.72895e-05 -6.21537e-05 0.000121129
2.03046e-05 2.16021e-05 3.56474e-06
5.8041e-05 7.40369e-05 0.000113581
4.18656e-05 1.35486e-05 0.000116345
1.11133e-05 7.70011e-06 1.65312e-05
-6.00093e-06 -9.64832e-06 1.11014e-05
-2.40158e-06 3.09455e-05 2.85268e-05
-2.12075e-05 1.55752e-05 1.82126e-05
0.0 0.0 0.0
8.26499e-05 0.000321921 0.00019487
1.54868e-06 4.00133e-05 4.46542e-05
3.7857e-05 2.69196e-05 2.90941e-05
3.99433e-05 7.3387e-05 6.14428e-05
2.52909e-05 0.000180167 0.000216394
-7.00712e-06 1.2921e-05 2.13325e-05
5.00922e-05 7.51683e-05 0.000101598
-2.65698e-05 0.000348838 0.000271543
-2.88954e-05 7.60795e-05 0.000178787
8.49107e-06 1.2042e-05 1.79365e-05
4.69823e-05 2.48473e-05 4.70007e-05
5.87584e-05 5.50099e-05 5.35088e-05
0.000354746 0.000161478 0.000494697
6.45747e-05 5.14828e-05 0.000131335
0.000218368 0.000173934 0.000347874
1.4341e-05 9.99579e-06 2.77267e-05
0.000160951 8.79086e-05 0.000212014
3.95053e-05 4.99762e-05 4.72089e-05
8.10377e-06 1.26905e-05 2.74049e-05
3.6803e-05 2.90437e-05 3.63637e-05
2.58289e-05 -6.45188e-06 2.87362e-05
2.88097e-05 -1.50389e-06 3.29569e-05
2.03055e-05 1.12501e-05 2.27617e-05
3.35373e-06 1.171e-05 2.81151e-05
-1.85116e-06 1.54381e-06 2.55087e-05
6.92313e-05 0.00014988 0.000129042
5.57438e-05 0.000217493 0.000259616
-3.04958e-05 7.78628e-05 0.000110177
9.99683e-05 8.16122e-05 0.000127865
0.000138611 0.000290554 0.000372331
7.05683e-06 5.69636e-05 4.70806e-05
3.7744e-05 4.63655e-05 9.89459e-05
1.63065e-05 2.56212e-05 4.56489e-05
2.2578e-05 2.05448e-05 3.27616e-05
0.000184388 0.000227867 0.000286392
0.000280981 0.000304339 0.000513432
0.000104278 0.000104878 0.000366926
9.46537e-06 1.95578e-05 5.68602e-05
3.32074e-05 2.00779e-05 6.14039e-05
6.02509e-05 3.35536e-05 8.17019e-05
6.80971e-05 1.39896e-05 0.000110114
0.000397983 0.000228635 0.000560817
0.00138825 0.000627312 0.000892688
4.04812e-05 3.32257e-05 2.14307e-05
3.34669e-06 1.96662e-05 5.46007e-05
1.39741e-05 8.96332e-06 4.15504e-05
4.58862e-05 5.32635e-06 5.93323e-05
0.000191494 5.05845e-05 0.00024091
1.37644e-05 2.03782e-05 6.19118e-05
-3.9832e-06 2.88569e-05 0.000154315
1.2193e-05 -5.82997e-08 2.50054e-05
0.000122862 1.01823e-05 0.00021654
9.56836e-05 7.82935e-05 7.79924e-05
1.86137e-05 2.50161e-05 3.88521e-05
6.06473e-06 2.1009e-05 3.35838e-05
1.96502e-05 7.97787e-05 0.000135908
-6.49687e-06 1.35198e-05 9.24589e-05
2.61045e-05 4.10393e-05 5.85425e-05
2.50138e-05 5.63555e-05 9.11998e-05
-1.14911e-06 2.15544e-05 4.69151e-05
3.99606e-05 5.59289e-05 0.000114072
-2.7561e-06 1.03845e-05 4.63969e-05
1.82241e-05 1.4604e-05 4.40978e-05
6.8229e-05 2.67392e-05 9.8506e-05
1.1784e-05 4.46708e-06 4.54971e-05
0.000148414 4.86628e-05 0.000235551
0.000230314 0.000191921 0.000493458
9.44649e-05 6.43023e-05 0.000145483
7.47796e-05 9.36707e-05 0.000409509
0.000282065 8.30163e-05 0.00045266
7.347e-05 4.64837e-05 0.000188445
-2.65933e-06 1.88542e-05 3.91355e-05
2.04417e-05 5.0949e-06 3.91613e-05
0.000110774 9.65904e-05 0.000353203
4.67212e-05 -7.63089e-06 7.65981e-05
5.57499e-05 4.11586e-06 6.49785e-05
0.000123503 8.87528e-06 0.000252794
0.000107745 6.32808e-05 0.000306297
1.15524e-05 3.60164e-06 4.22003e-05
7.78977e-06 6.34018e-06 1.21688e-05
9.29303e-06 1.0231e-05 1.19073e-05
7.53296e-06 9.01544e-06 1.8816e-05
4.05983e-06 1.58977e-05 4.07636e-05
6.60934e-06 8.9133e-06 0.000193732
-8.51835e-07 2.6236e-05 4.75052e-05
6.51748e-05 0.000126337 0.000216077
1.66668e-05 4.26432e-05 9.55196e-05
1.99199e-05 4.06916e-05 7.98774e-05
0.00036595 3.86836e-05 0.00031293
0.000314351 0.000255345 0.00062864
0.00013333 0.00012308 0.000524349
2.82277e-05 7.58235e-05 0.000354023
4.92616e-05 -2.05416e-05 0.000204925
6.04665e-05 5.70238e-05 0.000138075
0.000207217 9.46884e-05 0.000592828
6.31673e-06 -4.29391e-06 4.49078e-05
0.00033793 0.000130192 0.000622599
0.000357428 0.000240768 0.0007457
0.000128743 6.09665e-05 0.000279059
7.74968e-05 3.1843e-05 0.000145839
6.96978e-05 3.55632e-05 0.000149718
1.67914e-05 2.02174e-05 4.71702e-05
1.71402e-05 4.45823e-06 4.79366e-05
0.000230773 3.12558e-05 0.000467282
5.71843e-05 9.30924e-06 0.000117581
0.000245086 0.000230394 0.000657073
2.55533e-05 9.71759e-06 5.37343e-05
1.81707e-05 2.51838e-05 0.000108574
1.64296e-05 3.88337e-06 5.02597e-05
5.1951e-06 6.29357e-06 2.43813e-05
8.79845e-06 1.10416e-05 2.09859e-05
1.00762e-05 2.01183e-05 4.48866e-05
6.79888e-06 1.8044e-05 2.46578e-05
0.0 0.0 0.0
4.02172e-05 2.37251e-05 4.84245e-05
1.25726e-05 9.58317e-06 4.13802e-05
7.66863e-05 3.20286e-05 0.000312142
-5.52572e-06 9.83628e-06 7.287e-05
5.74862e-05 4.25432e-05 0.000129331
0.0 0.0 0.0
0.000129545 1.17429e-05 7.4205e-05
0.000464573 0.000154365 0.000706509
9.49338e-05 4.9307e-05 0.000174236
5.32247e-05 1.37566e-05 0.00014781
0.000171687 -4.89819e-06 0.00042937
9.6712e-05 3.15415e-05 0.000203679
7.24826e-05 1.95816e-05 0.000182571
4.54934e-06 4.90403e-06 3.70583e-05
6.34815e-05 1.83615e-05 0.000127671
9.30722e-05 3.51373e-05 0.000189384
8.37631e-05 4.05967e-05 0.000178504
8.14957e-05 4.55518e-05 0.000203355
0.000186533 0.000161351 0.000552122
0.00013307 5.85571e-05 0.000233355
6.77375e-06 -1.4002e-05 5.65183e-05
5.09876e-05 1.62757e-06 8.54134e-05
1.90177e-05 2.04367e-05 5.08353e-05
1.10554e-05 3.72394e-06 0.000106849
0.000136913 8.7228e-05 0.000337339
8.14533e-05 0.000102614 0.000165288
1.13308e-05 6.68287e-06 4.74805e-05
-1.81172e-06 -6.59334e-06 5.99455e-05
2.20445e-06 3.53788e-05 0.000244675
4.73559e-06 -7.61602e-08 5.28993e-06
3.75347e-05 2.61382e-05 7.86024e-05
4.81594e-05 8.18647e-06 0.000121155
9.22159e-06 8.34535e-07 0.000117097
5.50672e-06 3.66548e-06 3.66036e-05
2.70773e-05 3.69352e-05 5.34948e-05
8.15648e-05 2.90725e-05 9.29303e-05
4.32473e-05 3.41423e-05 9.44474e-05
6.80723e-05 1.78007e-05 0.000133085
5.24468e-05 2.15965e-05 0.0001353
8.05321e-05 1.80132e-05 0.000163307
3.9745e-05 1.136e-05 0.00013339
1.67165e-05 -7.64649e-06 4.42035e-05
0.000338312 0.000105019 0.000751844
0.000273189 8.35713e-06 0.000483258
0.000437516 9.76585e-05 0.000819145
0.000306317 8.76842e-05 0.000646986
0.00012348 -3.4593e-06 0.00021775
0.000270883 -3.51284e-05 0.000322277
0.000287847 8.63808e-05 0.000395596
0.000202244 -7.95059e-05 0.00047088
0.00032833 5.62727e-07 0.000900147
0.000253206 0.000102089 0.000887992
4.95132e-05 1.2186e-05 3.65303e-05
2.08008e-05 -1.75239e-05 5.5236e-05
4.3677e-05 1.32875e-06 9.20147e-05
3.47984e-05 1.38787e-05 0.000152791
2.33889e-05 -1.79307e-06 2.55354e-05
8.01331e-06 1.40099e-05 1.86113e-05
1.37029e-05 7.78509e-06 5.1194e-05
0.0 0.0 0.0
1.9179e-05 -1.26903e-05 2.13556e-05
0.000132461 5.18491e-05 0.000464482
1.50271e-06 -1.56532e-05 9.48069e-05
0.000144542 -5.73826e-05 0.000278164
5.70131e-05 4.7601e-05 0.00011253
0.000220779 -1.11393e-05 0.000567278
0.000396906 7.59845e-05 0.000735753
0.00011249 -3.69553e-06 0.000211436
0.000157303 -6.54157e-05 0.000247954
5.13552e-05 -1.24474e-05 7.27088e-05
0.000377431 -0.000161536 0.000586691
3.02127e-05 -1.23924e-05 4.36646e-05
0.000247933 4.78517e-07 0.000621043
0.000443969 3.5776e-05 0.00089277
3.19189e-05 -1.16032e-05 1.04763e-05
1.53277e-05 5.31523e-07 2.05835e-05
8.73708e-05 -1.10975e-05 0.000228274
0.000439771 6.128e-05 0.000628847
6.25777e-07 7.62914e-07 2.40469e-05
3.03814e-05 -1.47385e-05 7.39637e-05
2.75538e-05 2.02495e-06 7.88268e-05
0.000209027 0.00011063 0.000139087
-3.75276e-06 -3.15267e-06 1.06708e-05
3.30911e-06 -1.70525e-06 4.66318e-05
0.000102473 -3.96739e-05 0.000323769
2.44909e-05 -2.35483e-05 4.90929e-05
9.71746e-05 -5.25013e-05 0.000169683
0.000106978 -0.000103215 9.34242e-05
7.82465e-05 0.000126876 0.000246222
3.98427e-05 -1.32115e-05 9.84037e-05
0.000312088 -1.7668e-05 2.72205e-05
5.29434e-05 4.10187e-05 0.000124665
4.85704e-05 -3.12239e-05 0.000133903
9.84794e-05 -3.44641e-05 9.87748e-05
0.000448036 -0.000121677 0.000310339
8.14965e-05 0.000121185 0.000547087
6.75969e-05 3.02576e-05 0.000192943
0.000295481 -8.43407e-06 0.000662564
0.000474768 -0.000322804 0.000629299
3.92559e-05 0.000118242 0.000406658
0.000492709 2.74756e-05 0.000866842
0.000251049 -0.000113393 0.00018519
5.57377e-05 3.06186e-05 9.97469e-05
0.000736917 0.000129078 0.000829689
0.000143264 1.86341e-05 0.000151471
0.000399307 -6.21269e-05 0.000131795
3.11397e-05 2.10354e-05 3.61359e-05
6.08492e-05 2.84105e-05 8.6838e-05
7.06838e-05 -3.5159e-06 0.000226441
6.8675e-05 -2.52554e-05 -0.000123128
1.03907e-05 -7.24719e-06 2.08198e-05
0.000186754 -1.64193e-05 0.000556313
0.000253933 -2.34883e-05 0.000557312
8.98086e-05 5.33133e-05 -1.75675e-05
0.000188087 0.000107716 -4.39702e-05
1.09912e-05 -2.9177e-05 -4.67046e-05
3.8618e-05 -3.3841e-05 6.5028e-05
1.92692e-05 -1.81794e-05 8.3095e-06
-2.79547e-06 5.23579e-06 1.50147e-05
1.80186e-05 -1.91583e-05 4.47754e-05
4.26175e-05 -1.89317e-05 0.000129079
2.45046e-05 -8.47629e-05 9.47724e-05
-3.10668e-06 2.2445e-05 8.91552e-06
7.3299e-06 2.07552e-05 8.86532e-05
4.8097e-05 -1.79155e-05 0.00010869
0.000240983 2.41174e-07 2.48634e-05
0.000178614 -3.29328e-05 0.000512527
0.000124553 -0.000144927 0.000141951
0.000454754 -0.000111085 0.000422045
-0.0022417 -8.29222e-05 0.00127285
0.000636364 8.57632e-05 0.000603316
0.0 0.0 0.0
8.21027e-05 -0.000101247 2.73163e-05
0.000259096 0.000287842 0.000184952
0.000667566 0.000238481 0.000104877
7.36824e-05 -2.44677e-05 -1.1701e-05
7.66056e-05 6.21358e-06 0.000134055
0.000574507 4.9164e-05 0.00086917
0.000224498 0.000102302 -5.93524e-05
0.0010767 -0.000750057 -0.00061379
-1.17794e-05 1.04921e-05 0.000119285
0.000356806 0.000444455 -0.000468643
1.7646e-05 2.29016e-06 -4.46503e-06
0.000133906 -0.00015952 0.000219589
0.000198167 -8.43928e-05 8.43125e-05
6.20144e-05 -7.62625e-06 0.000101391
1.64441e-05 -0.000183368 0.000194776
0.000178463 -0.000346902 0.000266718
0.000128932 -0.000113745 6.64466e-05
0.000145961 0.000138045 0.00028272
0.000102433 -0.000825146 0.00185584
5.31606e-05 -4.55456e-05 8.39085e-05
7.39498e-05 -0.000114113 -7.91665e-06
0.000187747 0.000162362 0.000311299
0.000732785 -0.000426317 0.000310816
0.00116168 -8.28995e-05 0.000903116
9.0262e-05 -3.22741e-05 -2.88669e-05
0.00221561 0.00173436 -5.8066e-05
0.000957624 2.51325e-05 -0.000569331
6.38329e-05 8.10238e-05 0.000114549
0.0 0.0 0.0
0.000582284 7.82565e-05 0.000213615
-0.000350762 9.48426e-05 0.000314909
0.0 0.0 0.0
4.71761e-05 -4.14678e-05 3.05264e-05
4.79157e-05 -1.57648e-05 3.56114e-06
3.88598e-05 1.3094e-05 1.87726e-05
0.000108231 -9.05675e-05 7.25782e-05
4.2407e-05 -4.16517e-05 4.93012e-05
0.000171081 4.27051e-05 5.09574e-05
-1.83117e-06 -6.23486e-05 2.31584e-05
-3.82072e-06 -3.74385e-05 6.96791e-06
2.56422e-05 -4.57674e-05 4.41717e-05
0.000195446 4.34689e-06 0.000194479
-0.000136983 0.000152447 9.04565e-06
4.14085e-05 5.4694e-05 3.7056e-05
0.000347388 0.000132412 -9.08325e-05
-0.000364847 0.000998276 -8.41713e-06
-4.80067e-05 9.98275e-05 5.28435e-06
0.000116872 -7.97114e-05 8.88713e-05
0.000327979 0.000556051 1.32903e-05
-0.00011004 0.000244495 0.000167679
0.000170574 0.00010743 6.45364e-05
0.000561629 8.66809e-05 0.000224241
0.00021366 -1.22148e-05 0.000118629
0.000439053 7.9759e-05 5.15468e-06
-7.02749e-07 7.6863e-06 1.22764e-05
0.0 0.0 0.0
0.0 0.0 0.0
-6.86253e-05 -8.54493e-05 0.000111941
VECTORS omega float
0.000141042 0.000501626 -0.000341108
0.00116386 -0.000485955 -0.000369254
0.00308689 -0.00259801 -0.00342017
-4.74467e-06 -0.000468805 6.91204e-05
-0.00152653 0.0032435 0.0036774
0.00209197 -0.00247051 0.00041002
-0.00095131 0.0014347 0.00326907
-0.00453501 0.000955756 -0.0038857
0.000585089 0.000590174 -0.000264193
-0.000373013 -0.00272195 0.00750251
0.000692223 -0.0023882 -0.00108895
-0.000109685 -0.000496817 0.000226339
0.00067819 0.00168481 -0.000639781
-0.00155068 -0.00213876 -0.000564205
0.00114208 0.00231711 -0.000875929
-0.00016816 0.00513961 0.000142897
-0.00341492 -0.00170517 -0.00226815
0.000523694 -0.000528671 -8.86048e-05
-0.000918608 0.000602334 -0.00036674
0.0010941 -0.00144014 -0.000914444
0.00142319 0.00434452 0.00409911
0.000137024 -0.00245475 0.00312376
-0.0015259 -0.000294333 0.000555596
-9.94511e-06 0.00162324 -0.000416088
0.00248683 0.000287355 -0.00200555
-0.000187864 -0.00200678 0.000505232
0.00197396 -0.000649505 0.000973994
-0.000383224 0.000136361 0.000859435
0.00121147 0.000674993 -0.00167105
0.00327227 0.000192719 0.00372331
0.00422981 0.00187086 -0.00164462
0.00366894 -0.00539246 0.000191765
0.0509868 0.612746 0.679115
5.35321e-06 -0.000498057 2.17237e-05
0.00241773 4.36046e-05 0.00155207
0.000746527 -0.0015471 -0.000103571
-0.0004018 -0.00169511 -3.1195e-05
0.0013715 0.000822863 0.000812111
-0.000461197 0.00318092 -0.000971252
-0.00196765 -0.00351739 0.000999498
0.00220264 0.00346766 -0.000551523
8.30432e-05 0.000844549 -0.000452775
-0.00237563 0.00430099 -0.00148303
0.00190142 0.00458858 0.000698396
0.000119343 -0.00221128 0.000236588
0.00318863 -0.00194496 -0.000763325
0.00110192 0.00397395 0.000937852
0.000240462 0.00186698 -0.000489708
0.00254605 0.00465504 0.00096168
-0.000583611 -0.00145305 -6.21783e-06
0.00227449 0.00349891 -0.000130737
0.000271684 -0.00197039 0.000414205
0.000692307 0.00334515 -0.000921747
-0.00345869 -0.000178792 0.00327548
-0.00514348 -0.00109957 0.0015342
-0.00337986 -0.000101544 0.00070518
-0.00566176 0.000340361 -0.00107113
-0.00497709 0.000489154 -0.00246044
0.00124705 -0.00232457 -0.000288419
0.000306485 2.02432e-05 0.00137545
-0.000227066 0.00255073 -0.00107026
-0.00230223 -0.0035016 0.000691406
0.00123834 -0.00149716 -0.000419673
-0.00212352 -0.00130645 -0.000573414
0.00123165 0.00363684 -0.000383574
0.00139553 0.00165373 0.000810129
0.000565846 -0.00236224 -0.00107325
0.00134837 -0.00201718 7.13565e-05
0.00125143 -5.8746e-06 0.000335579
0.00140699 0.000465882 -0.000395546
0.000999852 0.00656114 -0.000768724
-0.00526463 -0.00154283 -0.00124418
0.00108911 -0.000790635 0.000143018
-0.0072486 -8.74373e-05 0.0024804
-0.00333181 0.00133747 0.0022691
-1.44227 0.384138 -0.355469
0.00155002 0.000608997 0.000439509
-0.0015461 -0.00497116 -0.000381769
-0.0004722 -0.00216531 0.000311114
0.00185434 0.000342697 -0.000997109
0.000879309 -0.000439589 -0.000335486
0.00249076 0.00177755 0.000999842
0.000277126 0.002766 0.000579874
-0.00217139 -0.00222563 -1.29143e-05
-0.00159106 -0.000812554 -0.000364781
0.00369756 0.00290102 -0.00119247
0.00588052 0.00466361 -0.00258619
0.0040222 -2.27708e-05 -0.00178265
0.00247921 0.00236703 -0.0015764
0.00271978 0.00166763 4.67366e-05
0.00350842 0.00346285 0.000372063
-0.000753685 0.00193689 0.00205057
0.00131923 -0.00115508 0.00234165
0.00150459 0.000122266 -0.00259884
0.000368437 -0.00209393 -0.000739433
3.35545e-05 -0.00590426 0.00141445
0.00168074 -0.00414048 -0.00664086
0.00015813 0.00513362 0.000430515
0.000232116 -0.00402824 -0.00229956
-0.00171349 -0.000626476 0.000625368
0.00109201 -0.000353771 -0.00291795
-0.00107766 0.00317223 0.00253031
-0.000524809 0.00153656 0.000550762
0.000873444 -0.00087935 0.00191118
-0.0003141 0.00609059 -0.000180728
0.00012535 0.000123151 0.00142836
-5.01993e-06 0.000475189 -0.00113445
0.00449594 0.00247186 -0.00183843
-0.00265445 0.00371162 0.00371711
-0.00384222 -0.000188067 0.00110558
-0.00435901 -0.000207331 0.000628039
-0.00708739 0.00181318 0.000323256
-0.00283625 0.00246037 0.000761896
0.000322832 -0.00311187 -0.00174029
0.00347598 0.000487168 0.000857718
0.00495474 0.0007996 -0.0025296
0.00250963 -0.00107867 0.000289268
0.00853684 -0.0105157 0.00660965
-0.00169986 -0.00477985 0.00154889
0.00209997 -5.08232e-05 -0.00274805
0.00313729 -0.00046546 -0.000304424
0.00316034 0.0131456 -0.00559191
0.00215685 0.0029687 -0.00137015
0.000957545 -0.000263164 -0.000738994
0.00215735 0.00369947 -0.000971643
0.00148284 0.00390103 0.00131541
-0.00109708 -0.00127261 0.00129514
0.00079267 0.00124601 -0.00124154
-0.000719374 0.00234108 0.00208547
-0.0017186 0.00121766 0.000769603
0.00156649 -0.000264097 -7.94243e-05
-0.00207684 -0.0049123 -0.00159718
-0.00202086 -0.00297693 0.00128703
-0.0054974 -0.00544559 0.000603361
0.000901245 0.00257994 -0.000822367
0.00493828 -0.00422852 -0.00154499
0.000344399 -0.00204309 -0.00167491
-0.00464917 0.0027491 0.00599868
-0.00444561 0.00198847 -0.000240353
-0.00627939 -0.0034159 0.00197712
0.00777556 -0.00111218 0.00438799
-0.00327321 -0.00654573 0.000764112
-0.000567767 -0.00138925 -0.00107773
-0.00186108 -0.00260742 0.000394184
0.00944073 0.000141118 -0.000877925
0.00326439 -0.00253651 0.000360688
-0.72064 -0.54179 1.71321
0.00286794 -0.00716811 -0.00251977
0.000535752 0.00684008 -0.00186747
0.00237747 0.00151657 0.000206407
-0.00843679 -0.0050701 -0.00269568
0.00281865 0.00528045 0.00120624
-2.39135 -4.28649 2.11174
-0.000502186 -0.00959093 0.00273456
-0.000706485 0.00178112 -0.000568837
-0.00248987 -0.00203365 0.0032819
-0.00155193 0.0012256 -0.000991865
-0.00168003 0.00327214 0.00121041
-0.00180115 0.0015723 -0.00273962
0.000500604 0.000619273 0.00145277
-0.000599509 0.00341194 0.000306751
-0.00171293 0.00150375 0.00163301
-0.00119435 0.00146957 -0.00313278
0.000474207 0.000377224 -0.00100265
0.00110555 -0.000939454 0.00437487
-0.00124562 0.0018496 -0.000891996
-0.00166964 0.00327948 0.00122287
-0.00582216 -0.00453645 -0.0016621
-0.00518648 0.00632064 0.00578857
-0.00411391 -0.00403502 -0.00229872
-0.0149719 9.53222e-05 -0.00205979
-0.00604392 0.00552668 0.000153799
0.00198652 -0.000231484 1.33544e-05
0.00713232 0.000780328 -0.00531694
0.0112678 -0.00917362 0.00390594
0.0053889 0.00330447 0.00187894
0.00228904 0.00313546 -0.000797016
0.00814099 -0.00484097 -0.00890401
0.000926638 0.00192052 -0.00122002
0.00499071 -0.00441444 -0.000431138
0.00249963 0.0073048 -0.00219184
-0.000946891 -0.00880122 0.00554818
-0.00258694 -0.00813069 -0.000508607
0.00353836 -0.00021538 -0.00497053
0.000902196 -0.00487878 -0.000317966
0.00269271 0.00169143 -0.000770847
-0.00248248 -0.00151095 -0.000426648
-0.00215438 0.0029706 -0.0018533
-0.000708723 0.000708683 0.00294959
0.000249674 0.00203284 -0.00015575
0.000208583 0.00111675 -0.000632112
-0.00188594 -0.0004702 0.0014168
-0.000581961 0.00270465 0.000338646
2.66472e-05 0.00303103 -7.06254e-05
-0.00286189 -0.00519487 -0.000473975
-0.000268332 0.00228617 -0.00096693
-0.000628909 0.000923997 0.00143993
2.60828e-05 -0.00350583 0.00017869
0.00166448 0.00277318 0.00176002
-0.000157486 0.00477481 4.73703e-05
-0.00521425 -0.00663466 -0.00260524
-0.00824876 -0.00528259 0.00328848
-0.0171358 -0.00122828 0.00164053
-0.00403794 0.00479597 0.00196806
0.0020552 -0.00374384 -0.00073536
0.0117597 -0.00338842 -0.00313802
0.403421 0.894685 0.657396
0.00261158 0.000110031 0.00032107
-0.00340479 -0.00286568 0.000345319
-0.00428049 0.00987495 -0.00575523
0.00114622 0.000873031 -0.000830088
-0.0019705 0.00599089 -0.0113451
0.000102714 0.000174109 0.000867179
-0.000885844 -0.00323152 0.00201648
-0.00320644 -0.00295335 -0.000875728
-0.000973054 0.00409966 0.000318573
0.00973365 -0.00821885 -0.000974432
-0.00135845 0.000513885 -0.000484021
0.00594858 -0.00463647 -0.00167498
-0.00180751 -0.00398131 0.000633254
-0.000662754 0.00111115 -0.000424701
-0.00169975 0.00467895 0.00147496
-0.0040705 -0.000438371 -0.00017429
-0.00181371 0.00200093 0.00271528
-0.00202683 0.00346137 0.00185121
-4.94102e-06 0.000173918 7.45442e-05
-0.00476949 -0.00109673 0.00103569
-0.00943516 0.00976891 -0.00224198
-0.00508925 -0.000891329 0.00274648
0.00678506 0.00184436 -0.00109258
0.398037 1.50313 -0.353729
0.00944988 0.00447347 -0.00180822
0.00683075 -0.00158518 -0.00284047
0.00563124 0.00296159 -0.000980865
0.00324554 0.00218762 0.00181263
0.00143593 -0.00398016 0.000151531
0.00931427 -0.00112656 -0.00342488
-0.00884709 0.0170456 0.00265981
0.00734012 0.0043417 -0.00995986
0.00193732 -7.64796e-05 -0.00013827
0.00554152 0.00301323 -0.00145692
6.46122e-05 0.00133015 -0.0019483
0.0166837 -0.0135958 0.00715439
-0.0050482 0.00950233 -0.0114382
0.00147655 -0.0022284 -0.000789547
-0.0017214 0.00226691 0.000111396
-0.0164639 -0.00683075 0.00411911
-0.00252026 0.00272582 0.000141208
-0.00217035 0.00371536 -0.000449872
-0.00344634 0.000610857 -0.0130083
-0.00236307 0.000144875 -0.000946797
-0.00616405 0.0077611 0.000401647
-4.10594e-05 0.00234624 -0.00157974
-0.0125295 -0.00370687 0.00664424
0.00170815 -0.00369566 0.00327066
-0.000885654 0.000131501 0.000124163
-0.00719969 0.0021022 -0.000598157
-0.00140068 -0.00122497 0.00269814
-0.00648036 -0.000531912 -0.000698293
-0.00744776 -0.00036457 0.0016359
-0.0047745 0.00982904 0.00396701
-0.00161176 0.00909056 -0.00882849
-0.00368759 -0.00286788 0.00179819
-0.00518687 0.000106519 0.00165248
-0.00184127 -0.00343026 -0.00213867
0.000859234 -0.000407951 0.00141898
0.00918747 -0.0152659 -0.00196553
-0.0011071 0.00171117 0.000643081
-0.00576944 -0.00386484 -0.0106659
-0.00778855 -0.00210238 0.000488689
0.00341728 -0.00387451 -0.00578581
-0.00466057 0.00120661 0.00422362
0.00909947 -0.012848 0.00902404
0.00446031 0.00438811 0.000597966
0.0139765 -0.00272658 -0.0104447
-0.00258145 0.00418664 0.000567149
-0.227716 -1.53101 -0.639858
0.000989274 -0.00560325 -0.00191629
1.99653 0.347124 4.05913
0.00797856 -0.00652996 -0.000819422
0.0047119 0.00626116 -0.00803288
-0.00299864 0.00370366 -0.00511751
0.00100564 0.0041549 -0.000369673
0.00294062 -0.0101741 -0.00104534
-0.00227134 0.00270298 0.00301312
-0.0143566 0.0018683 0.000875475
-0.00854614 0.0538524 -0.00441207
-0.00180339 -0.00797724 -0.00223796
0.00411058 -0.0112412 0.00330133
0.00712656 0.00203058 -0.000490626
0.00367458 -0.00107329 -0.00105076
0.00109353 0.00299017 -0.000907471
0.00896879 -0.00965452 0.00486173
0.0193463 -0.00312227 -0.00277683
0.00277299 0.00221942 0.000804676
0.024089 0.0076442 -0.0134384
0.00461864 0.0033178 -0.00267315
0.554542 2.22549 0.878395
0.00397586 -0.00197538 0.000360394
-0.0151128 0.00609058 0.0142401
-0.00168947 0.00412198 -0.00397472
-0.00339267 -0.00898318 0.000826365
0.0027169 -0.00524668 -0.00238496
0.650296 0.0505071 0.151967
-0.025611 0.0234732 0.0135366
-0.0265079 -0.0606236 -0.0114849
-0.00156588 -0.00105062 0.0024904
3.78208 0.356473 0.761041
-0.00632456 0.015889 0.0048603
0.0655636 0.00500128 0.0916343
-0.622423 -1.2613 -1.11371
-0.314557 0.0472993 -0.101707
-0.000215321 -0.00448404 -0.00715929
9.28068e-05 0.000631789 -0.00098275
-0.0049965 0.0020211 0.00625111
-0.0029611 -0.0050279 -0.000701796
-0.00124335 -0.000858222 0.00369338
-0.0190699 -0.00145446 -0.0158659
-0.0122198 0.00116619 0.011885
3.83776e-05 -0.000627662 -0.000427885
-0.00358871 -0.00563612 0.00156369
0.0131069 -0.0041289 -0.0109638
-0.0185889 0.103643 -0.800318
0.00720881 -0.0101073 -0.000418476
-0.00671786 0.00475666 -0.00675198
-0.00227383 0.00346539 0.0469752
-0.000442549 -0.00247105 -0.0112467
0.0355378 -0.0432884 -0.0281852
0.0263911 0.0127341 -0.0311922
0.00440657 -0.00227468 0.0022029
-0.000508201 -0.00343665 -0.00183636
0.000994655 -0.0141549 -0.00407303
0.0110738 -0.0326095 0.0341428
-0.000960979 -0.000838637 0.000525523
2.04535 2.79711 1.72142
0.0595632 0.966557 -0.793519
0.00819426 0.00755514 -0.0125017
VECTORS v float
1.00121e-05 3.52785e-06 1.32072e-05
1.02524e-05 3.35414e-06 2.21978e-05
1.65893e-05 1.13546e-05 2.82978e-05
1.35004e-05 2.9442e-06 2.57292e-05
1.50443e-05 1.46025e-05 2.84369e-05
-9.51636e-06 2.16346e-05 4.85355e-05
9.75785e-06 2.07201e-05 3.0327e-05
3.93061e-06 2.87255e-05 4.46103e-06
1.74515e-05 2.05303e-06 2.69438e-05
-7.25444e-06 8.77543e-06 4.11682e-05
-1.86763e-05 1.07116e-05 2.53256e-05
1.51743e-05 -1.09721e-06 2.66347e-05
2.43915e-05 5.78104e-07 5.64789e-05
-1.59366e-05 1.415e-05 3.96641e-05
1.98912e-05 -7.48953e-06 2.92619e-05
2.77334e-05 1.06493e-06 4.49493e-05
-1.19882e-05 1.55634e-05 4.21222e-05
-9.6097e-06 8.43245e-06 5.83399e-05
-5.19934e-06 4.17815e-06 3.99801e-05
1.39764e-05 -3.02659e-06 2.14889e-05
2.05516e-05 -1.04164e-05 -2.72077e-06
-1.37947e-06 -8.78327e-06 2.41359e-05
-7.38733e-06 4.14686e-06 4.5823e-05
-1.58895e-06 2.6292e-06 1.9924e-05
7.22365e-06 -2.23621e-05 2.60602e-05
-1.05654e-05 -4.00301e-06 2.36658e-05
-1.55144e-05 -6.58036e-07 5.40825e-05
1.0611e-05 -1.09794e-05 2.01882e-05
2.41312e-08 -7.39935e-06 2.56919e-05
-5.39928e-06 -2.36247e-05 1.37311e-05
9.89706e-06 5.89403e-06 3.84304e-05
-1.35454e-06 1.2771e-05 2.73529e-05
-0.00195927 0.00548724 -0.0152554
1.41996e-05 8.87804e-06 6.16188e-05
1.06074e-05 4.75286e-06 6.3322e-05
1.64785e-05 -4.02988e-06 2.5526e-05
2.02559e-05 3.7454e-06 5.56392e-05
-4.65409e-06 1.45283e-05 7.23512e-05
-1.56874e-05 6.39396e-06 3.01627e-05
2.15216e-05 -9.03007e-07 0.000100812
-4.81614e-06 1.84403e-05 8.55129e-05
-1.54993e-05 1.16131e-05 6.04728e-05
4.66579e-07 5.48506e-06 3.31119e-05
3.02531e-05 -1.22165e-05 5.10278e-05
2.6939e-05 -6.61736e-06 6.45128e-05
3.12925e-05 -2.07107e-05 0.000118345
1.49011e-05 1.4587e-06 0.000112414
9.43497e-06 7.96343e-06 9.05552e-05
-6.86101e-07 -3.258e-06 3.81049e-05
2.14246e-05 -1.32474e-05 5.0977e-05
1.82071e-07 -1.48402e-06 6.93758e-05
-9.10488e-06 1.24425e-06 4.34514e-05
-5.51644e-06 -3.84435e-06 4.3976e-05
1.12841e-05 -1.7995e-05 3.82739e-05
9.41909e-06 -1.64141e-05 4.08467e-05
1.49341e-06 -1.02906e-05 3.9444e-05
-1.06705e-05 -9.71252e-07 4.54693e-05
-1.42283e-05 -9.7395e-06 3.50829e-05
3.8854e-06 8.26648e-06 3.88646e-05
8.11766e-06 1.60495e-05 8.59553e-05
-5.08387e-06 1.21949e-05 4.33585e-05
5.91225e-06 1.80436e-06 5.72638e-05
7.09658e-06 3.27031e-06 9.39222e-05
2.0431e-06 1.00928e-05 7.27424e-05
9.00263e-06 -8.12245e-07 0.000117477
-7.50683e-07 1.13562e-05 6.0607e-05
1.10343e-05 -5.28802e-06 3.08581e-05
1.87486e-05 -8.27002e-06 6.85443e-05
2.14277e-05 -7.22061e-07 0.000141283
-1.79835e-06 -2.20184e-06 0.000104511
-9.64282e-06 1.10053e-06 6.13052e-05
3.01318e-06 -3.88177e-06 7.71101e-05
2.27736e-05 -2.51233e-05 9.45022e-05
1.65831e-05 -2.53688e-05 0.000104579
3.44601e-05 1.40664e-07 0.000132897
0.00226643 -0.00323632 -0.00644115
4.1786e-06 -4.70936e-06 4.32586e-05
-9.34646e-06 -7.76982e-06 6.68588e-05
6.53812e-06 -3.28041e-06 2.96197e-05
7.62169e-06 -2.30459e-05 7.257e-05
1.05794e-05 -1.99189e-05 7.32014e-05
-3.42694e-06 -1.48184e-05 7.87714e-05
-8.0928e-06 -7.30481e-06 5.08998e-05
5.02462e-06 -4.20301e-06 1.38559e-05
8.83201e-06 -1.33698e-05 4.4437e-05
1.22154e-05 5.38215e-06 4.88496e-05
1.54305e-05 -5.96558e-06 6.02656e-05
9.1795e-06 1.26301e-05 5.37039e-05
5.90445e-06 8.14853e-06 4.84067e-05
2.72351e-06 -3.29903e-07 2.99651e-05
1.36876e-05 -1.54633e-07 7.87408e-05
8.78198e-06 5.82586e-06 0.000114354
-1.98968e-06 1.04636e-05 6.39838e-05
1.66334e-05 1.4121e-06 0.000138986
-3.85403e-06 6.86691e-06 6.27723e-05
-1.70189e-05 5.75412e-06 4.07018e-05
-1.38168e-05 -2.52523e-06 0.000135925
2.50663e-06 -3.64144e-06 5.33388e-05
1.56045e-05 -1.75497e-05 6.27337e-05
1.45004e-05 -2.47667e-05 0.000136307
3.1124e-05 1.53171e-06 0.000146344
-8.23052e-07 -9.46146e-06 0.000110723
2.47955e-05 -2.73991e-05 0.000109377
1.77822e-05 -8.90878e-06 0.000170921
-1.44595e-05 -2.69351e-06 4.97866e-05
2.01792e-05 -1.16694e-05 3.66442e-05
1.00116e-06 -9.72075e-06 9.08537e-05
1.93093e-05 -1.5235e-05 5.66702e-05
2.36165e-05 -9.66362e-06 4.98033e-05
7.71578e-06 -1.58973e-05 7.07011e-05
3.98236e-06 -1.36094e-05 7.44448e-05
2.24902e-06 -1.48883e-05 4.85191e-05
4.93862e-06 -4.73069e-07 2.18512e-05
1.47387e-05 2.63473e-06 2.86013e-05
1.03904e-06 5.02652e-06 4.30514e-05
3.34092e-06 6.24846e-06 6.39509e-05
3.37802e-06 -8.97329e-06 7.0231e-05
-9.82495e-06 3.24241e-05 8.46202e-05
1.11336e-05 5.12489e-06 8.60502e-05
1.03599e-05 1.15974e-05 0.000141764
1.34584e-05 1.41293e-05 0.000113361
7.82592e-06 2.04039e-05 0.000154969
2.62892e-05 -1.2559e-05 0.000171226
1.9324e-05 -6.1876e-06 0.000169782
2.84747e-07 -9.21095e-06 0.000114918
9.70683e-06 -1.31885e-05 6.20151e-05
2.31886e-05 -8.586e-06 0.000161032
1.7045e-05 -1.53638e-05 0.000159652
-6.72296e-06 -9.26731e-06 5.5802e-05
2.66786e-05 -1.91671e-05 0.000167193
2.77932e-05 -7.76527e-06 0.000177205
5.30747e-06 -1.27345e-05 7.39081e-05
3.57459e-05 -1.93906e-05 0.000139746
2.13939e-05 -9.34316e-06 0.000143576
4.89521e-06 3.88243e-07 5.37911e-05
7.51627e-06 -7.72209e-06 4.46385e-05
3.11577e-05 -2.52696e-05 9.91255e-05
3.38836e-05 -1.01193e-05 0.000111835
1.68852e-05 3.6957e-06 0.000146317
1.56279e-05 -6.12903e-07 4.04582e-05
-1.01672e-05 -1.17361e-05 0.000108626
-4.72538e-06 -1.52088e-05 5.03908e-05
-4.56377e-06 4.65596e-07 2.03406e-05
4.25494e-06 1.08562e-05 4.15446e-05
6.17561e-06 1.08355e-05 8.09562e-05
2.94813e-06 8.26414e-06 5.44042e-05
0.00615096 0.0048964 0.00138649
4.1206e-05 1.65301e-05 9.48581e-05
4.71283e-06 1.00367e-05 7.65145e-05
1.70134e-05 -1.39104e-05 0.00012329
-2.68602e-06 -9.493e-07 0.000101326
5.73985e-05 1.69398e-06 0.000194367
0.00423797 -0.0161467 0.00345007
9.6654e-05 -1.10418e-05 0.000161865
7.48168e-05 -7.95771e-06 0.000209761
4.38261e-05 -1.43218e-05 0.000194889
2.51346e-05 -1.11621e-05 0.000178639
1.69998e-05 -1.51105e-05 0.000128477
5.25851e-05 -6.94308e-06 0.000206829
2.92174e-05 -1.91778e-05 0.000186458
-7.62679e-06 -4.61809e-06 5.09203e-05
3.5258e-05 -1.78011e-05 0.000129588
5.49401e-05 -8.17666e-06 0.00016943
3.84422e-05 -1.58396e-05 0.000178567
4.23717e-05 -1.66014e-07 0.000188424
1.17081e-05 -1.70326e-06 0.000134318
6.30829e-06 -2.19922e-06 5.87586e-05
3.41515e-06 -1.55196e-05 4.43782e-05
2.64631e-05 -7.24584e-06 7.09228e-05
7.00369e-07 1.2098e-05 6.02845e-05
-5.52091e-06 -2.64933e-06 0.000105408
1.0601e-05 7.42845e-06 8.2668e-05
1.72222e-05 2.30871e-05 6.93172e-05
1.75221e-05 -4.59065e-06 8.58738e-05
-9.36107e-06 -9.49855e-06 0.000100876
-8.15668e-06 8.57844e-06 8.54513e-05
1.00046e-06 6.20827e-06 2.01065e-05
4.3458e-05 -5.7972e-07 0.000136938
4.82297e-05 -1.26057e-05 0.000196845
-4.85688e-06 -8.91843e-06 0.000166057
-7.11938e-06 9.11555e-06 5.84453e-05
2.3703e-05 3.82632e-05 9.92208e-05
7.39664e-05 1.11475e-05 0.000163762
4.1414e-05 2.19486e-05 0.000147046
6.43827e-05 -1.15057e-05 0.000193537
4.18046e-05 -4.89293e-06 0.000197252
5.89347e-05 3.7016e-06 0.000220234
2.10658e-05 -1.5633e-06 0.000191109
5.46894e-06 -1.04412e-05 5.92907e-05
4.59227e-05 9.24605e-07 0.00021616
3.23297e-05 1.09521e-06 0.000165779
6.424e-05 -4.33846e-06 0.000200038
3.64991e-05 -1.06751e-06 0.000168057
1.02773e-05 -3.28516e-06 6.96778e-05
4.8693e-05 -1.60457e-05 9.77075e-05
4.0241e-05 9.64092e-06 0.000111106
3.13692e-05 -2.515e-05 9.92092e-05
4.44037e-05 -1.19291e-05 0.000179433
3.26558e-05 7.68628e-06 0.000195639
3.45145e-05 5.61338e-06 4.20032e-05
1.16407e-05 -1.4016e-05 4.33239e-05
2.55463e-05 -3.4305e-06 7.30343e-05
1.47784e-05 2.2077e-06 0.000129198
9.76821e-06 -8.44321e-06 2.97661e-05
6.37601e-06 1.53714e-05 3.13161e-05
1.59595e-05 -6.62346e-07 9.26703e-05
-0.00521294 0.00417056 -0.00384795
1.16568e-05 -6.5975e-06 4.1745e-05
1.65204e-05 2.02908e-05 0.000182706
-5.30767e-06 -3.03783e-07 0.000160853
1.39766e-05 -4.01047e-06 0.000110496
5.00648e-05 6.78041e-05 0.000181218
4.98366e-05 1.53899e-05 0.00021906
6.38003e-05 9.67788e-07 0.000213133
5.97156e-05 8.61703e-06 0.000227172
1.58963e-05 -6.25653e-06 8.54356e-05
3.50407e-05 -2.31462e-05 9.48092e-05
3.78701e-05 8.8963e-06 0.000165268
1.06814e-05 -1.63814e-05 3.89781e-05
2.69519e-05 -3.3915e-06 0.000133907
6.77264e-05 7.91055e-07 0.00020782
2.10154e-05 1.80003e-07 4.23466e-05
8.33721e-06 -1.02763e-05 2.70231e-05
5.45857e-05 -2.24348e-06 0.000187843
6.8914e-05 1.36118e-05 0.000153643
5.6841e-07 1.52799e-06 1.46532e-05
1.54188e-05 -9.72846e-06 5.59751e-05
1.21176e-05 -1.45423e-06 7.84585e-05
3.62561e-05 1.9529e-05 5.29693e-05
-7.49341e-08 -1.18069e-05 8.26602e-06
0.00237865 -5.49618e-06 0.00267672
2.10795e-05 5.41307e-06 0.000117657
2.02396e-05 -3.28781e-05 5.94189e-05
1.86035e-05 -6.42849e-06 7.55711e-05
2.05299e-05 -2.06624e-05 4.53707e-05
1.20929e-05 4.3054e-05 9.68205e-05
3.9615e-05 2.32307e-07 0.000162984
0.000123034 1.19677e-05 9.14343e-05
4.26618e-05 6.97995e-05 0.000193452
4.5601e-05 9.5052e-06 0.000209597
3.46928e-05 5.88533e-06 0.000155587
3.63306e-05 -2.72105e-06 0.000114563
5.12474e-06 4.60069e-05 0.000239621
3.48739e-05 6.70128e-05 0.000274569
3.81673e-05 1.87338e-05 0.000215254
5.0998e-05 2.57752e-05 0.000227707
-1.80503e-05 5.491e-05 0.000119413
6.87933e-05 2.49087e-05 0.000186155
3.26709e-05 7.67341e-06 6.98352e-05
2.17864e-05 6.0875e-05 6.97811e-05
9.4638e-05 3.69207e-05 0.000187519
7.7701e-05 3.66958e-05 0.000157785
6.06021e-05 1.61402e-05 8.28135e-05
1.68025e-05 8.18899e-05 2.57418e-05
3.77827e-05 6.29785e-05 5.75631e-05
3.66942e-05 1.10884e-05 0.000169883
4.2053e-05 8.26045e-06 2.13657e-06
7.96063e-06 8.68262e-06 1.52366e-05
2.52739e-05 1.12619e-05 9.67681e-05
3.46094e-05 2.82441e-06 9.99224e-05
4.4875e-05 3.24214e-05 1.75702e-05
8.85852e-05 6.80058e-05 3.39275e-05
-6.32072e-06 -2.92263e-05 -1.99057e-05
2.96747e-05 -2.68491e-05 5.57923e-05
1.99296e-05 -2.27128e-05 2.32406e-05
-3.67327e-08 -4.96335e-07 2.11518e-05
2.90144e-05 -1.37423e-05 0.000109689
3.87374e-05 1.04047e-05 0.000198376
1.63776e-05 -3.85167e-05 0.000152408
1.91967e-06 5.99905e-06 1.95063e-05
-5.96974e-06 2.43418e-05 0.000128236
4.25043e-05 3.23299e-05 0.000179806
8.8259e-05 5.01761e-05 6.50774e-05
2.22239e-05 -8.3214e-06 0.000197835
7.41601e-05 8.57599e-06 0.000220369
5.96298e-05 4.72552e-05 0.000159919
-0.00481122 -0.000162949 0.00264319
7.95645e-05 4.74475e-05 7.75698e-05
0.0241889 0.0198124 -0.0117321
6.06244e-05 2.42564e-05 0.000189918
2.61821e-05 0.000150251 7.40685e-06
0.000112679 7.25536e-05 7.13449e-05
5.51261e-05 7.45692e-06 2.93028e-05
5.2153e-05 5.76288e-05 8.01165e-05
7.21008e-05 4.77192e-05 0.000144385
0.000108153 6.12318e-05 2.99442e-05
0.000460759 0.000116356 -3.322e-05
-1.55338e-06 2.30866e-05 7.86019e-05
3.13104e-05 5.90421e-05 -3.4775e-05
9.32382e-06 -1.83202e-05 2.11143e-05
2.39198e-05 -2.19207e-05 4.27039e-05
2.85733e-05 -1.78605e-06 2.13795e-05
3.17322e-05 -9.79934e-06 0.000126931
-1.85739e-05 -0.000117393 7.45987e-05
2.94997e-05 -1.55764e-05 8.54761e-05
8.6064e-05 -6.54834e-06 0.000163802
1.92491e-05 2.82294e-05 3.8929e-05
1.75461e-05 -0.00176569 0.00384771
4.89735e-05 -2.06487e-06 0.000151999
8.58368e-05 3.07963e-05 0.000230711
7.01817e-05 3.86418e-05 5.71296e-05
1.84397e-05 1.49532e-05 0.000162707
0.000104462 2.6538e-05 0.000168909
6.64911e-05 -0.000978383 0.000339393
0.000249523 0.000217389 3.26194e-05
0.000343681 0.00031071 -5.95087e-06
9.72512e-06 2.81723e-05 2.34124e-05
0.00529047 -0.00691513 -0.0263069
6.50027e-05 2.57396e-05 5.06646e-05
-0.000124237 0.000196706 0.000102466
-0.016805 -0.00231207 -0.00170342
0.000207423 0.000563541 -0.000251672
3.4306e-05 -6.81742e-06 6.79944e-06
4.17958e-06 5.60044e-06 6.16321e-06
5.85484e-06 -7.50324e-05 3.67487e-05
1.89951e-05 -2.563e-05 4.49889e-05
2.29439e-05 1.21981e-05 2.40976e-05
-2.16477e-05 -0.00012047 3.98999e-05
-1.69996e-05 -0.000119461 1.12025e-05
1.57421e-05 -1.55504e-05 7.16491e-05
7.8055e-06 -1.53368e-05 5.53485e-05
3.12185e-05 6.3754e-05 4.80367e-05
-0.000677931 -0.000126093 2.56036e-05
1.82031e-05 1.49526e-05 -9.51786e-05
0.000150517 0.000168598 0.000118387
-2.75929e-06 5.79863e-05 3.50116e-06
1.33649e-05 6.50932e-06 8.6718e-05
0.00024184 0.000235919 4.87846e-05
-5.81783e-05 0.000173342 7.70583e-05
2.61945e-05 2.75579e-05 8.74853e-06
4.92267e-05 3.0098e-05 4.64817e-05
9.38602e-05 1.61001e-05 7.81304e-05
0.000205744 5.50356e-05 2.10738e-05
-1.2285e-06 8.43553e-06 1.45532e-05
0.0150052 -0.00341519 -0.00757424
-0.00589551 -0.0043882 -0.00258115
-4.65242e-05 6.90585e-05 1.62263e-05
SCALARS radius float 1
LOOKUP_TABLE default
0.0111152
0.00694698
0.00694698
0.00694698
0.00694698
0.00694698
0.0111152
0.00694698
0.0111152
0.00694698
0.00694698
0.0111152
0.0111152
0.00694698
0.00694698
0.00694698
0.00694698
0.00694698
0.0111152
0.00694698
0.00694698
0.00694698
0.0111152
0.00694698
0.0111152
0.00694698
0.0111152
0.0111152
0.00694698
0.00694698
0.00694698
0.00694698
0.00694698
0.0111152
0.00694698
0.00694698
0.00694698
0.0111152
0.00694698
0.00694698
0.0111152
0.0111152
0.00694698
0.00694698
0.00694698
0.0111152
0.00694698
0.0111152
0.00694698
0.0111152
0.00694698
0.00694698
0.00694698
0.00694698
0.00694698
0.00694698
0.00694698
0.00694698
0.0111152
0.0111152
0.0111152
0.0111152
0.0111152
0.00694698
0.00694698
0.00694698
0.00694698
0.0111152
0.0111152
0.0111152
0.00694698
0.00694698
0.00694698
0.00694698
0.0111152
0.00694698
0.00694698
0.00694698
0.00694698
0.00694698
0.0111152
0.00694698
0.0111152
0.00694698
0.0111152
0.0111152
0.00694698
0.00694698
0.0111152
0.0111152
0.00694698
0.00694698
0.00694698
0.00694698
0.00694698
0.00694698
0.00694698
0.00694698
0.0111152
0.0111152
0.00694698
0.0111152
0.0111152
0.00694698
0.00694698
0.00694698
0.0111152
0.00694698
0.00694698
0.0111152
0.0111152
0.00694698
0.00694698
0.00694698
0.00694698
0.00694698
0.0111152
0.00694698
0.0111152
0.00694698
0.00694698
0.0111152
0.0111152
0.0111152
0.0111152
0.0111152
0.00694698
0.0111152
0.00694698
0.0111152
0.0111152
0.0111152
0.00694698
0.00694698
0.00694698
0.00694698
0.0111152
0.00694698
0.0111152
0.00694698
0.00694698
0.00694698
0.00694698
0.00694698
0.00694698
0.00694698
0.00694698
0.00694698
0.00694698
0.0111152
0.00694698
0.00694698
0.00694698
0.00694698
0.0111152
0.00694698
0.00694698
0.0111152
0.00694698
0.00694698
0.00694698
0.00694698
0.00694698
0.00694698
0.00694698
0.0111152
0.0111152
0.00694698
0.00694698
0.00694698
0.00694698
0.0111152
0.0111152
0.00694698
0.00694698
0.0111152
0.00694698
0.00694698
0.00694698
0.00694698
0.00694698
0.00694698
0.00694698
0.00694698
0.00694698
0.00694698
0.00694698
0.00694698
0.00694698
0.0111152
0.0111152
0.0111152
0.0111152
0.0111152
0.0111152
0.0111152
0.0111152
0.0111152
0.0111152
0.00694698
0.00694698
0.00694698
0.00694698
0.00694698
0.00694698
0.00694698
0.00694698
0.00694698
0.0111152
0.00694698
0.0111152
0.00694698
0.0111152
0.0111152
0.00694698
0.0111152
0.00694698
0.0111152
0.00694698
0.0111152
0.0111152
0.00694698
0.00694698
0.00694698
0.0111152
0.00694698
0.00694698
0.00694698
0.0111152
0.00694698
0.00694698
0.0111152
0.00694698
0.0111152
0.0111152
0.0111152
0.00694698
0.00694698
0.00694698
0.00694698
0.00694698
0.0111152
0.0111152
0.00694698
0.0111152
0.0111152
0.0111152
0.0111152
0.0111152
0.00694698
0.0111152
0.00694698
0.0111152
0.00694698
0.00694698
0.00694698
0.00694698
0.00694698
0.0111152
0.0111152
0.00694698
0.00694698
0.0111152
0.00694698
0.00694698
0.00694698
0.00694698
0.00694698
0.00694698
0.00694698
0.00694698
0.00694698
0.00694698
0.0111152
0.00694698
0.0111152
0.00694698
0.0111152
0.00694698
0.00694698
0.0111152
0.0111152
0.00694698
0.00694698
0.0111152
0.00694698
0.00694698
0.00694698
0.0111152
0.00694698
0.0111152
0.0111152
0.00694698
0.0111152
0.0111152
0.00694698
0.0111152
0.00694698
0.00694698
0.00694698
0.0111152
0.0111152
0.0111152
0.00694698
0.0111152
0.00694698
0.0111152
0.00694698
0.0111152
0.00694698
0.00694698
0.00694698
0.00694698
0.0111152
0.0111152
0.00694698
0.0111152
0.00694698
0.00694698
0.00694698
0.0111152
0.00694698
0.00694698
0.0111152
0.0111152
0.00694698
0.00694698
0.00694698
0.00694698
0.0111152
0.0111152
0.00694698
0.00694698
0.00694698
0.00694698
0.00694698
0.00694698
SCALARS type float 1
LOOKUP_TABLE default
1.0
1.0
1.0
1.0
1.0
1.0
1.0
1.0
1.0
1.0
1.0
1.0
1.0
1.0
1.0
1.0
1.0
1.0
1.0
1.0
1.0
1.0
1.0
1.0
1.0
1.0
1.0
1.0
1.0
1.0
1.0
1.0
1.0
1.0
1.0
1.0
1.0
1.0
1.0
1.0
1.0
1.0
1.0
1.0
1.0
1.0
1.0
1.0
1.0
1.0
1.0
1.0
1.0
1.0
1.0
1.0
1.0
1.0
1.0
1.0
1.0
1.0
1.0
1.0
1.0
1.0
1.0
1.0
1.0
1.0
1.0
1.0
1.0
1.0
1.0
1.0
1.0
1.0
1.0
1.0
1.0
1.0
1.0
1.0
1.0
1.0
1.0
1.0
1.0
1.0
1.0
1.0
1.0
1.0
1.0
1.0
1.0
1.0
1.0
1.0
1.0
1.0
1.0
1.0
1.0
1.0
1.0
1.0
1.0
1.0
1.0
1.0
1.0
1.0
1.0
1.0
1.0
1.0
1.0
1.0
1.0
1.0
1.0
1.0
1.0
1.0
1.0
1.0
1.0
1.0
1.0
1.0
1.0
1.0
1.0
1.0
1.0
1.0
1.0
1.0
1.0
1.0
1.0
1.0
1.0
1.0
1.0
1.0
1.0
1.0
1.0
1.0
1.0
1.0
1.0
1.0
1.0
1.0
1.0
1.0
1.0
1.0
1.0
1.0
1.0
1.0
1.0
1.0
1.0
1.0
1.0
1.0
1.0
1.0
1.0
1.0
1.0
1.0
1.0
1.0
1.0
1.0
1.0
1.0
1.0
1.0
1.0
1.0
1.0
1.0
1.0
1.0
1.0
1.0
1.0
1.0
1.0
1.0
1.0
1.0
1.0
1.0
1.0
1.0
1.0
1.0
1.0
1.0
1.0
1.0
1.0
1.0
1.0
1.0
1.0
1.0
1.0
1.0
1.0
1.0
1.0
1.0
1.0
1.0
1.0
1.0
1.0
1.0
1.0
1.0
1.0
1.0
1.0
1.0
1.0
1.0
1.0
1.0
1.0
1.0
1.0
1.0
1.0
1.0
1.0
1.0
1.0
1.0
1.0
1.0
1.0
1.0
1.0
1.0
1.0
1.0
1.0
1.0
1.0
1.0
1.0
1.0
1.0
1.0
1.0
1.0
1.0
1.0
1.0
1.0
1.0
1.0
1.0
1.0
1.0
1.0
1.0
1.0
1.0
1.0
1.0
1.0
1.0
1.0
1.0
1.0
1.0
1.0
1.0
1.0
1.0
1.0
1.0
1.0
1.0
1.0
1.0
1.0
1.0
1.0
1.0
1.0
1.0
1.0
1.0
1.0
1.0
1.0
1.0
1.0
1.0
1.0
1.0
1.0
1.0
1.0
1.0
1.0
1.0
1.0
1.0
1.0
1.0
1.0
1.0
1.0
1.0
1.0
1.0
1.0
1.0
1.0
1.0
1.0
1.0
1.0
1.0
SCALARS id float 1
LOOKUP_TABLE default
50.0
138.0
258.0
304.0
141.0
154.0
92.0
297.0
98.0
293.0
325.0
106.0
10.0
285.0
126.0
171.0
241.0
183.0
41.0
180.0
213.0
207.0
23.0
240.0
6.0
140.0
58.0
32.0
197.0
291.0
128.0
264.0
234.0
60.0
263.0
328.0
188.0
48.0
298.0
172.0
88.0
80.0
164.0
200.0
277.0
9.0
305.0
84.0
274.0
40.0
186.0
135.0
327.0
174.0
198.0
158.0
173.0
246.0
89.0
119.0
37.0
122.0
38.0
331.0
321.0
329.0
260.0
121.0
64.0
62.0
169.0
288.0
193.0
205.0
47.0
265.0
149.0
184.0
257.0
232.0
34.0
229.0
94.0
143.0
102.0
61.0
137.0
278.0
70.0
85.0
227.0
314.0
225.0
195.0
199.0
130.0
153.0
259.0
81.0
79.0
127.0
30.0
12.0
239.0
275.0
273.0
66.0
192.0
230.0
13.0
72.0
247.0
163.0
295.0
252.0
222.0
17.0
292.0
44.0
212.0
159.0
75.0
100.0
49.0
73.0
22.0
322.0
2.0
216.0
55.0
35.0
99.0
319.0
301.0
245.0
308.0
105.0
201.0
103.0
142.0
217.0
248.0
253.0
296.0
160.0
144.0
203.0
250.0
294.0
8.0
238.0
152.0
133.0
208.0
31.0
228.0
175.0
33.0
269.0
147.0
249.0
317.0
204.0
156.0
267.0
107.0
19.0
157.0
236.0
276.0
324.0
97.0
93.0
155.0
306.0
18.0
151.0
233.0
290.0
165.0
145.0
286.0
182.0
206.0
220.0
333.0
280.0
261.0
146.0
77.0
101.0
82.0
4.0
118.0
45.0
26.0
24.0
117.0
69.0
237.0
221.0
336.0
302.0
326.0
307.0
132.0
210.0
181.0
46.0
310.0
5.0
189.0
65.0
111.0
272.0
108.0
161.0
28.0
242.0
95.0
115.0
166.0
179.0
337.0
3.0
177.0
224.0
231.0
42.0
303.0
124.0
51.0
202.0
39.0
114.0
29.0
185.0
148.0
167.0
300.0
282.0
14.0
112.0
194.0
68.0
91.0
83.0
104.0
116.0
279.0
53.0
309.0
25.0
136.0
176.0
134.0
235.0
196.0
74.0
20.0
330.0
281.0
96.0
335.0
215.0
332.0
218.0
251.0
131.0
318.0
311.0
271.0
270.0
21.0
262.0
27.0
191.0
59.0
315.0
255.0
52.0
7.0
223.0
190.0
56.0
123.0
316.0
139.0
76.0
162.0
120.0
71.0
170.0
63.0
43.0
168.0
54.0
209.0
268.0
214.0
78.0
16.0
113.0
334.0
1.0
312.0
86.0
226.0
15.0
256.0
323.0
284.0
211.0
109.0
87.0
320.0
67.0
178.0
125.0
219.0
57.0
254.0
289.0
90.0
110.0
243.0
266.0
187.0
299.0
11.0
36.0
150.0
129.0
283.0
287.0
313.0
244.0

