# vtk DataFile Version 2.0
Generated by lpp.py
ASCII
DATASET POLYDATA
POINTS 337 float
-0.0128072 -0.0402039 0.00587592
0.00458008 -0.0354391 0.00593194
0.043378 -0.0365459 0.00661552
-0.018242 -0.0270597 0.00605783
-0.00620771 -0.01828 0.00593794
0.036402 -0.0224023 0.00565434
0.0150545 -0.0120052 0.00630875
0.00535651 0.00153507 0.00572291
0.0179543 0.000946479 0.00763824
-0.0309173 0.0120495 0.0061359
-0.00553569 0.00969337 0.0066188
-0.0438105 0.0145258 0.00711332
-0.00376534 0.0227924 0.0066017
0.0438796 0.0212882 0.00633208
0.01527 0.0339691 0.00604632
0.00474432 0.0413943 0.00586616
0.0420543 0.0412884 0.00695332
0.0115754 -0.0440518 0.0124494
-0.0290576 -0.0402526 0.00995371
0.0263088 -0.0365222 0.00996709
-0.00636594 -0.0303714 0.017118
0.0135202 -0.0245334 0.0104202
-0.0334177 -0.020736 0.010505
-0.0174702 -0.0177482 0.0160496
0.0440114 -0.0206191 0.015323
0.00255823 -0.00946665 0.0173508
0.0303592 -0.00934237 0.0132379
-0.0401144 -0.00160183 0.00977457
-0.017479 -0.00235986 0.00934388
-0.0280453 0.00730697 0.0179097
0.0316658 0.010558 0.0096744
-0.0347554 0.0224204 0.0186792
-0.0185269 0.0201728 0.00937321
0.0120389 0.0168964 0.00990009
0.00530696 0.0315934 0.0136396
0.0298972 0.0306461 0.0128507
-0.0380222 0.0401925 0.0098348
-0.0169002 0.0372832 0.0100276
-0.00275735 0.0440848 0.0156967
0.0115523 0.0432679 0.017155
0.0022263 -0.0439773 0.0214467
0.0302231 -0.0441872 0.0243634
-0.0419577 -0.034726 0.0251525
0.0106652 -0.0346738 0.0209871
0.006038 -0.0233959 0.0251348
0.0221273 -0.0236538 0.0252867
0.0406237 -0.0317998 0.0269046
0.0386357 -0.0155685 0.0261329
-0.0439571 -0.0133546 0.0212102
-0.0288495 -0.00748831 0.0256473
-0.0122905 -0.00573574 0.0246
0.0186107 0.00338642 0.0243007
0.0437435 -0.00445356 0.0224805
-0.0415735 0.00804275 0.0228644
-0.0122592 0.0110122 0.0235486
0.00304261 0.00702384 0.0194024
0.0439075 0.00835284 0.0223689
0.0180148 0.022288 0.0248016
0.0299335 0.0171236 0.0259843
0.0415946 0.0202211 0.0189569
-0.0277919 0.0396483 0.0274767
-0.0437205 0.0438931 0.0265385
-0.0119278 0.0440008 0.0247522
0.0240427 0.0438087 0.0214544
0.0371328 0.0441064 0.0197105
-0.0200766 -0.0400306 0.0284354
-0.000352642 -0.0340349 0.0359358
-0.0403794 -0.0206723 0.0369074
-0.0144693 -0.0199917 0.0326616
0.0127791 -0.0143364 0.0356086
-0.0440832 -0.0055448 0.031405
-0.00114774 -0.00522131 0.0368627
0.0437805 -0.000658211 0.0364346
-0.027348 0.0129756 0.0299208
0.0342756 0.00469057 0.0298478
0.00489989 0.0161007 0.0335287
0.0218481 0.0162791 0.0364246
0.0408144 0.0152908 0.0329392
-0.0438972 0.0314084 0.029102
-0.00987659 0.0242004 0.0329628
-0.0141148 0.035926 0.0355563
0.00136477 0.0353522 0.0289307
0.0234363 0.0332569 0.0289976
0.040276 0.0318725 0.0304918
-0.0129335 -0.042688 0.0438103
-0.036426 -0.0401956 0.0405077
0.0188272 -0.0402365 0.0379816
-0.0261893 -0.0270961 0.0409241
0.0303543 -0.0290543 0.0389618
0.0411049 -0.0236574 0.043115
0.00476032 -0.0197055 0.0448402
-0.0439777 -0.0066709 0.0445371
0.028587 -0.00900541 0.0375241
0.043897 -0.0113048 0.043731
-0.0198417 0.00257238 0.0406875
0.0129309 0.00339816 0.0397802
-0.0400058 0.00843821 0.0392696
0.044274 0.0198115 0.0458427
-0.043614 0.0252806 0.0402328
-0.0235709 0.0234608 0.0421361
-0.0388777 0.0373328 0.0402228
0.0153965 0.040519 0.0421116
-0.0283074 0.0441717 0.0432548
0.0314004 0.0439776 0.0402178
0.0439085 0.0438112 0.0414126
-0.044058 -0.0437621 0.054526
0.00535267 -0.0443186 0.0468785
-0.022835 -0.0343909 0.0551048
-0.000134317 -0.0328365 0.0525011
0.0397825 -0.0398423 0.0474617
-0.0101889 -0.0268883 0.0472245
0.0219562 -0.0226198 0.0512349
-0.0323467 -0.00517155 0.0488929
-0.0162099 -0.0130125 0.0538279
0.000815748 -0.00755141 0.0527947
0.0434714 -0.00548751 0.0552624
0.0170852 -0.00343024 0.0538161
-0.00127313 0.00855922 0.051693
0.0153911 0.0123432 0.0490183
0.0334028 0.00769912 0.0476877
-0.0399645 0.0202528 0.055728
-0.00850188 0.0240219 0.0507865
0.0081286 0.0261339 0.0545688
0.031342 0.0295798 0.0484106
-0.00444942 0.0404061 0.0480892
-0.0435964 0.0435825 0.0505627
0.0421224 0.0429919 0.0547048
-0.033524 -0.0441278 0.062075
-0.0126491 -0.0439532 0.0640092
-0.000363345 -0.0441162 0.0580768
0.0160116 -0.0403198 0.0586803
0.0292706 -0.0323169 0.0633208
-0.043502 -0.0309073 0.0563589
-0.00887969 -0.028189 0.060554
-0.0380875 -0.0155218 0.0609882
0.00498916 -0.0199026 0.0620923
0.0405584 -0.021446 0.0598002
-0.00618795 -0.00293386 0.0634969
0.00807832 0.00447123 0.0651255
0.0437547 0.0044147 0.0633729
-0.0261255 0.00579973 0.0596302
-0.0118905 0.0134647 0.062947
-0.0204258 0.0214714 0.0583285
0.0245211 0.0177478 0.0631282
0.0435009 0.0160905 0.0581753
-0.0439551 0.0355188 0.0606933
-0.0276813 0.036545 0.0575147
-0.011832 0.0343161 0.0613513
-0.00411026 0.0437139 0.0647702
0.0143379 0.0411614 0.0585665
0.0289509 0.0439137 0.0564451
-0.0443348 -0.0417578 0.0672337
-0.0237656 -0.0438862 0.070636
-0.000642935 -0.0366555 0.07262
0.0427227 -0.0396833 0.0675866
-0.0435431 -0.0251087 0.074116
-0.0352283 -0.0318155 0.0665078
-0.0162911 -0.0236684 0.0697536
0.0193281 -0.0259251 0.0682146
-0.0204782 -0.00793634 0.073221
0.0146156 -0.00843394 0.0696224
0.031042 -0.00572653 0.0682397
-0.0372243 -0.00319387 0.0727165
-0.000796446 0.00948845 0.0722497
-0.0279166 0.0197498 0.068269
-0.00200941 0.0205374 0.0662988
-0.0139972 0.0246293 0.0688246
0.0404593 0.0297657 0.0672628
0.0236575 0.0404573 0.0722788
-0.0438423 0.0438477 0.0700931
-0.0172096 0.0435504 0.0687537
0.00766863 0.0439396 0.0691918
-0.0139342 -0.0437488 0.0793728
0.0104902 -0.044203 0.0820846
0.0440356 -0.0439121 0.080113
-0.0373032 -0.0392956 0.0816915
-0.0233767 -0.0323557 0.0756896
0.0142514 -0.0322735 0.0780941
0.0284153 -0.0403566 0.0775163
-0.0104712 -0.0289852 0.0833167
0.0432535 -0.0301865 0.0774066
-0.0359264 -0.0151712 0.0778877
-0.0208338 -0.0217714 0.0821122
-0.0049399 -0.0205581 0.0755361
0.00959514 -0.0206741 0.0776583
0.0433922 -0.0169772 0.0766315
0.00130515 -0.00546892 0.0792433
-0.039993 0.0128819 0.077429
-0.0159181 0.0114234 0.0787527
0.0182489 0.00668362 0.0785056
0.0403319 0.00823888 0.0793598
0.00726907 0.0291308 0.0767734
0.0285235 0.0239503 0.0826145
0.0436479 0.0314692 0.0838941
-0.0332121 0.0327319 0.0765701
-0.0118943 0.0318443 0.0835005
-0.0222065 0.0442269 0.0806477
0.000772765 0.0434293 0.0837208
0.0397283 0.0435278 0.0807177
-0.0227851 -0.0440363 0.0884253
-0.00179327 -0.041498 0.0905892
0.0378097 -0.0432553 0.0915554
0.0109071 -0.0347532 0.0900771
-0.0322004 -0.0241205 0.0865638
0.0333 -0.0267671 0.0913062
-0.0441596 -0.0202498 0.0869761
-0.0115365 -0.013981 0.0856866
0.00151675 -0.0216385 0.0920776
0.0210305 -0.0121097 0.0852293
0.040258 -0.00805021 0.0909898
-0.0438707 0.00133602 0.0892744
-0.0273671 -0.000344467 0.0908174
0.00194201 0.0129672 0.0883907
-0.0442073 0.0200249 0.0921875
-0.0280044 0.0206016 0.0921649
0.0441925 0.0171243 0.0928449
-0.0442905 0.0386848 0.0866487
-0.032829 0.0438369 0.0888539
0.0127265 0.0434375 0.0899931
-0.0439309 -0.0440594 0.095775
0.00707291 -0.0331149 0.102548
0.0218342 -0.0404327 0.100689
-0.0400715 -0.0287988 0.100788
-0.0201068 -0.0300654 0.096585
0.0215289 -0.0170539 0.103054
-0.0378364 -0.01254 0.0946364
-0.012921 -0.0115773 0.102518
-0.00219587 -0.000345388 0.0968812
0.0207901 0.00326948 0.0985083
0.0319694 0.0212945 0.102736
-0.0435752 0.0310935 0.0984612
-0.0151927 0.024856 0.10086
-0.00389353 0.025675 0.0964948
0.0140014 0.0275063 0.0961926
-0.0209676 0.0402021 0.0998516
-6.34785e-05 0.0405204 0.101841
0.0300398 0.0403563 0.0944916
-0.0436123 0.0439043 0.097894
-0.0441134 -0.0430498 0.108339
-0.0280792 -0.0435212 0.103359
0.00894716 -0.0438768 0.110359
-0.00704711 -0.0401341 0.108254
0.0406241 -0.0370338 0.10718
-0.0151493 -0.0255044 0.112192
-0.00273469 -0.0240614 0.108023
0.0229854 -0.0279545 0.112515
-0.0281927 -0.0175004 0.103345
0.0380988 -0.0171055 0.109324
-0.0404842 -0.0102054 0.111111
0.00688337 -0.00922948 0.107539
-0.0265628 -0.00237311 0.10726
0.040267 0.00322111 0.107971
-0.0401427 0.00887933 0.103967
-0.014742 0.00873386 0.104038
0.00241213 0.0175476 0.10934
0.0184802 0.0143898 0.110102
-0.0437507 0.028916 0.111262
-0.0295475 0.0235573 0.108893
0.0442579 0.0302937 0.10974
-0.033469 0.0365047 0.10997
0.0351073 0.0386613 0.110147
-0.0437882 0.0438038 0.110368
0.0164268 0.043506 0.104674
0.00270615 -0.0426903 0.121192
0.0281834 -0.0442138 0.115073
-0.0218936 -0.0363 0.114944
-0.0315537 -0.0241951 0.114139
0.00730858 -0.0307349 0.115511
-0.00689145 -0.0171714 0.117718
-0.0225268 -0.0118945 0.120701
0.0239827 -0.00461191 0.117314
-0.0052637 0.000799953 0.115999
0.0114621 0.00614953 0.116811
0.0300895 0.0142997 0.121902
0.0440724 0.0182717 0.113783
-0.0283798 0.0303974 0.119976
-0.0127475 0.0305193 0.115965
0.0209693 0.025788 0.114465
0.0371889 0.0300033 0.121001
0.0223922 0.0405601 0.120344
-0.00324739 0.0439012 0.117957
0.0360606 -0.043981 0.124685
-0.036377 -0.0399836 0.122338
0.0177469 -0.0401143 0.126996
0.0439154 -0.0343651 0.123033
-0.0140457 -0.025509 0.126507
0.00431545 -0.0246344 0.131262
-0.0401715 -0.0210138 0.128234
0.0251765 -0.0216726 0.123995
-0.00850903 -0.0120675 0.129468
0.00225048 -0.0104694 0.123306
0.0149054 -0.0127987 0.128
-0.0359983 0.00106361 0.122606
0.00978518 -0.00120046 0.126765
0.0406956 -0.00173526 0.128166
-0.0187323 0.0111118 0.124041
-0.0385063 0.0175832 0.122348
-0.000476487 0.0215066 0.129018
0.0441835 0.0172444 0.129472
-0.0398994 0.0402131 0.125894
-0.023763 -0.0442785 0.131291
-0.00820765 -0.0401642 0.132999
0.039321 -0.0400157 0.140181
-0.0248703 -0.0301694 0.139937
0.0221989 -0.0259973 0.140402
0.0401216 -0.0212431 0.132501
-0.0400208 -0.00535493 0.133794
-0.0200731 -0.00824009 0.140684
-0.00354372 0.00255843 0.135626
0.0223713 0.00234306 0.136476
-0.0320188 0.00806201 0.13946
-0.0399162 0.0265546 0.14058
-0.0188563 0.0255659 0.139476
0.0190152 0.0256587 0.133975
0.0361014 0.0282324 0.134093
-0.0219252 0.0404115 0.131275
0.0055113 0.0406661 0.131686
0.0336579 0.0411953 0.133259
-0.0430631 -0.0432822 0.143311
0.0187496 -0.0434728 0.143586
0.00603392 -0.0404091 0.142471
-0.0439602 -0.0240623 0.143946
-0.00604468 -0.0279863 0.144075
-0.0339729 -0.0165963 0.143303
-0.00517136 -0.0155128 0.14139
0.0274469 -0.0108558 0.144256
0.0418993 -0.00601206 0.144017
0.0365735 0.0100405 0.143353
-0.000846725 0.0170662 0.144401
0.0146689 0.0140193 0.144519
0.0433886 0.0221012 0.143389
0.00695648 0.0303165 0.144347
-0.0065674 0.0369045 0.143255
-0.0432526 0.0431893 0.143389
-0.0300757 0.0433858 0.141602
0.0242961 0.0421556 0.1426
0.0417432 0.0434045 0.143423
VERTICES 337 674
1 0
1 1
1 2
1 3
1 4
1 5
1 6
1 7
1 8
1 9
1 10
1 11
1 12
1 13
1 14
1 15
1 16
1 17
1 18
1 19
1 20
1 21
1 22
1 23
1 24
1 25
1 26
1 27
1 28
1 29
1 30
1 31
1 32
1 33
1 34
1 35
1 36
1 37
1 38
1 39
1 40
1 41
1 42
1 43
1 44
1 45
1 46
1 47
1 48
1 49
1 50
1 51
1 52
1 53
1 54
1 55
1 56
1 57
1 58
1 59
1 60
1 61
1 62
1 63
1 64
1 65
1 66
1 67
1 68
1 69
1 70
1 71
1 72
1 73
1 74
1 75
1 76
1 77
1 78
1 79
1 80
1 81
1 82
1 83
1 84
1 85
1 86
1 87
1 88
1 89
1 90
1 91
1 92
1 93
1 94
1 95
1 96
1 97
1 98
1 99
1 100
1 101
1 102
1 103
1 104
1 105
1 106
1 107
1 108
1 109
1 110
1 111
1 112
1 113
1 114
1 115
1 116
1 117
1 118
1 119
1 120
1 121
1 122
1 123
1 124
1 125
1 126
1 127
1 128
1 129
1 130
1 131
1 132
1 133
1 134
1 135
1 136
1 137
1 138
1 139
1 140
1 141
1 142
1 143
1 144
1 145
1 146
1 147
1 148
1 149
1 150
1 151
1 152
1 153
1 154
1 155
1 156
1 157
1 158
1 159
1 160
1 161
1 162
1 163
1 164
1 165
1 166
1 167
1 168
1 169
1 170
1 171
1 172
1 173
1 174
1 175
1 176
1 177
1 178
1 179
1 180
1 181
1 182
1 183
1 184
1 185
1 186
1 187
1 188
1 189
1 190
1 191
1 192
1 193
1 194
1 195
1 196
1 197
1 198
1 199
1 200
1 201
1 202
1 203
1 204
1 205
1 206
1 207
1 208
1 209
1 210
1 211
1 212
1 213
1 214
1 215
1 216
1 217
1 218
1 219
1 220
1 221
1 222
1 223
1 224
1 225
1 226
1 227
1 228
1 229
1 230
1 231
1 232
1 233
1 234
1 235
1 236
1 237
1 238
1 239
1 240
1 241
1 242
1 243
1 244
1 245
1 246
1 247
1 248
1 249
1 250
1 251
1 252
1 253
1 254
1 255
1 256
1 257
1 258
1 259
1 260
1 261
1 262
1 263
1 264
1 265
1 266
1 267
1 268
1 269
1 270
1 271
1 272
1 273
1 274
1 275
1 276
1 277
1 278
1 279
1 280
1 281
1 282
1 283
1 284
1 285
1 286
1 287
1 288
1 289
1 290
1 291
1 292
1 293
1 294
1 295
1 296
1 297
1 298
1 299
1 300
1 301
1 302
1 303
1 304
1 305
1 306
1 307
1 308
1 309
1 310
1 311
1 312
1 313
1 314
1 315
1 316
1 317
1 318
1 319
1 320
1 321
1 322
1 323
1 324
1 325
1 326
1 327
1 328
1 329
1 330
1 331
1 332
1 333
1 334
1 335
1 336
POINT_DATA 337
VECTORS i float
0.0 0.0 0.0
0.0 0.0 0.0
0.0 0.0 0.0
0.0 0.0 0.0
0.0 0.0 0.0
0.0 0.0 0.0
0.0 0.0 0.0
0.0 0.0 0.0
0.0 0.0 0.0
0.0 0.0 0.0
0.0 0.0 0.0
0.0 0.0 0.0
0.0 0.0 0.0
0.0 0.0 0.0
0.0 0.0 0.0
0.0 0.0 0.0
0.0 0.0 0.0
0.0 0.0 0.0
0.0 0.0 0.0
0.0 0.0 0.0
0.0 0.0 0.0
0.0 0.0 0.0
0.0 0.0 0.0
0.0 0.0 0.0
0.0 0.0 0.0
0.0 0.0 0.0
0.0 0.0 0.0
0.0 0.0 0.0
0.0 0.0 0.0
0.0 0.0 0.0
0.0 0.0 0.0
0.0 0.0 0.0
0.0 0.0 0.0
0.0 0.0 0.0
0.0 0.0 0.0
0.0 0.0 0.0
0.0 0.0 0.0
0.0 0.0 0.0
0.0 0.0 0.0
0.0 0.0 0.0
0.0 0.0 0.0
0.0 0.0 0.0
0.0 0.0 0.0
0.0 0.0 0.0
0.0 0.0 0.0
0.0 0.0 0.0
0.0 0.0 0.0
0.0 0.0 0.0
0.0 0.0 0.0
0.0 0.0 0.0
0.0 0.0 0.0
0.0 0.0 0.0
0.0 0.0 0.0
0.0 0.0 0.0
0.0 0.0 0.0
0.0 0.0 0.0
0.0 0.0 0.0
0.0 0.0 0.0
0.0 0.0 0.0
0.0 0.0 0.0
0.0 0.0 0.0
0.0 0.0 0.0
0.0 0.0 0.0
0.0 0.0 0.0
0.0 0.0 0.0
0.0 0.0 0.0
0.0 0.0 0.0
0.0 0.0 0.0
0.0 0.0 0.0
0.0 0.0 0.0
0.0 0.0 0.0
0.0 0.0 0.0
0.0 0.0 0.0
0.0 0.0 0.0
0.0 0.0 0.0
0.0 0.0 0.0
0.0 0.0 0.0
0.0 0.0 0.0
0.0 0.0 0.0
0.0 0.0 0.0
0.0 0.0 0.0
0.0 0.0 0.0
0.0 0.0 0.0
0.0 0.0 0.0
0.0 0.0 0.0
0.0 0.0 0.0
0.0 0.0 0.0
0.0 0.0 0.0
0.0 0.0 0.0
0.0 0.0 0.0
0.0 0.0 0.0
0.0 0.0 0.0
0.0 0.0 0.0
0.0 0.0 0.0
0.0 0.0 0.0
0.0 0.0 0.0
0.0 0.0 0.0
0.0 0.0 0.0
0.0 0.0 0.0
0.0 0.0 0.0
0.0 0.0 0.0
0.0 0.0 0.0
0.0 0.0 0.0
0.0 0.0 0.0
0.0 0.0 0.0
0.0 0.0 0.0
0.0 0.0 0.0
0.0 0.0 0.0
0.0 0.0 0.0
0.0 0.0 0.0
0.0 0.0 0.0
0.0 0.0 0.0
0.0 0.0 0.0
0.0 0.0 0.0
0.0 0.0 0.0
0.0 0.0 0.0
0.0 0.0 0.0
0.0 0.0 0.0
0.0 0.0 0.0
0.0 0.0 0.0
0.0 0.0 0.0
0.0 0.0 0.0
0.0 0.0 0.0
0.0 0.0 0.0
0.0 0.0 0.0
0.0 0.0 0.0
0.0 0.0 0.0
0.0 0.0 0.0
0.0 0.0 0.0
0.0 0.0 0.0
0.0 0.0 0.0
0.0 0.0 0.0
0.0 0.0 0.0
0.0 0.0 0.0
0.0 0.0 0.0
0.0 0.0 0.0
0.0 0.0 0.0
0.0 0.0 0.0
0.0 0.0 0.0
0.0 0.0 0.0
0.0 0.0 0.0
0.0 0.0 0.0
0.0 0.0 0.0
0.0 0.0 0.0
0.0 0.0 0.0
0.0 0.0 0.0
0.0 0.0 0.0
0.0 0.0 0.0
0.0 0.0 0.0
0.0 0.0 0.0
0.0 0.0 0.0
0.0 0.0 0.0
0.0 0.0 0.0
0.0 0.0 0.0
0.0 0.0 0.0
0.0 0.0 0.0
0.0 0.0 0.0
0.0 0.0 0.0
0.0 0.0 0.0
0.0 0.0 0.0
0.0 0.0 0.0
0.0 0.0 0.0
0.0 0.0 0.0
0.0 0.0 0.0
0.0 0.0 0.0
0.0 0.0 0.0
0.0 0.0 0.0
0.0 0.0 0.0
0.0 0.0 0.0
0.0 0.0 0.0
0.0 0.0 0.0
0.0 0.0 0.0
0.0 0.0 0.0
0.0 0.0 0.0
0.0 0.0 0.0
0.0 0.0 0.0
0.0 0.0 0.0
0.0 0.0 0.0
0.0 0.0 0.0
0.0 0.0 0.0
0.0 0.0 0.0
0.0 0.0 0.0
0.0 0.0 0.0
0.0 0.0 0.0
0.0 0.0 0.0
0.0 0.0 0.0
0.0 0.0 0.0
0.0 0.0 0.0
0.0 0.0 0.0
0.0 0.0 0.0
0.0 0.0 0.0
0.0 0.0 0.0
0.0 0.0 0.0
0.0 0.0 0.0
0.0 0.0 0.0
0.0 0.0 0.0
0.0 0.0 0.0
0.0 0.0 0.0
0.0 0.0 0.0
0.0 0.0 0.0
0.0 0.0 0.0
0.0 0.0 0.0
0.0 0.0 0.0
0.0 0.0 0.0
0.0 0.0 0.0
0.0 0.0 0.0
0.0 0.0 0.0
0.0 0.0 0.0
0.0 0.0 0.0
0.0 0.0 0.0
0.0 0.0 0.0
0.0 0.0 0.0
0.0 0.0 0.0
0.0 0.0 0.0
0.0 0.0 0.0
0.0 0.0 0.0
0.0 0.0 0.0
0.0 0.0 0.0
0.0 0.0 0.0
0.0 0.0 0.0
0.0 0.0 0.0
0.0 0.0 0.0
0.0 0.0 0.0
0.0 0.0 0.0
0.0 0.0 0.0
0.0 0.0 0.0
0.0 0.0 0.0
0.0 0.0 0.0
0.0 0.0 0.0
0.0 0.0 0.0
0.0 0.0 0.0
0.0 0.0 0.0
0.0 0.0 0.0
0.0 0.0 0.0
0.0 0.0 0.0
0.0 0.0 0.0
0.0 0.0 0.0
0.0 0.0 0.0
0.0 0.0 0.0
0.0 0.0 0.0
0.0 0.0 0.0
0.0 0.0 0.0
0.0 0.0 0.0
0.0 0.0 0.0
0.0 0.0 0.0
0.0 0.0 0.0
0.0 0.0 0.0
0.0 0.0 0.0
0.0 0.0 0.0
0.0 0.0 0.0
0.0 0.0 0.0
0.0 0.0 0.0
0.0 0.0 0.0
0.0 0.0 0.0
0.0 0.0 0.0
0.0 0.0 0.0
0.0 0.0 0.0
0.0 0.0 0.0
0.0 0.0 0.0
0.0 0.0 0.0
0.0 0.0 0.0
0.0 0.0 0.0
0.0 0.0 0.0
0.0 0.0 0.0
0.0 0.0 0.0
0.0 0.0 0.0
0.0 0.0 0.0
0.0 0.0 0.0
0.0 0.0 0.0
0.0 0.0 0.0
0.0 0.0 0.0
0.0 0.0 0.0
0.0 0.0 0.0
0.0 0.0 0.0
0.0 0.0 0.0
0.0 0.0 0.0
0.0 0.0 0.0
0.0 0.0 0.0
0.0 0.0 0.0
0.0 0.0 0.0
0.0 0.0 0.0
0.0 0.0 0.0
0.0 0.0 0.0
0.0 0.0 0.0
0.0 0.0 0.0
0.0 0.0 0.0
0.0 0.0 0.0
0.0 0.0 0.0
0.0 0.0 0.0
0.0 0.0 0.0
0.0 0.0 0.0
0.0 0.0 0.0
0.0 0.0 0.0
0.0 0.0 0.0
0.0 0.0 0.0
0.0 0.0 0.0
0.0 0.0 0.0
0.0 0.0 0.0
0.0 0.0 0.0
0.0 0.0 0.0
0.0 0.0 0.0
0.0 0.0 0.0
0.0 0.0 0.0
0.0 0.0 0.0
0.0 0.0 0.0
0.0 0.0 0.0
0.0 0.0 0.0
0.0 0.0 0.0
0.0 0.0 0.0
0.0 0.0 0.0
0.0 0.0 0.0
0.0 0.0 0.0
0.0 0.0 0.0
0.0 0.0 0.0
0.0 0.0 0.0
0.0 0.0 0.0
0.0 0.0 0.0
0.0 0.0 0.0
0.0 0.0 0.0
0.0 0.0 0.0
0.0 0.0 0.0
0.0 0.0 0.0
0.0 0.0 0.0
0.0 0.0 0.0
0.0 0.0 0.0
0.0 0.0 0.0
0.0 0.0 0.0
0.0 0.0 0.0
0.0 0.0 0.0
0.0 0.0 0.0
0.0 0.0 0.0
0.0 0.0 0.0
0.0 0.0 0.0
0.0 0.0 0.0
0.0 0.0 0.0
0.0 0.0 0.0
0.0 0.0 0.0
VECTORS f float
-0.00245554 0.0024706 0.00209048
-0.00473707 -0.00266677 0.00274601
0.000254742 5.02093e-05 0.000519285
-0.000379267 0.000890831 0.00166229
0.000590668 -0.000305505 0.00312762
-0.00013783 0.0044109 0.00307405
0.00101184 0.000138363 0.001599
0.0017127 -0.00253066 0.00210271
0.00277479 0.00422646 0.00303023
-0.00305489 7.47009e-05 0.00729699
-0.000497408 0.00327828 0.000620847
0.00168067 -0.00130841 -0.000182155
-0.000823538 0.0114603 0.00522767
-0.000469421 -0.000641344 0.00109338
0.000712436 0.00304305 0.00154179
0.00143617 9.01437e-05 0.00204684
-0.00883021 -0.00378795 0.00724673
-0.00640879 0.00751451 -0.00176433
-0.000235224 0.000251677 -0.000518152
-0.0200241 -0.00236815 0.000208494
-0.00917639 0.00224234 0.00706403
0.00027894 0.000950171 0.000530004
-0.00294193 0.000316149 0.00447754
0.000365784 0.000317263 0.00154186
-0.00555543 -0.00128456 -0.000104507
-0.000177972 0.00222373 0.00514188
0.00276713 0.0105194 0.00681667
0.00126481 -0.00153522 0.00684261
-0.00147427 0.00307039 0.0117804
-0.00125764 -0.0014813 -0.00178486
-0.000444689 0.0122749 0.00348797
-0.00739049 -0.0021494 0.00739009
1.79109e-05 -0.00010081 -4.58287e-05
-0.000423808 -0.000953314 1.14044e-05
0.00251572 0.00269429 -0.000108637
0.00289411 0.0155038 0.00916381
0.000385248 -0.00213725 0.00621147
0.00356318 -0.00190902 0.0032857
-0.000817419 -0.00205797 0.00176715
-0.00875803 0.000582257 -0.00404019
0.000369305 -0.00238487 0.000626135
-0.000193757 0.00247715 -0.00228064
0.00143833 -0.00156483 0.0042517
-0.00312852 0.00126532 -0.000173569
-0.00210809 -0.00310921 -0.00125441
-0.000372672 0.00461027 -0.00421058
-0.00757569 0.00467757 -0.00911309
0.00475112 0.00151234 0.0022059
0.00373259 0.00265048 -0.00108398
-0.0009727 -0.000366707 3.945e-05
0.000568991 0.00113829 0.000439348
0.00572148 0.00563262 0.00353296
-0.000682834 0.000196949 0.000874766
0.00122336 -0.00130693 0.00124258
0.00544375 -0.00237708 0.0102099
0.00286459 0.000752586 0.0028955
-0.000595315 0.00146804 0.00346655
-0.000508858 -0.00137736 0.00219001
0.000224789 0.000613046 -0.00043285
-0.00242454 0.00288996 -0.00196894
0.00114048 -0.00138648 0.00133239
0.00206585 -0.00165037 0.00139839
0.00103479 -0.00292641 -0.00199063
-0.00403416 0.00133972 0.00083095
-0.00179387 -0.00526612 0.00204928
-0.0115169 -0.000829152 -0.00188306
-0.00553563 0.00177053 0.0021113
-0.000335928 -0.000423205 0.00290279
0.00710076 0.00500081 0.00562853
0.00123589 0.00135875 -0.000380372
0.00271983 0.00112225 0.00365895
-0.000229672 0.00141121 0.00659556
-0.000143659 -0.000119429 0.00171219
0.00194295 0.000460699 0.00474309
0.000898513 -5.45875e-05 0.00365064
0.00386886 -0.00531818 0.00573675
0.00638427 4.15974e-05 0.00154621
-0.000504049 0.00265877 -0.000790765
0.000357147 1.46954e-06 0.000488966
0.00279325 0.00179139 0.000965014
0.00135702 -0.0019743 0.00105154
-0.000668179 0.000639582 0.0100253
-0.00382286 0.000722497 0.00272699
-0.00559523 0.00361891 0.00379934
0.00618527 -0.00353082 0.00862688
0.000866277 0.00258725 0.00456676
-0.00629858 -0.00287803 0.00458734
-0.00179834 -0.00153818 0.000983377
-0.000102356 -0.00334458 -0.00173724
-0.000738064 -0.00119211 0.00269457
0.0 0.0 0.0
0.00403546 -0.00624653 -0.000388568
-0.00521773 0.00110324 0.00818633
-0.00215824 0.000897874 0.000336638
0.00441593 -0.00864028 0.00598495
-0.00209958 0.00045578 0.00174635
0.00150727 -0.00668678 0.00617426
-0.00358931 -0.00178907 0.00479901
-0.000363479 0.00211608 0.00170367
0.00536808 0.00610323 0.00606848
0.00113035 0.00126378 0.000962089
-0.00272123 -0.00365089 0.00935973
-0.000686354 -0.00174227 0.00185228
-0.000709453 -0.00288012 0.00333083
-0.00119671 -0.000831469 -0.0008678
0.00258793 0.00156922 0.00170565
0.00305036 0.00270738 0.00148145
-0.00828341 0.00722226 -0.00268607
-0.00168431 0.000389895 0.00170404
-0.000853578 0.000538949 -0.0037757
0.00147634 -0.00095416 0.00142387
-0.00262464 0.000356181 0.00752529
0.00602293 -0.00551054 0.00255697
0.00998258 -0.00660765 0.0113215
0.00104581 0.00137901 0.00069042
0.00174949 -0.00117043 0.000786962
-0.00567762 -0.00342163 0.011075
0.00159916 0.00179465 0.0101329
-0.000980362 -0.0011256 0.00479014
-0.00628185 -0.00507721 0.0211115
0.0036141 -0.00528883 -0.00524429
0.00184199 -0.000458722 -0.0049017
-0.000930592 0.00228811 0.01163
-0.00253986 0.00035046 0.00727061
0.00340285 -0.0055127 0.00595086
-0.000323351 -0.000700886 0.000132263
0.0 0.0 0.0
-0.00175864 0.00250616 0.000237818
-0.00230899 0.00250793 0.00318974
0.00373359 0.00212852 0.00150139
0.00162694 -0.00286448 -3.68089e-05
-0.00225163 0.00104184 0.00281878
-0.00604839 0.0031475 0.00674823
0.000295452 -0.00140627 0.00356656
0.0599777 -0.0334619 0.0141845
-0.00507755 -0.007146 0.0117276
-0.0053279 0.00695519 3.86978e-05
-0.00074346 0.000345846 0.00378864
-0.00133419 -0.000134047 0.0020262
-0.00798332 0.00563767 5.42172e-05
0.00870627 -0.00960525 0.00320355
-0.0024931 0.00124965 0.00316029
-0.00149271 -0.000705803 0.00171063
-0.00227345 0.00167627 0.0148411
-0.00341476 -0.0019056 0.00111487
0.00446085 -0.00188962 -0.00118094
-0.000843523 -0.00792001 0.0122909
-0.00251066 0.00299745 0.00255884
-7.58235e-06 -0.000614218 0.000524981
-0.000620685 -0.000763095 0.00281208
-0.000415577 -0.00220946 0.00133827
0.00280354 -0.00314716 0.00294581
0.000173802 -8.79655e-05 -0.00182416
-0.00331513 -0.00455856 0.0071618
0.0 0.0 0.0
0.00386705 0.00552885 0.0100529
0.000838573 0.000134483 0.0074229
-0.00315164 0.000564357 0.000425425
-0.00173016 -0.000476923 0.000538866
0.00318231 -0.00819557 0.0108148
-0.00247159 -0.000843526 0.000679763
-0.000821139 0.0001509 0.011845
0.036272 -0.0102082 0.00326492
-0.00183826 -0.000569695 0.0074254
-0.00366459 -0.00625992 8.10339e-05
0.000439875 0.000689031 0.00292034
-0.00017284 -0.00411903 0.00416221
-0.00888208 -0.00335413 0.00905881
-0.00424214 -0.00208468 0.00696978
0.00065886 -0.00790342 -0.00287287
0.00550182 -0.00180625 0.00876504
0.00144717 -0.00211663 0.00201099
-0.000806202 -0.000361611 0.000664487
-0.00354158 0.00337155 -0.000332251
0.00737013 -0.000239804 -0.00268466
0.00511169 -0.0125843 0.0199578
-0.00235813 -0.00305645 -4.31655e-06
8.04987e-06 -0.00293035 -0.000315715
0.00268213 0.00424358 0.00386906
0.00330902 -0.000843323 0.00385422
5.65204e-05 0.00138901 0.000278841
0.0406176 -0.0109866 -0.00308364
0.00259135 -0.00509832 0.00353008
-0.000628511 -0.00298388 0.0014136
-9.00778e-05 -0.00107093 0.00190226
-0.000992818 -0.000408789 0.00127675
-0.00708621 -0.000242168 0.0135137
0.00174791 -0.0322509 0.0112115
0.000896914 -0.00860155 0.0118992
-0.00613093 -0.00457398 0.0174836
-0.00187408 -0.000191634 0.00734199
-0.00365668 0.0025368 0.0171979
0.00110462 0.00470899 0.0138631
-8.19484e-05 -0.000132832 0.00117507
-0.00447427 -0.00810629 0.00724459
-0.0026293 -0.00297373 0.0159314
-0.000219996 -0.00623168 -0.000511328
-0.000552401 -0.00104364 -0.000662263
0.00493608 -0.000421161 0.00451278
0.000123728 0.000105465 0.00239749
0.0 0.0 0.0
0.000662814 0.00166299 -0.000745286
0.00425068 -0.000203081 0.000657618
0.0014323 -0.00853349 0.00406415
-0.00344966 -0.00447432 0.0106971
0.00496296 -0.00352715 0.00377407
0.00099798 -0.00321208 0.000857274
0.00440686 0.000847082 0.00810851
0.000810367 -0.000801986 0.00654642
-0.00528636 -0.00246578 0.00885177
0.00121334 -0.000890027 0.00179723
-0.000349444 -0.00982344 0.00843079
-0.000656324 0.00081838 0.0097364
0.00438417 -0.00283084 0.00144743
-0.00988917 -0.0172889 0.00109409
-0.00215778 -0.000793813 0.000798376
0.00660934 -0.00338478 -0.00374131
-0.00243998 0.00181029 0.00248294
0.000579019 -0.00233391 0.00268647
-0.000446589 0.00345093 0.00199203
0.00134919 -0.00261074 -0.00278584
0.00381984 -0.00310906 -0.000318946
0.00497297 -0.0125268 0.00422843
0.0069473 -0.0106304 0.0136008
-0.000231649 0.000283799 0.000372983
0.00136442 -0.00307144 0.00179611
0.00465488 -0.0106808 0.00489992
-0.000717244 -0.000861592 0.00452419
-0.00389712 -0.00587691 0.0130127
0.00201042 0.00124203 0.0138948
-0.000696085 0.000485129 0.000553217
-0.00270784 -5.4683e-05 0.00348312
-0.000171973 -0.000371727 0.00309185
0.00031139 0.000333981 0.0138139
0.000309622 -0.00183334 0.00519342
-4.60377e-06 -0.00114972 0.00891705
-0.000856135 -0.00332894 0.0101652
-0.00262194 -0.00123638 -0.000354033
0.000265048 0.000586069 3.93078e-05
0.00236449 -0.00137831 0.00114563
-0.00100525 -0.000887924 -0.00125445
0.00951502 -0.00136196 0.00618228
-0.00645714 0.00177831 0.0040534
0.00339592 -0.0020497 0.000720583
0.000558945 -0.00183787 0.000495937
0.0 0.0 0.0
0.000351945 -0.0073269 0.00190945
0.00128552 1.74405e-05 0.0041112
0.00924103 -0.00267822 0.0108862
0.000435452 -0.00118791 0.00819263
0.00102373 -0.002675 0.000321452
-0.00247147 -0.00271365 0.0095741
0.00427285 -0.011331 -0.00460086
0.00226407 -0.0141672 -0.00324256
-0.00114238 -0.00667364 0.00567771
0.00172548 0.000974767 0.00361868
0.000515286 -0.000708781 -0.000252919
-0.000286134 0.00250353 0.000115819
-0.00144621 -0.00225175 0.000625988
-0.000112597 0.00269239 0.00051806
0.00275486 0.00112322 0.00158822
0.00117419 -0.000190392 0.000633278
0.000438654 -0.000591475 0.00134047
0.00100116 -0.000375217 -0.000522204
0.000140587 0.00203558 -0.000667026
0.00137005 -0.00162255 0.000316484
-0.00387018 0.00255191 -0.00238544
0.0102328 -0.00215672 -0.00341572
0.000536577 -0.00242756 0.00232829
0.00153882 -0.0190934 0.00114908
0.00597036 -0.00258613 0.0113756
0.00178158 -0.00208425 0.000984086
0.0017414 0.00020824 0.00321312
0.00857671 -0.00417681 0.0078634
-0.003953 -0.00187678 -0.00121815
-0.00293935 0.00372018 -0.00266463
-0.00214807 -0.00297625 0.00729496
0.00683256 -0.00134585 0.00442242
0.0 0.0 0.0
0.0119724 0.00154464 0.0139592
0.000705587 -0.00251482 0.000257605
0.000788922 0.000741322 0.00202411
-0.00028389 -0.00642687 -0.00556576
0.000829153 -0.000254948 0.00211276
-0.000969894 -0.000374917 -0.000400316
-0.000561484 -0.00432689 -0.0013185
0.00525666 -0.00426868 0.00367764
-0.00550781 -0.00690287 -0.0015014
0.00638735 0.00342661 0.00243555
-6.09169e-05 -0.00150849 0.00248064
0.000528001 -0.00424633 -7.80473e-05
-0.000157545 3.70331e-06 0.000698806
0.00562588 0.000535517 -0.000709269
0.00163443 -0.00210616 0.00670581
-0.00276893 -0.00247101 0.00166319
0.0254692 -0.00823293 -0.0211673
0.0300819 0.00412167 -0.0133886
0.00598583 -0.00837145 0.00238235
-0.000844184 -0.00135304 -7.24271e-05
-0.00214381 0.00384251 -0.00492353
0.000532828 0.00334205 0.000547222
0.00112725 -0.00129735 0.00193619
0.00109193 0.000231258 0.000149608
0.00538754 -0.00767043 0.00377921
0.00273016 -0.00038169 -0.00255414
0.00346315 -0.00369185 0.00569818
0.00283949 0.00184512 -0.00743212
0.00187917 -0.010743 -0.00690463
-0.00256524 -0.0163553 0.00254367
0.0183955 -0.0111098 0.00695505
0.0153439 0.00907993 -0.0332847
0.00306943 0.00822955 0.0140344
-0.0152034 0.0139049 -0.176773
-0.00734186 -0.00643857 0.00940679
-0.00138169 -0.0137103 -0.00891025
0.0 0.0 0.0
0.00161753 -0.0139088 -0.00581292
0.0192667 -0.00946966 -0.01632
0.0 0.0 0.0
-0.000230751 0.000351515 -0.00109908
0.000347626 -0.000323514 -0.00100384
0.00146113 0.000186967 -0.00369633
0.0020163 -0.000989949 -0.00352088
0.00342541 -0.00762287 -0.00401277
-0.000256445 -0.00338781 -0.00089492
0.00127142 -0.00180116 0.000320922
0.0012367 0.00068303 -0.00102702
0.0 0.0 0.0
0.00110114 -0.000402144 -0.0019024
0.00188378 -0.0044594 -0.0024849
-0.00178763 5.62641e-06 -0.00178959
-3.54905e-05 0.00100821 -0.00367128
-0.0100467 0.0162312 0.0130236
-0.000305152 0.00109087 -0.00122236
-4.63187e-06 4.4149e-05 -1.35189e-06
0.0 0.0 0.0
0.023991 -0.00680727 -0.00791791
VECTORS omega float
0.458721 0.420229 -0.753736
0.173696 0.707402 0.224779
2.64595 0.395498 2.89076
0.677761 0.177933 0.222089
0.275378 0.295855 -0.114654
1.1207 0.501393 -0.875127
0.325391 0.25903 -1.65319
-0.237754 0.268838 -0.582928
0.438191 0.182737 -0.328114
-0.300943 -0.106578 -0.198464
1.11376 -1.87518 2.64853
-0.380033 0.835341 0.219993
-1.37205 1.08262 -2.20721
0.245819 0.201673 0.213973
-0.129568 0.429145 -0.381233
-0.717543 0.205513 0.00808441
-0.815798 -4.95407 5.8505
-0.216442 -0.732222 -0.841083
-0.0275654 -0.143447 0.285644
0.228336 0.558882 0.875984
-0.260796 -0.172559 0.329125
-0.807694 1.83317 -1.05262
0.0573834 -0.175021 -0.177844
-0.199364 0.304005 -0.050057
-0.832769 -0.692939 1.34151
0.196503 0.176546 0.465313
-0.441227 -0.214199 0.261306
-0.0587754 -0.0525259 -0.0226673
-0.0489961 0.0584005 -0.162708
-0.16405 0.0750519 0.109517
0.360086 0.0402209 -0.0769246
0.343485 -0.355207 0.0113441
4.11666 -10.894 -2.56286
-0.00967707 -0.07224 0.0806049
0.50147 0.120501 -0.666237
-0.42828 0.0196403 -0.0977525
-0.00992685 -0.152199 -0.0468129
-0.0992758 0.0509166 0.278587
0.472838 0.0373804 0.262765
-2.28304 1.36041 1.02213
0.00662619 0.379437 -0.546248
-0.0768363 -1.90011 -0.893281
0.964639 0.240333 0.223856
0.205273 0.219497 0.321724
-0.408268 -0.0772398 -0.649378
-0.0796339 -0.0586218 -0.103956
-0.575924 0.0858047 0.273857
0.151928 0.15219 -0.195468
-0.0616757 0.0693948 -0.0893898
-0.236994 0.0834211 -0.0510491
-0.379442 0.0515532 -0.340552
-0.0299354 0.275781 -0.213278
-0.0361797 -0.322928 0.375766
-0.426372 0.0285136 0.0768264
-0.199385 -0.0718616 0.0855278
-0.363861 0.0906924 -0.40454
0.262714 -0.0423987 -0.342393
-0.0578142 1.26581 0.859943
4.68269 -2.48087 0.920823
-0.301726 0.0136794 0.0661749
-0.0618869 0.0767267 -0.12029
-0.185301 -0.106485 0.0513768
0.132147 0.324025 0.155416
0.647108 -0.022366 0.283051
0.615261 -0.460905 0.569885
0.102851 0.329046 -0.245103
0.570249 -0.209755 0.211246
0.527339 0.0490942 -0.0779331
0.16004 0.0667225 -0.0655993
0.09506 0.538284 0.217959
-0.227619 0.0233237 0.139398
-0.199714 -0.288935 -0.417743
-1.13821 0.14425 -0.316611
-0.528108 0.0992153 0.59082
0.193585 -0.433443 0.44792
0.182849 -0.182341 -0.311857
-6.17917 0.747253 0.0875638
-0.0369527 -0.430776 -0.302111
0.586549 0.324841 -0.146847
0.607618 -0.272663 -0.0737396
-0.270896 0.0544319 0.334309
-0.321142 -0.0124891 0.178297
0.0567315 -0.278534 -0.261338
-0.0313429 -0.26533 -0.012761
1.45432 -0.0464219 -2.49295
-0.203212 -0.798807 0.290127
-0.110468 -0.118201 -0.0859186
-0.5974 -0.466776 -0.0138432
-0.30677 -0.543463 0.375023
-1.19145 0.597669 -0.802831
0.651776 -2.83484 -1.64818
-0.122118 -0.0931607 -0.250402
-0.231958 -0.0731282 0.0412354
1.83461 -0.317649 0.660769
0.130154 0.042543 0.143071
-0.272857 0.113691 0.155139
0.0821715 0.20943 0.0466753
0.480308 -0.266893 -0.254171
-0.571131 -0.00456428 -0.0848563
0.309455 -0.233069 -0.418439
0.496548 0.0554835 0.222812
0.212015 0.106978 -0.155757
-0.38554 -0.0669389 0.00764656
0.406435 -0.342352 0.0583668
0.0688488 -0.153397 -0.060985
-0.290682 0.520943 0.0524152
-0.36386 -0.450095 0.227497
0.191391 0.431798 -0.0526594
-0.691165 0.0177898 -0.283649
0.105071 0.130682 -0.0499958
-0.253203 0.213299 -0.774655
-0.0652283 0.0993855 -0.248915
0.0159632 0.29258 0.441308
0.330861 -0.678845 0.0141579
0.0771007 -0.0141755 -0.229386
-1.47239 0.12778 0.139847
0.15692 0.0685689 -0.259921
0.0914669 -0.048035 0.199385
-0.00516638 -0.243815 0.387914
0.0576626 0.323911 0.247166
0.0374568 -0.141532 0.131869
-0.307917 -0.557776 -0.0188519
-0.16084 0.186609 -0.0886532
-0.141848 -0.0268556 0.208372
0.201688 0.0134536 -0.0525687
-0.390726 -0.131072 -0.133544
-3.20191 2.21179 3.98492
0.23559 -0.511583 0.049661
0.119109 -0.431431 -0.256766
0.247549 0.311501 0.115919
-0.00306319 -0.118514 0.117081
-0.206181 1.28124 -1.39842
0.860131 -0.3021 0.192312
0.000628871 -0.109177 -0.0372543
-0.107231 0.769008 -0.715321
0.0425949 0.0471189 0.234707
1.17241 -0.125106 0.46702
-0.861367 -0.884039 -0.0109695
-0.0022252 -0.102194 0.216714
0.412918 -0.0204163 -0.0285473
0.186616 -0.0564047 -0.12244
-0.590401 -0.124131 -0.16234
-0.280219 1.05206 -0.032565
-0.0925571 -0.111387 0.0258502
-0.0710656 -0.40184 -0.165429
-0.0621446 -0.371775 0.369094
0.0344822 0.301305 -0.213839
0.454533 0.273717 -0.105769
-0.0274957 0.01253 0.205899
0.0669924 -0.110169 -0.130655
0.0458272 0.605746 0.164176
0.0788226 -0.14514 -0.231398
0.208564 0.514396 0.259653
-0.136467 0.289571 0.169975
-8.74579 5.87326 -1.09149
0.240797 -0.658166 -0.186951
0.170324 0.00682976 -0.240544
0.25035 -0.166753 0.147632
-0.160153 -0.268044 0.269253
-0.118286 0.194583 -0.176273
0.081784 -0.145533 -0.433432
-0.484572 -0.200398 -0.234102
-0.870368 -1.37235 0.268541
-0.333987 -0.154176 -0.309386
0.00958044 -0.204433 -0.984171
0.518397 0.128426 0.0922659
-0.232924 -0.790809 -0.139672
0.138278 0.09676 -0.228221
-0.151751 -0.0936857 0.186974
-0.0507681 0.112425 -0.276893
0.159153 -0.658142 -0.306102
0.0474009 0.123994 0.137077
0.123734 -0.534068 -0.295612
-0.0789993 0.345301 -0.639175
-0.0166578 -0.245977 0.347017
0.0486086 -0.179695 -0.15443
-0.390966 0.172827 0.164331
0.22553 0.130381 0.307998
-0.225828 0.0276354 -0.448169
-0.0269559 -0.329108 0.321855
-1.24415 -1.65271 5.56406
0.0477116 -0.646105 -0.448836
0.227988 0.17655 -0.112659
-0.123067 -0.00035142 0.363878
0.420303 -0.412001 0.760598
1.05668 -0.0462081 -0.88544
0.157307 0.0325409 -0.0573369
0.319637 -0.111896 0.395226
0.0999039 0.0688755 0.0454774
-0.035289 0.159248 -0.017501
-0.00187586 0.000415999 0.0650345
-0.159499 -0.148282 0.00532806
0.12481 0.052923 -0.151872
-0.308038 0.115625 -0.244322
0.131691 -0.432494 0.770201
0.455367 -0.0669127 0.121276
-0.456637 -0.0702574 -0.697166
-0.359732 -0.368151 -0.0917669
-0.216439 -0.110872 0.450011
0.486129 0.281582 0.345623
0.619822 0.530088 0.721279
0.0220624 0.444055 -0.336497
0.164739 -0.543683 0.893476
0.190639 0.0547167 -0.382574
0.266206 -0.0732428 0.300905
-0.698725 -0.176251 0.250762
-0.235443 -0.0781942 0.0913651
0.00891302 0.369358 -0.191352
0.12287 0.364097 -0.278321
-0.00479615 -0.0177462 0.126854
-0.294284 -0.194117 -0.28566
-0.0037865 0.0847162 0.178098
0.238463 -0.097367 -0.020661
-0.231492 -0.213355 0.332547
0.0376123 -0.0502416 -0.111359
0.111508 0.359133 -0.287989
-0.672689 0.196015 0.113416
-0.385401 -0.50123 -0.76433
-0.238734 -4.69191 0.916452
0.148308 0.27185 0.138368
-0.605072 0.336002 0.275245
0.000590407 0.428943 -0.476109
0.252632 -0.0790497 -0.0458201
-0.245984 0.0238388 -0.104809
1.39231 -1.21417 -2.53647
0.334288 -0.351084 -0.897851
-0.0746044 -0.0355158 -0.125598
-0.076493 0.267048 -0.0169716
0.055111 0.0706538 0.104591
-0.0224919 -0.0343709 -0.0212306
-0.0134882 0.411908 -0.243235
0.418504 -0.0379088 0.285206
-0.838458 0.307712 0.0141135
-0.157104 0.0897989 0.0844465
-0.552514 0.500036 -0.15938
-0.0627235 -0.341607 -0.0204101
-0.355942 0.140538 0.164325
0.210001 0.344555 0.12761
-0.513687 -0.612371 -0.0215267
1.00169 1.32867 0.000244899
0.643609 -0.0766473 0.0322615
0.506732 -0.0893804 -0.0034694
0.23776 -0.177019 0.35955
-0.0374784 0.0819275 0.00888216
-0.297229 0.145703 -0.206549
-1.07849 -1.76654 0.279141
-0.0848775 -0.155571 0.229219
0.139547 0.452242 -0.0905831
0.286729 -0.146995 0.0680241
-0.0772145 -0.186722 -0.165456
-0.306096 -0.443717 0.241609
-0.0504993 0.304003 0.035686
0.0729354 -0.463745 0.0931297
-0.146018 -0.144988 -0.0665087
0.226392 -0.0795017 -0.178353
0.00182408 -0.131401 0.380163
-0.336828 -0.589399 0.035344
0.180557 0.406502 0.895973
-0.602773 0.512802 -0.665054
0.0568472 -0.666951 0.54861
0.464209 0.195437 0.314816
0.0104391 -0.201007 -0.0252574
0.0158911 0.806434 -0.0519086
-0.608108 0.467636 0.341852
-0.492385 -0.200224 -0.634973
0.567517 -0.353516 -0.743999
0.109666 0.270063 0.237374
-0.616557 0.511375 4.50521
-0.315198 -0.152501 0.0607023
0.2976 -0.0793693 0.40171
-0.223287 0.0599932 0.208531
3.12399 4.79383 -1.88165
-0.417001 0.112142 -0.0598965
-0.125638 0.133126 0.0230329
0.29697 0.578279 -0.226759
0.470118 -0.188463 -0.0703636
0.0582146 -0.0651395 0.107856
-0.032834 0.23125 -0.429733
0.548847 -6.8277 5.97958
-0.425932 -0.316756 0.283064
-0.465208 0.406607 -0.303362
-0.0986781 -0.550243 0.00482046
0.574703 0.398415 0.107974
-0.0594214 0.159099 0.0161663
-0.923262 -0.303765 0.259077
1.52103 -1.51427 0.71098
0.499792 0.324997 -0.116036
-0.789785 -0.279776 0.155951
-1.54685 1.013 0.69565
0.389669 0.0195774 0.247343
-0.178295 -0.20643 -0.281087
-0.0132095 -0.892212 -0.285057
0.0889961 -1.47324 0.160156
0.401305 0.316112 0.159016
0.0267746 0.582858 -0.190807
0.403535 -0.158085 0.645717
-0.206121 0.131714 -0.638221
0.00507368 0.117324 0.187174
2.35848 1.05918 0.0911901
-0.456692 -0.299075 0.0303916
-0.146038 0.3575 0.347686
-0.105964 -0.698369 0.0538416
-0.0537562 0.130222 0.0557022
-0.058278 0.559065 0.346802
0.126649 -0.0557196 0.420122
0.431277 0.166013 -0.426959
1.72758 0.721945 0.930342
-0.135286 0.120575 0.311605
0.0190871 -0.337168 -0.188431
-0.132499 -0.34619 0.315228
-0.319321 0.442953 -0.633337
0.133797 0.099712 0.238723
0.11653 -1.65973 -0.932536
-0.189854 -0.00283445 0.118556
2.55764 4.66624 -0.777976
-5.13685 1.2618 0.184262
-0.476259 0.109966 0.0526826
-2.91787 1.04425 -5.734
-1.81363 -0.413537 -5.07406
0.0667209 -0.279705 -0.616595
-0.483412 0.966446 0.330833
0.656031 -0.0466865 0.830798
0.384917 0.110915 -0.953184
1.1514 0.234819 -1.04048
-0.153274 -0.0108921 0.0998966
0.825906 0.092528 -0.389805
0.227794 -0.972675 -0.611855
-0.548046 3.83765 -1.5077
0.0893742 -0.203625 0.277696
0.629445 -0.41758 -1.04206
1.98189 0.000186019 -1.98189
0.709746 -0.496435 0.365027
-4.46819 2.40998 2.44525
-1.2736 1.38228 1.68503
0.395754 -0.542842 -1.35594
3.33974 1.45752 3.20832
-0.603039 -1.89161 1.3244
VECTORS v float
0.0023885 -0.0051226 -0.00341926
0.00639469 -0.00132945 -0.00449028
-0.00845677 -0.0196939 0.00283115
0.000165669 -0.00428632 -0.0038553
0.00046522 -0.000777917 -0.00534743
0.00325232 -0.0110107 -0.00665875
0.00179411 -0.00310325 -0.00622368
-0.00130487 0.00381991 -0.00462145
-0.000807888 -0.00436018 -0.0105314
0.00173296 0.00208602 -0.00632332
-0.0015648 0.0179 0.00419712
-0.00391386 0.00283526 -0.00778983
-0.00540263 0.0240353 0.00349838
0.00377404 0.000609036 -0.00200801
0.00191381 0.00169918 -0.00491758
0.00149389 0.00637678 -0.00446826
0.00697376 0.0354967 0.000333303
0.00488573 -0.00631569 -0.00286007
-0.00295916 -0.00251196 -0.000518741
0.00763915 -0.00331046 -0.00422849
0.00372271 -0.0025968 -0.00366039
-0.0120031 -0.00829814 -0.00510127
-0.00422395 -0.00314304 -0.00258113
-0.0019927 -0.00221834 -0.00476827
0.0026276 -0.00778485 -0.006154
0.00324705 -0.000701039 -0.00387744
0.00592159 -0.0080348 -0.00683175
-0.00245915 0.000101837 -0.00354818
0.000840639 2.99712e-05 -0.00699079
-7.47813e-05 0.00325658 -0.00356469
0.00429376 -0.00348635 -0.00527022
-0.00263214 0.00238625 -0.00466002
-0.0128404 -0.00914077 -0.0366256
-0.0013761 0.00139607 -0.0057462
-0.000274612 0.00470076 -0.00349642
0.0047618 0.000925398 -0.00838182
-0.00258189 0.00255224 -0.0024895
-0.00045208 -0.000715913 -0.0035826
0.00174805 0.00528865 -0.00424998
-0.0129915 -0.00759753 -0.00281529
0.00257312 -0.00459145 0.000904941
0.0035619 -0.00557004 0.000850393
-0.0019756 0.0015335 -0.0119894
0.00328113 -0.00564521 -0.00182329
0.00412505 -0.000135687 -0.00142769
0.00361233 -0.00561578 -0.00204289
0.00661241 -0.00645555 0.00200553
0.0063455 -0.00526924 -0.00218125
-0.00523612 -0.00196538 0.000549057
-0.00130892 0.00171125 -0.000158836
0.0014109 0.000379187 -0.00255303
0.00181938 -0.0034376 -0.00423032
0.00412572 -0.00163306 -0.00168982
-0.00557453 0.000956534 -0.00340195
0.000937611 0.00638346 -0.00685642
-0.00055215 0.00178068 -0.00448219
0.00447546 -5.08323e-06 -0.00165899
0.00402614 0.00552102 -0.00624089
0.0119773 0.0129518 -0.0120305
0.00800363 -0.000513906 -0.00130245
-0.00144216 0.00180311 0.00121599
-0.0024794 0.00224549 0.000524396
0.00036413 0.00305025 -0.000743046
0.000836565 0.00456803 -0.00559397
0.00484371 0.00542165 -0.00474236
0.00335529 -0.0016521 0.00255325
0.000790687 -0.00539952 -0.00299321
-0.00324486 -0.00132654 -0.00140614
-0.00155919 -0.0018534 -0.000191754
0.0015856 -0.00613198 0.00170294
-0.00406696 0.0021455 0.000198106
0.00288641 -0.000953989 0.000112925
0.00232408 0.00272093 0.00117179
-0.00322163 0.00289627 -0.00590841
0.00346244 -0.000803783 -0.00383554
0.00431491 0.00363649 4.96938e-06
0.0153902 0.00809709 -0.00130304
0.00465143 -0.00056959 0.00288383
-0.00253112 -3.2238e-05 -0.0007985
0.000460477 0.00536972 -0.00232263
-0.00118299 0.00579596 -0.00117198
0.00322492 0.00587802 -0.0034654
0.00155811 0.00410694 -0.0080294
0.00479698 0.00212423 -0.00227258
0.00897725 -0.0248679 0.0102454
-0.00389255 -0.00383291 -0.0028568
0.00388556 -0.00380405 -0.00245811
-0.00266983 -0.000840393 -3.06075e-05
0.00231072 -0.00184746 -0.000411584
0.00545488 -0.000741204 -0.00704301
-0.0289747 -0.017762 0.00802884
-0.00293401 -0.000922458 0.00328053
0.00490038 -0.00325999 -0.00311709
0.00515028 -0.00217169 -0.00144221
0.00190329 0.00507809 -0.00130578
0.00507212 -0.00036824 4.59459e-06
-0.0015087 0.00294385 0.000106827
0.00641256 0.00331769 -0.00432901
-0.00091488 -0.00224061 -0.000494449
-0.00562223 0.00402126 -0.00401956
-0.0022157 0.000389091 0.000785366
0.00176353 0.00539909 -0.00387474
2.07769e-05 0.00494877 0.00161242
0.00275267 0.00405626 -0.00386585
0.00246285 0.00228257 0.0012866
-0.00405816 -0.00181782 -0.00217351
-0.00178134 -0.00542226 -0.00166801
-0.00238446 -0.000595428 0.00221957
-0.000115312 -0.00712763 -9.49648e-05
0.000222202 -0.00121767 0.00286812
0.000280889 -0.00463641 -0.000436976
0.00041168 -0.0026018 -0.00215509
-0.000296442 -0.00161829 -0.000773098
0.000900113 -0.00214276 -0.00169728
-0.00307735 -0.000444088 0.00130214
0.000477506 -0.00099633 0.000583431
0.00219327 -0.000815609 -8.68536e-05
-0.000816592 0.000444705 0.0019059
0.00400504 0.00343368 -0.000754717
0.00521711 0.00116695 -0.0055195
-0.00166764 0.00229451 0.00415628
-0.00721908 0.00260153 -0.00137745
7.23981e-05 0.0038639 -0.000369094
0.00290258 0.00140221 -0.00251633
-0.00159808 0.00612016 -0.000494622
-0.000905165 0.0010763 0.00155559
0.016047 0.0203369 0.0314828
-0.00202051 -0.00265378 0.00141787
0.00114298 -0.00410773 0.000284171
-0.00369921 -0.00550644 0.00127331
-0.00181761 -0.00239513 0.00315647
0.00506358 -0.00687077 -0.00531511
-0.00277356 0.000896969 0.00137193
-0.00132119 -0.00191754 -0.00145188
0.00437591 -0.000142039 0.00638806
-0.00110679 0.000557751 -0.00158158
0.00610954 -0.0062338 -0.00114924
-0.00233333 0.00154469 0.0111139
0.00092329 -2.6388e-05 0.00313937
0.00227815 0.00159259 -0.00307292
-0.00164458 -0.000171771 0.00183406
0.000345751 0.000669647 0.000517021
0.000339621 0.00215026 -0.00201694
0.00167952 0.00100701 0.000290406
0.00429745 0.00250824 -0.00180194
-0.00374547 0.00332753 0.00360921
0.000322159 0.00779027 0.0020475
0.00223572 0.0015977 0.00022242
5.24089e-05 0.00254697 0.00312455
0.00275543 0.00627335 -0.000949298
0.00143166 0.00398893 -0.00137358
-0.00391016 -0.00101958 -0.00073262
-0.00198462 -0.00299449 0.00212686
0.00286107 -0.00416696 0.00242286
-0.0318577 -0.0502822 -0.0427014
-0.000755604 -0.000357951 0.00764264
-0.00109918 -0.000189331 0.00495253
-0.00404854 -0.00424665 -0.00109311
0.00761189 0.00384009 -0.000434839
-0.00373444 -0.00227902 0.00061606
0.000426062 -0.000602398 0.00254906
0.00342628 -0.00554368 0.00162854
0.0102415 0.00439487 0.00411439
0.000314838 0.00223876 -0.000238698
0.00544958 0.00482074 0.00233035
0.000755459 0.00240213 0.000653228
-0.000706815 0.00440549 -0.00189673
0.0060136 0.0040563 0.000846496
0.00377569 0.00556545 0.00285441
-0.00300153 0.00249384 0.00135171
0.00343589 0.00295174 0.00521082
0.000262467 0.00439754 0.0012875
0.000380671 -0.00226009 0.00319317
0.0065682 -0.00476353 0.000455564
0.00358053 -0.00285217 -0.00199275
-0.0059745 -0.00303377 0.00251165
-0.00265123 -0.00346764 0.00123126
0.00544688 0.000884961 -0.000834858
0.00312177 -0.00333029 -0.00369682
-0.00201858 -0.00550011 0.0025045
0.0207203 -0.0154972 -0.0183024
0.0049151 0.00279503 0.0111814
-0.00322759 -0.00252421 0.00145104
-0.00327871 -0.00146045 0.00218452
-0.00241849 -0.000822517 0.000253885
-0.00937248 -0.00622633 -0.0195376
-0.00251411 8.03596e-05 0.00191599
0.000379856 0.0045782 -0.00146646
-0.00180643 0.0037259 0.00151982
0.00125982 0.0019082 0.00265339
0.00205677 0.00113592 -4.37228e-05
0.00180988 0.00217949 0.00281996
0.00270043 0.00297413 0.00394359
0.00614038 0.0022286 0.00439371
-0.000461899 0.00296848 0.00251531
-0.0052471 0.000741893 0.00229631
-0.00358448 0.00646336 0.00512624
-0.00108126 0.00472395 0.0044784
0.0044303 0.00295361 -0.0020297
-0.00204676 -0.00461032 0.00374374
-0.00821445 0.00380538 0.00425263
0.00578588 -0.0082638 -0.0018435
0.00274857 -0.0037799 0.000270042
-0.00197819 0.00064339 0.00353287
0.00506903 -0.00331517 -0.00225347
-0.00424517 0.000942344 -0.00236722
-0.00320997 -0.00186167 0.00358069
-0.000341764 -0.004478 0.00282773
-0.0020226 -0.00215345 0.00343546
0.00304015 -0.000967992 2.32761e-05
-0.00297752 -0.00237903 0.000469372
-0.000465836 -0.00096974 0.00267844
-0.000392145 0.00129947 0.0069178
-0.00343923 0.00277787 0.000901311
0.000436334 0.00569414 0.0061376
0.00383451 0.0026081 0.00289512
-0.00565512 0.000209105 -0.000259408
-0.00610572 0.00393572 0.00369362
0.00578842 0.00382151 0.000411712
-0.00324138 -0.00344587 0.00127607
0.00272357 -0.00177487 0.00497048
0.00316454 -0.00426741 -0.000894977
-0.00389037 -0.000822633 0.00349712
-0.00159211 -0.00271344 0.00502126
0.00749257 -0.0209435 0.010022
-0.0041712 -0.000514833 -0.000873484
-0.000718899 0.0017172 0.00578883
0.00212492 4.0701e-05 0.00377826
0.00531944 0.00224067 0.00681266
0.00354848 0.00431924 0.00640369
0.000220857 0.00160329 -0.00151843
0.000190122 0.0044561 0.00703356
-0.000720324 0.00259853 0.00542854
0.00178791 0.00382794 0.00793484
-0.00400041 0.00391101 0.00580933
-0.00139415 0.00362646 0.00261441
0.00370781 0.00702696 0.00299095
0.000472392 0.00269846 -0.0011244
-0.00477036 -0.00321345 0.00395456
-0.00217484 -0.00350452 0.00823873
0.00240704 -0.00303741 0.00389304
-0.00080828 -0.00415372 0.00530232
0.00712545 -0.0072587 -0.000298585
-0.000976643 -0.000462148 0.0109686
0.00375472 -0.0019403 0.0093792
-0.00223634 -0.0255681 0.00478178
-0.00235573 0.0016949 0.00362843
0.00656552 -0.00472556 0.00684418
-0.00601005 -0.00177977 0.00224887
0.00357233 -0.0020014 0.00857251
-0.00391263 0.00301123 0.00607825
0.00394748 0.00134128 0.00363808
-0.00471635 0.00168216 0.00532784
-6.82776e-05 0.00510324 0.00447939
0.000780612 0.00275048 0.00877638
0.00126174 0.00249055 0.00869398
-0.00206237 0.00247276 0.0021495
0.000844507 0.00255883 0.00997438
0.00717843 0.00597775 0.00368239
-0.0006863 0.00415248 0.0082379
0.00967228 0.00924838 0.00644048
-0.00078204 0.000675941 0.000570203
0.00280972 0.000926304 -0.000542003
0.00212965 -0.00550881 0.00502936
0.00359522 -0.00522393 -0.00174705
-0.00453922 -0.00134987 0.00606124
0.000476863 -0.00608891 0.00493938
0.00246024 0.0051845 0.00172263
0.00267391 0.00190879 0.00813652
-0.00360313 -1.50249e-05 0.00820566
0.0046156 -0.000471459 0.0117016
0.0192221 -0.0186555 -0.0144466
0.00017031 0.000702256 0.0105368
0.00357034 0.004959 0.0110559
0.00629016 0.00356605 0.00624706
-0.000164593 0.00106948 0.010624
-0.00169018 0.00363858 0.0114113
0.00081765 0.00569467 0.00908273
-0.0198295 0.0230169 0.00110052
0.00469036 0.00532024 0.005221
-0.0021861 0.00496899 0.00567194
0.000382295 -0.00278629 -0.000308734
-0.00537036 -0.0021761 0.00628711
0.00340045 -0.000677585 -0.00153922
0.0018707 -0.00141307 0.00109799
0.00094569 0.000300776 0.00328389
-0.00119131 0.000766606 0.00530004
-0.00363585 0.00092195 0.00553
-0.0169092 -0.0122182 0.00555305
0.000704397 0.000276999 0.00901203
0.00162075 0.00403149 0.00981502
0.00313168 -0.000482276 0.0125413
-0.0122404 -0.00259002 0.0127796
0.00320894 0.00184775 0.0112106
0.00787091 0.00346363 0.00758348
-0.00216894 0.00162216 0.00716142
-0.00810929 0.00291156 0.0071622
0.000767829 0.00224557 0.0122857
0.00563046 0.000244092 0.00894445
-0.000680912 0.00273229 0.00447996
-0.00246042 -0.00439678 -0.000724823
-0.0019337 -0.00237283 0.0016458
-0.000756617 -0.000428871 0.000831189
-0.00746832 0.000360873 -0.000308405
0.0014971 0.000722128 0.00273251
0.00212491 0.00374213 0.00190227
-0.0125725 0.00232457 0.00856724
-0.00305122 -0.00190451 0.0100301
0.00181272 0.000237968 0.0138522
0.00136578 0.00454558 0.0147744
-0.0053056 0.00021284 0.0112849
-0.000427038 0.00501337 0.00702188
0.0230524 0.00465506 0.0120282
0.00652284 0.0064736 0.0123621
-0.0218841 -0.0257307 0.0101824
0.0104197 0.00739745 0.00529249
-0.000556207 0.00692326 0.00723074
0.0124663 -0.00470813 0.00888523
0.0331488 0.0212343 -0.0116619
0.00421999 0.000221796 0.00220656
0.00150947 0.00294619 0.0073623
-0.00368386 0.0024242 0.00459074
-0.0027412 -0.000283171 0.007142
-0.0055827 0.00337789 0.0122883
0.00251964 0.00191595 0.0127545
0.00209735 0.0026599 0.00743661
0.00649032 4.72317e-05 0.00608843
-0.0248759 -0.00348923 -0.00507997
0.00136191 0.000656866 0.00949119
-0.00116433 0.00519326 0.00935899
-0.00429469 0.0131059 -0.00429549
5.36764e-05 0.00348937 0.00833069
0.013488 0.0257619 0.0460485
-0.0139569 0.0164919 -0.00507753
-0.00897001 -0.00435377 -0.00261804
-0.0156032 0.0135312 0.0100933
0.0147873 -0.00331448 0.00626272
SCALARS radius float 1
LOOKUP_TABLE default
0.00662068
0.00662068
0.00662068
0.00662068
0.00662068
0.00662068
0.00662068
0.00662068
0.00662068
0.00662068
0.00662068
0.00662068
0.00662068
0.00662068
0.00662068
0.00662068
0.00662068
0.00662068
0.0105931
0.0105931
0.0105931
0.00662068
0.0105931
0.00662068
0.00662068
0.0105931
0.0105931
0.0105931
0.0105931
0.00662068
0.0105931
0.0105931
0.00662068
0.0105931
0.00662068
0.0105931
0.0105931
0.0105931
0.00662068
0.00662068
0.00662068
0.00662068
0.00662068
0.00662068
0.00662068
0.0105931
0.0105931
0.00662068
0.00662068
0.0105931
0.00662068
0.0105931
0.00662068
0.00662068
0.0105931
0.00662068
0.00662068
0.00662068
0.00662068
0.00662068
0.0105931
0.00662068
0.00662068
0.00662068
0.00662068
0.0105931
0.0105931
0.0105931
0.0105931
0.00662068
0.00662068
0.0105931
0.00662068
0.00662068
0.00662068
0.0105931
0.00662068
0.00662068
0.00662068
0.00662068
0.00662068
0.0105931
0.00662068
0.0105931
0.00662068
0.0105931
0.0105931
0.00662068
0.00662068
0.00662068
0.00662068
0.00662068
0.0105931
0.00662068
0.0105931
0.00662068
0.0105931
0.00662068
0.00662068
0.0105931
0.00662068
0.0105931
0.00662068
0.00662068
0.00662068
0.00662068
0.00662068
0.0105931
0.00662068
0.0105931
0.00662068
0.0105931
0.00662068
0.0105931
0.00662068
0.00662068
0.0105931
0.0105931
0.00662068
0.0105931
0.0105931
0.00662068
0.0105931
0.0105931
0.0105931
0.00662068
0.00662068
0.00662068
0.00662068
0.00662068
0.0105931
0.00662068
0.00662068
0.00662068
0.0105931
0.0105931
0.0105931
0.00662068
0.00662068
0.00662068
0.0105931
0.00662068
0.00662068
0.0105931
0.00662068
0.00662068
0.0105931
0.00662068
0.00662068
0.00662068
0.00662068
0.00662068
0.00662068
0.0105931
0.00662068
0.00662068
0.00662068
0.00662068
0.00662068
0.0105931
0.00662068
0.0105931
0.00662068
0.00662068
0.00662068
0.00662068
0.00662068
0.0105931
0.0105931
0.00662068
0.00662068
0.00662068
0.00662068
0.00662068
0.00662068
0.0105931
0.00662068
0.00662068
0.0105931
0.00662068
0.00662068
0.00662068
0.00662068
0.00662068
0.00662068
0.00662068
0.0105931
0.0105931
0.0105931
0.0105931
0.0105931
0.0105931
0.0105931
0.00662068
0.0105931
0.0105931
0.00662068
0.00662068
0.00662068
0.00662068
0.00662068
0.00662068
0.00662068
0.00662068
0.0105931
0.00662068
0.00662068
0.0105931
0.0105931
0.0105931
0.00662068
0.0105931
0.0105931
0.00662068
0.0105931
0.00662068
0.00662068
0.00662068
0.00662068
0.00662068
0.00662068
0.0105931
0.0105931
0.0105931
0.00662068
0.00662068
0.0105931
0.00662068
0.0105931
0.0105931
0.00662068
0.00662068
0.00662068
0.0105931
0.0105931
0.0105931
0.0105931
0.00662068
0.00662068
0.00662068
0.00662068
0.0105931
0.0105931
0.00662068
0.00662068
0.00662068
0.00662068
0.0105931
0.0105931
0.0105931
0.00662068
0.0105931
0.0105931
0.0105931
0.0105931
0.00662068
0.00662068
0.00662068
0.00662068
0.00662068
0.00662068
0.00662068
0.00662068
0.00662068
0.00662068
0.00662068
0.00662068
0.00662068
0.00662068
0.0105931
0.0105931
0.00662068
0.00662068
0.0105931
0.00662068
0.00662068
0.0105931
0.00662068
0.00662068
0.0105931
0.00662068
0.00662068
0.0105931
0.0105931
0.00662068
0.00662068
0.0105931
0.0105931
0.00662068
0.00662068
0.00662068
0.00662068
0.00662068
0.00662068
0.0105931
0.0105931
0.0105931
0.0105931
0.00662068
0.0105931
0.00662068
0.0105931
0.0105931
0.0105931
0.0105931
0.0105931
0.00662068
0.0105931
0.0105931
0.0105931
0.0105931
0.0105931
0.0105931
0.0105931
0.00662068
0.00662068
0.0105931
0.00662068
0.00662068
0.00662068
0.00662068
0.00662068
0.00662068
0.00662068
0.00662068
0.00662068
0.00662068
0.00662068
0.00662068
0.00662068
0.00662068
0.00662068
0.00662068
0.00662068
0.00662068
0.00662068
0.00662068
SCALARS type float 1
LOOKUP_TABLE default
1.0
1.0
1.0
1.0
1.0
1.0
1.0
1.0
1.0
1.0
1.0
1.0
1.0
1.0
1.0
1.0
1.0
1.0
1.0
1.0
1.0
1.0
1.0
1.0
1.0
1.0
1.0
1.0
1.0
1.0
1.0
1.0
1.0
1.0
1.0
1.0
1.0
1.0
1.0
1.0
1.0
1.0
1.0
1.0
1.0
1.0
1.0
1.0
1.0
1.0
1.0
1.0
1.0
1.0
1.0
1.0
1.0
1.0
1.0
1.0
1.0
1.0
1.0
1.0
1.0
1.0
1.0
1.0
1.0
1.0
1.0
1.0
1.0
1.0
1.0
1.0
1.0
1.0
1.0
1.0
1.0
1.0
1.0
1.0
1.0
1.0
1.0
1.0
1.0
1.0
1.0
1.0
1.0
1.0
1.0
1.0
1.0
1.0
1.0
1.0
1.0
1.0
1.0
1.0
1.0
1.0
1.0
1.0
1.0
1.0
1.0
1.0
1.0
1.0
1.0
1.0
1.0
1.0
1.0
1.0
1.0
1.0
1.0
1.0
1.0
1.0
1.0
1.0
1.0
1.0
1.0
1.0
1.0
1.0
1.0
1.0
1.0
1.0
1.0
1.0
1.0
1.0
1.0
1.0
1.0
1.0
1.0
1.0
1.0
1.0
1.0
1.0
1.0
1.0
1.0
1.0
1.0
1.0
1.0
1.0
1.0
1.0
1.0
1.0
1.0
1.0
1.0
1.0
1.0
1.0
1.0
1.0
1.0
1.0
1.0
1.0
1.0
1.0
1.0
1.0
1.0
1.0
1.0
1.0
1.0
1.0
1.0
1.0
1.0
1.0
1.0
1.0
1.0
1.0
1.0
1.0
1.0
1.0
1.0
1.0
1.0
1.0
1.0
1.0
1.0
1.0
1.0
1.0
1.0
1.0
1.0
1.0
1.0
1.0
1.0
1.0
1.0
1.0
1.0
1.0
1.0
1.0
1.0
1.0
1.0
1.0
1.0
1.0
1.0
1.0
1.0
1.0
1.0
1.0
1.0
1.0
1.0
1.0
1.0
1.0
1.0
1.0
1.0
1.0
1.0
1.0
1.0
1.0
1.0
1.0
1.0
1.0
1.0
1.0
1.0
1.0
1.0
1.0
1.0
1.0
1.0
1.0
1.0
1.0
1.0
1.0
1.0
1.0
1.0
1.0
1.0
1.0
1.0
1.0
1.0
1.0
1.0
1.0
1.0
1.0
1.0
1.0
1.0
1.0
1.0
1.0
1.0
1.0
1.0
1.0
1.0
1.0
1.0
1.0
1.0
1.0
1.0
1.0
1.0
1.0
1.0
1.0
1.0
1.0
1.0
1.0
1.0
1.0
1.0
1.0
1.0
1.0
1.0
1.0
1.0
1.0
1.0
1.0
1.0
1.0
1.0
1.0
1.0
1.0
1.0
1.0
1.0
1.0
1.0
1.0
1.0
1.0
1.0
1.0
1.0
1.0
1.0
SCALARS id float 1
LOOKUP_TABLE default
138.0
141.0
297.0
304.0
293.0
325.0
285.0
241.0
183.0
126.0
171.0
180.0
207.0
240.0
140.0
197.0
291.0
258.0
50.0
92.0
60.0
154.0
98.0
188.0
298.0
88.0
80.0
106.0
10.0
277.0
41.0
40.0
213.0
23.0
327.0
58.0
32.0
6.0
174.0
158.0
128.0
264.0
234.0
263.0
331.0
48.0
37.0
329.0
328.0
121.0
172.0
84.0
164.0
200.0
9.0
305.0
274.0
186.0
149.0
135.0
102.0
143.0
198.0
173.0
246.0
89.0
119.0
122.0
38.0
321.0
260.0
64.0
169.0
193.0
288.0
47.0
265.0
184.0
257.0
205.0
232.0
34.0
229.0
94.0
137.0
61.0
70.0
227.0
225.0
199.0
195.0
130.0
62.0
259.0
79.0
127.0
81.0
275.0
273.0
12.0
192.0
72.0
230.0
247.0
163.0
295.0
278.0
44.0
159.0
85.0
314.0
73.0
153.0
100.0
322.0
216.0
2.0
35.0
239.0
30.0
99.0
301.0
103.0
66.0
13.0
142.0
253.0
252.0
160.0
222.0
17.0
238.0
292.0
212.0
75.0
49.0
22.0
228.0
147.0
249.0
55.0
156.0
319.0
107.0
245.0
308.0
105.0
201.0
276.0
217.0
248.0
296.0
144.0
8.0
203.0
250.0
294.0
152.0
133.0
31.0
175.0
33.0
208.0
269.0
317.0
267.0
204.0
19.0
97.0
157.0
236.0
324.0
155.0
306.0
151.0
93.0
233.0
165.0
18.0
290.0
145.0
182.0
220.0
333.0
261.0
146.0
77.0
45.0
82.0
4.0
118.0
69.0
26.0
237.0
24.0
117.0
336.0
302.0
326.0
132.0
210.0
181.0
310.0
206.0
5.0
286.0
280.0
65.0
101.0
108.0
161.0
111.0
115.0
242.0
95.0
166.0
221.0
224.0
231.0
307.0
185.0
39.0
29.0
46.0
282.0
189.0
68.0
272.0
28.0
25.0
179.0
134.0
337.0
3.0
74.0
20.0
42.0
177.0
303.0
124.0
202.0
51.0
114.0
251.0
300.0
148.0
167.0
14.0
112.0
91.0
194.0
116.0
83.0
104.0
53.0
309.0
136.0
279.0
235.0
176.0
281.0
196.0
330.0
335.0
215.0
218.0
311.0
131.0
271.0
21.0
27.0
315.0
255.0
7.0
223.0
190.0
56.0
123.0
316.0
76.0
139.0
332.0
96.0
71.0
318.0
170.0
43.0
63.0
270.0
268.0
262.0
168.0
191.0
214.0
78.0
59.0
52.0
113.0
334.0
86.0
162.0
120.0
109.0
87.0
67.0
54.0
209.0
57.0
16.0
110.0
90.0
11.0
36.0
1.0
312.0
226.0
15.0
256.0
323.0
211.0
284.0
178.0
320.0
125.0
219.0
254.0
289.0
243.0
266.0
187.0
299.0
129.0
150.0
283.0
287.0
313.0
244.0

