# vtk DataFile Version 2.0
Generated by lpp.py
ASCII
DATASET POLYDATA
POINTS 337 float
-0.0128703 -0.0388088 0.00586617
-0.0200679 -0.0278132 0.0059319
0.00617069 -0.0314504 0.00607706
0.0398506 -0.0305555 0.00586956
-0.0108388 -0.0179435 0.00587088
0.0338399 -0.0190582 0.00589503
0.0159722 -0.0109311 0.00683198
-0.0173445 -0.003148 0.00938331
0.00620404 -0.00231347 0.00585649
-0.0326047 0.0126468 0.00663443
-0.00744482 0.0220507 0.00877856
0.0433484 0.0184565 0.00904112
0.0149835 0.0314088 0.0080547
0.00695778 0.0399862 0.00691483
0.0111279 -0.0423416 0.0159268
-0.0275881 -0.0406134 0.00946753
0.0265654 -0.0342695 0.013731
-0.0332035 -0.0231981 0.0136905
-0.00421177 -0.0269053 0.0162988
0.0134081 -0.0265847 0.0140196
-0.0182571 -0.020319 0.0147855
0.0401001 -0.020717 0.0157313
-0.0394266 -0.00536993 0.0125887
0.0284282 -0.00826555 0.015239
0.0175858 0.00235022 0.0136123
-0.0243039 0.00821846 0.0168191
-0.0111375 0.0106502 0.0113522
0.031018 0.0101247 0.0124299
-0.0438616 0.0185434 0.0125122
-0.0157629 0.0199638 0.0167947
0.0105227 0.0177996 0.0133294
0.029237 0.0288171 0.0128578
-0.0317833 0.0406146 0.0118349
-0.0140274 0.0348418 0.0138699
0.00668449 0.0321953 0.0166387
0.040642 0.0399301 0.01458
-0.00228627 0.0441361 0.0167932
0.0150929 0.0426141 0.0149505
0.00149602 -0.0436762 0.0226946
0.0310301 -0.0436467 0.0251939
-0.0424451 -0.036057 0.0228432
-0.0184907 -0.0399529 0.0260426
0.00818441 -0.03389 0.0239917
0.0406119 -0.0318105 0.0262197
-0.0441399 -0.0164803 0.0219394
0.004978 -0.0217397 0.0278864
0.0201985 -0.0225645 0.027096
0.0345694 -0.0176433 0.0256207
-0.0136846 -0.010118 0.0227447
0.00264845 -0.00960008 0.0187719
0.0409529 -0.00767509 0.0239398
-0.0388622 0.0115896 0.0219284
-0.0103689 0.00484132 0.025437
0.0041558 0.00583276 0.0208918
0.0428305 0.00505365 0.0255147
0.0169034 0.0210096 0.0268223
0.0404903 0.0208285 0.0218043
-0.0441445 0.0288025 0.0278115
-0.0300597 0.0239574 0.020334
0.0249043 0.0441441 0.0211904
0.0358153 0.0422554 0.0250342
-0.0367807 -0.0394344 0.0366053
0.000402185 -0.0329664 0.0371566
0.0177321 -0.0401821 0.0367105
0.0294289 -0.0302746 0.0364913
-0.0406178 -0.0210546 0.0360575
-0.0141916 -0.0225369 0.0316009
-0.0441309 -0.00496395 0.0312857
-0.0291709 -0.00853646 0.0279932
-0.000506978 -0.00621977 0.036963
0.0162532 0.000878195 0.0287436
0.0354468 0.00302869 0.0344155
-0.0368691 0.00823641 0.0366863
-0.0224224 0.0109175 0.0325522
-0.0114595 0.0176954 0.0335817
0.0036386 0.0158826 0.0323577
0.0279398 0.0182464 0.0297205
-0.0359267 0.0335367 0.0347297
-0.0237921 0.0406238 0.0288273
0.00294419 0.0346213 0.0314228
0.0194623 0.0323483 0.0284755
0.0406193 0.0325486 0.0357733
-0.0423548 0.0422544 0.028933
-0.00886375 0.044139 0.0297926
0.00547451 -0.0440639 0.046305
-0.0161732 -0.0389678 0.0410953
0.0388379 -0.0405937 0.0455102
-0.0264423 -0.0244714 0.0405026
0.0394549 -0.0259521 0.0412556
0.0117677 -0.0158218 0.038988
0.0435445 -0.014891 0.0424102
-0.0392239 -0.00843419 0.0445128
0.0274556 -0.0100774 0.0390885
-0.0186016 -0.00085968 0.0414679
0.0441069 -0.00308078 0.0420396
0.0104341 0.00552578 0.0420671
0.0236872 0.010405 0.0392852
-0.0205577 0.0201296 0.0455745
0.037773 0.0182136 0.0412363
-0.0342935 0.0229869 0.0395774
-0.0441561 0.0388964 0.0411124
-0.0109592 0.0341759 0.0377088
0.016834 0.0406123 0.0425544
-0.0271001 0.0416762 0.0436885
0.0319287 0.0428354 0.042965
0.044141 0.0441508 0.044994
-0.043669 -0.0441309 0.0503077
-0.0436981 -0.0331715 0.0548493
0.0171687 -0.040661 0.0554774
-0.0227282 -0.029918 0.0542482
-0.0100535 -0.0235561 0.0486264
-0.00146452 -0.0307929 0.052148
0.0217697 -0.022888 0.05157
0.00373204 -0.0213097 0.0469978
-0.0297299 -0.00568607 0.0508258
-0.0113508 -0.0101767 0.05604
0.00313754 -0.0093421 0.051431
0.0426355 -0.00872894 0.0544794
0.016906 -0.00451366 0.0558049
0.0334665 0.00297577 0.0511528
-0.00101896 0.0109351 0.0516375
0.0155304 0.0101753 0.052005
0.0394244 0.0167996 0.0534662
0.012474 0.0247895 0.0550387
0.0303818 0.0288629 0.0511448
-0.000292531 0.0376359 0.0496632
-0.0205562 -0.0425387 0.0625609
0.00181407 -0.0417628 0.0576158
-0.0439126 -0.0397636 0.064903
-0.0333099 -0.0402056 0.0580976
-0.00966026 -0.0393276 0.0581201
0.0309179 -0.0345569 0.0575048
0.0440448 -0.0379745 0.0596155
-0.010132 -0.0284037 0.0627301
0.0406705 -0.0230601 0.0592571
-0.0322629 -0.0164372 0.0631936
0.0069865 -0.0190915 0.0625076
-0.000570245 -0.000918541 0.0615937
0.0413568 0.00259748 0.0642246
-0.0274324 0.00580166 0.0605853
-0.0404707 0.0186686 0.0564499
-0.0197123 0.0199009 0.060798
-0.00931417 0.0152923 0.0636857
0.044066 0.0195092 0.0638752
-0.00254488 0.0248559 0.0576688
-0.0418848 0.0333087 0.0604383
-0.0243716 0.0340779 0.0576265
-0.00793642 0.0338385 0.0629372
0.0154342 0.0374638 0.0629711
-0.00270722 0.0441435 0.0649325
0.0282659 0.0424307 0.0607077
0.0440936 0.0412852 0.0563777
-0.0162367 -0.0433064 0.0739209
-0.0022407 -0.0374917 0.0721185
0.0291408 -0.0406123 0.0722685
-0.0427519 -0.0284997 0.0712164
-0.0315755 -0.0314162 0.0691339
-0.0211256 -0.0260914 0.0689766
0.0181403 -0.0312009 0.0673992
-0.0121616 -0.0188262 0.0710472
-0.0178555 -0.00478893 0.0727519
0.0156144 -0.00902767 0.0702932
0.0308205 -0.00778702 0.0680073
-0.0363366 0.000986364 0.0740431
0.00913663 0.00049344 0.0680316
0.00274206 0.00848563 0.0737544
-0.0295701 0.0194235 0.0671127
0.00173147 0.0197613 0.0706412
0.0271778 0.0178551 0.0660285
-0.00888508 0.0249239 0.0705019
-0.034196 0.0327816 0.0735993
0.038149 0.0330098 0.0677417
-0.0430373 0.0441489 0.0685919
-0.0182382 0.0435778 0.0681054
0.00796577 0.0434359 0.0697827
0.00919961 -0.0441456 0.0830259
0.0441332 -0.0441332 0.0797391
-0.0340264 -0.0385007 0.0824271
0.0143411 -0.0349821 0.0778237
-0.00856812 -0.0267667 0.0816025
0.0119639 -0.0236122 0.0761962
0.0423972 -0.0302254 0.0778629
-0.0441443 -0.0168278 0.0840386
-0.0200727 -0.0211705 0.0796546
-0.00966857 -0.0150235 0.0818639
-0.00119606 -0.0200893 0.0753593
0.0203012 -0.0135459 0.0840603
-0.0372115 -0.0103072 0.0771656
0.00283817 -0.00636733 0.0807027
0.0408373 -0.0137126 0.0778871
-0.012438 0.0123321 0.0783507
0.0189575 0.00472307 0.0812529
0.0389169 0.00923609 0.0800375
-0.0405564 0.0154034 0.0768714
0.00767175 0.0301318 0.0801291
0.0283586 0.0243514 0.0836035
-0.0441004 0.0380476 0.0839535
-0.0106333 0.0322673 0.0837903
0.023019 0.0406265 0.0758086
0.0441415 0.033132 0.0817641
-0.0233431 0.0427298 0.0786357
0.0369866 0.0424088 0.0824772
-0.0440654 -0.0441291 0.092452
-0.0200854 -0.0441572 0.0851903
-0.00029824 -0.0421906 0.0898152
0.0134599 -0.0353285 0.0895107
0.0384918 -0.0406169 0.0894165
0.00425662 -0.0231655 0.089348
0.0305374 -0.02678 0.0925821
-0.0334513 -0.0207641 0.0868143
0.0395664 -0.00490943 0.0923716
-0.0232268 0.00170681 0.0894563
-0.00434948 -0.00171879 0.0934608
-0.0380342 0.00523832 0.0879742
0.00327718 0.012014 0.0885752
-0.0405297 0.0197748 0.0914764
-0.0261486 0.0221207 0.086887
0.0441461 0.0165619 0.092354
-0.0423911 0.031389 0.093516
-0.0302988 0.0434375 0.088066
0.0014247 0.0441418 0.0899658
0.0128645 0.0409777 0.0907118
-0.0149984 -0.0328475 0.0940375
0.0073759 -0.033247 0.10168
0.0214012 -0.0406126 0.101416
-0.0393999 -0.0293287 0.0998498
-0.029868 -0.0176279 0.0975392
-0.00996961 -0.0154073 0.0988116
0.0205651 -0.0171023 0.0988862
0.0196348 0.00362968 0.100144
-0.040571 0.0092247 0.102486
-0.0125271 0.0095883 0.102654
0.0318343 0.0181896 0.101195
-0.0314223 0.0233112 0.102646
-0.0122724 0.0233255 0.0960354
-0.000587387 0.0240473 0.0972033
0.0147682 0.0244481 0.0966016
-0.0175527 0.0390368 0.0998899
0.0290359 0.0372487 0.0979992
-0.0430792 0.042973 0.0952997
-0.042759 -0.0425689 0.106659
0.00632913 -0.0439388 0.112381
-0.0286353 -0.0397691 0.10899
-0.00591689 -0.0349556 0.110365
0.0392377 -0.0367672 0.107609
-0.0304994 -0.0255164 0.111786
-0.0220306 -0.0235994 0.103912
0.0223642 -0.0248157 0.109101
-0.0143811 -0.0211715 0.112461
0.00299594 -0.0211631 0.104435
0.0365137 -0.0181961 0.108178
-0.0406319 -0.00879355 0.10778
0.00863245 -0.00807743 0.109991
-0.0285034 -0.000618943 0.103545
0.0404424 0.00351847 0.109127
0.00403527 0.0155227 0.109133
0.0195275 0.015911 0.111409
-0.0407434 0.0318185 0.105133
-0.00960075 0.027842 0.11268
0.0441321 0.0294002 0.110704
-0.0302715 0.0377473 0.108227
0.00355722 0.0377478 0.103648
0.0353003 0.0371175 0.111893
-0.0400894 0.0439806 0.106609
0.0171169 0.0439569 0.107884
0.0274712 -0.0438094 0.115046
-0.0217825 -0.0334891 0.116163
0.00480441 -0.023815 0.115894
-0.00432528 -0.0152501 0.113612
-0.0233246 -0.00909484 0.11513
-0.0352504 0.00133064 0.117848
-0.0058664 0.00169876 0.117295
0.0250267 -0.003023 0.117589
0.0134662 0.00685507 0.117326
-0.0332638 0.0185636 0.117033
0.0441388 0.0178014 0.113008
-0.0238033 0.0305202 0.117515
0.0242931 0.0256976 0.116644
0.0237329 0.0406116 0.121224
-0.0018584 0.0411153 0.118626
-0.0229928 -0.0419117 0.131111
0.0358983 -0.0441185 0.123263
-0.0355124 -0.0394959 0.122719
0.00409558 -0.0371769 0.122271
0.0189742 -0.0369022 0.125665
0.0441119 -0.0357386 0.122349
-0.00824124 -0.0257595 0.122323
0.00419177 -0.0247463 0.131114
0.0384761 -0.0245839 0.131174
-0.0395374 -0.0211588 0.123265
-0.00448012 -0.0136782 0.125231
0.0263595 -0.0190666 0.123018
-0.0379033 -0.00720725 0.130411
-0.0146363 -0.00836159 0.127636
0.0120901 -0.0122904 0.126605
0.0406382 -0.00635564 0.1274
0.00933114 -0.000228834 0.127
-0.016132 0.0133782 0.122719
0.0304759 0.0137871 0.123912
0.00139996 0.0197349 0.127227
0.043877 0.0173624 0.130308
0.0378601 0.0299741 0.121917
-0.0352508 0.0390452 0.123829
0.00749392 0.0372656 0.130049
-0.00554645 -0.040612 0.133593
-0.0198304 -0.0272892 0.134077
0.0213094 -0.0236173 0.138692
-0.0409221 -0.0211929 0.138474
-0.0307287 -0.016634 0.134868
-0.00554287 -0.0151525 0.138158
-0.00470323 0.0021455 0.132506
0.0208372 0.00327684 0.13639
0.039433 0.00356401 0.13941
-0.0312713 0.00897178 0.133038
-0.0406109 0.0249653 0.136138
-0.0177534 0.0250683 0.137321
0.0227203 0.0272316 0.134463
0.0381817 0.0270829 0.13362
-0.0222152 0.0388924 0.132646
-0.00457336 0.0327189 0.138218
0.0360041 0.0386159 0.133988
0.00551427 -0.0412807 0.144088
-0.0319062 -0.0331033 0.141379
0.018716 -0.0407483 0.140783
0.0365776 -0.0406508 0.140638
-0.00127066 -0.0304629 0.144142
-0.0220451 -0.00549643 0.140636
0.0232955 -0.00958287 0.144186
0.0418485 -0.00748155 0.14257
-0.000849836 0.0168053 0.144131
0.018653 0.0162236 0.144165
0.0427928 0.0188044 0.142336
0.00824837 0.0303175 0.144131
-0.040974 0.0380601 0.143969
-0.029061 0.0423416 0.141538
0.0244268 0.0420447 0.142516
0.0417901 0.0432051 0.143115
VERTICES 337 674
1 0
1 1
1 2
1 3
1 4
1 5
1 6
1 7
1 8
1 9
1 10
1 11
1 12
1 13
1 14
1 15
1 16
1 17
1 18
1 19
1 20
1 21
1 22
1 23
1 24
1 25
1 26
1 27
1 28
1 29
1 30
1 31
1 32
1 33
1 34
1 35
1 36
1 37
1 38
1 39
1 40
1 41
1 42
1 43
1 44
1 45
1 46
1 47
1 48
1 49
1 50
1 51
1 52
1 53
1 54
1 55
1 56
1 57
1 58
1 59
1 60
1 61
1 62
1 63
1 64
1 65
1 66
1 67
1 68
1 69
1 70
1 71
1 72
1 73
1 74
1 75
1 76
1 77
1 78
1 79
1 80
1 81
1 82
1 83
1 84
1 85
1 86
1 87
1 88
1 89
1 90
1 91
1 92
1 93
1 94
1 95
1 96
1 97
1 98
1 99
1 100
1 101
1 102
1 103
1 104
1 105
1 106
1 107
1 108
1 109
1 110
1 111
1 112
1 113
1 114
1 115
1 116
1 117
1 118
1 119
1 120
1 121
1 122
1 123
1 124
1 125
1 126
1 127
1 128
1 129
1 130
1 131
1 132
1 133
1 134
1 135
1 136
1 137
1 138
1 139
1 140
1 141
1 142
1 143
1 144
1 145
1 146
1 147
1 148
1 149
1 150
1 151
1 152
1 153
1 154
1 155
1 156
1 157
1 158
1 159
1 160
1 161
1 162
1 163
1 164
1 165
1 166
1 167
1 168
1 169
1 170
1 171
1 172
1 173
1 174
1 175
1 176
1 177
1 178
1 179
1 180
1 181
1 182
1 183
1 184
1 185
1 186
1 187
1 188
1 189
1 190
1 191
1 192
1 193
1 194
1 195
1 196
1 197
1 198
1 199
1 200
1 201
1 202
1 203
1 204
1 205
1 206
1 207
1 208
1 209
1 210
1 211
1 212
1 213
1 214
1 215
1 216
1 217
1 218
1 219
1 220
1 221
1 222
1 223
1 224
1 225
1 226
1 227
1 228
1 229
1 230
1 231
1 232
1 233
1 234
1 235
1 236
1 237
1 238
1 239
1 240
1 241
1 242
1 243
1 244
1 245
1 246
1 247
1 248
1 249
1 250
1 251
1 252
1 253
1 254
1 255
1 256
1 257
1 258
1 259
1 260
1 261
1 262
1 263
1 264
1 265
1 266
1 267
1 268
1 269
1 270
1 271
1 272
1 273
1 274
1 275
1 276
1 277
1 278
1 279
1 280
1 281
1 282
1 283
1 284
1 285
1 286
1 287
1 288
1 289
1 290
1 291
1 292
1 293
1 294
1 295
1 296
1 297
1 298
1 299
1 300
1 301
1 302
1 303
1 304
1 305
1 306
1 307
1 308
1 309
1 310
1 311
1 312
1 313
1 314
1 315
1 316
1 317
1 318
1 319
1 320
1 321
1 322
1 323
1 324
1 325
1 326
1 327
1 328
1 329
1 330
1 331
1 332
1 333
1 334
1 335
1 336
POINT_DATA 337
VECTORS i float
0.0 0.0 0.0
0.0 0.0 0.0
0.0 0.0 0.0
0.0 0.0 0.0
0.0 0.0 0.0
0.0 0.0 0.0
0.0 0.0 0.0
0.0 0.0 0.0
0.0 0.0 0.0
0.0 0.0 0.0
0.0 0.0 0.0
0.0 0.0 0.0
0.0 0.0 0.0
0.0 0.0 0.0
0.0 0.0 0.0
0.0 0.0 0.0
0.0 0.0 0.0
0.0 0.0 0.0
0.0 0.0 0.0
0.0 0.0 0.0
0.0 0.0 0.0
0.0 0.0 0.0
0.0 0.0 0.0
0.0 0.0 0.0
0.0 0.0 0.0
0.0 0.0 0.0
0.0 0.0 0.0
0.0 0.0 0.0
0.0 0.0 0.0
0.0 0.0 0.0
0.0 0.0 0.0
0.0 0.0 0.0
0.0 0.0 0.0
0.0 0.0 0.0
0.0 0.0 0.0
0.0 0.0 0.0
0.0 0.0 0.0
0.0 0.0 0.0
0.0 0.0 0.0
0.0 0.0 0.0
0.0 0.0 0.0
0.0 0.0 0.0
0.0 0.0 0.0
0.0 0.0 0.0
0.0 0.0 0.0
0.0 0.0 0.0
0.0 0.0 0.0
0.0 0.0 0.0
0.0 0.0 0.0
0.0 0.0 0.0
0.0 0.0 0.0
0.0 0.0 0.0
0.0 0.0 0.0
0.0 0.0 0.0
0.0 0.0 0.0
0.0 0.0 0.0
0.0 0.0 0.0
0.0 0.0 0.0
0.0 0.0 0.0
0.0 0.0 0.0
0.0 0.0 0.0
0.0 0.0 0.0
0.0 0.0 0.0
0.0 0.0 0.0
0.0 0.0 0.0
0.0 0.0 0.0
0.0 0.0 0.0
0.0 0.0 0.0
0.0 0.0 0.0
0.0 0.0 0.0
0.0 0.0 0.0
0.0 0.0 0.0
0.0 0.0 0.0
0.0 0.0 0.0
0.0 0.0 0.0
0.0 0.0 0.0
0.0 0.0 0.0
0.0 0.0 0.0
0.0 0.0 0.0
0.0 0.0 0.0
0.0 0.0 0.0
0.0 0.0 0.0
0.0 0.0 0.0
0.0 0.0 0.0
0.0 0.0 0.0
0.0 0.0 0.0
0.0 0.0 0.0
0.0 0.0 0.0
0.0 0.0 0.0
0.0 0.0 0.0
0.0 0.0 0.0
0.0 0.0 0.0
0.0 0.0 0.0
0.0 0.0 0.0
0.0 0.0 0.0
0.0 0.0 0.0
0.0 0.0 0.0
0.0 0.0 0.0
0.0 0.0 0.0
0.0 0.0 0.0
0.0 0.0 0.0
0.0 0.0 0.0
0.0 0.0 0.0
0.0 0.0 0.0
0.0 0.0 0.0
0.0 0.0 0.0
0.0 0.0 0.0
0.0 0.0 0.0
0.0 0.0 0.0
0.0 0.0 0.0
0.0 0.0 0.0
0.0 0.0 0.0
0.0 0.0 0.0
0.0 0.0 0.0
0.0 0.0 0.0
0.0 0.0 0.0
0.0 0.0 0.0
0.0 0.0 0.0
0.0 0.0 0.0
0.0 0.0 0.0
0.0 0.0 0.0
0.0 0.0 0.0
0.0 0.0 0.0
0.0 0.0 0.0
0.0 0.0 0.0
0.0 0.0 0.0
0.0 0.0 0.0
0.0 0.0 0.0
0.0 0.0 0.0
0.0 0.0 0.0
0.0 0.0 0.0
0.0 0.0 0.0
0.0 0.0 0.0
0.0 0.0 0.0
0.0 0.0 0.0
0.0 0.0 0.0
0.0 0.0 0.0
0.0 0.0 0.0
0.0 0.0 0.0
0.0 0.0 0.0
0.0 0.0 0.0
0.0 0.0 0.0
0.0 0.0 0.0
0.0 0.0 0.0
0.0 0.0 0.0
0.0 0.0 0.0
0.0 0.0 0.0
0.0 0.0 0.0
0.0 0.0 0.0
0.0 0.0 0.0
0.0 0.0 0.0
0.0 0.0 0.0
0.0 0.0 0.0
0.0 0.0 0.0
0.0 0.0 0.0
0.0 0.0 0.0
0.0 0.0 0.0
0.0 0.0 0.0
0.0 0.0 0.0
0.0 0.0 0.0
0.0 0.0 0.0
0.0 0.0 0.0
0.0 0.0 0.0
0.0 0.0 0.0
0.0 0.0 0.0
0.0 0.0 0.0
0.0 0.0 0.0
0.0 0.0 0.0
0.0 0.0 0.0
0.0 0.0 0.0
0.0 0.0 0.0
0.0 0.0 0.0
0.0 0.0 0.0
0.0 0.0 0.0
0.0 0.0 0.0
0.0 0.0 0.0
0.0 0.0 0.0
0.0 0.0 0.0
0.0 0.0 0.0
0.0 0.0 0.0
0.0 0.0 0.0
0.0 0.0 0.0
0.0 0.0 0.0
0.0 0.0 0.0
0.0 0.0 0.0
0.0 0.0 0.0
0.0 0.0 0.0
0.0 0.0 0.0
0.0 0.0 0.0
0.0 0.0 0.0
0.0 0.0 0.0
0.0 0.0 0.0
0.0 0.0 0.0
0.0 0.0 0.0
0.0 0.0 0.0
0.0 0.0 0.0
0.0 0.0 0.0
0.0 0.0 0.0
0.0 0.0 0.0
0.0 0.0 0.0
0.0 0.0 0.0
0.0 0.0 0.0
0.0 0.0 0.0
0.0 0.0 0.0
0.0 0.0 0.0
0.0 0.0 0.0
0.0 0.0 0.0
0.0 0.0 0.0
0.0 0.0 0.0
0.0 0.0 0.0
0.0 0.0 0.0
0.0 0.0 0.0
0.0 0.0 0.0
0.0 0.0 0.0
0.0 0.0 0.0
0.0 0.0 0.0
0.0 0.0 0.0
0.0 0.0 0.0
0.0 0.0 0.0
0.0 0.0 0.0
0.0 0.0 0.0
0.0 0.0 0.0
0.0 0.0 0.0
0.0 0.0 0.0
0.0 0.0 0.0
0.0 0.0 0.0
0.0 0.0 0.0
0.0 0.0 0.0
0.0 0.0 0.0
0.0 0.0 0.0
0.0 0.0 0.0
0.0 0.0 0.0
0.0 0.0 0.0
0.0 0.0 0.0
0.0 0.0 0.0
0.0 0.0 0.0
0.0 0.0 0.0
0.0 0.0 0.0
0.0 0.0 0.0
0.0 0.0 0.0
0.0 0.0 0.0
0.0 0.0 0.0
0.0 0.0 0.0
0.0 0.0 0.0
0.0 0.0 0.0
0.0 0.0 0.0
0.0 0.0 0.0
0.0 0.0 0.0
0.0 0.0 0.0
0.0 0.0 0.0
0.0 0.0 0.0
0.0 0.0 0.0
0.0 0.0 0.0
0.0 0.0 0.0
0.0 0.0 0.0
0.0 0.0 0.0
0.0 0.0 0.0
0.0 0.0 0.0
0.0 0.0 0.0
0.0 0.0 0.0
0.0 0.0 0.0
0.0 0.0 0.0
0.0 0.0 0.0
0.0 0.0 0.0
0.0 0.0 0.0
0.0 0.0 0.0
0.0 0.0 0.0
0.0 0.0 0.0
0.0 0.0 0.0
0.0 0.0 0.0
0.0 0.0 0.0
0.0 0.0 0.0
0.0 0.0 0.0
0.0 0.0 0.0
0.0 0.0 0.0
0.0 0.0 0.0
0.0 0.0 0.0
0.0 0.0 0.0
0.0 0.0 0.0
0.0 0.0 0.0
0.0 0.0 0.0
0.0 0.0 0.0
0.0 0.0 0.0
0.0 0.0 0.0
0.0 0.0 0.0
0.0 0.0 0.0
0.0 0.0 0.0
0.0 0.0 0.0
0.0 0.0 0.0
0.0 0.0 0.0
0.0 0.0 0.0
0.0 0.0 0.0
0.0 0.0 0.0
0.0 0.0 0.0
0.0 0.0 0.0
0.0 0.0 0.0
0.0 0.0 0.0
0.0 0.0 0.0
0.0 0.0 0.0
0.0 0.0 0.0
0.0 0.0 0.0
0.0 0.0 0.0
0.0 0.0 0.0
0.0 0.0 0.0
0.0 0.0 0.0
0.0 0.0 0.0
0.0 0.0 0.0
0.0 0.0 0.0
0.0 0.0 0.0
0.0 0.0 0.0
0.0 0.0 0.0
0.0 0.0 0.0
0.0 0.0 0.0
0.0 0.0 0.0
0.0 0.0 0.0
0.0 0.0 0.0
0.0 0.0 0.0
0.0 0.0 0.0
0.0 0.0 0.0
0.0 0.0 0.0
0.0 0.0 0.0
0.0 0.0 0.0
0.0 0.0 0.0
0.0 0.0 0.0
0.0 0.0 0.0
0.0 0.0 0.0
0.0 0.0 0.0
0.0 0.0 0.0
0.0 0.0 0.0
0.0 0.0 0.0
0.0 0.0 0.0
0.0 0.0 0.0
0.0 0.0 0.0
0.0 0.0 0.0
0.0 0.0 0.0
0.0 0.0 0.0
0.0 0.0 0.0
VECTORS f float
0.000421348 4.48054e-05 -0.000779557
0.00291777 0.00122799 -0.000168922
-0.000745927 8.43999e-05 0.000448041
0.0 0.0 0.00257231
-8.17972e-05 -0.000524764 -0.000141276
-0.00068508 0.00261325 0.00189156
0.000730383 0.000249525 -2.01029e-05
0.000902005 0.0022793 0.00294326
0.00019974 -0.000917322 0.00091478
0.0 0.0 0.0
-0.00050911 -0.00285804 0.000296047
-0.000485368 -0.000313561 0.000158527
0.000681566 -0.00030886 0.000216021
-0.00731567 -0.00263531 -0.00670198
0.0 0.0 0.0
-0.000664393 0.000852474 0.00369304
0.0323241 -0.0170314 0.00484094
-0.00128261 -0.00507227 -0.0036134
-0.00109329 0.0009275 -0.00152579
-0.0297963 0.0194894 0.00233548
0.00041569 -0.000101563 -0.000604329
0.00120537 0.000652191 -0.000605391
-0.00679694 -0.00913083 -9.78663e-05
0.00295773 0.00331849 -0.00358818
0.00113788 -0.000686489 0.00352583
-0.000105066 -6.35931e-05 -0.000181399
-0.00255763 0.00028883 -0.0057068
0.000121823 -0.00185203 -0.00118797
0.0 0.0 0.0
-0.000985116 0.000477054 0.000990862
0.000675918 0.000284907 0.000806178
-0.000643484 -0.00603398 0.000383155
0.00554548 -0.000906285 -0.00112729
0.00393811 -0.00157213 -0.00838015
7.9893e-07 4.59709e-06 2.18983e-06
0.00024295 -0.00030942 0.00517436
0.000177088 -0.000504153 -0.00103329
-0.00541747 0.00186558 -0.000893635
0.0 0.0 0.0
0.000550251 0.000410563 7.38179e-05
-0.000345176 8.60595e-05 -0.00163068
0.00135817 0.00164551 -0.000382298
0.0 0.0 0.0
-0.00143644 3.8636e-05 -0.000665919
0.00254088 0.00191313 -0.00618362
0.0018155 0.000348584 -0.00179213
-0.00538129 -0.0110375 -0.0195705
-0.000840272 -0.000605508 0.000395056
-0.000556715 0.000632209 -0.000400449
-0.00424598 -0.00424534 0.00367863
0.000108107 4.6514e-05 3.29753e-05
0.000256017 0.000297225 0.00077898
-0.00159462 0.000120242 0.00034992
-0.000502516 0.00242063 -0.00294737
-5.10207e-05 -1.39923e-05 6.15037e-05
0.00102691 0.000171283 0.000315101
0.0 0.0 0.0
0.0243174 0.00398768 0.00314946
-0.00165451 -0.000466032 0.0018981
0.00107668 -0.00664472 0.000540441
0.0132777 -0.00686092 -0.000533671
-0.00131149 0.00867612 -0.00376937
-0.0225676 0.0149226 -0.0224827
-0.00415824 -0.00349655 -0.00163474
-0.00088561 0.000760477 -0.00062159
-0.00978259 0.00169675 -0.0175174
-0.00143154 0.00630475 -0.00589502
-1.23247e-05 0.0 0.0
-0.00842306 0.00609898 -0.0116566
0.0132712 -0.0062213 -0.0145655
0.0102109 -0.00879248 0.00321893
5.10207e-05 1.39923e-05 -6.15037e-05
-0.00361513 -0.0110281 -0.000754221
-0.00637823 0.00418904 -0.00133651
-0.000363082 0.00090087 -0.00288833
0.00559262 -0.00416922 -0.0027266
6.65872e-05 0.000145178 -0.000405049
0.0111227 -0.00145131 0.00128179
0.0179461 -0.011801 -0.00910439
0.00469294 -0.00237938 -0.00990797
1.8129e-05 -0.000303249 -0.000382881
-0.0156431 -0.0470832 -0.0158356
0.0 0.0 0.0
0.000371764 -0.000454257 -0.00196479
0.0113012 -0.010333 0.00726056
8.16301e-05 0.000142235 -0.000258998
-0.000183966 -0.00164611 0.000117234
0.00183848 -0.000980944 0.000949875
6.41109e-05 0.00174627 -0.000566024
0.0 0.0 0.0
0.0 0.0 0.0
-8.94199e-05 -0.00436628 -0.00545254
-0.00517889 -0.0078874 -0.000761704
0.00127304 0.00274557 -0.0356797
-0.00262589 0.00494752 0.000130712
0.000136877 -0.000415513 -0.00120386
0.0 0.0 0.0
0.00427272 0.00235004 -0.00207298
0.0 0.0 0.0
0.00147652 -0.00221855 -0.000829444
0.00616006 0.00431877 0.00841722
0.00269573 0.000412798 -0.00195672
-0.00241993 -0.000696257 0.000148441
0.000947069 -0.00254555 -0.000892372
0.000848119 -0.00665445 -0.00135469
-0.00480296 -0.0098614 -0.00211479
0.0 -3.64922e-05 0.0
0.0 0.0 0.0
-0.0547401 -0.0121964 0.00120032
0.0126392 -0.00967526 0.0233427
0.00967305 0.00277897 -0.000450858
-0.00230246 -0.0001998 -0.00164349
-0.0211114 -0.00927264 -0.00447916
0.0 0.0 0.0
-0.0036534 0.00130944 -0.00845637
0.0121276 -0.0316337 -0.053728
0.00986505 -0.00742244 -0.0140768
-0.000133205 0.00714869 -0.00230452
0.0295686 -0.0143165 -0.0248059
0.00687855 0.0202383 -0.022012
-0.0014208 -0.0144303 -0.00600047
0.00470016 0.00111117 -0.00781527
0.00901609 0.00710869 -0.00577982
-0.00853218 0.015752 -0.0170039
0.0109737 0.012195 0.011558
-0.00365671 0.00962969 0.00119013
-2.61436e-08 2.39677e-05 -3.36338e-06
-0.000102894 2.80973e-05 1.21249e-05
0.0 0.0 0.0
-0.00137364 -0.00164107 -1.24879e-05
0.000102894 -2.80973e-05 -1.21249e-05
-0.0150586 0.00727914 0.00155576
0.000119855 -0.00010016 0.00044879
-0.000154288 -0.00384813 0.00380499
-0.0240875 0.0281871 0.0201954
0.00332747 -0.000479917 -0.00330281
0.00274852 -0.000725525 -0.00949486
-0.002298 -0.00191858 -0.00633619
-0.00233344 -0.00498329 0.00598848
-0.00641893 0.00536452 -0.0253209
0.00516848 -0.0250286 -0.0208562
0.00506809 0.00083896 -0.0019315
0.00527804 -0.000980676 -0.000604576
0.0117893 -0.00356343 0.00445398
-0.00417932 -0.00232547 0.00309527
-0.00535201 0.0276593 0.00063925
-0.00604477 0.00547276 0.00807938
-0.00305395 -0.0023161 0.00428836
-0.00420029 0.00257365 0.000547108
-0.00040013 -0.00081546 0.000460432
0.0 0.0 0.0
-0.000229682 0.000888694 0.00168349
-0.00188244 -0.000520886 -6.64664e-05
-0.00217061 0.00454054 -0.0047728
0.000100316 -0.00312115 -0.00084035
-0.00579647 -0.000887918 0.000975831
-0.00707685 -0.00368925 -0.00123005
0.00319382 -0.0137207 -0.00535694
-0.00103993 0.00822748 -0.00934484
0.00930507 -0.00702201 -0.00121457
-0.00279571 -0.0152418 0.0210719
0.00109077 0.000610644 0.00121486
-0.00485198 0.00187802 -0.0133353
0.0 0.0 0.0
0.00647448 -0.00535306 -0.0138908
0.00101112 -0.0033514 -0.0079334
0.000743762 -0.00168058 -0.0034563
-0.000891591 -0.00256574 0.000849208
0.00507646 0.0102554 -0.0104558
-0.00413358 -0.00261039 0.00421019
0.0111213 -0.0325991 0.0142115
-0.00693281 -0.00767976 -0.0135615
0.00920538 -0.00258936 0.0042869
0.0128277 0.00841872 -0.0134148
-0.00350608 0.000505656 -0.0013638
0.00136599 0.000406477 -0.00164866
-0.00128824 0.00126526 6.9987e-05
-0.00343224 -0.00239616 0.00126564
0.00112982 0.00562257 0.00232891
0.000787349 0.0045733 0.0025703
-0.00337497 0.00542143 -0.00374615
0.0 0.0 0.0
0.00715915 -0.000209582 0.000791885
0.0 0.0 0.0
-0.00585043 -0.00495879 -0.0022856
0.00220769 0.000578367 2.38555e-05
0.00342814 -0.00894093 0.034542
0.000541496 0.00086534 -0.00181748
0.00651913 -0.00113625 -0.00238336
-0.00172101 0.00241732 -0.0027375
-0.0527964 -0.00963462 -0.0212664
-0.000234438 4.49872e-06 3.8585e-05
0.00243251 0.00162992 0.00376322
-0.00226622 0.00473376 0.0031088
-0.0133168 0.000665852 0.0026262
0.00248344 -0.00190802 0.00272091
0.00088528 -0.00227663 0.000178727
-0.000150734 -0.00111227 0.00460349
-0.00844383 0.0038924 -0.000464219
-0.0011811 -0.00217539 0.0024072
-0.0122811 -0.0102753 0.00937704
-0.00161987 0.00370175 0.00347782
3.64563e-05 -0.000242634 0.000235053
0.000194578 0.00157278 -0.00334181
0.0 0.0 0.0
-0.000389265 2.01311e-05 0.00419852
5.82718e-05 -4.36562e-05 -6.72492e-05
0.0112108 0.00545734 0.0172393
-0.00684805 -0.00700088 0.00869662
0.0106414 -0.00370211 0.0010269
0.00338747 -0.00408563 -0.00649686
-0.0343177 0.0286011 0.049421
0.0 0.0 0.0
-0.000381577 0.00119872 1.07205e-05
-0.000889153 -0.0106946 -0.00181412
0.000481555 0.00257167 0.00532911
-0.00759922 0.0141652 0.000576701
0.00459934 -0.00066951 -0.000415656
5.35533e-05 3.29171e-06 0.000322482
-0.000546673 0.00185653 0.00403777
-9.79159e-05 -0.00393446 2.45579e-05
0.0 0.0 0.0
-0.0072831 0.0143783 -0.00077019
0.0 0.0 0.0
0.0113291 -0.012982 -0.00521685
0.001109 0.00350764 -0.00236882
-0.00126793 -0.00373085 -5.14691e-05
0.00574024 0.0253976 0.0118939
0.00282621 -0.00547541 0.0155775
0.0 0.0 0.0
-0.00185713 -0.0152279 0.0073509
0.0273756 0.0230958 0.0282088
0.0554987 0.0380644 -0.00229468
-0.00049652 2.61124e-05 -0.000410494
0.0104594 0.00568623 0.00246457
0.0 0.0 0.0
0.000350593 0.00751347 0.0131935
-0.0349442 0.047353 -0.0315466
-0.0422705 0.0222795 -0.045405
0.000148434 -2.90276e-06 0.000290735
0.00076339 0.00152851 -0.000554398
0.0 0.0 0.0
4.73702e-05 4.34107e-05 4.95805e-05
-0.00050432 0.000325593 8.58516e-06
0.00181328 -0.00474565 0.00128039
-0.00127225 0.000915718 -0.000489093
-0.00132842 -0.00276109 0.000716688
0.0 0.0 0.0
-0.00383662 0.0026402 -0.00192946
0.00385222 0.00086982 -0.00340991
-9.75769e-05 -0.00187901 0.000667743
-0.0111114 -0.0161114 0.047106
-0.0115564 -0.0168335 -0.0110303
-0.0101855 -0.000142119 0.0103094
0.000586339 -0.00535462 -0.00131787
0.0293598 -0.02351 -0.0130221
0.0 0.0 0.0
-5.40821e-05 -4.86929e-05 -0.000339739
-0.0465414 0.069348 0.0234327
0.0012215 1.99413e-05 -1.69711e-05
-0.00102416 0.000326543 0.000333191
-0.024136 0.00613292 0.017335
0.0377756 -0.0186971 0.0543156
-0.000245766 7.79918e-05 -0.000248526
2.91641e-06 2.224e-06 2.74657e-05
0.000669138 -0.00385825 -0.00402403
-4.73702e-05 -4.34107e-05 -4.95805e-05
-0.00220746 -0.00248246 -0.00675475
-0.00186444 6.11355e-05 -0.00331707
-0.00610291 -0.000835391 -0.0162993
0.00107216 0.00209862 0.00578823
3.22367e-05 -0.000922188 -0.000810897
0.0119761 -0.0165742 0.017224
0.00367975 -0.00561868 0.00267704
-0.00859089 0.00345049 0.00201733
-0.00536848 0.00287784 0.000765463
-0.0248857 0.0117141 0.00455303
-6.77936e-05 0.000871591 -0.000978916
-0.00643976 0.000794941 -0.00496122
-0.00410672 0.00136182 -0.00272372
-0.00278873 -0.00196395 -0.00091515
0.0 0.0 0.0
-0.00462517 0.00388514 0.00212588
-0.00319717 -0.00714061 -0.00290882
-0.0013878 -0.0523436 -0.0162835
0.0 0.0 0.0
-0.00657174 0.00349881 -0.00734001
-0.00547532 -0.0033378 -0.0143701
0.028235 -0.0271103 -0.00682931
0.00404644 -0.00479838 0.000189347
0.0054725 0.000591634 -0.00501925
0.0 0.0 0.0
0.0 0.0 0.0
-0.0011061 0.00509104 -0.00660492
0.0 0.0 0.0
0.012261 -0.0379633 0.0014721
-0.00144838 0.00227617 -0.00303251
-0.00109895 0.00520556 -0.00619321
0.0041303 0.00371497 -0.00232319
0.0023104 -0.00569763 0.00786814
0.000518932 0.000743336 -0.00138975
0.0 0.0 0.0
0.0 0.0 0.0
-0.00335065 0.0142209 -0.00950594
0.000193464 -0.0118443 -0.0050839
0.000431394 0.000892483 0.00158959
0.0116345 -0.00918594 -0.0383638
-0.0224149 -0.00235746 0.0134063
0.000486446 -0.00147337 -0.000166798
0.0 0.0 0.0
0.00236225 0.00273978 0.00184006
0.000398186 0.0257615 -0.0290708
-0.000263521 0.00144609 0.000282408
-0.00488321 0.00562164 0.0088048
-0.0058529 0.000995802 0.00069924
0.00354825 0.00828661 -0.00114613
0.0184962 0.018034 -0.0302317
-0.000420817 -0.000485913 -0.00140114
-0.000122955 0.0016435 0.000875257
0.000209081 0.00286461 0.00172994
0.000697446 -0.00148457 0.000183336
-0.00231909 -0.000782926 -5.63923e-05
0.00176169 0.00126715 -0.000611086
0.0 0.0 0.0
0.00473295 -0.00354042 -0.01212
-0.0238269 -0.0118212 -0.0117597
-0.00237427 0.000928584 -0.00387393
0.00250102 0.00359909 -0.0079525
0.000275262 -0.000172227 0.00287195
0.0 0.0 3.6485e-05
-0.000294864 -0.00172087 -0.00548497
0.0 0.0 0.0
0.0 0.0 3.68936e-05
-6.53729e-05 0.000128887 4.56189e-05
-0.000170631 0.0001962 0.000142905
0.0 0.0 0.0
-0.000191582 -0.000431704 -0.000389097
VECTORS omega float
-0.0368689 2.78312 0.933933
1.32131 3.0686 -0.0683181
4.9915 1.50217 6.76247
0.0 0.0 0.0
5.46676 1.48294 -3.18779
0.479732 4.73423 9.82558
1.13663 -0.712155 -1.3963
2.28723 -0.0575706 -2.8953
3.74205 5.69986 6.53843
0.0 0.0 0.0
1.18627 -2.15701 -0.860161
-0.475363 0.583238 -0.266966
2.93139 -1.9749 4.69599
-1.01011 -0.238894 -1.27338
-0.0273546 4.50792 1.32402
-0.723038 -3.02345 -1.20612
0.908397 -1.43546 -0.551346
-1.54657 1.68468 0.119439
-1.79099 0.370371 -0.615849
1.19147 1.28996 -0.778792
-1.51731 -8.74743 -4.5402
-2.49673 -2.55135 -9.58229
0.609151 1.04364 -2.84288
-3.44257 -0.855493 0.0175281
-3.58828 -0.372224 -0.801943
-3.21103 -2.54241 0.405214
-8.35929 -4.05311 2.58362
1.2974 -0.97711 -0.719859
0.0 0.0 0.0
2.37766 2.56376 -1.36867
-2.06314 -0.597113 -0.201504
0.0151415 -0.13881 0.856238
0.679395 0.105361 -0.100008
-0.879106 0.626754 -0.595888
2.64263 -0.29703 0.466897
-4.4945 -0.860337 -1.8735
0.843462 -2.24182 2.1291
-0.0739774 -1.70525 -0.00602747
5.71823 1.76695 -7.30846
0.823704 -0.132669 -0.0943207
0.755386 0.216279 -0.263258
2.27668 -0.0287969 1.51058
-4.88833 0.250114 2.77911
2.76692 0.30975 -0.54189
4.15681 -0.00422443 2.80311
2.14005 -0.315969 4.7318
-1.99933 0.988653 -3.13313
1.48282 -4.1618 6.15753
4.34541 2.26894 4.30763
-0.430273 -7.0542 -0.865252
-1.31297 3.34116 -1.13846
0.43936 -1.69274 -0.810631
2.17197 -0.460178 -2.06021
2.89217 -1.36324 -1.49275
-1.45366e-15 1.01317e-14 1.09911e-15
1.58957 1.03447 1.4553
0.0 0.0 0.0
-3.0462 1.32593 1.27963
-0.930475 -0.723553 -0.0917531
1.54196 3.96896 0.0292305
0.956942 -0.164082 4.95429
0.666806 0.144558 -0.381986
1.74459 1.68362 -1.55013
-1.70576 0.304336 2.40161
-4.51027 -1.35933 -2.65051
-0.672064 -0.206089 -0.0127021
-4.41533 1.4639 -3.2286
0.0 0.0 0.0
-0.766689 0.357071 1.08226
-7.10232 1.35004 -0.826933
1.19023 0.304612 4.16356
-1.45366e-15 1.01317e-14 1.09911e-15
-0.263786 0.547014 2.45728
-2.60785 3.43732 2.86045
1.99036 -5.71018 -6.87355
-0.117092 1.2172 0.649892
-0.350978 -2.20465 -0.812758
-0.104603 -0.838791 -7.58108
0.0586627 0.380761 1.35276
-1.19178 -1.21328 1.2756
0.0888414 -0.0221587 0.0265781
-1.0848 -1.56712 -1.85135
0.0 0.0 0.0
1.43142 1.85418 -2.3573
-4.14696 3.51623 0.187208
-3.01111 0.547675 0.406992
-0.784346 -2.70481 -0.622111
9.22723 -2.19303 4.20983
1.93194 2.06514 -0.0343019
-1.39021 -2.60554 -3.27154
-1.76699 -0.984998 -3.11371
0.318776 -3.96312 1.58536
0.436804 1.6643 2.23201
1.52894 -1.09563 0.258015
-3.77299 1.29318 -0.795507
-0.497135 -0.32793 -0.312424
0.0 0.0 0.0
3.10404 0.440007 1.10859
0.987276 0.540306 2.07772
-0.0982385 2.90605 0.781436
3.13652 -0.479421 3.33959
-0.794344 2.1911 -1.64436
-2.84171 -2.54726 -1.80456
-0.93181 -1.56656 -0.113587
2.65731 7.47911 6.35485
0.889402 -1.1335 -1.14815
0.0 0.0 0.0
0.0 0.0 0.0
-1.38477 -4.2629 1.99166
-2.52866 -1.12243 -0.30601
-0.714546 2.3003 1.41168
-3.01664 -2.45474 0.114806
-0.27755 0.0407303 -6.26999
0.2289 1.45266 3.38743
-2.05642 3.61887 -3.0652
2.66762 -1.65523 2.3197
10.6829 2.96296 -0.99673
-3.08781 -1.88589 -3.01777
-0.749187 0.323101 -1.3568
3.50592 0.599972 3.98934
-0.648778 -1.6233 2.75653
0.716057 5.06786 4.31302
-3.86508 3.16652 -2.96596
-1.14985 -0.0201198 1.04961
3.10227 1.71584 0.651777
-1.05702 -2.27805 1.35014
4.3237 -1.55016 -0.708108
-3.38602 -1.78649 -1.4816
0.0 0.0 0.0
1.24861 -1.66281 -1.03098
-0.0974157 -0.377422 1.15183
6.53969 1.31126 3.87598
0.461546 0.399724 3.51796
-0.198412 2.82414 2.03539
-1.78206 2.51571 -4.91283
-0.172023 1.09015 -0.0401886
-2.443 -1.25418 4.5196
-2.91457 5.42326 0.16964
0.84684 -1.25394 1.77035
-0.0887464 -2.67108 -2.82455
0.211094 1.48787 2.93401
-7.05715 6.12342 -5.86394
-3.89173 3.1338 0.694768
3.13249 -5.21523 -2.43151
4.68782 -4.37986 4.24
-2.40794 0.288283 0.274526
-0.222544 -1.95531 1.21757
-5.71034 -3.42243 -10.0842
2.53647 -3.79031 -6.45716
3.06785 -11.131 -0.633071
-0.695144 -1.36229 -0.90629
-3.7985 0.0470768 -1.50489
-6.93614 1.44291 4.27426
0.0391701 -0.17965 -2.66278
-1.3463 -2.25738 -0.213579
1.61979 5.94639 0.00754353
2.92798 -6.43632 0.734769
2.24643 2.70405 -10.3318
1.2773 6.28613 -4.96442
-1.68535 0.511389 9.46048
-0.283194 0.606142 -2.03757
-3.2588 -3.25564 -0.842199
-0.210234 -0.157986 0.197474
0.955265 -0.0967011 3.44384
-1.31021 -2.47772 0.139486
4.66282 4.68297 3.70117
4.83669 -4.27711 3.41406
-6.31613 -3.74015 -4.90773
1.01287 -0.485255 -2.15685
1.1829 10.4127 8.08242
0.19078 1.90625 -0.523779
1.44229 -0.280115 2.31766
1.03203 1.12298 0.34106
-1.37772 1.88889 -1.27309
0.892281 3.83038 5.92513
-2.13001 1.32524 -1.24044
-0.325129 -0.325099 4.43966e-05
-1.03111 3.37882 -2.73288
4.02562 -1.03928 -0.615897
-4.1999 -1.50969 8.09887
1.28158 -3.54725 0.972129
0.0 0.0 0.0
3.76449 3.40713 -2.67969
-4.32733 -6.1588 -1.30039
-3.60554 3.46758 4.90006
-1.68827 -5.17478 -5.89089
0.436012 3.53059 1.52066
-1.02821 -1.56317 -1.76137
0.0433526 -1.98743 -1.45467
0.305005 -1.65331 -1.34791
1.47381 -1.68375 -1.38606
-1.27157 3.13385 -1.59409
1.68891 1.53094 1.19782
-0.548116 -0.812309 -0.848064
1.28097 0.29894 -1.45431
-1.93443 -1.62875 -0.747203
-2.20902 0.86711 2.67349
0.220332 0.344731 1.58081
-1.78507 1.02376 -1.08102
-0.174292 0.493223 0.028921
3.17294 -2.27624 -1.51524
-1.62587 -1.27468 -0.142427
2.63427 0.427556 3.45301
-2.65231 -2.00313 2.9415
0.619822 0.530088 0.721279
-3.14018 -0.987859 2.16273
0.656935 0.731434 0.1172
2.19415 -0.177981 0.559055
-0.0675056 0.694319 -2.82862
-5.4637 -0.501779 3.33094
-1.03296 1.68671 -1.02126
-3.66587 -4.97347 -1.6354
0.0 0.0 0.0
2.09282 0.183444 2.8025
-0.845003 -0.182639 2.69166
1.44118 0.179135 -0.835512
-0.720682 -0.857132 -0.465199
-4.36825 -0.736951 -1.82813
0.221972 -2.442 -4.34101
-0.329129 1.74431 -0.497957
-1.53779 -7.89515 -2.10077
-1.05143 -3.5779 0.9117
1.11656 -0.599642 -0.113483
0.0 0.0 0.0
1.22689 0.262791 -0.810154
-0.45175 2.35507 1.37245
0.626535 -6.66201 2.77547
-0.565128 -0.87953 -2.84861
4.00042 -6.67236 4.05502
0.901834 0.6567 1.39205
-1.61235 2.66026 1.23647
2.71039 2.10749 -0.0404863
2.1943 3.64809 0.933877
-4.7445 0.433804 -0.378613
-5.20594 -11.1838 1.3512
-3.12316 2.9186 -0.316016
-2.38404 -3.19749 -2.02329
-1.26423 -1.34075 0.784041
-0.711295 -0.670501 0.313777
-1.36427 -1.02134 2.66021
-0.647782 -0.380209 -1.10673
0.836637 0.821873 -1.72991
-3.48008e-16 8.36677e-15 -6.99312e-15
2.24931 -0.155284 3.54538
2.44915 0.00598179 -2.70924
-3.70413 3.62983 3.05574
6.05291 -4.67194 -1.0905
0.0 0.0 0.0
6.65042 8.8834 -10.0941
-0.88245 -0.618612 -1.31502
0.602799 -3.21799 1.78054
1.33131 -2.52481 -2.13924
-4.44993 -7.43817 -3.92699
5.17486 13.2436 7.31324
0.621887 -3.3245 -2.91341
-0.911868 -0.539056 1.16655
0.380053 -3.26214 -0.955014
1.32266 2.43207 -0.398624
1.85037 -0.074819 -1.05211
-8.35699 -7.47985 -1.14232
1.32383 1.95658 1.87715
-2.46707 3.6073 2.9217
2.36177 5.33303 2.24824
2.91137 -2.08014 -3.21216
2.77677 -1.88428 0.422227
-1.58119 -3.79082 -0.739811
-3.48008e-16 8.36677e-15 -6.99312e-15
-3.21747 2.65798 -4.64917
-4.45584 4.16706 17.8882
-1.58434 2.44821 -5.00957
-5.14926 -1.44173 -0.985644
-2.75598 -0.426603 0.078607
-5.52913 1.50178 0.946068
4.0498 2.11375 -1.55909
0.756396 -3.32248 3.88805
-0.978609 1.33065 1.40948
-1.08947 -0.0745748 -1.64197
-7.32911 4.31942 2.8239
-0.525771 -1.68751 0.299533
-1.42243 -4.67654 -0.466319
1.36312 1.51119 -4.77054
5.38782 0.455984 4.67378
1.24999 0.310259 4.47698
2.36056 -5.74409 -6.97484
6.56415 1.47795 -0.465452
-11.7342 1.51089 -2.63496
2.37983 7.44126 -2.60973
-0.203634 -5.55807 -5.47642
5.45432 2.70138 4.4664
0.80465 -0.667225 0.145302
-7.97298 9.32325 -5.76158
1.3725 -1.17499 -0.748912
0.553323 0.709151 -1.39336
0.875676 -4.17862 13.6932
-1.64538 2.82308 5.48356
-5.26007 0.896208 -5.05006
0.383463 0.915112 -3.51149
-0.341403 1.02789 0.221496
1.90547 1.50899 -3.67629
3.35486 1.98986 1.10486
3.31914 -2.54625 -1.54277
-2.41954 -1.54422 -0.655385
0.0 0.0 0.0
-3.30285 2.6651 -0.439103
1.09605 4.82442 2.54693
-1.13917 -0.969381 2.52658
-5.96614 1.93088 1.28312
-0.511224 0.367517 -1.16228
1.93368 4.96975 -1.18222
1.31656 -0.272666 3.21057
-0.15784 2.989 -0.8679
-0.29888 -0.857273 3.44431
-7.85217 -1.37022 1.14951
1.06821 4.88053 -3.82744
-5.41656 0.522842 2.91039
0.32289 -1.46322 -0.134349
3.08919 -1.83594 3.6097
-1.12108 -1.88427 3.73898
-3.04959 -1.43065 -1.22022
2.80161 0.328676 2.45332
-0.00146315 0.0955327 -1.5891
0.677172 -2.03907 -1.2959
-1.8409 0.326768 -2.79459
0.0 0.0 0.0
-1.42673 -1.96403 -1.98129
0.965746 4.22973 6.26625
-1.8287 0.336943 0.316943
0.411698 -2.81684 -4.00185
9.23498 -0.690478 -0.0521657
0.0 0.0 0.0
0.840681 -0.759849 -3.99176
0.0 0.0 0.0
0.0 0.0 0.0
7.27778 0.797695 -1.50182
3.09245 1.57738 1.77025
0.0 0.0 0.0
0.822498 0.178499 -0.595685
VECTORS v float
0.0251053 0.00118538 0.00428821
0.0273889 0.00919758 -0.00286863
0.0158719 -0.0309084 -0.0214601
0.0 0.0 0.000753894
0.00890306 -0.0324742 0.00424857
0.0270908 0.00025674 0.0157836
-0.00750325 -0.0055196 -0.00317563
-0.00140711 -0.0231149 0.00637581
0.0332021 -0.0224027 0.00573562
0.0 0.0 0.0
0.00975351 -0.0264746 -0.0124052
0.0203129 0.0146859 -0.004196
-0.00771229 0.00115379 -0.0124547
-0.0259231 -0.00153606 -0.017921
0.0211214 0.000164808 -0.000108575
0.0107419 0.00713451 -0.00643062
-0.0155561 -0.00287972 -0.00640344
0.0138616 0.0291681 -0.0265661
0.00679918 -0.0594237 -0.00258325
-0.0223912 0.00439396 -0.0114946
0.0241953 0.0108668 0.00782488
0.0486028 -0.00152271 0.0280162
-0.0158299 0.0191762 -0.0310802
-0.00427579 0.0040031 0.00748952
-0.0048311 0.0067483 -0.0396153
0.00505506 -0.00547672 0.00642366
0.00062066 -0.00326411 -0.0619691
0.00637452 0.0138606 -0.0117329
0.0 0.0 0.0
-8.47553e-05 -0.0239434 -0.0105391
0.00615235 -0.0142322 -0.0121609
0.00366158 0.0270933 -0.000327685
-0.000628393 -0.00611914 -0.00720544
0.0100665 -0.0147839 -0.0111345
0.00114689 -0.00412758 -0.0155282
0.0153053 0.00349904 -0.0383666
0.0125429 -0.00376744 -0.00491307
-0.0285169 -0.00217074 -0.00757056
0.0263785 0.0114529 0.0308739
-0.0152525 -0.022851 0.00409055
-0.000304266 -0.00151595 -0.00211532
9.60038e-05 -0.00437739 0.0214818
0.0576863 0.00723991 0.0291587
-0.0046485 -0.021256 0.0273294
0.00502866 0.0174219 -0.00494901
0.000335599 0.00712735 0.0067667
0.0101961 0.00463584 -0.0024229
0.0184658 0.0157727 0.0137503
0.0117972 0.00778477 -0.0165721
0.0173313 -0.0498341 6.65293e-05
0.0106863 0.0217091 0.002224
-0.0172721 -0.02008 -0.00110471
-0.029461 0.017081 -0.04074
-0.0130667 0.00267603 -0.0292432
0.00243709 0.000668366 -0.00293783
0.00774029 -0.00124318 -0.00919029
0.0 0.0 0.0
-0.00305907 0.0119885 -0.00421191
-0.00565015 -0.0156489 0.00116682
-0.0144324 -0.00442834 -0.0141085
0.00471962 0.0152763 -0.0333402
0.00477223 -0.0154723 0.00315097
0.0147195 -0.0212075 -0.00407448
0.0316361 -0.01683 -0.0227246
-0.0126381 -0.00490679 0.0301184
0.00552857 -0.00136531 0.00105822
0.022547 0.0096122 0.00278859
0.00386014 0.0 0.0
-0.00228963 0.00602419 -0.0278068
-0.0345902 0.0235308 -0.00898961
0.00272048 0.00929256 -0.0264565
-0.00243709 -0.000668366 0.00293783
-0.0173813 -0.0208176 0.00886925
-0.0270985 0.0195021 -0.0200164
0.00243024 0.012864 -0.013359
0.0105122 -0.0205489 0.00770806
0.0142716 -0.00161471 -0.00177877
-0.00516568 0.0104666 0.00102424
0.0110119 -0.00738302 0.0006799
-0.00739567 -0.00912352 -0.0052579
0.001759 0.00692203 0.000695097
-0.00930793 0.00955418 -0.0133207
0.0 0.0 0.0
-0.0141653 -0.00298205 -0.0084891
-0.0152111 -0.0351053 -0.0227766
0.00333496 -0.00504997 0.0313188
0.00649556 0.00758442 -0.00524489
0.0164539 0.00568814 0.00613466
0.0164369 0.0185525 -0.00376899
0.00263956 0.00749489 -0.00682914
0.0380794 0.032834 -0.00828202
-0.0196711 0.00884612 0.00302718
0.0561702 0.0260706 -0.0362939
-0.00547885 0.0150413 -0.0126782
0.0462417 0.0543734 -0.0269227
-0.0110191 -0.00922605 -0.0152532
0.0 0.0 0.0
-0.0211725 -0.000703544 -0.0176109
-0.00498141 0.000918204 0.00218114
-0.038699 -0.00300663 0.0043379
0.00191117 0.0199408 0.00240749
-0.01609 -0.00485088 0.00109766
-0.0170709 -0.00600392 0.0270495
0.00137055 -0.00168586 0.010366
-0.00935779 0.0154085 0.0059192
-0.00192376 0.00901457 -0.00513408
0.0 0.00386548 0.0
0.0 0.0 0.0
-0.0244736 0.0130409 -0.014962
0.00354284 -0.021016 0.0112125
0.00760038 -0.0232574 -0.00597799
0.0195649 -0.0167168 0.00656839
0.0360933 0.0217677 -0.0203603
0.00878146 -0.00166555 0.0001175
-0.014865 0.00626582 0.0035069
-0.00604562 -0.0131478 -0.0142811
0.00102077 0.0240801 -0.00755196
0.0530909 0.0339682 -0.0136155
0.0247047 -0.000719749 -0.00378711
0.0320231 0.0331845 -0.00739499
0.0137217 -0.0202867 -0.0423682
0.00283819 0.0109967 -0.00561029
0.0272229 0.0527322 -0.000943631
-0.0275498 0.0185052 -0.00438876
-0.0132512 0.0273855 -0.00231341
-0.0457555 0.00870031 -0.00177859
-0.0128238 -0.0271423 0.0136444
0.00373104 -0.00573203 0.0237138
0.0 0.0 0.0
-0.0212335 -0.0242029 0.0133757
-0.00398703 -0.00135263 0.00739241
-0.0339338 0.0533922 0.025964
-0.0141661 0.0186833 0.0103636
0.019012 0.00139705 0.0111023
-0.00402046 0.0446247 0.0235387
-0.00231999 0.00173064 0.000480145
0.0244112 0.00451683 -0.00899316
-0.0112817 0.0126725 -0.00902156
0.0312808 0.015157 0.00880312
0.0151614 0.0142531 -0.00254348
0.01083 0.0163071 -0.0119175
0.0202275 0.00989354 -0.0102941
0.0274912 -0.0063796 -0.0275232
0.0417968 -0.00473642 0.0270369
-0.0473869 -0.0203326 -0.0209049
-0.0148569 0.0224587 -0.0175275
0.0153036 0.0124952 -0.0392003
-0.0494934 0.0081424 -0.0437135
-0.0137022 0.0181184 0.00719361
-0.00436576 -0.0067288 -0.0184153
-0.010532 0.0067229 -0.00203907
-0.00339855 0.00201587 0.000609891
0.0230102 -0.0119394 0.0362374
0.0285525 -0.0137324 0.0135315
0.00196705 0.00664885 -0.0124873
-0.026607 0.00723265 -0.00978224
-0.0203726 0.0141142 -0.0146068
0.00799899 -0.0349436 0.0186557
0.00510987 0.0315711 -0.01795
0.0195933 -0.0342369 0.00928011
-0.0190684 -0.0340157 -0.00259399
0.0033257 0.0218796 0.015023
0.0316636 -0.00271923 0.00653697
0.0109852 -0.00948062 -0.0204382
0.00828831 0.0259208 -0.0255142
-0.00464944 0.00844949 -0.00367672
0.0157983 0.0285801 0.00296916
0.000158021 0.0151291 -0.0162172
-0.0118637 -0.00726297 -0.014375
-0.0330008 0.0162436 -0.0119813
0.00658456 0.00723892 -0.0260266
-0.00212607 0.000969814 0.0112878
-0.00458638 0.0039021 -0.0101764
0.00413738 0.0070364 0.000341706
-0.014355 0.0114549 0.0224113
0.00788064 0.00654432 -0.0119465
-0.00380924 0.0038127 -0.00192784
-0.0343498 0.0077316 -0.0110221
0.0192562 0.0139328 -0.00832444
-0.0375079 0.0332117 -0.0176621
0.0155103 0.0299888 0.011061
0.0 0.0 0.0
0.00356229 -0.0164479 -0.0208445
0.000682734 -0.00236371 0.0406632
0.0106218 0.0161048 0.0100004
-0.0179048 0.0294173 -0.0177237
0.0221485 0.0340743 0.0267937
0.0181046 -0.0181028 -0.0184395
0.0110898 0.0323684 -0.00701831
0.0282013 -0.0112133 0.0202252
0.011003 -0.0136259 -0.0143335
0.0336685 0.0134884 0.00260388
-0.0136962 -0.00547165 -0.0113634
-0.0111238 0.00339423 -0.0193913
0.0211567 0.0212597 -0.0184748
-0.0218019 0.00343597 -0.00611164
0.0134921 0.0125904 -0.0110303
0.00885758 0.0188998 -0.00739889
-0.0113131 -0.00307867 0.0199694
-0.00104889 -7.70178e-05 0.0185889
0.00429319 0.00613149 -0.00595444
-0.00517509 0.00595048 0.00565157
-0.0200325 0.00341369 0.0152282
-0.0171028 0.00591332 -0.0152469
-0.00821445 0.00380538 0.00425263
0.00603968 0.00633961 0.000493644
-0.00580427 0.00422842 0.00619141
-0.0134838 0.00291784 -0.000552436
0.0381581 0.0148501 0.00697874
0.0176008 -0.0128497 -0.0301461
0.00809429 -0.0181034 -0.00924482
-0.0438408 0.0206487 -0.0102795
0.0 0.0 0.0
-0.00839834 -0.00745048 -0.0168902
0.0126413 -0.00597868 0.00961241
-0.0156506 0.00387957 -0.00731209
0.000142173 0.00164101 -0.00832793
0.000213183 0.00898285 -0.00877992
-0.00508 0.0171929 0.0112815
-0.0015531 -0.00165529 -0.00478162
-0.0203131 -0.00780261 -0.0420108
0.00198374 -0.00279403 -0.00879622
-0.0358613 0.0233972 -0.00686781
0.0 0.0 0.0
0.00840779 0.0121734 0.0108001
-0.0111799 -0.00152486 -0.0133492
-0.0297227 0.0276256 -0.0133643
-0.0163369 0.0216125 0.00597124
0.0265509 0.0047922 0.0314812
0.0134692 0.00793477 -0.0111147
0.00695127 -0.0070645 -0.00353648
-0.0454995 0.0270492 0.0224902
0.0163929 0.015118 0.0194427
0.00185127 0.0143741 -0.00746752
-0.0330975 0.0339652 0.014474
-0.0350097 0.0342971 -0.0178137
0.00943093 0.0294247 0.0179163
-0.00965642 0.0226719 -0.000739928
-0.00425113 0.00296617 -0.00329661
0.00111267 0.0262999 0.0046047
0.000509021 -0.00857815 0.00251479
0.00184667 0.0148461 0.00359334
-0.00226181 -0.00207276 -0.00236735
-0.026919 0.00722208 0.003925
0.0192931 0.00668849 0.00114366
-0.0638934 -0.0150306 0.00970616
-0.0530939 0.00681402 0.0149539
0.0 0.0 0.0
-0.00814215 -0.0831175 0.0273298
-0.0212918 -0.0113861 0.0106892
0.0259137 0.0173358 0.0260167
0.00757829 -0.0180862 0.0222225
-0.0122298 0.0137476 -0.0263189
-0.0131605 0.014578 0.00434392
0.0127745 -0.0111248 -0.000180346
-0.0204333 0.0359303 0.0188009
-0.0200308 -0.000774049 0.0243865
-0.00300346 0.00464424 0.019454
-0.0320977 0.0351106 0.0223166
-0.00614296 0.00669041 -0.0438994
-0.0132612 0.00328245 0.00650614
-0.0223498 0.0358851 -0.00480246
0.00817052 0.00667682 -0.0211028
-0.0140845 0.0172561 0.0173425
0.0213836 0.00361587 -0.0141788
-0.00660867 0.00209283 0.0201417
0.00226181 0.00207276 0.00236735
0.0512648 -0.023269 0.0128072
-0.00689689 -0.0370005 -0.0276726
0.0364587 -0.0186173 -0.0252113
0.00937561 -0.00536318 0.0210203
-0.000709504 0.0064753 0.0121038
-0.0140607 0.0283924 0.00428291
-0.0147033 0.0283336 0.00752626
-0.016161 0.0266454 0.00473253
-0.00108231 -0.00316609 0.00924682
-0.0351427 0.052475 0.0269775
-0.0141129 0.0548955 -0.0054803
0.0031681 -0.00598919 0.00426103
-0.0205691 0.0070079 -0.00716989
-0.0028998 -0.0297022 -0.00644382
-0.00602086 0.00627506 0.0476173
-0.0151804 -0.0139242 0.00365067
-0.0151258 0.000633703 0.000888061
-0.0133803 -0.0258794 0.0419669
-0.0074118 0.0238027 0.0133539
-0.00659218 -0.017472 0.0382119
0.00878793 -0.00149766 0.0171195
-0.00225132 0.0395771 0.0127904
-0.0622403 -0.0114269 0.023133
0.062056 0.0362535 -0.0225976
-0.00173985 0.00812844 0.0032355
-0.00362775 0.00383504 0.000427236
0.0383611 0.00985326 -0.0112538
0.0212996 0.00875882 0.00215076
-0.00291983 0.0504165 0.00895254
0.017729 -0.00490124 -0.0153506
-0.0133088 1.75422e-06 0.0141719
0.0230034 0.0495516 -0.0272586
-0.0241168 0.0140362 0.0434746
0.0275777 0.00755787 0.00373504
0.004519 -0.00712836 9.09543e-05
0.0 0.0 0.0
-0.0169645 0.0295571 0.0125666
-0.0246744 0.00289975 0.00854597
0.00417355 -0.0106706 -0.00516038
0.00480059 -0.0191831 0.0487134
-0.0306412 -0.0169137 0.0102488
-0.0213549 -0.0233895 0.0116732
0.00276706 0.00696644 0.0248558
0.0258337 0.0229981 0.019477
0.0200939 0.00855818 -0.00904808
-0.00202481 0.0226506 0.013138
-0.00206366 0.00563723 0.00476149
0.00673788 0.0271539 -0.00495066
-0.0170409 0.00640753 0.0246607
0.015145 0.0432166 0.00945944
0.00681391 0.00559963 0.00581673
-0.00574585 0.0131147 0.00028525
-0.0119313 0.0230151 0.0437042
-0.00761488 0.0119755 -0.00222433
0.00835278 0.0053257 -0.00962243
-0.00529475 -0.010832 0.00221708
0.0 0.0 0.0
0.0181772 0.00861915 -0.0103062
-0.0243523 0.00546197 0.0145228
-0.00161431 -0.0171184 -0.00881629
0.0166361 0.00359079 -1.97271e-05
0.00225613 0.0170798 0.0150939
0.0 0.0 -0.00386549
0.00525382 0.00933773 -0.00758405
0.0 0.0 0.0
0.0 0.0 -0.00386538
-0.00392936 0.0393147 -0.00640578
-0.0106339 0.0124792 0.00743536
0.0 0.0 0.0
0.002568 0.00545204 0.00518464
SCALARS radius float 1
LOOKUP_TABLE default
0.0058743
0.0058743
0.0058743
0.0058743
0.0058743
0.0058743
0.0058743
0.00939887
0.0058743
0.0058743
0.0058743
0.0058743
0.0058743
0.0058743
0.0058743
0.00939887
0.00939887
0.00939887
0.00939887
0.0058743
0.0058743
0.0058743
0.00939887
0.00939887
0.0058743
0.0058743
0.0058743
0.00939887
0.0058743
0.0058743
0.00939887
0.00939887
0.00939887
0.00939887
0.0058743
0.0058743
0.0058743
0.0058743
0.0058743
0.0058743
0.0058743
0.00939887
0.0058743
0.00939887
0.0058743
0.0058743
0.00939887
0.0058743
0.0058743
0.00939887
0.0058743
0.0058743
0.00939887
0.0058743
0.0058743
0.0058743
0.0058743
0.0058743
0.00939887
0.0058743
0.0058743
0.00939887
0.00939887
0.00939887
0.0058743
0.00939887
0.00939887
0.0058743
0.00939887
0.00939887
0.00939887
0.0058743
0.00939887
0.0058743
0.0058743
0.00939887
0.0058743
0.0058743
0.00939887
0.00939887
0.0058743
0.00939887
0.0058743
0.0058743
0.0058743
0.0058743
0.00939887
0.0058743
0.0058743
0.0058743
0.0058743
0.0058743
0.00939887
0.00939887
0.0058743
0.0058743
0.0058743
0.00939887
0.0058743
0.0058743
0.0058743
0.0058743
0.00939887
0.0058743
0.0058743
0.0058743
0.0058743
0.0058743
0.00939887
0.00939887
0.0058743
0.0058743
0.00939887
0.0058743
0.0058743
0.00939887
0.0058743
0.0058743
0.00939887
0.00939887
0.00939887
0.0058743
0.0058743
0.00939887
0.00939887
0.00939887
0.0058743
0.0058743
0.0058743
0.0058743
0.0058743
0.0058743
0.0058743
0.0058743
0.00939887
0.00939887
0.00939887
0.0058743
0.0058743
0.00939887
0.00939887
0.0058743
0.0058743
0.0058743
0.0058743
0.0058743
0.00939887
0.0058743
0.0058743
0.0058743
0.0058743
0.0058743
0.0058743
0.00939887
0.00939887
0.0058743
0.0058743
0.0058743
0.0058743
0.0058743
0.00939887
0.0058743
0.00939887
0.0058743
0.0058743
0.0058743
0.0058743
0.0058743
0.00939887
0.0058743
0.00939887
0.00939887
0.0058743
0.0058743
0.0058743
0.0058743
0.0058743
0.00939887
0.0058743
0.0058743
0.0058743
0.0058743
0.0058743
0.0058743
0.0058743
0.0058743
0.00939887
0.0058743
0.00939887
0.0058743
0.00939887
0.00939887
0.00939887
0.00939887
0.00939887
0.00939887
0.0058743
0.00939887
0.00939887
0.0058743
0.0058743
0.0058743
0.0058743
0.0058743
0.0058743
0.0058743
0.0058743
0.00939887
0.00939887
0.0058743
0.00939887
0.00939887
0.0058743
0.0058743
0.00939887
0.0058743
0.00939887
0.0058743
0.0058743
0.0058743
0.0058743
0.0058743
0.00939887
0.0058743
0.00939887
0.00939887
0.0058743
0.00939887
0.0058743
0.00939887
0.00939887
0.00939887
0.00939887
0.0058743
0.0058743
0.0058743
0.00939887
0.00939887
0.00939887
0.0058743
0.0058743
0.0058743
0.0058743
0.00939887
0.00939887
0.0058743
0.0058743
0.0058743
0.0058743
0.0058743
0.00939887
0.00939887
0.00939887
0.0058743
0.00939887
0.00939887
0.0058743
0.0058743
0.00939887
0.0058743
0.0058743
0.00939887
0.0058743
0.0058743
0.0058743
0.0058743
0.0058743
0.0058743
0.0058743
0.00939887
0.0058743
0.0058743
0.00939887
0.0058743
0.00939887
0.0058743
0.0058743
0.0058743
0.00939887
0.0058743
0.0058743
0.0058743
0.00939887
0.0058743
0.00939887
0.0058743
0.0058743
0.00939887
0.00939887
0.00939887
0.0058743
0.0058743
0.0058743
0.0058743
0.0058743
0.00939887
0.0058743
0.00939887
0.00939887
0.00939887
0.0058743
0.0058743
0.00939887
0.00939887
0.00939887
0.00939887
0.00939887
0.0058743
0.0058743
0.0058743
0.00939887
0.00939887
0.0058743
0.00939887
0.00939887
0.00939887
0.00939887
0.0058743
0.0058743
0.0058743
0.0058743
0.0058743
0.0058743
0.0058743
0.00939887
0.0058743
0.00939887
0.0058743
0.0058743
0.0058743
0.0058743
0.0058743
0.0058743
0.0058743
0.0058743
0.0058743
0.0058743
SCALARS type float 1
LOOKUP_TABLE default
1.0
1.0
1.0
1.0
1.0
1.0
1.0
1.0
1.0
1.0
1.0
1.0
1.0
1.0
1.0
1.0
1.0
1.0
1.0
1.0
1.0
1.0
1.0
1.0
1.0
1.0
1.0
1.0
1.0
1.0
1.0
1.0
1.0
1.0
1.0
1.0
1.0
1.0
1.0
1.0
1.0
1.0
1.0
1.0
1.0
1.0
1.0
1.0
1.0
1.0
1.0
1.0
1.0
1.0
1.0
1.0
1.0
1.0
1.0
1.0
1.0
1.0
1.0
1.0
1.0
1.0
1.0
1.0
1.0
1.0
1.0
1.0
1.0
1.0
1.0
1.0
1.0
1.0
1.0
1.0
1.0
1.0
1.0
1.0
1.0
1.0
1.0
1.0
1.0
1.0
1.0
1.0
1.0
1.0
1.0
1.0
1.0
1.0
1.0
1.0
1.0
1.0
1.0
1.0
1.0
1.0
1.0
1.0
1.0
1.0
1.0
1.0
1.0
1.0
1.0
1.0
1.0
1.0
1.0
1.0
1.0
1.0
1.0
1.0
1.0
1.0
1.0
1.0
1.0
1.0
1.0
1.0
1.0
1.0
1.0
1.0
1.0
1.0
1.0
1.0
1.0
1.0
1.0
1.0
1.0
1.0
1.0
1.0
1.0
1.0
1.0
1.0
1.0
1.0
1.0
1.0
1.0
1.0
1.0
1.0
1.0
1.0
1.0
1.0
1.0
1.0
1.0
1.0
1.0
1.0
1.0
1.0
1.0
1.0
1.0
1.0
1.0
1.0
1.0
1.0
1.0
1.0
1.0
1.0
1.0
1.0
1.0
1.0
1.0
1.0
1.0
1.0
1.0
1.0
1.0
1.0
1.0
1.0
1.0
1.0
1.0
1.0
1.0
1.0
1.0
1.0
1.0
1.0
1.0
1.0
1.0
1.0
1.0
1.0
1.0
1.0
1.0
1.0
1.0
1.0
1.0
1.0
1.0
1.0
1.0
1.0
1.0
1.0
1.0
1.0
1.0
1.0
1.0
1.0
1.0
1.0
1.0
1.0
1.0
1.0
1.0
1.0
1.0
1.0
1.0
1.0
1.0
1.0
1.0
1.0
1.0
1.0
1.0
1.0
1.0
1.0
1.0
1.0
1.0
1.0
1.0
1.0
1.0
1.0
1.0
1.0
1.0
1.0
1.0
1.0
1.0
1.0
1.0
1.0
1.0
1.0
1.0
1.0
1.0
1.0
1.0
1.0
1.0
1.0
1.0
1.0
1.0
1.0
1.0
1.0
1.0
1.0
1.0
1.0
1.0
1.0
1.0
1.0
1.0
1.0
1.0
1.0
1.0
1.0
1.0
1.0
1.0
1.0
1.0
1.0
1.0
1.0
1.0
1.0
1.0
1.0
1.0
1.0
1.0
1.0
1.0
1.0
1.0
1.0
1.0
1.0
1.0
1.0
1.0
1.0
1.0
1.0
1.0
1.0
1.0
1.0
1.0
SCALARS id float 1
LOOKUP_TABLE default
138.0
304.0
141.0
297.0
293.0
325.0
285.0
10.0
241.0
126.0
207.0
240.0
140.0
197.0
258.0
50.0
92.0
98.0
60.0
154.0
188.0
298.0
106.0
80.0
183.0
277.0
171.0
41.0
180.0
213.0
23.0
58.0
32.0
6.0
327.0
291.0
174.0
158.0
128.0
264.0
234.0
89.0
263.0
37.0
328.0
331.0
48.0
329.0
172.0
88.0
164.0
200.0
9.0
305.0
274.0
186.0
135.0
257.0
40.0
173.0
246.0
61.0
119.0
70.0
225.0
122.0
38.0
260.0
121.0
64.0
84.0
288.0
81.0
193.0
205.0
47.0
149.0
192.0
102.0
34.0
229.0
94.0
143.0
198.0
278.0
137.0
85.0
227.0
199.0
321.0
259.0
130.0
62.0
79.0
169.0
127.0
265.0
12.0
184.0
273.0
142.0
232.0
72.0
230.0
247.0
163.0
295.0
292.0
17.0
44.0
314.0
159.0
73.0
195.0
153.0
100.0
322.0
216.0
2.0
30.0
35.0
239.0
275.0
103.0
66.0
13.0
144.0
222.0
296.0
252.0
160.0
238.0
203.0
212.0
22.0
75.0
49.0
228.0
249.0
55.0
99.0
319.0
156.0
245.0
301.0
308.0
105.0
201.0
217.0
276.0
248.0
253.0
155.0
8.0
18.0
250.0
294.0
233.0
133.0
152.0
31.0
175.0
33.0
208.0
147.0
269.0
317.0
267.0
107.0
204.0
24.0
19.0
157.0
236.0
324.0
306.0
151.0
93.0
165.0
290.0
261.0
145.0
286.0
220.0
280.0
333.0
101.0
182.0
77.0
146.0
82.0
4.0
118.0
45.0
69.0
26.0
221.0
117.0
97.0
237.0
336.0
326.0
307.0
132.0
210.0
310.0
181.0
65.0
5.0
206.0
108.0
111.0
272.0
161.0
115.0
242.0
95.0
166.0
179.0
224.0
302.0
231.0
46.0
185.0
39.0
29.0
189.0
68.0
282.0
28.0
83.0
104.0
25.0
279.0
134.0
337.0
3.0
74.0
42.0
177.0
303.0
202.0
124.0
51.0
114.0
311.0
167.0
148.0
251.0
300.0
14.0
112.0
91.0
194.0
116.0
53.0
309.0
136.0
56.0
235.0
176.0
20.0
281.0
196.0
330.0
215.0
218.0
131.0
271.0
21.0
191.0
315.0
27.0
255.0
52.0
223.0
190.0
123.0
76.0
139.0
162.0
332.0
96.0
335.0
71.0
318.0
170.0
43.0
54.0
63.0
262.0
270.0
209.0
268.0
168.0
78.0
214.0
59.0
7.0
113.0
334.0
316.0
86.0
15.0
120.0
87.0
67.0
178.0
125.0
219.0
16.0
110.0
243.0
90.0
11.0
36.0
1.0
312.0
226.0
150.0
256.0
284.0
323.0
211.0
109.0
320.0
57.0
254.0
289.0
266.0
187.0
299.0
129.0
283.0
287.0
313.0
244.0

