# vtk DataFile Version 2.0
Generated by lpp.py
ASCII
DATASET POLYDATA
POINTS 337 float
-0.0129306 -0.039921 0.00609717
0.00434686 -0.0353626 0.00618276
0.0417158 -0.0336118 0.00631704
-0.0181161 -0.027294 0.00626625
-0.0075141 -0.0184861 0.00616963
0.0361529 -0.0214181 0.00607227
0.0144823 -0.0120118 0.00642459
0.00555958 0.00129356 0.00604725
0.0177955 0.00152368 0.00901346
-0.0316047 0.012597 0.00627685
-0.00599661 0.0101993 0.00665787
-0.0436846 0.016079 0.00737914
-0.00324407 0.0225267 0.00631414
0.0437099 0.0210609 0.00681362
0.0158033 0.0337488 0.00617408
0.0434714 0.0406809 0.00872505
0.00575889 0.0413709 0.00612787
0.0114151 -0.0436947 0.0131098
-0.0288357 -0.0400677 0.00996977
0.0256143 -0.035987 0.0101873
-0.00639601 -0.0302834 0.0173014
0.0128392 -0.0256939 0.0111982
-0.0332403 -0.0205181 0.0107269
-0.0176799 -0.0178625 0.0154731
0.0439133 -0.0201433 0.015656
0.00224059 -0.00920845 0.0178232
0.0298615 -0.00858905 0.0136961
-0.0400064 -0.00164958 0.00998462
-0.0175404 -0.00233237 0.00978881
-0.0275617 0.00720367 0.0186573
0.0311167 0.0110296 0.00995895
-0.0169451 0.0204876 0.0116934
0.0118178 0.0169084 0.0100121
0.00618341 0.0317357 0.0139392
0.0301394 0.030823 0.0132052
-0.0369256 0.0400647 0.00994287
-0.0154228 0.0367631 0.0101141
-0.00156365 0.0438168 0.0160985
0.0127183 0.0434759 0.0170097
0.0022228 -0.0436983 0.0218371
0.0300028 -0.0438292 0.024236
-0.0422142 -0.0353584 0.0241664
-0.0201635 -0.0399811 0.0281098
0.0106303 -0.0342993 0.0214876
0.0058586 -0.0232485 0.0252091
0.0219842 -0.0230233 0.0252135
0.0401457 -0.0313564 0.0266628
0.0382744 -0.0151412 0.0260788
-0.043696 -0.0135277 0.021277
-0.0286968 -0.00773051 0.0256214
-0.0124788 -0.00579047 0.0247591
0.0181905 0.00284267 0.0253435
0.0435594 -0.00409351 0.0231183
-0.0409625 0.00851899 0.0225885
-0.0123061 0.010517 0.0241304
0.0029838 0.00703405 0.0194986
0.0437233 0.00850167 0.0230708
-0.0335362 0.0225482 0.0191358
0.0175371 0.0226114 0.0242178
0.0290105 0.0174353 0.0249134
0.0409964 0.0201784 0.0192702
-0.0267909 0.0396743 0.0272856
-0.042715 0.0436964 0.0265401
-0.0110667 0.0438132 0.0250748
0.0243627 0.0437098 0.0219165
0.0370491 0.0438647 0.0200084
-0.000313702 -0.0336683 0.036038
-0.0402001 -0.0205582 0.0370027
-0.0142556 -0.0198989 0.0325427
0.0127493 -0.0139324 0.0355884
-0.0438152 -0.00569029 0.0312818
-0.00166773 -0.00499187 0.0369256
0.0437061 -0.000141871 0.0363461
-0.0269089 0.0131143 0.0306273
0.0335762 0.00470427 0.0306844
0.00469337 0.0155346 0.0334414
0.0390075 0.0157686 0.0330355
-0.0437879 0.0312554 0.0283699
-0.00934958 0.0238117 0.0329484
-0.0132971 0.0354439 0.0354749
0.00186544 0.0348375 0.0292298
0.0207816 0.0337979 0.0288301
0.0400409 0.0319042 0.0306631
-0.0362019 -0.0399865 0.0401286
-0.0157312 -0.0404112 0.0439048
0.0185309 -0.0400615 0.03816
-0.0258167 -0.0253448 0.0422015
0.0301685 -0.0289981 0.039058
0.0404524 -0.0240823 0.0442393
0.00388596 -0.0191732 0.0432728
-0.0438061 -0.00638569 0.0441412
0.0285965 -0.0090751 0.0379674
0.0437448 -0.0119927 0.0434553
-0.0200523 0.0022778 0.0407614
0.0121781 0.00309379 0.0404289
-0.0400511 0.0085241 0.0388377
0.0213264 0.0126626 0.0382284
0.0438709 0.0197098 0.0458748
-0.0422028 0.0249893 0.0394346
-0.0223734 0.0230487 0.0426488
-0.0380267 0.0370275 0.0390252
0.0153959 0.0402369 0.0428457
-0.0280747 0.0438672 0.0429959
0.031236 0.0438146 0.0406479
0.043772 0.0437196 0.0413012
-0.0438427 -0.0437239 0.0539372
0.00555199 -0.0439497 0.0469835
-0.000360334 -0.0326348 0.0524183
0.0392701 -0.0399494 0.0480604
-0.0098004 -0.0261373 0.0471097
0.0221224 -0.0224642 0.0515315
-0.032612 -0.00487643 0.0494701
-0.0155157 -0.0124697 0.0541771
0.000922652 -0.00722005 0.0527357
0.0436711 -0.00584896 0.0552473
0.0169811 -0.00342933 0.05436
-0.00148457 0.00874815 0.0514501
0.0153985 0.0120911 0.0495888
0.033343 0.00751558 0.0481573
-0.0400025 0.020047 0.0552914
-0.00922238 0.0236762 0.0528822
0.00824682 0.0258028 0.0547775
0.0313056 0.0296049 0.0486035
-0.00409064 0.040079 0.0481357
0.042973 0.0409523 0.0557328
-0.0436396 0.0437193 0.0480794
-0.0336062 -0.0439633 0.0611581
-0.0123311 -0.0428562 0.0632405
0.000284538 -0.0438161 0.0582228
-0.0232295 -0.032698 0.0563061
0.0162508 -0.0401781 0.0586145
0.0289902 -0.0319783 0.0639813
0.0436402 -0.0371002 0.0643105
-0.043683 -0.0311061 0.056822
-0.00905896 -0.0276025 0.061955
-0.0357211 -0.0144258 0.0627179
0.0050965 -0.0198676 0.0618476
0.0401706 -0.02106 0.0602673
-0.00354228 -0.00497786 0.0642864
-0.0260084 0.00612812 0.0595072
0.0435815 0.00464635 0.062194
-0.0204077 0.0214975 0.0587025
-0.0116373 0.0139085 0.0630418
0.0245781 0.017657 0.063136
0.0429729 0.0164875 0.0580206
-0.0438207 0.0352671 0.060093
-0.0278349 0.0359151 0.0571114
-0.0121266 0.0344872 0.0611666
0.0139684 0.0404509 0.0590813
-0.00410448 0.0436794 0.064326
0.0288997 0.0437314 0.0565641
-0.043939 -0.0415359 0.0674421
-0.0233682 -0.043625 0.0694128
-0.0241162 -0.0318768 0.0749615
-0.000538184 -0.0363277 0.0726181
-0.0355116 -0.0301175 0.0681287
0.0186651 -0.0263106 0.068279
-0.0437074 -0.0227045 0.0743957
-0.0163607 -0.0227491 0.0708042
-0.0201872 -0.00713874 0.0734031
0.014406 -0.00893772 0.0696738
0.0308941 -0.00539673 0.0685255
0.00825723 0.00444614 0.0655908
-0.000632307 0.00975505 0.0724991
-0.028526 0.0198003 0.0680161
-0.00175803 0.0207704 0.0666039
-0.0133967 0.0249136 0.0692135
0.0400709 0.0295261 0.0674938
0.0231798 0.0401429 0.0725172
-0.0437832 0.0437969 0.0695973
-0.0177679 0.0433091 0.0682497
0.00733996 0.0437007 0.0696277
-0.0142458 -0.0429249 0.078389
0.009721 -0.043963 0.0825449
0.0438285 -0.0438065 0.0803259
-0.0369369 -0.0393032 0.0818649
0.0140603 -0.0322075 0.0784455
0.0282214 -0.0401412 0.0779688
-0.010173 -0.0280004 0.0829204
0.0423972 -0.0302254 0.0778629
-0.0339654 -0.0141669 0.0801933
-0.0206867 -0.0210896 0.0824773
-0.00410975 -0.0198283 0.0754606
0.0101745 -0.0204901 0.0772114
0.0429044 -0.0161942 0.07629
0.00192971 -0.00516839 0.0797156
-0.0357838 -0.00263437 0.0757286
-0.039999 0.013019 0.0774436
-0.015572 0.0117279 0.0786991
0.0184469 0.00684974 0.0787225
0.0401609 0.00823755 0.0796241
0.00699383 0.0292563 0.077417
0.0283733 0.0238738 0.0827898
-0.0334408 0.0330064 0.0760786
-0.0118044 0.0317746 0.0840154
0.0437008 0.032017 0.0833023
-0.022045 0.0438304 0.080287
0.0396065 0.043687 0.0807439
-0.0223914 -0.0437909 0.0877927
-0.00121826 -0.0417644 0.0902915
0.0377887 -0.0425886 0.0923395
0.0108705 -0.034468 0.0903377
-0.0318849 -0.024623 0.086703
0.0329038 -0.0265423 0.0917066
-0.0437835 -0.0208067 0.0870588
-0.0110682 -0.0136049 0.0853393
0.00182888 -0.0211605 0.0918686
-0.0368198 -0.0125163 0.093645
0.0213235 -0.0118129 0.0850541
0.0401043 -0.00802672 0.0911349
-0.0437423 0.00196331 0.0891356
-0.0273534 0.000536244 0.0904993
0.00205421 0.0130237 0.0882767
-0.0440059 0.0203092 0.0918835
-0.0279858 0.0211389 0.0913208
0.0439847 0.0168289 0.0928418
-0.0439351 0.0391035 0.0866079
-0.0323997 0.0436759 0.0888641
0.00058509 0.0436835 0.0854849
0.0125251 0.0433751 0.0896138
-0.0438028 -0.0438472 0.0958143
0.00684069 -0.0331733 0.102267
0.0216591 -0.0401476 0.100943
-0.0399009 -0.0287948 0.100812
-0.0198839 -0.0300607 0.0962399
-0.0280685 -0.0175222 0.102661
0.0221132 -0.0168612 0.101622
-0.0128962 -0.0116369 0.101743
-0.00248745 -0.000301153 0.0964456
0.0199324 0.00291763 0.0984327
0.0317898 0.0207353 0.102596
-0.0436788 0.0311739 0.0985289
-0.0154572 0.0246883 0.100661
-0.0038615 0.025469 0.0967256
0.0139671 0.0271541 0.0961898
-0.0208476 0.0400533 0.100035
0.000218062 0.0402207 0.102069
0.0296338 0.0400537 0.0945195
-0.0436247 0.0437935 0.0980254
-0.0438813 -0.043044 0.108252
-0.028294 -0.0419577 0.105119
0.00877254 -0.0437813 0.110148
-0.00698543 -0.039996 0.107912
0.0401807 -0.0365405 0.107375
-0.0149143 -0.025674 0.111797
-0.00293547 -0.0241703 0.107242
0.0228097 -0.0264812 0.111274
0.0377368 -0.0167961 0.109083
-0.040088 -0.00994009 0.110579
0.00641593 -0.00909615 0.107241
-0.0267111 -0.0018252 0.106606
0.0400594 0.00306652 0.107841
-0.0400241 0.00910793 0.103497
-0.014781 0.00874719 0.10394
0.00247183 0.0172889 0.109176
0.0183799 0.0141917 0.109845
-0.0436561 0.0288959 0.111031
-0.0306409 0.0242899 0.107835
0.0438371 0.0297812 0.109373
-0.0335643 0.0363843 0.109757
0.0345943 0.0380351 0.10987
-0.0437712 0.0437936 0.11041
0.0161529 0.0432698 0.1052
0.00253463 -0.0424584 0.120827
0.027974 -0.0439044 0.115269
-0.021516 -0.0358511 0.115244
-0.0312729 -0.0236166 0.113656
0.00438853 -0.03058 0.115337
-0.00679342 -0.0169977 0.11684
-0.0220791 -0.0115823 0.119667
0.0237406 -0.00463752 0.116687
-0.0352061 0.00125452 0.121485
-0.00590575 0.00166898 0.117652
0.0116046 0.00608967 0.116493
-0.0379465 0.0173952 0.121724
0.0299439 0.0138337 0.121349
0.0437428 0.01796 0.113508
-0.0284662 0.0305278 0.119718
-0.0128515 0.0301604 0.115597
0.0212047 0.0253981 0.114115
0.038428 0.0291454 0.121267
0.0222382 0.040207 0.120155
-0.00303761 0.0435972 0.117804
0.0360347 -0.043828 0.124745
-0.035857 -0.0400464 0.121954
0.0174675 -0.0400784 0.126947
0.0438268 -0.0342936 0.123015
-0.0110048 -0.0260389 0.124835
0.00438294 -0.0245905 0.131037
-0.0402292 -0.0212704 0.127121
0.0258897 -0.0195062 0.123575
-0.00865442 -0.0114619 0.128817
0.00223844 -0.0106508 0.12289
0.0146791 -0.0127842 0.127261
0.00978908 -0.00138278 0.126224
0.0402329 -0.00209401 0.127772
-0.0184915 0.0117732 0.123489
-0.00042415 0.0215156 0.128498
0.0438671 0.0171521 0.128966
-0.0400189 0.0400836 0.125705
-0.0233545 -0.0438873 0.131273
-0.0078014 -0.0401446 0.1331
0.0393543 -0.0400125 0.140118
-0.0240345 -0.0302122 0.140022
0.02208 -0.0259531 0.140155
-0.0327285 -0.0165016 0.140498
-0.00550274 -0.0156485 0.140238
0.0399977 -0.0215391 0.132383
-0.0385834 -0.00510503 0.132775
-0.0194719 -0.00743052 0.140238
-0.00323014 0.00276755 0.134811
0.0223712 0.00212195 0.135683
-0.0313798 0.00848506 0.138569
-0.0400457 0.0263533 0.14012
-0.0194588 0.0253589 0.139648
0.0187597 0.0253088 0.133209
0.0383374 0.0275915 0.133808
-0.0223175 0.0396542 0.132077
0.00565061 0.0402661 0.131332
0.0352222 0.0398389 0.133715
0.0183083 -0.0436197 0.143319
-0.0394581 -0.0394923 0.143681
0.00601007 -0.0408336 0.142491
-0.0437 -0.02372 0.14297
-0.00532956 -0.0282407 0.143853
0.0273417 -0.010977 0.143846
0.0415087 -0.00601929 0.143675
0.0381969 0.00898224 0.142593
-0.0008017 0.0171139 0.143972
0.0149228 0.0138304 0.14398
0.0436213 0.0210566 0.143613
0.00719442 0.0301695 0.14389
-0.00601588 0.0353824 0.143191
-0.0419566 0.0428649 0.143666
-0.0294888 0.0436978 0.141809
0.0244268 0.0420447 0.142516
0.0420396 0.0436813 0.143638
VERTICES 337 674
1 0
1 1
1 2
1 3
1 4
1 5
1 6
1 7
1 8
1 9
1 10
1 11
1 12
1 13
1 14
1 15
1 16
1 17
1 18
1 19
1 20
1 21
1 22
1 23
1 24
1 25
1 26
1 27
1 28
1 29
1 30
1 31
1 32
1 33
1 34
1 35
1 36
1 37
1 38
1 39
1 40
1 41
1 42
1 43
1 44
1 45
1 46
1 47
1 48
1 49
1 50
1 51
1 52
1 53
1 54
1 55
1 56
1 57
1 58
1 59
1 60
1 61
1 62
1 63
1 64
1 65
1 66
1 67
1 68
1 69
1 70
1 71
1 72
1 73
1 74
1 75
1 76
1 77
1 78
1 79
1 80
1 81
1 82
1 83
1 84
1 85
1 86
1 87
1 88
1 89
1 90
1 91
1 92
1 93
1 94
1 95
1 96
1 97
1 98
1 99
1 100
1 101
1 102
1 103
1 104
1 105
1 106
1 107
1 108
1 109
1 110
1 111
1 112
1 113
1 114
1 115
1 116
1 117
1 118
1 119
1 120
1 121
1 122
1 123
1 124
1 125
1 126
1 127
1 128
1 129
1 130
1 131
1 132
1 133
1 134
1 135
1 136
1 137
1 138
1 139
1 140
1 141
1 142
1 143
1 144
1 145
1 146
1 147
1 148
1 149
1 150
1 151
1 152
1 153
1 154
1 155
1 156
1 157
1 158
1 159
1 160
1 161
1 162
1 163
1 164
1 165
1 166
1 167
1 168
1 169
1 170
1 171
1 172
1 173
1 174
1 175
1 176
1 177
1 178
1 179
1 180
1 181
1 182
1 183
1 184
1 185
1 186
1 187
1 188
1 189
1 190
1 191
1 192
1 193
1 194
1 195
1 196
1 197
1 198
1 199
1 200
1 201
1 202
1 203
1 204
1 205
1 206
1 207
1 208
1 209
1 210
1 211
1 212
1 213
1 214
1 215
1 216
1 217
1 218
1 219
1 220
1 221
1 222
1 223
1 224
1 225
1 226
1 227
1 228
1 229
1 230
1 231
1 232
1 233
1 234
1 235
1 236
1 237
1 238
1 239
1 240
1 241
1 242
1 243
1 244
1 245
1 246
1 247
1 248
1 249
1 250
1 251
1 252
1 253
1 254
1 255
1 256
1 257
1 258
1 259
1 260
1 261
1 262
1 263
1 264
1 265
1 266
1 267
1 268
1 269
1 270
1 271
1 272
1 273
1 274
1 275
1 276
1 277
1 278
1 279
1 280
1 281
1 282
1 283
1 284
1 285
1 286
1 287
1 288
1 289
1 290
1 291
1 292
1 293
1 294
1 295
1 296
1 297
1 298
1 299
1 300
1 301
1 302
1 303
1 304
1 305
1 306
1 307
1 308
1 309
1 310
1 311
1 312
1 313
1 314
1 315
1 316
1 317
1 318
1 319
1 320
1 321
1 322
1 323
1 324
1 325
1 326
1 327
1 328
1 329
1 330
1 331
1 332
1 333
1 334
1 335
1 336
POINT_DATA 337
VECTORS i float
0.0 0.0 0.0
0.0 0.0 0.0
0.0 0.0 0.0
0.0 0.0 0.0
0.0 0.0 0.0
0.0 0.0 0.0
0.0 0.0 0.0
0.0 0.0 0.0
0.0 0.0 0.0
0.0 0.0 0.0
0.0 0.0 0.0
0.0 0.0 0.0
0.0 0.0 0.0
0.0 0.0 0.0
0.0 0.0 0.0
0.0 0.0 0.0
0.0 0.0 0.0
0.0 0.0 0.0
0.0 0.0 0.0
0.0 0.0 0.0
0.0 0.0 0.0
0.0 0.0 0.0
0.0 0.0 0.0
0.0 0.0 0.0
0.0 0.0 0.0
0.0 0.0 0.0
0.0 0.0 0.0
0.0 0.0 0.0
0.0 0.0 0.0
0.0 0.0 0.0
0.0 0.0 0.0
0.0 0.0 0.0
0.0 0.0 0.0
0.0 0.0 0.0
0.0 0.0 0.0
0.0 0.0 0.0
0.0 0.0 0.0
0.0 0.0 0.0
0.0 0.0 0.0
0.0 0.0 0.0
0.0 0.0 0.0
0.0 0.0 0.0
0.0 0.0 0.0
0.0 0.0 0.0
0.0 0.0 0.0
0.0 0.0 0.0
0.0 0.0 0.0
0.0 0.0 0.0
0.0 0.0 0.0
0.0 0.0 0.0
0.0 0.0 0.0
0.0 0.0 0.0
0.0 0.0 0.0
0.0 0.0 0.0
0.0 0.0 0.0
0.0 0.0 0.0
0.0 0.0 0.0
0.0 0.0 0.0
0.0 0.0 0.0
0.0 0.0 0.0
0.0 0.0 0.0
0.0 0.0 0.0
0.0 0.0 0.0
0.0 0.0 0.0
0.0 0.0 0.0
0.0 0.0 0.0
0.0 0.0 0.0
0.0 0.0 0.0
0.0 0.0 0.0
0.0 0.0 0.0
0.0 0.0 0.0
0.0 0.0 0.0
0.0 0.0 0.0
0.0 0.0 0.0
0.0 0.0 0.0
0.0 0.0 0.0
0.0 0.0 0.0
0.0 0.0 0.0
0.0 0.0 0.0
0.0 0.0 0.0
0.0 0.0 0.0
0.0 0.0 0.0
0.0 0.0 0.0
0.0 0.0 0.0
0.0 0.0 0.0
0.0 0.0 0.0
0.0 0.0 0.0
0.0 0.0 0.0
0.0 0.0 0.0
0.0 0.0 0.0
0.0 0.0 0.0
0.0 0.0 0.0
0.0 0.0 0.0
0.0 0.0 0.0
0.0 0.0 0.0
0.0 0.0 0.0
0.0 0.0 0.0
0.0 0.0 0.0
0.0 0.0 0.0
0.0 0.0 0.0
0.0 0.0 0.0
0.0 0.0 0.0
0.0 0.0 0.0
0.0 0.0 0.0
0.0 0.0 0.0
0.0 0.0 0.0
0.0 0.0 0.0
0.0 0.0 0.0
0.0 0.0 0.0
0.0 0.0 0.0
0.0 0.0 0.0
0.0 0.0 0.0
0.0 0.0 0.0
0.0 0.0 0.0
0.0 0.0 0.0
0.0 0.0 0.0
0.0 0.0 0.0
0.0 0.0 0.0
0.0 0.0 0.0
0.0 0.0 0.0
0.0 0.0 0.0
0.0 0.0 0.0
0.0 0.0 0.0
0.0 0.0 0.0
0.0 0.0 0.0
0.0 0.0 0.0
0.0 0.0 0.0
0.0 0.0 0.0
0.0 0.0 0.0
0.0 0.0 0.0
0.0 0.0 0.0
0.0 0.0 0.0
0.0 0.0 0.0
0.0 0.0 0.0
0.0 0.0 0.0
0.0 0.0 0.0
0.0 0.0 0.0
0.0 0.0 0.0
0.0 0.0 0.0
0.0 0.0 0.0
0.0 0.0 0.0
0.0 0.0 0.0
0.0 0.0 0.0
0.0 0.0 0.0
0.0 0.0 0.0
0.0 0.0 0.0
0.0 0.0 0.0
0.0 0.0 0.0
0.0 0.0 0.0
0.0 0.0 0.0
0.0 0.0 0.0
0.0 0.0 0.0
0.0 0.0 0.0
0.0 0.0 0.0
0.0 0.0 0.0
0.0 0.0 0.0
0.0 0.0 0.0
0.0 0.0 0.0
0.0 0.0 0.0
0.0 0.0 0.0
0.0 0.0 0.0
0.0 0.0 0.0
0.0 0.0 0.0
0.0 0.0 0.0
0.0 0.0 0.0
0.0 0.0 0.0
0.0 0.0 0.0
0.0 0.0 0.0
0.0 0.0 0.0
0.0 0.0 0.0
0.0 0.0 0.0
0.0 0.0 0.0
0.0 0.0 0.0
0.0 0.0 0.0
0.0 0.0 0.0
0.0 0.0 0.0
0.0 0.0 0.0
0.0 0.0 0.0
0.0 0.0 0.0
0.0 0.0 0.0
0.0 0.0 0.0
0.0 0.0 0.0
0.0 0.0 0.0
0.0 0.0 0.0
0.0 0.0 0.0
0.0 0.0 0.0
0.0 0.0 0.0
0.0 0.0 0.0
0.0 0.0 0.0
0.0 0.0 0.0
0.0 0.0 0.0
0.0 0.0 0.0
0.0 0.0 0.0
0.0 0.0 0.0
0.0 0.0 0.0
0.0 0.0 0.0
0.0 0.0 0.0
0.0 0.0 0.0
0.0 0.0 0.0
0.0 0.0 0.0
0.0 0.0 0.0
0.0 0.0 0.0
0.0 0.0 0.0
0.0 0.0 0.0
0.0 0.0 0.0
0.0 0.0 0.0
0.0 0.0 0.0
0.0 0.0 0.0
0.0 0.0 0.0
0.0 0.0 0.0
0.0 0.0 0.0
0.0 0.0 0.0
0.0 0.0 0.0
0.0 0.0 0.0
0.0 0.0 0.0
0.0 0.0 0.0
0.0 0.0 0.0
0.0 0.0 0.0
0.0 0.0 0.0
0.0 0.0 0.0
0.0 0.0 0.0
0.0 0.0 0.0
0.0 0.0 0.0
0.0 0.0 0.0
0.0 0.0 0.0
0.0 0.0 0.0
0.0 0.0 0.0
0.0 0.0 0.0
0.0 0.0 0.0
0.0 0.0 0.0
0.0 0.0 0.0
0.0 0.0 0.0
0.0 0.0 0.0
0.0 0.0 0.0
0.0 0.0 0.0
0.0 0.0 0.0
0.0 0.0 0.0
0.0 0.0 0.0
0.0 0.0 0.0
0.0 0.0 0.0
0.0 0.0 0.0
0.0 0.0 0.0
0.0 0.0 0.0
0.0 0.0 0.0
0.0 0.0 0.0
0.0 0.0 0.0
0.0 0.0 0.0
0.0 0.0 0.0
0.0 0.0 0.0
0.0 0.0 0.0
0.0 0.0 0.0
0.0 0.0 0.0
0.0 0.0 0.0
0.0 0.0 0.0
0.0 0.0 0.0
0.0 0.0 0.0
0.0 0.0 0.0
0.0 0.0 0.0
0.0 0.0 0.0
0.0 0.0 0.0
0.0 0.0 0.0
0.0 0.0 0.0
0.0 0.0 0.0
0.0 0.0 0.0
0.0 0.0 0.0
0.0 0.0 0.0
0.0 0.0 0.0
0.0 0.0 0.0
0.0 0.0 0.0
0.0 0.0 0.0
0.0 0.0 0.0
0.0 0.0 0.0
0.0 0.0 0.0
0.0 0.0 0.0
0.0 0.0 0.0
0.0 0.0 0.0
0.0 0.0 0.0
0.0 0.0 0.0
0.0 0.0 0.0
0.0 0.0 0.0
0.0 0.0 0.0
0.0 0.0 0.0
0.0 0.0 0.0
0.0 0.0 0.0
0.0 0.0 0.0
0.0 0.0 0.0
0.0 0.0 0.0
0.0 0.0 0.0
0.0 0.0 0.0
0.0 0.0 0.0
0.0 0.0 0.0
0.0 0.0 0.0
0.0 0.0 0.0
0.0 0.0 0.0
0.0 0.0 0.0
0.0 0.0 0.0
0.0 0.0 0.0
0.0 0.0 0.0
0.0 0.0 0.0
0.0 0.0 0.0
0.0 0.0 0.0
0.0 0.0 0.0
0.0 0.0 0.0
0.0 0.0 0.0
0.0 0.0 0.0
0.0 0.0 0.0
0.0 0.0 0.0
0.0 0.0 0.0
0.0 0.0 0.0
0.0 0.0 0.0
0.0 0.0 0.0
0.0 0.0 0.0
0.0 0.0 0.0
0.0 0.0 0.0
0.0 0.0 0.0
0.0 0.0 0.0
0.0 0.0 0.0
0.0 0.0 0.0
0.0 0.0 0.0
0.0 0.0 0.0
0.0 0.0 0.0
0.0 0.0 0.0
0.0 0.0 0.0
0.0 0.0 0.0
0.0 0.0 0.0
0.0 0.0 0.0
0.0 0.0 0.0
0.0 0.0 0.0
0.0 0.0 0.0
0.0 0.0 0.0
0.0 0.0 0.0
0.0 0.0 0.0
0.0 0.0 0.0
0.0 0.0 0.0
0.0 0.0 0.0
0.0 0.0 0.0
0.0 0.0 0.0
VECTORS f float
0.00409314 -0.00437993 0.00733655
0.00155282 0.00383755 0.00654979
-7.33707e-06 1.91878e-05 -4.10856e-05
-0.007108 -0.00835553 0.011915
-0.00758184 -0.00417205 0.00716234
-0.00238105 -0.00594684 0.00137563
0.0 0.0 0.0
0.00286054 0.000529191 0.0105728
-0.00070393 -0.0248184 0.00181055
-0.0341614 -0.00412907 -0.027761
-0.000414993 -0.000747163 0.000358869
0.0149712 0.0127339 0.0394658
-0.000468598 -0.00118407 0.00260673
-0.000649851 -0.0106065 0.00140814
-0.0102006 -0.00734328 -0.00229155
0.0 0.0 0.0
-0.0173549 -0.0033747 0.0177382
0.00582758 -0.00414961 -0.00481901
0.0516526 0.0100818 0.0174173
0.042237 -0.106559 -0.0779199
0.000816839 -0.0109741 0.0595235
0.00267187 -0.0248086 0.0107869
0.0391035 -0.0102271 -0.0105405
0.0 0.0 0.0
-0.00602528 -0.0217694 -0.000389135
0.060416 -0.058436 0.0147866
0.0373375 -0.0102902 0.0312215
0.000246516 -0.0498736 -0.0112494
0.0442865 -0.0217289 0.0242209
0.0221468 -0.0074833 -0.0113333
-0.0048246 -0.0342977 0.0190933
-0.000350482 -0.004876 0.000806033
0.0269843 -0.0929029 -0.00646383
-0.00582864 -0.0358952 0.0208536
-0.0244008 -0.0560263 0.0242661
0.135024 0.0101281 0.0239105
-0.000785948 0.000677743 -0.00950473
0.00955559 -0.00722951 -0.00890403
0.00355962 2.90031e-05 -0.000230869
0.00210196 -0.00443225 0.00289587
0.00458709 -0.00471444 0.0171044
0.0 0.0 0.0
0.0499218 -0.0604069 0.0418094
-0.0137353 0.00454231 0.0170075
-0.00346528 -0.000893171 -0.00272896
0.0301487 -0.0625572 0.0025859
0.0115026 -0.0369911 0.0556509
0.00515737 -0.0126641 -0.00147584
0.00265342 -0.00103677 -0.00133219
-0.0240857 -0.0141231 -0.00225544
0.00503583 -0.00326701 0.0267945
-0.0153957 -0.105053 0.0142247
0.0042889 -0.0107728 0.0062026
-0.0287159 -0.00968998 -0.00056363
0.119687 -0.0540287 0.0680184
0.013828 -0.0248708 0.0275868
-0.0086741 -0.00989563 0.00263458
0.0508837 -0.0390155 -0.0860108
0.0148702 -0.0425539 -0.00270164
0.0358447 -0.0357917 -0.00576098
0.0117704 0.00260325 0.00607898
0.190538 0.025679 -0.0833725
0.0360811 -0.0359848 -0.00638248
0.0151459 -0.0138219 -0.00133796
0.000398505 -0.00156263 0.0104135
-0.00576367 -0.00287735 0.000864259
0.0161763 0.0277898 0.0368443
-0.00743002 0.0274032 0.0493002
-0.0554517 -0.00232924 0.0908623
0.0 0.0 0.0
-0.001078 0.00562079 0.00250672
-0.00753689 -0.015912 0.0599894
0.00494306 -0.0641239 0.0183495
-0.00530419 -0.0498047 -0.0165389
-0.016801 -0.0512081 -0.0143748
0.0506746 -0.0203716 0.155196
-0.0320491 -0.0124497 -0.0370832
0.150113 -0.0196171 -0.0166417
-0.00676643 0.00584921 0.0122492
-0.00374642 0.00766601 0.0234541
0.0642372 0.0319236 0.107457
0.0375721 -0.0082845 -0.00143456
0.0219679 0.00140744 -0.0027954
0.00435752 -0.0107312 0.0141717
-0.00290438 0.00143421 0.0012687
0.0361288 -0.00195619 0.0390211
-0.021181 -0.0144254 0.000194514
-0.00285914 0.00571991 0.0152149
-0.00204501 0.0041826 -0.0254519
0.0 0.0 0.0
-0.00305899 -0.00303369 0.0262
-0.0290204 -0.0467178 0.0628584
0.00604795 0.00908567 0.00570149
-0.00861291 0.0234015 -0.015609
0.0220935 -0.0530929 -0.00435444
-0.0037298 0.00185796 0.0200023
0.0108539 0.0037385 0.00248387
0.00569214 -0.0186931 0.0111904
0.0 0.0 0.0
-0.054867 0.0191938 -0.14977
0.0437286 -0.0711939 -0.0310415
0.104024 -0.011215 -0.00237513
0.0235788 0.00867523 -0.00770221
0.0196042 0.00295929 -0.0113607
0.00797159 0.00751862 -0.00800655
-0.016109 -0.00979189 0.0196513
0.00208269 0.00181125 -0.00253918
0.00483494 0.00852595 -0.00350218
-0.042808 0.0134391 -0.0739809
0.000575869 0.0129522 0.00429866
0.0242718 -0.0188638 0.0338074
0.00236665 -0.0249522 0.0265136
-0.014898 0.0126715 0.0121448
0.0297641 0.00476647 -0.00077097
0.00929719 -0.044775 0.00131332
0.0147688 -0.0532596 -0.00426623
0.0387361 -0.029266 0.0835412
-0.0194457 -0.0166821 0.00399697
-0.0244795 -0.0160363 -0.00958021
0.0466119 0.0861526 -0.0182904
0.0 0.0 0.0
0.0276183 0.0352068 -0.0438567
0.0823322 -0.0445334 -0.0725022
0.0353324 -0.00976804 -0.034821
0.0 0.0 0.0
-0.0222243 -0.0174313 -0.00770338
-0.00358258 0.0153845 0.00231248
-0.00812567 0.0390783 -0.00211247
-0.0050784 -0.00265168 -0.00931339
-0.0354024 -0.00248986 -0.0556812
-0.0658154 0.0258786 0.0107795
-0.00398876 0.00426975 -0.0046323
0.0 0.0 0.0
-3.43613e-05 -1.16873e-05 -1.25929e-05
0.00569521 -0.0236814 -0.0601582
0.0553817 0.016189 -0.0747504
0.0219036 -0.0218954 -0.0455333
0.0129974 -0.0299312 -0.0478346
0.00865989 0.031189 -0.0251379
0.0451324 0.0369912 0.0279522
0.0101857 -0.0338045 0.00930367
0.0183427 0.00940517 -0.0149602
0.0222272 -0.0185418 0.0246488
-0.0116635 -0.00964704 -0.0429234
0.0251476 -0.0383339 0.0396549
0.0207803 0.0285795 -0.0106476
0.185279 0.0328668 -0.0511943
0.0527675 -0.0187199 0.0176105
0.0248458 0.00341356 -0.015656
0.0241038 0.00834063 0.0106263
0.0123584 -0.120119 -0.0660863
-0.0043633 -0.00713145 -0.0115924
0.0 0.0 0.0
0.235085 0.0917696 -0.135382
-0.0998307 -0.0460552 -0.0726823
0.0 0.0 0.0
-0.0135155 -0.0107703 0.00464054
-0.0201491 -6.93365e-05 0.0347922
-0.0163387 -0.0278033 -0.0174194
0.0437574 -0.0871119 -0.039008
0.098072 0.10939 0.0935948
0.0581195 0.0197649 -0.116245
-0.0004443 -0.0186849 -0.0101661
0.0184719 -0.0152841 0.0123676
-0.00212246 -0.0206368 -0.0168363
0.0352524 -0.00219769 0.0192341
0.00922997 -0.0281133 0.0154529
0.0316765 0.0684538 -0.0609253
0.0649766 0.0224133 -0.014137
0.00920881 -0.00357282 -0.0108298
0.00623007 -0.00539265 -0.00177848
0.0320658 -0.00328839 -0.00919869
-0.0489002 0.00181587 -0.0199104
0.00848416 0.00956479 -0.0363605
0.00153483 -0.00152545 0.00466053
0.051194 -0.0326144 -0.0160841
-0.0105202 -0.0203492 -0.0224361
0.0406856 0.0007255 -0.0566933
0.00144408 0.0206031 0.00847384
0.0 0.0 0.0
-0.021289 0.0107256 -0.0884065
-0.00872323 0.0132963 -0.0109887
0.00641546 0.000458162 -0.0104525
-0.0187649 -0.0324519 -0.0129479
0.0 0.0 0.0
-0.0700613 0.0584374 -0.0474566
0.00589696 0.0129769 -0.116344
-0.0361716 0.00803761 -0.0916578
0.0498531 -0.0592417 0.0111829
-0.0744442 -0.0362332 -0.0362778
0.00592673 0.0190141 -0.0668354
0.101347 0.0299968 -0.0374317
0.00514887 -0.00403717 -0.0741153
0.107769 -0.0426272 -0.0810119
0.0967229 0.0694494 -0.0391387
-0.0151102 -0.00722382 -0.00347931
0.0129718 -0.00495655 -0.0133611
-0.000433815 -0.000370164 0.0089245
-0.0301194 0.0184415 0.024501
0.0 0.0 0.0
-0.022609 -0.0243567 -0.0605319
0.0149286 0.0111602 -0.0205015
-0.0171844 0.0377518 -0.0134884
0.00628268 0.0611656 -0.0608148
-0.0190201 0.0357272 -0.0162675
-0.00648809 0.0311141 0.00690356
-0.0977451 -0.0116301 -0.0687422
0.00264956 0.00166905 -0.00166313
-0.0673409 -0.0448815 -0.155986
-0.0301746 0.0778254 0.00767336
0.111556 -0.00423299 0.0161093
0.0659742 -0.0606236 0.0500149
-0.0134106 0.0292496 0.0473251
0.0030188 -0.0112759 0.00652834
0.0301729 -0.128981 -0.0462822
-0.00155011 0.0130092 -0.00828821
0.0238126 0.00211472 -0.0180246
0.0323572 -0.00183021 0.000320068
0.00136323 0.00185053 0.00077007
-0.000894586 -0.000427952 -0.000235001
-0.015686 -0.00161125 -0.00989699
0.0553247 -0.00625195 -0.0142741
0.0428241 -0.00862783 -0.0565619
-0.139872 -0.0589892 0.020673
-0.0370212 0.113292 0.0042048
-0.0132046 -0.00709196 0.0183032
0.0 0.0 0.0
-0.081157 0.0687753 -0.0151313
0.0134885 0.00635215 0.0367828
0.0499539 0.0527901 -0.121336
0.00264862 0.0158082 -0.0457052
-0.00425794 -0.00392149 -0.00155604
0.018791 -0.0141316 -0.0104417
0.0133874 0.0113308 -0.00730114
0.0202613 -0.00346027 -0.00657618
-0.0455245 -0.0698361 -0.0300789
0.0489785 0.00769602 -7.31022e-05
-0.0099952 -0.0102816 -0.00399174
-0.0101141 0.000940688 -0.0175903
0.0152874 0.00983395 -0.0318816
0.0 0.0 0.0
-0.013399 0.0027719 -0.0315103
-0.0992613 0.0404642 -0.0198229
0.025947 0.0189379 -0.0847686
0.0141234 0.0683371 0.000457157
-0.0431101 0.0518648 -0.00768346
0.0 0.0 0.0
0.0877146 0.0725375 -0.0639221
-0.0149125 -0.0591779 0.0168737
-0.124583 0.0592208 -0.246729
0.0112006 -0.0256659 0.00191013
0.0317135 0.050806 -0.0261888
0.103679 -0.0865487 0.0969056
0.0641416 -0.0931011 -0.0141345
0.0549205 -0.0382283 -0.0627344
0.0220271 0.000905633 -0.0131176
-0.00546544 -0.00100857 0.00120148
0.000554985 -0.0874015 -0.0553634
0.0123585 0.0326273 0.0022323
0.00974173 0.0853511 0.0410452
0.0139673 0.0287885 0.00217845
-0.0237326 -0.00429398 -0.00850079
0.0105763 -0.00517274 0.0139846
-0.0115618 0.00705807 -0.0136911
0.00963802 0.00780496 -0.00295737
0.0970011 -0.0593415 -0.0016327
-0.0249834 -0.0154689 -0.0278052
0.0 0.0 0.0
-0.0231051 0.0269403 0.00819226
-0.136456 0.00450325 -0.143952
0.0783478 -0.079231 -0.0403525
-0.00270168 -0.000202767 -0.012861
0.0 0.0 0.0
0.00428386 -0.00496216 -0.022174
0.0312478 -0.0472251 0.0715062
0.0206714 0.0111081 -0.0350011
-0.0040181 0.021467 0.00681435
0.00382453 -0.00366956 -0.000297268
0.0242914 -0.0127781 0.00228495
0.0105157 0.00299122 0.000973266
3.70253e-06 0.000111041 0.00036813
0.0682627 -0.00733981 0.0309796
-0.00464936 0.00103405 0.00531346
0.000119829 0.00387434 -0.00251866
-0.0324525 0.0695103 -0.0438534
0.00986067 0.0023942 -0.0230037
-0.00160516 0.00645543 -0.00749572
0.0 0.0 0.0
0.0663151 0.0196477 0.00920331
-0.0511501 0.0562245 -0.0136812
0.0 0.0 0.0
-0.0231294 -0.0373835 -0.0340251
-0.00776881 -0.00875431 -0.0305049
0.00873294 -0.0102401 -0.0272728
-0.00252351 -0.0169863 -0.0249878
-0.00133912 0.0241617 -0.00697544
0.100772 -0.115197 -0.0885836
0.0564022 -0.0716875 -0.0303524
0.00131614 -0.00368706 -0.00698802
-0.00112597 -0.0241954 -0.0517672
-0.00308423 0.000565905 0.0324687
0.0384256 0.0106918 -0.0588092
0.0137278 0.00318095 -0.00208444
0.00520626 0.0878655 0.0778654
0.034696 -0.00342728 0.013736
-0.010126 -0.0337408 0.0299262
0.000114378 0.00999295 -0.0152628
0.0148143 0.0172872 0.0470507
-2.24668e-05 0.00335988 0.00119856
-0.0868098 -0.130672 -0.0598221
-0.0620257 -0.134265 -0.0987889
-0.00859084 -0.0573684 -0.0762281
0.0181505 -0.100087 -0.0305043
0.0485277 -0.0225697 -0.0169993
-4.55751e-05 0.000155562 -7.61537e-05
0.0159474 -0.0303868 0.0270237
1.99236e-05 0.000599346 -5.2218e-05
4.55751e-05 -0.000155562 7.61537e-05
0.0331576 -0.034167 0.0129642
0.000372733 0.00023716 0.000333828
-0.000109768 2.66654e-05 -5.45272e-06
0.00100528 0.000542067 0.00228423
0.000109768 -2.66654e-05 5.45272e-06
0.0102439 -0.00728061 0.00796666
-0.00497605 0.00408879 -0.00474158
0.0114976 -0.00100866 -0.000634202
-0.000342879 0.00438814 -0.00514852
0.0 0.0 0.0
0.0085475 -0.0149633 -0.00382234
-0.0146684 -0.0118993 -0.0104353
0.0 0.0 0.0
0.00692926 -0.000944909 0.00284831
0.0 0.0 0.0
-0.00559423 -0.003291 0.000660448
0.000418082 -0.0240403 0.00067715
0.0 0.0 0.0
2.85918e-05 0.000582611 -2.24786e-05
VECTORS omega float
0.68692 0.19975 1.2648
2.28238 -1.0222 -4.63942
0.465707 1.71149 -4.99108
-0.912849 -0.151656 -3.06201
-0.550793 5.27679 -13.3905
3.9713 1.99391 -4.87282
1.44944 -5.44072 -0.175068
1.68248 6.56756 5.01298
-6.77296 0.0518178 -2.82044
-1.73287 -0.01947 8.80904
-2.98397 -4.51636 -7.82012
0.784712 10.2454 -7.73075
0.829091 0.710099 7.52968
-3.07642 -6.74778 -6.64747
-4.30412 1.8881 -2.51928
-14.4154 -9.10386 0.658964
-1.46416 -4.80006 7.2479
-15.9818 -17.9237 1.29578
0.236927 0.116185 -0.542673
2.64826 -3.09315 -0.205354
0.0962466 -0.136038 0.0231738
-10.9994 6.09717 -3.22763
-0.894476 -1.49375 0.911399
-4.85969 0.258866 7.31127
-5.41885 -2.35291 3.55669
0.056811 -0.770678 -4.94393
1.56012 -9.65896 -6.24518
1.60542 0.425137 -1.0786
-1.25226 0.214483 1.51076
-3.2834 8.5587 -7.62591
-1.23541 5.83519 6.02269
6.63275 -10.3957 9.09945
-1.64901 3.1871 -0.512792
1.35838 -7.5394 6.61245
1.0095 -0.258213 -0.6012
-0.690063 -8.48024 -5.63591
-1.32266 -4.74828 -4.29684
3.28246 -0.13644 -8.09822
-1.95132 -12.6581 -4.06733
-10.9677 23.7583 3.72278
0.150295 -3.08331 1.03164
-6.411 -1.52955 2.29896
-0.969367 -0.433535 -0.123869
20.1632 -8.10889 -5.07281
-0.408187 -0.484695 -0.835231
-5.40356 1.32235 2.21701
-0.97104 0.281313 -1.29061
4.67743 10.4929 1.62688
-0.675835 -2.97134 2.8483
-1.19564 -0.516456 -1.82423
0.806105 3.43689 -1.56195
-2.5729 -2.39338 -6.4145
-3.95083 1.34876 1.73395
1.19716 -2.83173 -1.99495
-0.197434 -0.658693 -2.22756
0.502009 -3.2878 5.29728
-2.16506 -5.0486 -5.74951
1.09837 3.46193 8.21897
1.67153 -1.62724 -9.24866
3.63038 -4.7067 2.21567
5.60582 -2.58909 2.94029
0.20674 9.15771 -0.902177
10.7271 -27.7851 -1.83096
4.5139 -5.98761 -0.513314
3.45904 16.2207 6.70794
-0.707362 -2.0927 0.091164
0.356404 0.55782 -1.15808
-2.77732 0.657029 0.566046
-1.29957 1.91401 -1.78368
2.37872 -9.14581 -8.10332
6.09823 -0.218578 2.32089
0.416833 -1.05252 -3.25386
1.41538 -3.81334 9.50479
6.06579 -1.01914 2.69783
-13.0001 1.14711 -20.6128
-1.58894 -0.588916 3.72042
13.0202 0.898005 12.8617
-20.6053 3.09336 3.06963
0.65036 1.47679 1.32409
-0.593082 -14.2033 5.47814
-3.61117 1.96104 2.55075
-7.42224 -18.7002 1.33075
1.38439 -0.0293165 1.31157
1.04717 1.05415 -0.344073
14.2653 11.2641 0.777576
-1.81788 1.37127 0.764765
18.2351 -4.85356 -3.01474
0.532881 -4.61997 2.90472
1.91023 6.01811 -1.05128
-6.19169 5.43654 3.88276
8.40942 -2.19492 -1.20285
3.17195 -0.197808 0.564347
2.24969 -2.00085 3.24499
0.633961 1.88287 -0.178584
8.8646 9.36362 1.93693
-4.51782 2.47589 0.186157
9.46435 3.64607 -6.62686
5.29131 4.05972 -3.01552
7.10611 -5.41465 25.6062
-0.433961 0.891489 2.77802
8.53898 15.2615 -17.6599
4.09557 0.788259 -2.18289
1.4604 -9.09903 -6.20117
4.8699 -10.9088 -1.41845
0.761894 2.75559 1.17704
-4.51112 -2.66828 1.89987
0.087698 -0.779951 1.48625
-0.317223 -3.50086 4.64058
-1.62761 1.66011 0.00382728
0.937478 -6.42359 3.5659
-0.634258 2.16808 -1.22399
9.27922 13.4796 11.9765
4.0135 -2.22555 -2.2894
-0.673446 -7.06685 -1.4025
11.5703 -1.30038 -0.0387333
0.90427 -12.4522 -3.10993
1.43779 -7.14289 -2.89965
10.0861 13.5775 1.29922
-3.22262 -7.12537 -1.74247
7.43074 -4.39942 -2.65559
12.0821 -9.63181 4.34958
-10.5642 -5.59898 6.00521
-6.85033 -3.14154 3.87386
2.51618 12.3545 -4.69257
-1.22905 5.99387 6.27496
-10.8287 -8.45719 0.589153
9.61481 -7.49124 -1.91192
-14.3996 -4.9781 -10.4695
-4.51907 -2.66762 0.560233
-12.3445 7.62711 0.0248757
-0.0213938 -0.615623 2.30635
3.09189 8.98268 -4.15681
-10.1413 11.9651 3.582
-17.0638 -2.24489 -0.38997
-3.66322 -17.181 -3.99681
-7.66523 -6.23712 -21.1015
-0.616308 3.01843 3.10681
1.4579 -2.8029 1.08758
7.37919 -2.57889 -5.91171
4.71819 -2.19255 -0.226201
-7.37133 2.1292 -2.09025
1.59681 3.43971 -11.4947
1.90571 1.1153 5.45375
7.2472 5.66212 -5.33133
-0.963089 1.02243 0.0950657
3.4733 -9.77261 -4.15233
-4.98779 8.32273 6.52077
13.477 -7.13667 -14.7174
10.3658 1.9003 -9.06134
-10.1591 -3.93374 6.99897
2.78867 8.88405 -3.8814
-10.0454 -0.99753 0.551831
17.1202 6.50312 -2.92296
-2.47597 -6.48537 12.9071
2.97479 4.57666 3.508
1.19764 -11.15 19.2537
-3.32313 -1.12533 -0.811143
8.53694 4.69358 3.32745
13.7381 7.67708 3.78114
-2.02644 -3.43295 -1.8156
4.55577 7.25251 2.53835
-0.780659 6.58057 1.70443
-1.09857 14.9573 -0.0179687
-2.05096 -3.02648 9.9374
-3.14357 1.34496 -6.23703
7.09324 0.366951 3.41016
-5.35937 1.37672 7.82989
-2.10378 0.46113 1.62675
-1.20461 -0.69596 1.2478
-2.00915 -2.05351 -0.0556571
-2.05711 4.22926 1.009
3.34941 10.4496 -4.38304
-13.6037 -6.85982 5.87342
-5.98049 6.21704 -5.93704
1.26679 1.29529 -0.0458291
0.267952 -1.60967 -1.4167
9.00844 2.32126 -1.25064
-2.0088 -3.59257 0.367367
-6.1682 -3.68901 -7.38369
0.0 0.0 0.0
-26.1968 7.85566 1.05502
-27.1361 2.60343 -2.96336
7.40542 11.1601 7.6842
10.0197 -16.5625 12.8002
8.82173 1.69023 -5.20317
-5.9223 6.66964 0.266822
8.65585 -1.45485 -3.2055
2.96708 2.14874 -2.00305
-0.48478 1.78434 -1.38065
-0.0163544 -2.10929 -0.5522
1.98998 -0.32231 0.40627
-0.0640949 -3.86437 1.7304
1.31 -1.57727 -1.3454
4.72423 -6.48161 4.18161
0.952653 1.62258 -3.71299
3.0981 -2.02144 0.820894
-4.22457 18.7267 -0.598066
0.77432 -10.1007 0.175594
1.41186 5.09191 -3.16235
0.619822 0.530088 0.721279
-6.43382 5.8001 1.76376
9.37477 -7.25606 15.8192
7.73114 6.76214 0.686099
2.29506 2.43359 0.680788
0.524 -8.04472 4.43036
27.1651 -24.6085 12.1031
0.990913 9.66804 -9.42161
-8.83917 2.96032 1.72878
-7.99932 14.3803 -6.26454
-1.24163 -0.956391 -0.843559
-7.38161 -0.674561 -10.121
3.18707 -0.460465 -4.29268
1.44806 0.684835 -0.140546
-7.25555 0.900357 -6.85014
4.52545 -2.37008 1.62352
-3.6587 -0.555145 -0.456461
-3.54618 -0.749356 -6.15402
-4.7005 0.75452 5.23836
3.07441 0.31028 1.25176
-10.2619 -4.36746 2.58364
3.0217 0.863754 2.64643
0.332771 -1.38202 -2.71922
-0.269545 0.52411 -1.02164
-2.07917 -3.14543 -3.20499
-5.50787 2.20432 -3.23641
-1.11874 17.5253 20.9496
1.29439 1.24804 -6.91723
12.9801 -13.9534 -11.5316
-15.3447 27.8734 4.41813
2.27774 4.11846 10.055
0.0714196 0.698025 -0.225698
1.28478 -3.2923 -1.77775
-10.461 6.48877 3.39827
-4.36628 -1.40455 2.94427
-1.5186 -0.299263 1.58959
2.6913 -3.21542 -1.01583
2.50028 -3.82464 -2.20337
-1.65667 6.26122 2.25515
-0.845992 1.4912 0.59761
-1.82254 1.3149 1.91864
7.77538 5.54282 -2.49296
3.97055 7.63345 -2.35157
0.338297 2.92692 -5.56449
-2.47645 -1.24482 0.212484
18.7121 -23.3384 -6.38003
8.23838 -10.6614 11.6103
0.335401 -0.706355 -0.610114
2.15556 4.88743 -0.406272
-1.46387 -5.77355 -3.07443
-4.09487 -4.17765 -2.38598
1.95457 18.802 -9.41017
0.296669 1.07165 0.197351
-5.03422 0.94878 -0.912419
6.27226 1.39802 8.73005
0.448164 -1.34606 0.439334
-0.498546 -1.92862 0.539343
-6.96152 -4.97616 -1.66145
-6.32236 2.28048 1.84944
1.73551 3.80945 2.93955
-6.39595 3.25389 2.53458
4.73714 -11.5182 -5.38993
-0.272317 -0.499555 0.69862
-2.95017 -4.80258 1.45494
-2.92056 -9.83203 1.79878
-0.890915 -2.88008 1.87493
-25.2001 1.19581 12.1173
14.3318 2.34564 9.40758
-6.94631 10.323 31.359
-9.29529 6.89971 -2.80191
0.244036 6.59011 -0.035569
-3.6184 -3.24248 0.342232
-4.82808 1.48245 3.74836
3.31357 5.81552 -1.37946
6.5048 -0.855088 2.91029
3.54657 -6.57452 -1.50056
-1.03953 0.689118 -0.0900628
0.306836 -1.42185 -2.85134
-9.46537 8.90508 -4.0618
3.28186 -3.39947 6.60112
-1.10203 1.10789 2.68324
-0.274858 -1.40355 -0.62027
0.235214 3.47265 -1.17072
-3.27756 6.42767 3.43256
0.762985 2.40871 1.69844
1.72877 -0.296667 -1.47127
1.68469 6.42424 -1.21431
0.202024 -0.881783 -1.78019
4.09495 4.49203 8.33859
-0.428609 -0.428946 -3.19282
7.83302 -9.01811 -0.257899
1.2052 2.45994 0.891151
0.779036 5.06126 -3.81531
3.96999 -4.30262 6.00626
4.32933 1.10577 6.46281
-8.46563 2.62459 -4.94186
-1.26753 1.96293 -1.40085
-6.35551 -3.92373 -0.00745862
-1.50775 0.616685 -1.6644
3.69441 0.600316 -1.30041
0.133313 -0.40595 0.897329
0.975527 -4.22997 0.627071
0.538638 4.4414 0.00705134
0.239696 0.054634 0.0530792
1.32542 4.09724 -0.543732
-1.15569 -2.00559 4.34507
-9.487 17.8589 1.009
11.0234 -0.867972 -1.93635
1.70539 1.60395 -0.985073
4.03116 -1.77872 -8.11995
0.548516 -4.32499 -1.29187
-0.0274798 4.03473 4.84611
0.732175 -5.20761 2.17407
-4.58307 8.84339 2.64509
0.0528982 -0.393427 -0.474304
-0.74101 0.816785 -0.498587
0.12472 -1.05031 1.11705
-2.73793 -0.182411 4.67378
1.49426 1.06636 -2.67012
0.98245 -3.61517 -0.373131
2.42191 0.0309408 -3.06908
-2.62803 1.92552 0.0169815
-3.82774 -0.559054 -10.0341
0.496867 -2.09748 -0.105296
-3.05014 4.52695 -2.38328
0.441656 2.61942 12.9795
1.13271 3.15974 -0.940448
-0.712886 -3.19457 -0.363873
0.67543 -2.70899 -0.296763
2.82293 1.36355 0.733751
2.4005 3.2671 -6.9151
-7.36528 2.32349 -1.43393
-0.0458357 2.44108 3.10192
3.05849 0.192003 2.60736
-6.63299 0.624021 -6.21248
0.521304 -1.36873 -0.502864
0.0 0.0 0.0
-0.267688 0.496911 -0.0892574
VECTORS v float
0.00183316 -0.00558962 -0.00302292
-0.00500553 -0.0150892 -0.000932299
0.0273478 -0.0461754 0.004159
-0.00153289 0.00587323 -0.00300645
0.0329248 0.00530545 -0.000680184
0.00718759 -0.0244651 -0.0067639
-0.0302148 -0.00932585 0.0067282
0.0389745 -0.00786657 -0.00492698
0.0514736 0.00930082 -0.0635581
0.00847042 -0.00806149 -0.000121934
0.0291863 -0.0197894 -0.0285108
-0.0215087 -0.0516047 -0.0844583
0.00479326 -0.00452539 0.00448456
0.00400763 0.0434162 -0.0379823
0.00652473 0.0284784 0.00140044
-0.0167597 -0.00383562 -0.0571498
-0.0269227 0.0112864 -0.00765153
-0.0101014 0.000299404 -0.0999744
0.0016984 -0.00395842 0.00128331
0.0147075 0.000412754 -0.0014317
-0.00513473 -0.0041562 0.0009609
0.0214494 0.0492838 -0.0325267
-0.000142512 -0.00455822 -0.0061625
0.0112448 0.0294833 0.0233671
0.00457723 -0.0195896 -0.0160122
0.0509765 -0.0137252 -0.00635232
0.0398951 -0.000655613 -0.000756469
0.00339007 -0.011411 -0.00458652
0.00116263 0.0132505 -0.00419814
0.027329 0.0647002 0.0251188
0.0502543 0.0086414 0.0031325
-0.0412813 0.0165972 -0.0319323
0.0307959 0.0180237 0.00177183
-0.00909409 0.0144782 -0.0126353
0.00600532 0.0148764 -0.00282308
-0.0758064 0.00453033 -0.000320278
-0.0431532 0.0315717 0.0048183
-0.053201 0.0115829 -0.0278251
0.00155537 -0.0113597 0.0452516
-0.0259815 0.00381841 -0.068032
-0.00695164 0.00335319 0.000969714
0.00552356 0.0109943 0.0226653
-0.00254025 0.00240468 0.00815296
-0.0123208 0.00391957 -0.0919451
-0.00235456 -0.0152571 0.00235286
-0.00719205 0.0026611 -0.00790489
0.00210036 0.00779497 0.00523249
0.00505164 0.0131163 0.0359047
0.0118026 0.0181893 0.0187754
-0.00184204 0.0264248 0.000109383
0.019887 0.0192851 -0.000699166
0.0340395 0.0866059 -0.0697575
-0.0315431 0.0282767 0.00686527
0.00576311 -0.0410652 0.00812081
0.0142096 0.0270628 -0.0107316
0.0402969 -0.000639814 0.026909
-0.00171154 0.0305189 -0.0306195
-0.0597316 -0.0103282 0.00929494
0.0731233 0.00242706 -0.00199063
0.0695986 -0.00696787 0.044674
0.0297629 0.0341146 -0.0172204
-0.0845259 0.00160415 -0.00589018
-0.103093 0.0152914 -0.0511468
-0.0833539 -0.00710418 -0.0565997
0.0443135 -0.00074307 -0.0280377
0.0034645 0.00589205 0.00776246
-0.00932517 -0.0111596 0.00147606
0.00098678 0.00966616 -0.00888948
0.00601293 0.0148158 0.0116058
-0.0320624 0.0510852 -0.00968447
-0.00868236 0.0189553 -0.00108812
0.0480674 -0.00820336 -0.000786484
0.023087 -0.0679335 -0.0153068
0.010676 0.00713538 -0.0100448
0.0613774 -0.0152594 -0.0757317
0.0122187 0.0505099 0.00945115
0.105257 -0.0299211 -0.0881007
-0.054899 0.00657661 0.0044067
-0.0149798 0.0164136 0.0117573
-0.0708888 0.0157575 -0.0145081
-0.0498582 0.0285211 -0.028923
0.0723744 0.000551261 -0.00183982
0.00391927 -0.00575081 0.00631693
0.00334983 0.00389127 0.011589
0.0659883 -0.0656248 0.0179855
-0.00611127 -0.00817349 -0.0168493
-0.0136683 -0.027491 -0.015992
-0.0192909 0.0113287 -0.0156759
-0.00808971 0.0223619 -0.0313757
0.00279842 0.0454042 -0.0306462
0.0020525 -0.00316038 0.0151729
-0.022422 0.0294753 -0.0218894
-0.0117266 0.042002 -0.0108736
0.0298099 0.0242894 0.000697287
0.0662717 0.0650987 -0.0450652
0.0126419 -0.00379322 0.0168891
-0.0192743 0.0937414 -0.0503633
-0.00361272 0.0199951 0.0234692
-0.161427 0.0393041 0.012849
-0.00443171 -0.0111299 0.027928
-0.111352 0.0215862 -0.0230866
-0.023063 0.00313464 -0.0338217
-0.0390763 -0.00963007 0.00271235
-0.00808995 0.00222776 -0.0328487
-0.00265436 -0.00521728 0.0204151
0.00531672 0.00922058 0.0241913
-0.00877035 -0.012116 -0.00189497
-0.0349124 0.0215206 0.0148728
0.0011667 0.0109869 -0.0169215
-0.0450133 -0.0149614 -0.0156653
-0.0235407 0.00465656 -0.0209031
0.0285505 0.0131256 -0.0342309
-0.073278 -0.0265041 0.00690065
-0.0134851 -0.0170377 0.0153707
-0.0018703 0.028588 0.0568303
0.00363467 0.0101871 -0.0432398
0.0329189 -0.0141879 0.0115908
0.0377291 0.0365682 0.0199893
-0.0423027 0.0290186 -0.00702736
0.0127804 -0.0242768 0.0456988
-0.0772925 -0.00490018 -0.0534202
-0.0133987 0.0234144 -0.00195772
-0.0238355 0.0203886 0.00451711
-0.0426626 -0.00412224 -0.0274012
-0.0348206 0.0322927 -0.0249088
-0.0165982 -0.00145489 0.102758
0.0121259 -0.00156736 0.0548672
-0.0419816 -0.0968453 0.0533791
-0.0315375 0.00395287 -0.00492785
0.00880218 -0.0253869 -0.00907407
-0.0255222 0.0048755 0.00173511
-0.00762963 -0.00142501 -0.0277373
-0.0136029 -0.022664 0.0760965
0.00415342 0.0306094 0.0498248
0.00577397 -0.000783316 -0.0320422
-0.0626505 0.0348968 -0.0122998
-0.00388626 -0.000511989 0.0262553
-0.0049626 -0.00322312 -0.0238443
-0.0943236 -0.038733 0.00532858
0.0212432 -0.0199303 0.0164784
0.0117409 0.00969396 0.0838512
0.0121348 -0.00824585 0.0215058
-0.0126349 -0.0405896 -0.0194948
-0.0156616 0.0291294 0.0153365
0.0197371 -0.00165479 0.0218421
0.000953823 -0.0267604 0.0626064
-0.00150241 0.00911954 0.0350637
0.0096557 -0.0280024 -0.000926177
-0.0105487 0.0590306 -0.0136756
-0.0241576 -0.00707797 0.0298679
-0.0332063 0.038441 -0.0138057
-0.0031101 0.00488826 0.0137206
-0.0234734 0.0131661 0.120095
-0.0311945 0.0522836 0.0499867
-0.0233638 0.00453487 0.00349115
-0.0412163 -0.0104492 -0.0243511
0.0202359 0.0302347 0.0130361
0.00217783 -0.00839215 0.00556991
-0.0295947 -0.0517283 -0.0491038
-0.0271174 -0.0614375 0.00557707
0.00350714 0.0374989 0.0130245
-0.0271631 -0.00943025 0.0064356
-0.000336863 0.0249829 -0.0604375
0.0159813 -0.0140167 -0.0209153
0.0458794 -0.00543779 0.0398209
-0.0365383 -0.00107103 -0.0088443
-0.0455614 -0.0575238 -0.0390823
0.0113684 -0.00630814 0.0066483
0.00958177 0.000246429 0.00364931
0.00656197 -0.00721302 0.0146274
-2.49551e-05 -0.0169548 0.00428838
-0.00640467 0.00224207 -0.007694
0.000172901 -0.0402634 0.031866
0.0348009 -0.00219604 -0.0431902
-0.00028466 0.00160805 0.00830187
-0.0127102 0.0525017 0.0284147
-0.00204989 -0.00105026 -0.023078
-0.00339151 -0.00310099 -0.0227093
0.010689 -0.0389198 0.0979983
0.0 0.0 0.0
-0.0355306 -0.00420488 -0.0140132
0.0328947 0.0181154 -0.0272086
-0.012248 -0.0598916 0.0444208
-0.0630177 -0.0150755 0.06003
0.0122378 -0.0154008 0.0275815
-0.0428989 -0.0359628 0.00346882
-0.0394534 -0.0341057 -0.112409
0.000192093 -0.0184182 -0.0260343
-0.00114236 -0.0514667 -0.0111783
-0.0128087 -0.00686569 -0.0154728
-0.000643053 -0.00176678 -0.00744964
0.00588433 -0.018044 -0.0276759
0.000366541 -0.00295401 0.0119113
0.0192016 -0.0115028 0.047247
-0.0119594 -0.0117824 -0.0458017
-0.00541788 -0.000591992 0.0283813
-0.00358519 0.0101303 0.0275836
0.000666334 0.000575358 -0.00610441
-0.0122338 0.00628812 0.0376816
-0.00821445 0.00380538 0.00425263
-0.00101715 -0.0776399 -0.0116699
-0.0183581 -0.0162602 -0.027256
0.0246111 0.0550964 0.0585288
-0.0161498 -0.0022964 -0.0154583
0.00806048 0.029255 0.041966
-0.00962999 0.0723489 0.0807654
-0.0222119 -0.0199517 0.0499636
-0.0858217 -0.0160258 0.0470826
-0.0400941 0.00497724 0.0316021
-0.0098938 0.000386689 -0.00843073
0.030155 -0.0596258 -0.0109814
-0.0367016 -0.0487294 -0.00595577
-0.00916055 -0.0104116 -0.0195805
-0.00467361 -0.0414459 -0.00659585
-0.00207882 -0.0688047 0.0137188
-0.00274553 0.00318309 -0.00331105
-0.0139593 -0.0322749 0.0117189
-0.00446556 -0.00784277 0.0057929
-0.00415061 -0.00576703 -0.0331992
-0.00293844 0.041038 -0.00629366
-0.00944324 0.0183501 0.0103694
0.00180943 0.0416327 -0.0224103
-0.00523311 -0.00444776 -0.014982
0.00824124 0.0407455 0.0215687
0.0655735 0.0396998 0.0047798
0.0386678 0.0298537 0.0256335
-0.0137942 0.00336916 0.0241426
0.0467983 0.0624273 0.0990886
0.101946 0.0195307 0.0979176
0.0594106 0.0387679 -0.00020414
-0.00533462 0.0201729 -0.00287448
0.00447309 -0.0152176 0.0192522
0.000739416 -0.0258928 -0.000663135
-0.0141154 -0.0101717 -0.0345534
-0.0163256 0.00483724 -0.00557593
-0.00959559 -0.00378767 -0.0325642
-0.0269243 0.00248045 -0.0244352
0.0218789 0.00261179 0.0151593
0.00271269 -0.00449795 0.00242303
0.00674998 0.0123499 0.000490726
0.0346534 -0.0433336 -0.0927828
0.0268154 -0.00380211 0.0231724
0.0499559 0.00690873 0.00323874
0.00223743 -0.00544642 -0.0106775
0.0534976 -0.0253969 -0.0300001
0.038198 0.00189923 0.0677518
0.00499663 -0.0187439 0.0244342
0.00832487 -0.00317099 -0.00604214
0.0096785 -0.0293772 0.059084
0.101269 -0.0181322 0.0188513
0.0524214 -0.0999563 0.00121649
0.00239459 0.00587405 0.00328176
-0.0060004 -0.00377286 -0.00384091
0.015831 -0.0568238 -0.0467676
-0.0157201 0.00508706 -0.0102248
0.000161677 0.0138858 0.0111306
0.00965708 -0.0187331 0.0357791
0.0148936 -0.00719197 0.0573595
0.00237657 -0.0140246 0.0212739
0.00257727 0.00264097 0.00733159
0.0109864 -0.00824603 0.0169043
0.00567957 0.0023585 0.00165717
-0.0242987 -0.000683344 -0.0269819
0.0174801 -0.00817075 0.0203024
-0.0139874 -0.000704681 -0.00914156
0.0128018 0.0130784 -0.0413891
-0.0121309 0.00401215 0.056175
0.063625 -0.112782 0.0100326
-0.00991761 -0.0176459 0.0550139
-0.0218021 0.00640391 0.0804994
0.00903361 0.00777321 0.00392073
-0.0134689 0.00481282 0.056171
0.00738675 -0.0112724 -0.0249866
-0.00363112 -0.00808121 -0.0264722
-0.0494127 0.0101507 0.0164504
0.00460936 0.0224884 0.0110983
0.00947704 -0.00392611 0.00605139
-0.0179816 -0.0219539 0.00209376
-0.0233204 0.00845248 -0.0168821
-0.019171 0.0111737 0.00276547
0.00468812 -0.00959535 -0.016141
-0.00947724 0.0081369 -0.00596407
-0.0262844 0.000631705 -0.0154357
-0.0133548 0.00747542 -0.00176825
0.0203529 0.00701048 0.00492009
0.0143177 -0.00751254 0.0203611
-0.00978843 0.0147749 -0.00309617
-0.061937 -0.0306709 0.0669462
0.0219877 -0.0230789 -0.0201225
0.00960533 -0.00469512 0.0873144
-0.0341418 -0.00346313 -0.0194953
0.0363036 -0.0180921 0.00913416
0.0284774 -0.0062349 -0.000515912
0.0156605 -0.0074201 -0.00359023
0.00652872 0.000336755 -0.0198849
0.00629616 0.020507 0.019943
-0.0217561 -0.0692486 -0.0399791
-0.0189291 0.0207461 -0.00679626
0.00760513 0.00915889 0.00672611
0.00625698 0.00624611 0.00399019
0.00050473 -0.0104186 0.0142731
0.0010736 -0.00474652 0.00625021
-0.000467203 0.0029246 0.000445334
0.0114227 -0.0193041 0.0186577
0.0158562 -0.00778811 0.0082134
0.0262203 -0.00783696 0.08939
0.0367842 -0.0274478 0.0136621
0.00338076 0.0170128 0.0160812
-0.025342 -0.0105112 0.0606555
0.039941 -0.00272634 0.00644055
0.0314865 0.0195423 0.0114681
-0.0166248 0.0170614 -0.000306154
0.0174204 -0.00410061 0.00939155
0.0029516 -0.00141628 0.00371267
-0.00875489 -0.00500921 -0.0151976
-0.00387779 0.0181169 0.00819878
-0.00215883 0.00829713 -0.00552597
0.00151429 0.00912695 -0.0158868
-0.00882936 0.0123959 -0.00731805
-0.0137628 0.013892 -0.00732209
0.000385521 0.00723941 -0.0162105
-0.0769507 -0.0675945 -0.00448937
-0.00753984 0.00874004 -0.0207831
0.00612795 -0.0311206 0.096988
-0.0156301 0.00532621 0.00298236
-0.0182963 0.00977291 0.00116279
0.00104782 -0.0142753 0.0257323
-0.0194682 0.0432977 0.0345983
-0.00839855 0.0171622 -0.000758971
-0.021717 0.0157689 0.00272861
0.0230255 0.0475718 0.0370339
-0.0153789 -0.00101447 -0.00392757
-0.0129001 0.023777 0.0444044
-0.0159376 0.0589801 -0.00564827
-0.00521665 -0.00268995 -0.00530135
0.0 0.0 0.0
-0.000784727 -0.00416042 0.00136245
SCALARS radius float 1
LOOKUP_TABLE default
0.006323
0.006323
0.006323
0.006323
0.006323
0.006323
0.006323
0.006323
0.006323
0.006323
0.006323
0.006323
0.006323
0.006323
0.006323
0.006323
0.006323
0.006323
0.0101168
0.0101168
0.0101168
0.006323
0.0101168
0.006323
0.006323
0.0101168
0.0101168
0.0101168
0.0101168
0.006323
0.0101168
0.006323
0.0101168
0.006323
0.0101168
0.0101168
0.0101168
0.006323
0.006323
0.006323
0.006323
0.006323
0.0101168
0.006323
0.006323
0.0101168
0.0101168
0.006323
0.006323
0.0101168
0.006323
0.0101168
0.006323
0.006323
0.0101168
0.006323
0.006323
0.0101168
0.006323
0.006323
0.006323
0.0101168
0.006323
0.006323
0.006323
0.006323
0.0101168
0.0101168
0.0101168
0.006323
0.006323
0.0101168
0.006323
0.006323
0.006323
0.0101168
0.006323
0.006323
0.006323
0.006323
0.0101168
0.006323
0.0101168
0.0101168
0.006323
0.0101168
0.006323
0.006323
0.006323
0.006323
0.006323
0.0101168
0.006323
0.0101168
0.006323
0.0101168
0.006323
0.006323
0.006323
0.0101168
0.006323
0.0101168
0.006323
0.006323
0.006323
0.006323
0.006323
0.006323
0.0101168
0.006323
0.0101168
0.006323
0.0101168
0.006323
0.006323
0.0101168
0.0101168
0.006323
0.0101168
0.0101168
0.006323
0.0101168
0.0101168
0.0101168
0.006323
0.006323
0.006323
0.006323
0.006323
0.0101168
0.0101168
0.006323
0.006323
0.006323
0.006323
0.0101168
0.0101168
0.0101168
0.006323
0.0101168
0.006323
0.006323
0.006323
0.0101168
0.006323
0.006323
0.0101168
0.006323
0.006323
0.006323
0.006323
0.006323
0.006323
0.006323
0.0101168
0.006323
0.006323
0.006323
0.006323
0.0101168
0.006323
0.0101168
0.006323
0.006323
0.006323
0.006323
0.006323
0.0101168
0.0101168
0.006323
0.006323
0.006323
0.006323
0.006323
0.006323
0.0101168
0.006323
0.0101168
0.006323
0.006323
0.006323
0.006323
0.006323
0.006323
0.006323
0.0101168
0.006323
0.0101168
0.0101168
0.0101168
0.0101168
0.0101168
0.0101168
0.0101168
0.0101168
0.006323
0.006323
0.006323
0.006323
0.006323
0.006323
0.006323
0.006323
0.0101168
0.006323
0.006323
0.0101168
0.006323
0.0101168
0.0101168
0.006323
0.0101168
0.0101168
0.006323
0.0101168
0.006323
0.006323
0.006323
0.006323
0.006323
0.006323
0.006323
0.0101168
0.0101168
0.0101168
0.006323
0.006323
0.0101168
0.006323
0.0101168
0.0101168
0.006323
0.006323
0.006323
0.0101168
0.0101168
0.0101168
0.0101168
0.006323
0.006323
0.006323
0.006323
0.0101168
0.0101168
0.006323
0.006323
0.006323
0.0101168
0.0101168
0.0101168
0.006323
0.0101168
0.0101168
0.0101168
0.0101168
0.006323
0.006323
0.006323
0.006323
0.006323
0.006323
0.006323
0.006323
0.006323
0.006323
0.006323
0.006323
0.006323
0.006323
0.0101168
0.0101168
0.006323
0.006323
0.006323
0.0101168
0.0101168
0.006323
0.006323
0.0101168
0.006323
0.006323
0.0101168
0.006323
0.006323
0.0101168
0.0101168
0.006323
0.006323
0.0101168
0.0101168
0.006323
0.006323
0.006323
0.006323
0.006323
0.0101168
0.0101168
0.0101168
0.006323
0.0101168
0.006323
0.0101168
0.0101168
0.0101168
0.0101168
0.006323
0.006323
0.0101168
0.006323
0.0101168
0.0101168
0.0101168
0.0101168
0.0101168
0.0101168
0.0101168
0.006323
0.006323
0.0101168
0.006323
0.006323
0.006323
0.006323
0.006323
0.006323
0.006323
0.006323
0.006323
0.006323
0.006323
0.006323
0.006323
0.006323
0.006323
0.006323
0.006323
0.006323
SCALARS type float 1
LOOKUP_TABLE default
1.0
1.0
1.0
1.0
1.0
1.0
1.0
1.0
1.0
1.0
1.0
1.0
1.0
1.0
1.0
1.0
1.0
1.0
1.0
1.0
1.0
1.0
1.0
1.0
1.0
1.0
1.0
1.0
1.0
1.0
1.0
1.0
1.0
1.0
1.0
1.0
1.0
1.0
1.0
1.0
1.0
1.0
1.0
1.0
1.0
1.0
1.0
1.0
1.0
1.0
1.0
1.0
1.0
1.0
1.0
1.0
1.0
1.0
1.0
1.0
1.0
1.0
1.0
1.0
1.0
1.0
1.0
1.0
1.0
1.0
1.0
1.0
1.0
1.0
1.0
1.0
1.0
1.0
1.0
1.0
1.0
1.0
1.0
1.0
1.0
1.0
1.0
1.0
1.0
1.0
1.0
1.0
1.0
1.0
1.0
1.0
1.0
1.0
1.0
1.0
1.0
1.0
1.0
1.0
1.0
1.0
1.0
1.0
1.0
1.0
1.0
1.0
1.0
1.0
1.0
1.0
1.0
1.0
1.0
1.0
1.0
1.0
1.0
1.0
1.0
1.0
1.0
1.0
1.0
1.0
1.0
1.0
1.0
1.0
1.0
1.0
1.0
1.0
1.0
1.0
1.0
1.0
1.0
1.0
1.0
1.0
1.0
1.0
1.0
1.0
1.0
1.0
1.0
1.0
1.0
1.0
1.0
1.0
1.0
1.0
1.0
1.0
1.0
1.0
1.0
1.0
1.0
1.0
1.0
1.0
1.0
1.0
1.0
1.0
1.0
1.0
1.0
1.0
1.0
1.0
1.0
1.0
1.0
1.0
1.0
1.0
1.0
1.0
1.0
1.0
1.0
1.0
1.0
1.0
1.0
1.0
1.0
1.0
1.0
1.0
1.0
1.0
1.0
1.0
1.0
1.0
1.0
1.0
1.0
1.0
1.0
1.0
1.0
1.0
1.0
1.0
1.0
1.0
1.0
1.0
1.0
1.0
1.0
1.0
1.0
1.0
1.0
1.0
1.0
1.0
1.0
1.0
1.0
1.0
1.0
1.0
1.0
1.0
1.0
1.0
1.0
1.0
1.0
1.0
1.0
1.0
1.0
1.0
1.0
1.0
1.0
1.0
1.0
1.0
1.0
1.0
1.0
1.0
1.0
1.0
1.0
1.0
1.0
1.0
1.0
1.0
1.0
1.0
1.0
1.0
1.0
1.0
1.0
1.0
1.0
1.0
1.0
1.0
1.0
1.0
1.0
1.0
1.0
1.0
1.0
1.0
1.0
1.0
1.0
1.0
1.0
1.0
1.0
1.0
1.0
1.0
1.0
1.0
1.0
1.0
1.0
1.0
1.0
1.0
1.0
1.0
1.0
1.0
1.0
1.0
1.0
1.0
1.0
1.0
1.0
1.0
1.0
1.0
1.0
1.0
1.0
1.0
1.0
1.0
1.0
1.0
1.0
1.0
1.0
1.0
1.0
1.0
1.0
1.0
1.0
1.0
1.0
SCALARS id float 1
LOOKUP_TABLE default
138.0
141.0
297.0
304.0
293.0
325.0
285.0
241.0
183.0
126.0
171.0
180.0
207.0
240.0
140.0
291.0
197.0
258.0
50.0
92.0
60.0
154.0
98.0
188.0
298.0
88.0
80.0
106.0
10.0
277.0
41.0
213.0
23.0
327.0
58.0
32.0
6.0
174.0
158.0
128.0
264.0
234.0
89.0
263.0
331.0
48.0
37.0
329.0
328.0
121.0
172.0
84.0
164.0
200.0
9.0
305.0
274.0
40.0
186.0
149.0
135.0
102.0
143.0
198.0
173.0
246.0
119.0
122.0
38.0
321.0
260.0
64.0
169.0
193.0
288.0
47.0
184.0
257.0
205.0
232.0
34.0
229.0
94.0
61.0
137.0
70.0
227.0
225.0
199.0
195.0
130.0
62.0
259.0
79.0
127.0
81.0
265.0
275.0
273.0
12.0
192.0
72.0
230.0
247.0
163.0
295.0
278.0
159.0
85.0
314.0
73.0
153.0
100.0
322.0
216.0
2.0
35.0
239.0
30.0
99.0
301.0
103.0
66.0
13.0
253.0
142.0
252.0
160.0
222.0
44.0
17.0
238.0
203.0
292.0
212.0
75.0
49.0
22.0
228.0
55.0
249.0
319.0
156.0
107.0
245.0
308.0
105.0
201.0
217.0
276.0
248.0
296.0
144.0
233.0
8.0
294.0
133.0
250.0
152.0
31.0
175.0
33.0
147.0
269.0
317.0
267.0
204.0
19.0
97.0
157.0
236.0
324.0
155.0
306.0
151.0
93.0
165.0
18.0
290.0
145.0
182.0
220.0
333.0
261.0
146.0
77.0
208.0
45.0
82.0
4.0
118.0
69.0
26.0
24.0
117.0
237.0
336.0
326.0
132.0
210.0
181.0
310.0
206.0
5.0
286.0
280.0
65.0
189.0
101.0
108.0
161.0
111.0
115.0
242.0
95.0
166.0
221.0
224.0
302.0
231.0
307.0
185.0
39.0
29.0
46.0
167.0
282.0
68.0
272.0
28.0
25.0
179.0
134.0
337.0
3.0
74.0
20.0
42.0
177.0
303.0
124.0
202.0
51.0
114.0
251.0
300.0
148.0
14.0
112.0
91.0
194.0
116.0
83.0
104.0
53.0
309.0
136.0
279.0
235.0
176.0
281.0
196.0
330.0
335.0
215.0
218.0
311.0
131.0
271.0
21.0
27.0
191.0
315.0
255.0
52.0
7.0
223.0
190.0
56.0
123.0
316.0
76.0
139.0
332.0
96.0
71.0
318.0
170.0
43.0
63.0
270.0
268.0
262.0
168.0
214.0
78.0
59.0
113.0
334.0
86.0
162.0
120.0
109.0
87.0
67.0
125.0
219.0
54.0
209.0
57.0
16.0
110.0
90.0
11.0
36.0
1.0
312.0
226.0
15.0
256.0
211.0
323.0
284.0
178.0
320.0
254.0
289.0
243.0
266.0
187.0
299.0
129.0
150.0
283.0
287.0
313.0
244.0

