# vtk DataFile Version 2.0
Generated by lpp.py
ASCII
DATASET POLYDATA
POINTS 337 float
-0.0121623 -0.0387248 0.00604497
0.00554144 -0.0339983 0.00604298
-0.0191511 -0.0274366 0.00603782
0.0398871 -0.0305839 0.00604568
-0.00920875 -0.0188754 0.00613245
0.0354439 -0.019354 0.00602586
0.0156975 -0.0112424 0.00653372
0.00717962 -0.00119677 0.00599877
-0.0326047 0.0126468 0.00663443
-0.00530283 0.0220444 0.00750842
0.0439448 0.0192994 0.00884379
0.00565848 0.0398624 0.00602615
0.0153826 0.0321675 0.00639498
0.012089 -0.0423341 0.0159219
-0.0273752 -0.0403369 0.0096782
0.0262611 -0.0358985 0.0124658
-0.00506113 -0.0296514 0.016819
0.0119198 -0.0281582 0.014482
-0.0327701 -0.0220181 0.0127668
-0.0174052 -0.019525 0.0150075
0.0426578 -0.0205339 0.0162877
0.00327174 -0.00970584 0.0185636
0.0287516 -0.00813577 0.0147327
-0.0402393 -0.00425206 0.0110987
-0.0181346 -0.00241206 0.00956762
0.0176386 0.00252284 0.0113645
-0.0252361 0.00916448 0.0175349
-0.00931976 0.0106559 0.00944952
0.0310061 0.0108076 0.0116289
-0.0438616 0.0185434 0.0125122
-0.0149054 0.0192854 0.0167324
0.0111687 0.0170939 0.0112864
0.00683084 0.0317685 0.0149264
0.0295555 0.0300478 0.0128409
-0.032502 0.0403556 0.0108263
-0.0140448 0.0343978 0.0126377
0.0415858 0.0401654 0.0124854
-0.00203278 0.043878 0.0162673
0.013662 0.0425983 0.0146426
0.00253561 -0.0434388 0.0240659
0.0306145 -0.0440005 0.0255852
-0.0424438 -0.0359846 0.0230472
-0.0186266 -0.0396279 0.0269125
0.0101635 -0.034078 0.0248363
0.040376 -0.0318304 0.0270876
0.0213066 -0.0229991 0.0260615
-0.0439077 -0.0155204 0.0217682
0.00549144 -0.0225793 0.0272284
0.0359341 -0.0168708 0.0256256
-0.0292507 -0.00866795 0.0268054
-0.0140205 -0.00851471 0.0232879
0.0417028 -0.00636766 0.0237652
0.0169044 0.000967201 0.0271461
-0.0396478 0.0108429 0.0220978
-0.0107849 0.00664122 0.0250304
0.00398208 0.00596764 0.0197453
0.0434663 0.00552884 0.0248484
0.0177166 0.0212689 0.0260364
0.0404903 0.0208285 0.0218043
-0.030648 0.0236521 0.0203926
-0.00866727 0.043964 0.0279434
0.024201 0.0439488 0.020383
0.0360002 0.0429871 0.0228385
-0.0365699 -0.0401721 0.037022
-5.60825e-05 -0.0334602 0.037051
0.0179919 -0.0403534 0.0368785
-0.0403842 -0.0212222 0.0363785
-0.0141498 -0.0215019 0.0318535
-0.0440125 -0.00556571 0.0309953
-0.00161886 -0.00551777 0.0368888
0.0354815 0.00424257 0.0338897
-0.0377773 0.00740219 0.0373228
-0.0236048 0.0124599 0.0319614
-0.0102114 0.0201467 0.0330261
0.00486801 0.0150119 0.0325899
0.0288904 0.0181874 0.0294959
-0.043953 0.0289806 0.0293553
-0.0353713 0.0336174 0.036492
-0.0239406 0.0403566 0.028155
-0.0121306 0.0338606 0.0368527
0.00332228 0.0340659 0.0300746
0.0197744 0.0329514 0.0283889
0.0403251 0.0327055 0.03396
-0.0423548 0.0422544 0.028933
-0.0160995 -0.0387841 0.0424185
0.0389699 -0.0403536 0.0454124
-0.0259944 -0.024561 0.0416301
0.0293087 -0.0295366 0.0379166
0.0400633 -0.0251929 0.0415367
0.00388953 -0.0211916 0.04642
0.0118878 -0.0154808 0.0386773
0.0437178 -0.013713 0.0419368
-0.0413119 -0.0075792 0.0441205
0.029092 -0.00960948 0.037723
-0.0196426 0.000250771 0.0410324
0.0113636 0.00384189 0.0415835
0.0439827 -0.00181861 0.0399927
0.0234352 0.010486 0.0391545
-0.035542 0.0224726 0.0410508
-0.0203811 0.0205901 0.0449929
0.0371044 0.018088 0.0387543
-0.0439437 0.0396663 0.0425627
0.0159403 0.0403801 0.0432364
-0.0271968 0.041798 0.0435702
0.0311787 0.0440383 0.0433281
0.0436603 0.0439349 0.0444605
-0.0437458 -0.0439598 0.0504854
0.0050244 -0.0440748 0.0472024
-0.043695 -0.0327304 0.0549843
0.0172291 -0.0403892 0.0562493
-0.0223884 -0.0308359 0.0555479
-0.0097767 -0.0247957 0.0482871
-0.000575512 -0.0313064 0.0527025
0.0225077 -0.022768 0.0502754
-0.0310129 -0.00567109 0.0501481
-0.0122305 -0.01081 0.0550534
0.00297168 -0.00836077 0.0515776
0.0438237 -0.00667809 0.053354
0.0177225 -0.00434852 0.0557998
-0.000295108 0.00983762 0.0505881
0.0154774 0.0106078 0.0516808
0.0336281 0.00481847 0.049739
-0.040259 0.0192845 0.0556587
0.041175 0.01855 0.050156
-0.00455519 0.024196 0.0562305
0.0110045 0.0253891 0.0543796
0.030703 0.0301968 0.0505493
-0.00252435 0.0382514 0.0485749
-0.0334612 -0.0421416 0.0587829
-0.0204232 -0.0439305 0.063961
0.00186233 -0.0421725 0.0586746
-0.0437597 -0.0401291 0.0652226
-0.0100353 -0.0398209 0.0593168
0.0301574 -0.0324936 0.060043
0.0433735 -0.0371671 0.06017
-0.00898415 -0.0283201 0.0633668
-0.0325187 -0.0162789 0.0632645
0.00728614 -0.0195116 0.0616722
0.0403885 -0.0207346 0.0608127
-0.00137938 -0.00143016 0.0614987
0.0425768 0.00395405 0.0643538
-0.0265652 0.00612141 0.0595338
-0.0185557 0.0205848 0.0607813
-0.00812119 0.0149921 0.0632048
0.0255363 0.0172281 0.0649057
0.0439849 0.0178056 0.0618837
-0.0422417 0.0342399 0.0601059
-0.0247896 0.0346651 0.0574784
-0.00972873 0.0342554 0.0619462
0.0150597 0.0384028 0.0625042
0.0439701 0.0406361 0.0568629
-0.00290788 0.0439603 0.0643046
0.0277867 0.0427366 0.0606149
-0.0147744 -0.0439818 0.0746111
-0.0327918 -0.032217 0.0673411
-0.000625875 -0.0373106 0.0733331
0.0288838 -0.0403475 0.073575
-0.0438843 -0.0283903 0.0702776
-0.0217492 -0.0283043 0.0710531
0.0193104 -0.0294222 0.0673245
-0.0127554 -0.0202363 0.0715167
-0.00100607 -0.0198928 0.0749121
-0.0185625 -0.00570562 0.0725856
0.0152537 -0.00876432 0.0711972
0.0314031 -0.00598261 0.0693069
-0.0354789 -4.46072e-06 0.0735211
0.00908981 0.00128357 0.0676782
0.00203336 0.00886696 0.0739117
-0.0290855 0.0199064 0.0666666
0.00133272 0.0198573 0.0689457
-0.00994358 0.0251864 0.0699189
0.0385854 0.0311379 0.0681586
-0.0335875 0.0327088 0.0745758
-0.0431989 0.0439492 0.0692264
-0.017751 0.0439727 0.0679879
0.00730721 0.0439502 0.0707947
0.00993067 -0.0439559 0.0828776
0.0439481 -0.0439519 0.0795196
-0.0349238 -0.0380996 0.081771
0.0152247 -0.0339338 0.0779666
-0.00912859 -0.0266686 0.0810388
0.0423972 -0.0302254 0.0778629
-0.0439686 -0.0181179 0.0838747
-0.0201981 -0.0211577 0.0815642
-0.00951195 -0.0145442 0.0819267
0.0126719 -0.0221598 0.07688
0.0418975 -0.0139913 0.0782453
-0.0360982 -0.0113106 0.0777351
0.00333341 -0.00512454 0.0809825
-0.0128579 0.0119673 0.0778878
0.019607 0.00702524 0.0804414
0.0392336 0.00845556 0.0793102
-0.0403464 0.0146734 0.0763015
0.00753438 0.0299453 0.0792679
0.0288603 0.0239129 0.0840873
-0.0111138 0.0323979 0.0838362
0.0234941 0.0404246 0.075821
0.0439504 0.0323977 0.0829288
-0.0224165 0.0433674 0.0791797
0.0373415 0.0427514 0.0830946
-0.0439272 -0.0437549 0.093369
-0.0207084 -0.0440132 0.0851101
-0.000671998 -0.0420174 0.0900087
0.0136114 -0.0348745 0.0899062
0.0384049 -0.040607 0.0897425
0.00345862 -0.022885 0.0895864
0.0327343 -0.0263099 0.0930245
-0.0326163 -0.0217154 0.085925
0.0220607 -0.0123775 0.0849591
0.0400416 -0.00626735 0.0918464
-0.0392241 0.00367517 0.0881195
-0.023767 0.00134613 0.0898335
0.00325347 0.0126882 0.0891008
-0.0417627 0.0195099 0.0911969
-0.0262621 0.0212259 0.0882667
0.0438912 0.0159961 0.0922638
-0.0439735 0.0382648 0.0849585
0.0129547 0.0408506 0.0903116
-0.0304485 0.0434355 0.0882254
0.000758138 0.0439629 0.0882158
0.0073759 -0.033247 0.10168
0.0223835 -0.040019 0.10185
-0.0401961 -0.0295201 0.0989005
-0.0166461 -0.0316687 0.0938362
-0.0317759 -0.0160487 0.0965603
0.0219248 -0.0172282 0.10033
-0.0108956 -0.0135745 0.0985256
-0.00407341 -0.000274212 0.0939364
0.0196292 0.00350791 0.099473
-0.040364 0.00901613 0.102866
0.0320052 0.0184496 0.102336
-0.0430902 0.0313936 0.0951179
-0.0315168 0.023665 0.102838
-0.0137976 0.0255345 0.0978971
-0.00144151 0.025642 0.0972123
0.0147719 0.0259622 0.0970629
-0.018655 0.0403027 0.0998162
0.0291568 0.0388627 0.0964185
-0.0433294 0.0437311 0.0957291
-0.0428586 -0.0429683 0.106618
0.00756157 -0.0439458 0.111708
-0.0288341 -0.0400252 0.108754
-0.00622668 -0.0365452 0.109715
0.0403856 -0.0363866 0.107782
-0.0315102 -0.025237 0.111466
0.0224774 -0.0252347 0.109649
-0.0234727 -0.0214328 0.103468
0.000297479 -0.0225654 0.104858
0.0376397 -0.0173159 0.109442
-0.040347 -0.00932901 0.108969
0.00673451 -0.0084381 0.108542
-0.0280111 -0.000541519 0.104839
0.0403972 0.00242673 0.109135
-0.0140694 0.0109173 0.103568
0.00369905 0.0175217 0.110384
0.0192172 0.0150623 0.111
-0.0412706 0.0312985 0.107077
0.0438088 0.0285288 0.109321
-0.0312183 0.0378519 0.108951
0.00241523 0.0396476 0.103233
0.0353047 0.0372076 0.110804
-0.0415836 0.0439554 0.107693
0.0172812 0.0439609 0.106274
0.0283709 -0.044052 0.11572
-0.0218399 -0.0337331 0.116358
0.00433629 -0.0373132 0.121319
-0.0153879 -0.0241531 0.112765
0.0057989 -0.0247561 0.115229
-0.00626614 -0.0158213 0.113331
-0.0218548 -0.0101309 0.115671
-0.0348818 0.00140634 0.119074
-0.00595513 0.00190355 0.11792
0.0238155 -0.00437268 0.116646
0.0129532 0.00701819 0.117489
-0.0338259 0.0194332 0.11776
0.0438981 0.0171546 0.113558
-0.0103742 0.0301428 0.114164
0.0238457 0.0254757 0.115054
0.0380774 0.0296435 0.121872
-0.0252193 0.0325187 0.118448
0.0232056 0.0403356 0.120374
-0.00224912 0.0427989 0.118729
-0.0228458 -0.0431307 0.131176
0.0359715 -0.0439594 0.125134
-0.0358769 -0.0403944 0.122803
0.0190085 -0.0383791 0.126828
0.0439645 -0.0346119 0.123159
-0.00869374 -0.0256772 0.122846
0.00520858 -0.02474 0.130803
-0.0404709 -0.0217118 0.123739
0.0262804 -0.0186968 0.123166
-0.0380684 -0.00703276 0.130431
-0.0121819 -0.00883192 0.128131
-0.00153453 -0.0124416 0.123861
0.013463 -0.0122908 0.126025
0.00950703 -0.000905174 0.125898
0.0401426 -0.00439426 0.127251
0.0306342 0.0130321 0.121962
-0.0161003 0.0139607 0.123113
0.000766688 0.0213524 0.12905
0.0439569 0.0164432 0.129588
-0.0372821 0.0403924 0.124485
0.00704563 0.0395627 0.13098
-0.00581798 -0.0403952 0.132966
0.0377239 -0.0403002 0.140326
-0.0205505 -0.0281632 0.135421
0.0217627 -0.0251375 0.140497
0.039075 -0.0227408 0.132219
-0.042633 -0.0219109 0.139936
-0.0315486 -0.0170062 0.135564
-0.00541697 -0.0148355 0.139289
-0.0214903 -0.00617721 0.140431
-0.00355457 0.0030355 0.133652
0.0215201 0.00256473 0.135372
-0.0313453 0.00914117 0.133995
0.0391483 0.00529622 0.140242
-0.0403679 0.0259775 0.136942
-0.018591 0.0253729 0.138756
0.0213547 0.0258523 0.133042
0.0383081 0.0271773 0.133712
-0.0224252 0.0393573 0.132671
-0.00515802 0.0338012 0.140239
0.0357554 0.0390004 0.133906
0.00586734 -0.0410048 0.143518
0.0184393 -0.042135 0.142751
-0.0332451 -0.0342791 0.142403
-0.00261653 -0.0295546 0.143889
0.0247271 -0.0101306 0.143981
0.0416595 -0.00635032 0.142783
-0.000750391 0.0168593 0.143991
0.0172501 0.0150307 0.143939
0.0427928 0.0188044 0.142336
0.00824837 0.0303175 0.143953
-0.04127 0.0399795 0.143979
-0.029495 0.0428418 0.141848
0.0244268 0.0420447 0.142516
0.041903 0.0434278 0.143337
VERTICES 337 674
1 0
1 1
1 2
1 3
1 4
1 5
1 6
1 7
1 8
1 9
1 10
1 11
1 12
1 13
1 14
1 15
1 16
1 17
1 18
1 19
1 20
1 21
1 22
1 23
1 24
1 25
1 26
1 27
1 28
1 29
1 30
1 31
1 32
1 33
1 34
1 35
1 36
1 37
1 38
1 39
1 40
1 41
1 42
1 43
1 44
1 45
1 46
1 47
1 48
1 49
1 50
1 51
1 52
1 53
1 54
1 55
1 56
1 57
1 58
1 59
1 60
1 61
1 62
1 63
1 64
1 65
1 66
1 67
1 68
1 69
1 70
1 71
1 72
1 73
1 74
1 75
1 76
1 77
1 78
1 79
1 80
1 81
1 82
1 83
1 84
1 85
1 86
1 87
1 88
1 89
1 90
1 91
1 92
1 93
1 94
1 95
1 96
1 97
1 98
1 99
1 100
1 101
1 102
1 103
1 104
1 105
1 106
1 107
1 108
1 109
1 110
1 111
1 112
1 113
1 114
1 115
1 116
1 117
1 118
1 119
1 120
1 121
1 122
1 123
1 124
1 125
1 126
1 127
1 128
1 129
1 130
1 131
1 132
1 133
1 134
1 135
1 136
1 137
1 138
1 139
1 140
1 141
1 142
1 143
1 144
1 145
1 146
1 147
1 148
1 149
1 150
1 151
1 152
1 153
1 154
1 155
1 156
1 157
1 158
1 159
1 160
1 161
1 162
1 163
1 164
1 165
1 166
1 167
1 168
1 169
1 170
1 171
1 172
1 173
1 174
1 175
1 176
1 177
1 178
1 179
1 180
1 181
1 182
1 183
1 184
1 185
1 186
1 187
1 188
1 189
1 190
1 191
1 192
1 193
1 194
1 195
1 196
1 197
1 198
1 199
1 200
1 201
1 202
1 203
1 204
1 205
1 206
1 207
1 208
1 209
1 210
1 211
1 212
1 213
1 214
1 215
1 216
1 217
1 218
1 219
1 220
1 221
1 222
1 223
1 224
1 225
1 226
1 227
1 228
1 229
1 230
1 231
1 232
1 233
1 234
1 235
1 236
1 237
1 238
1 239
1 240
1 241
1 242
1 243
1 244
1 245
1 246
1 247
1 248
1 249
1 250
1 251
1 252
1 253
1 254
1 255
1 256
1 257
1 258
1 259
1 260
1 261
1 262
1 263
1 264
1 265
1 266
1 267
1 268
1 269
1 270
1 271
1 272
1 273
1 274
1 275
1 276
1 277
1 278
1 279
1 280
1 281
1 282
1 283
1 284
1 285
1 286
1 287
1 288
1 289
1 290
1 291
1 292
1 293
1 294
1 295
1 296
1 297
1 298
1 299
1 300
1 301
1 302
1 303
1 304
1 305
1 306
1 307
1 308
1 309
1 310
1 311
1 312
1 313
1 314
1 315
1 316
1 317
1 318
1 319
1 320
1 321
1 322
1 323
1 324
1 325
1 326
1 327
1 328
1 329
1 330
1 331
1 332
1 333
1 334
1 335
1 336
POINT_DATA 337
VECTORS i float
0.0 0.0 0.0
0.0 0.0 0.0
0.0 0.0 0.0
0.0 0.0 0.0
0.0 0.0 0.0
0.0 0.0 0.0
0.0 0.0 0.0
0.0 0.0 0.0
0.0 0.0 0.0
0.0 0.0 0.0
0.0 0.0 0.0
0.0 0.0 0.0
0.0 0.0 0.0
0.0 0.0 0.0
0.0 0.0 0.0
0.0 0.0 0.0
0.0 0.0 0.0
0.0 0.0 0.0
0.0 0.0 0.0
0.0 0.0 0.0
0.0 0.0 0.0
0.0 0.0 0.0
0.0 0.0 0.0
0.0 0.0 0.0
0.0 0.0 0.0
0.0 0.0 0.0
0.0 0.0 0.0
0.0 0.0 0.0
0.0 0.0 0.0
0.0 0.0 0.0
0.0 0.0 0.0
0.0 0.0 0.0
0.0 0.0 0.0
0.0 0.0 0.0
0.0 0.0 0.0
0.0 0.0 0.0
0.0 0.0 0.0
0.0 0.0 0.0
0.0 0.0 0.0
0.0 0.0 0.0
0.0 0.0 0.0
0.0 0.0 0.0
0.0 0.0 0.0
0.0 0.0 0.0
0.0 0.0 0.0
0.0 0.0 0.0
0.0 0.0 0.0
0.0 0.0 0.0
0.0 0.0 0.0
0.0 0.0 0.0
0.0 0.0 0.0
0.0 0.0 0.0
0.0 0.0 0.0
0.0 0.0 0.0
0.0 0.0 0.0
0.0 0.0 0.0
0.0 0.0 0.0
0.0 0.0 0.0
0.0 0.0 0.0
0.0 0.0 0.0
0.0 0.0 0.0
0.0 0.0 0.0
0.0 0.0 0.0
0.0 0.0 0.0
0.0 0.0 0.0
0.0 0.0 0.0
0.0 0.0 0.0
0.0 0.0 0.0
0.0 0.0 0.0
0.0 0.0 0.0
0.0 0.0 0.0
0.0 0.0 0.0
0.0 0.0 0.0
0.0 0.0 0.0
0.0 0.0 0.0
0.0 0.0 0.0
0.0 0.0 0.0
0.0 0.0 0.0
0.0 0.0 0.0
0.0 0.0 0.0
0.0 0.0 0.0
0.0 0.0 0.0
0.0 0.0 0.0
0.0 0.0 0.0
0.0 0.0 0.0
0.0 0.0 0.0
0.0 0.0 0.0
0.0 0.0 0.0
0.0 0.0 0.0
0.0 0.0 0.0
0.0 0.0 0.0
0.0 0.0 0.0
0.0 0.0 0.0
0.0 0.0 0.0
0.0 0.0 0.0
0.0 0.0 0.0
0.0 0.0 0.0
0.0 0.0 0.0
0.0 0.0 0.0
0.0 0.0 0.0
0.0 0.0 0.0
0.0 0.0 0.0
0.0 0.0 0.0
0.0 0.0 0.0
0.0 0.0 0.0
0.0 0.0 0.0
0.0 0.0 0.0
0.0 0.0 0.0
0.0 0.0 0.0
0.0 0.0 0.0
0.0 0.0 0.0
0.0 0.0 0.0
0.0 0.0 0.0
0.0 0.0 0.0
0.0 0.0 0.0
0.0 0.0 0.0
0.0 0.0 0.0
0.0 0.0 0.0
0.0 0.0 0.0
0.0 0.0 0.0
0.0 0.0 0.0
0.0 0.0 0.0
0.0 0.0 0.0
0.0 0.0 0.0
0.0 0.0 0.0
0.0 0.0 0.0
0.0 0.0 0.0
0.0 0.0 0.0
0.0 0.0 0.0
0.0 0.0 0.0
0.0 0.0 0.0
0.0 0.0 0.0
0.0 0.0 0.0
0.0 0.0 0.0
0.0 0.0 0.0
0.0 0.0 0.0
0.0 0.0 0.0
0.0 0.0 0.0
0.0 0.0 0.0
0.0 0.0 0.0
0.0 0.0 0.0
0.0 0.0 0.0
0.0 0.0 0.0
0.0 0.0 0.0
0.0 0.0 0.0
0.0 0.0 0.0
0.0 0.0 0.0
0.0 0.0 0.0
0.0 0.0 0.0
0.0 0.0 0.0
0.0 0.0 0.0
0.0 0.0 0.0
0.0 0.0 0.0
0.0 0.0 0.0
0.0 0.0 0.0
0.0 0.0 0.0
0.0 0.0 0.0
0.0 0.0 0.0
0.0 0.0 0.0
0.0 0.0 0.0
0.0 0.0 0.0
0.0 0.0 0.0
0.0 0.0 0.0
0.0 0.0 0.0
0.0 0.0 0.0
0.0 0.0 0.0
0.0 0.0 0.0
0.0 0.0 0.0
0.0 0.0 0.0
0.0 0.0 0.0
0.0 0.0 0.0
0.0 0.0 0.0
0.0 0.0 0.0
0.0 0.0 0.0
0.0 0.0 0.0
0.0 0.0 0.0
0.0 0.0 0.0
0.0 0.0 0.0
0.0 0.0 0.0
0.0 0.0 0.0
0.0 0.0 0.0
0.0 0.0 0.0
0.0 0.0 0.0
0.0 0.0 0.0
0.0 0.0 0.0
0.0 0.0 0.0
0.0 0.0 0.0
0.0 0.0 0.0
0.0 0.0 0.0
0.0 0.0 0.0
0.0 0.0 0.0
0.0 0.0 0.0
0.0 0.0 0.0
0.0 0.0 0.0
0.0 0.0 0.0
0.0 0.0 0.0
0.0 0.0 0.0
0.0 0.0 0.0
0.0 0.0 0.0
0.0 0.0 0.0
0.0 0.0 0.0
0.0 0.0 0.0
0.0 0.0 0.0
0.0 0.0 0.0
0.0 0.0 0.0
0.0 0.0 0.0
0.0 0.0 0.0
0.0 0.0 0.0
0.0 0.0 0.0
0.0 0.0 0.0
0.0 0.0 0.0
0.0 0.0 0.0
0.0 0.0 0.0
0.0 0.0 0.0
0.0 0.0 0.0
0.0 0.0 0.0
0.0 0.0 0.0
0.0 0.0 0.0
0.0 0.0 0.0
0.0 0.0 0.0
0.0 0.0 0.0
0.0 0.0 0.0
0.0 0.0 0.0
0.0 0.0 0.0
0.0 0.0 0.0
0.0 0.0 0.0
0.0 0.0 0.0
0.0 0.0 0.0
0.0 0.0 0.0
0.0 0.0 0.0
0.0 0.0 0.0
0.0 0.0 0.0
0.0 0.0 0.0
0.0 0.0 0.0
0.0 0.0 0.0
0.0 0.0 0.0
0.0 0.0 0.0
0.0 0.0 0.0
0.0 0.0 0.0
0.0 0.0 0.0
0.0 0.0 0.0
0.0 0.0 0.0
0.0 0.0 0.0
0.0 0.0 0.0
0.0 0.0 0.0
0.0 0.0 0.0
0.0 0.0 0.0
0.0 0.0 0.0
0.0 0.0 0.0
0.0 0.0 0.0
0.0 0.0 0.0
0.0 0.0 0.0
0.0 0.0 0.0
0.0 0.0 0.0
0.0 0.0 0.0
0.0 0.0 0.0
0.0 0.0 0.0
0.0 0.0 0.0
0.0 0.0 0.0
0.0 0.0 0.0
0.0 0.0 0.0
0.0 0.0 0.0
0.0 0.0 0.0
0.0 0.0 0.0
0.0 0.0 0.0
0.0 0.0 0.0
0.0 0.0 0.0
0.0 0.0 0.0
0.0 0.0 0.0
0.0 0.0 0.0
0.0 0.0 0.0
0.0 0.0 0.0
0.0 0.0 0.0
0.0 0.0 0.0
0.0 0.0 0.0
0.0 0.0 0.0
0.0 0.0 0.0
0.0 0.0 0.0
0.0 0.0 0.0
0.0 0.0 0.0
0.0 0.0 0.0
0.0 0.0 0.0
0.0 0.0 0.0
0.0 0.0 0.0
0.0 0.0 0.0
0.0 0.0 0.0
0.0 0.0 0.0
0.0 0.0 0.0
0.0 0.0 0.0
0.0 0.0 0.0
0.0 0.0 0.0
0.0 0.0 0.0
0.0 0.0 0.0
0.0 0.0 0.0
0.0 0.0 0.0
0.0 0.0 0.0
0.0 0.0 0.0
0.0 0.0 0.0
0.0 0.0 0.0
0.0 0.0 0.0
0.0 0.0 0.0
0.0 0.0 0.0
0.0 0.0 0.0
0.0 0.0 0.0
0.0 0.0 0.0
0.0 0.0 0.0
0.0 0.0 0.0
0.0 0.0 0.0
0.0 0.0 0.0
0.0 0.0 0.0
0.0 0.0 0.0
0.0 0.0 0.0
0.0 0.0 0.0
0.0 0.0 0.0
0.0 0.0 0.0
0.0 0.0 0.0
0.0 0.0 0.0
0.0 0.0 0.0
0.0 0.0 0.0
0.0 0.0 0.0
0.0 0.0 0.0
0.0 0.0 0.0
0.0 0.0 0.0
0.0 0.0 0.0
0.0 0.0 0.0
0.0 0.0 0.0
0.0 0.0 0.0
0.0 0.0 0.0
0.0 0.0 0.0
0.0 0.0 0.0
0.0 0.0 0.0
0.0 0.0 0.0
0.0 0.0 0.0
0.0 0.0 0.0
0.0 0.0 0.0
0.0 0.0 0.0
0.0 0.0 0.0
VECTORS f float
-0.00288777 -0.00165069 -0.00113403
-0.0163825 -0.00162109 -0.0158656
0.000778627 -0.00324201 0.00145159
0.00267664 -0.00855066 -0.000515084
0.000171596 -0.00432751 0.00476397
0.0071641 0.0037253 0.0254619
0.00227503 -0.000480909 0.00254731
-0.0046049 0.00923832 -0.00179868
0.0 0.0 0.0
0.0 0.0 0.0
0.00604888 -0.00312436 -0.000972409
-0.0181032 0.0131197 -0.0466187
-0.00692295 0.00339378 -0.00457542
0.0 0.0 0.0
-0.0120777 -0.0394826 -0.00946148
0.0 0.0 0.0
-0.0101174 0.0100584 -0.00430854
-0.0153946 0.0385496 -0.0621367
0.00197514 -0.00308163 0.00559666
-0.000965008 0.0038012 0.00666324
0.00344457 -0.0115489 -0.0198124
-0.0204567 0.0251517 0.00235419
-0.0319689 0.0237737 0.0587771
-0.00344912 0.00685636 -0.00029156
-0.0388987 -0.000611757 0.00140583
-0.0141651 -0.00130362 9.86964e-05
-0.000359021 0.000590784 0.000520736
0.0 0.0 0.0
0.0100643 0.023351 -0.0101196
0.0 0.0 0.0
0.00248159 0.00688506 -0.01706
0.00734892 0.0100129 -0.00655825
0.00975589 -0.0204019 0.0562267
0.00078785 0.0281446 0.00024661
-0.00511775 -0.0238971 -0.0106164
-0.00447668 4.93262e-05 -0.0220909
0.00221632 0.00019837 0.003512
0.00303315 0.0547499 -0.00350225
-0.0132872 -0.00150898 0.00450024
0.00258295 0.00455337 -0.00202935
0.00439597 0.00309857 -0.0172275
0.000217242 0.000410102 0.000450254
-0.0520965 -0.0282836 -0.0369283
-0.00300648 0.029941 -0.00938875
0.0254881 0.02525 -0.0983645
0.000257045 -0.00160231 0.00320013
-3.93623e-05 -0.000245263 -0.000229018
0.00619706 0.00419001 -0.00726641
0.0137704 0.00743424 -0.00133437
0.00141104 0.00989478 0.00954927
0.00115109 0.00661435 -0.00189045
-0.00202292 -0.0202375 -0.00662069
0.0252118 -0.0566266 -0.021106
-0.00159999 -0.0131159 -0.0113466
0.0394478 0.0694524 -0.07822
0.0182772 0.000233858 -0.00128465
0.00202292 0.0202375 0.00662069
-0.0015395 -0.0033957 -0.00110121
0.0 0.0 0.0
0.00270255 -0.00282651 0.00219683
0.000269351 0.00674362 -0.00418831
0.0159025 0.00463185 0.0098988
0.015224 0.00332631 0.00689585
0.00292433 -0.00500516 0.0105733
0.019085 0.0181641 0.00732162
-0.0150963 -0.025329 -0.0823283
0.010143 -0.00826437 0.023863
-0.0115147 0.0119822 0.0176384
-0.00396446 -0.00938449 0.00606558
-0.000553375 0.0755742 -0.0379834
-0.00400956 -0.00251284 0.0024723
0.00334342 -0.0570012 -0.0311682
-0.0228386 0.00405633 -0.00870644
-0.0114403 0.0153919 0.00462528
-0.0683298 0.0829749 -0.0106517
0.000115136 -9.46015e-05 9.26968e-05
-0.00871913 0.00561424 -0.0111758
-0.0162669 0.00146372 0.0123874
-0.00934412 -0.0400403 0.0326124
0.0 0.0 0.0
0.0131995 0.087972 0.00252457
0.00374622 0.00677762 -0.000603987
-0.00618038 0.0240778 -0.010696
0.0 0.0 0.0
-0.00632967 -0.00102283 -0.0080879
-0.0137837 0.00080498 -0.0011565
0.00336566 0.0071929 -0.0058466
0.000999284 0.0108124 0.00312494
-0.00111484 0.00235123 -0.00189639
0.00423122 -0.000245319 -0.0113746
0.0 0.0 0.0
0.00243879 0.000765705 -0.00700307
0.00255471 0.00237521 -0.000689192
0.0380168 -0.0534542 0.0270707
-0.000856413 -0.00925926 -0.0316447
0.00306137 0.00211652 -0.00680229
0.000718379 -0.000374297 -0.00106856
0.0 0.0 0.0
-0.0119933 0.00701226 0.00569341
-0.0269446 0.0289441 0.0311173
-0.00462393 -0.017785 0.0179101
0.0 0.0 0.0
-0.00833209 0.0280491 -0.0127904
0.0 0.0 0.0
0.0103169 -0.00931823 -0.0152665
-0.00179638 -0.00135104 -0.00221805
-0.000874433 0.00246625 0.00173653
0.00363003 -0.00221601 -0.0041139
0.000570574 0.000102084 -0.000941964
-0.0183297 -0.0335448 0.00179779
-0.0384197 -0.00121727 -0.0204926
0.000823409 -9.27748e-05 0.00219102
-0.00230154 0.00194498 -0.000488052
0.0507236 0.0100827 0.0801133
0.00361729 0.00716158 0.00196972
-0.00162577 -0.00240062 -0.0208579
0.00400219 0.0060794 -0.00785353
0.0 0.0 0.0
-0.0554257 -0.0108579 -0.0480587
0.00346284 -0.00410677 -0.011723
-0.00811181 0.00344659 -0.0151814
0.0136045 -0.0419246 0.0505836
-0.034359 -0.0145905 0.0609735
0.0380531 -0.0158206 0.00453499
-0.00174404 0.00398965 -1.65388e-05
-0.0146168 0.0401996 -0.00151903
-0.0003727 -0.108988 0.0104298
0.00325503 0.0173451 -0.0021834
0.0 0.0 0.0
0.00589774 -0.0134596 0.00364915
-0.0155021 -0.0137591 -0.0126691
0.0 0.0 0.0
0.000202103 0.00103971 -0.00108978
0.0132389 -0.013021 -0.0070228
-0.000680176 -0.000110345 -0.000291726
0.00216278 -0.00650401 -0.00725414
-0.00294814 0.00287632 0.00864297
-0.0694426 -0.0521181 -0.00858567
0.0496329 -0.0612601 -0.067681
-0.00192464 -0.00572343 -0.00102713
0.0 0.0 0.0
-0.000174943 0.00210516 0.0198457
-0.00633848 -0.00293588 -0.0027399
-0.0054582 -0.00144502 -0.00910908
-0.00350259 -0.00139539 -4.15814e-05
-0.00734774 -0.00858134 0.00512998
-0.000502744 -0.00189256 -5.65544e-05
1.2566e-06 0.0150066 0.000632882
-0.00382791 -0.00406119 0.00524182
0.0 0.0 0.0
-0.0123585 -0.000521006 -0.00307586
-0.00583736 -0.0134354 0.0031201
0.0 0.0 0.0
-0.00900935 0.0062418 0.0177138
0.000219595 -0.000584876 0.000891605
-0.0318465 -0.0485134 0.00321201
0.00051847 0.00625578 0.00102534
-0.000369546 -0.000110819 0.000708881
-0.0169623 -0.0158958 -0.0121886
0.000348281 -0.00288183 -0.0012013
0.0041167 0.00549577 -0.00769336
-0.0296203 -0.00775285 -0.00432958
-0.00117027 0.026956 -0.00272556
0.0 0.0 0.0
0.0218357 -0.0297811 -0.0486596
0.0024686 0.000445432 0.00385477
0.00156539 -0.0037292 -0.00952693
0.00160588 -0.00342839 -0.0106487
0.00411472 0.00815404 0.00312133
-0.00488054 0.00523308 -0.0103049
0.0038867 -0.00497984 0.00885012
0.0127488 -0.0166729 0.0454329
-0.0499818 0.0576965 -0.0440276
0.000503903 0.00495591 2.79072e-06
-0.00326244 0.00523428 -0.00191024
-0.00250026 0.0041233 -0.000718432
-0.0453188 0.00368756 -0.0239034
0.00274684 -0.00100632 0.00131889
-0.0032712 -0.00311679 0.000696524
0.00497113 0.00267312 -0.00916105
0.0108921 0.00678136 -0.00421936
0.0 0.0 0.0
0.000584078 -0.00621055 -0.00929927
0.0 0.0 0.0
0.000198959 -0.000666729 0.000347287
0.0099006 0.00394563 -0.0186365
0.0 0.0 0.0
0.00215307 0.00171657 0.00192604
0.0487308 0.0220713 -0.0783296
0.0536135 -0.0544334 0.0216828
0.00612108 0.0168437 -0.0237323
0.145629 -0.129599 -0.00928924
0.023815 -0.00398704 0.0100438
0.0110496 0.0151374 0.0126899
0.055179 0.00221612 0.0171791
0.0143348 0.0549037 0.0149885
-0.0284697 -0.00903662 -0.0315249
0.000647355 -8.46231e-05 -0.000291844
0.000100434 -5.1578e-05 -0.000347598
0.0 0.0 0.0
0.0073177 0.0181709 0.00347775
-0.013601 0.00463985 0.00241576
0.0 0.0 0.0
-0.00787154 0.00876585 -0.0294344
0.0012333 0.00228669 -0.00280148
0.0284924 -0.0203385 -0.048954
-0.0039197 -0.00215292 0.0122786
0.00456477 -0.00478301 -0.00629363
-0.00202348 0.0164154 -0.00461369
-0.0139176 -2.38501e-05 0.0284333
0.00660546 0.0016685 0.00562326
0.0187592 -0.00639762 -0.00455574
-0.00792455 0.0326747 -0.0621522
-1.71789e-05 -9.77536e-05 0.000664631
0.0127438 0.0118277 0.0034869
0.0994956 0.0563178 0.0874109
-0.00217029 0.00524997 -0.00743944
0.0 0.0 0.0
-0.000100434 5.1578e-05 0.000347598
0.00420126 0.00220598 -0.0101557
0.0 0.0 0.0
-0.112368 0.00729752 -0.101679
-0.00522265 -0.0202101 -0.00547559
0.0289189 0.0296708 -0.0136301
-0.0220367 0.00604715 -0.0165781
0.0 0.0 0.0
-0.117851 0.0924424 -0.0218746
-0.0123848 0.0348462 0.00807198
0.00017612 -0.0167487 0.0245802
0.0473532 0.0843249 -0.0145334
-0.0132653 0.0408266 0.0794724
-4.04242e-05 1.2084e-05 -0.000276593
-0.0157136 0.00916392 0.000860099
0.014656 -0.00459645 -0.00664363
7.00343e-05 -0.000296471 -0.000168781
-0.00405465 0.0101868 0.0108056
-0.0140133 0.126172 -0.0154924
0.0749353 0.0563889 -0.0253249
-0.00157344 -0.00187793 -0.00335244
0.0013261 0.0058517 -0.000299172
0.0 0.0 0.0
-0.0015883 0.0212101 0.0148333
-0.015162 -0.00766857 -0.0137363
-0.0316396 -0.00301075 -0.0774013
0.00403431 -0.0136693 0.006532
0.0 0.0 0.0
-0.0170379 0.0035432 -0.0121132
0.0153838 -0.00184698 -0.0129367
-0.0111396 0.0196492 0.0008626
0.00547641 0.0328605 -0.153888
0.0194967 0.00939315 -0.0491841
0.0077624 0.00540985 -0.00401457
-0.0693101 -0.024336 -0.0170507
0.0320727 -0.119239 0.00628231
-0.0173581 -0.0674614 -0.0104378
0.00378634 0.0106013 -0.0179084
4.04242e-05 -1.2084e-05 0.000276593
0.0 0.0 0.0
0.000280583 -0.00164035 0.00539195
0.0187193 0.013659 -0.024715
-0.000861376 -0.000978624 -0.00591669
0.000315184 0.000389199 -0.00339111
-0.00236115 -0.00248459 0.00169666
-0.0113666 -0.011685 -0.0154727
0.000319066 0.003298 -0.00115465
-0.0065328 -0.00647028 -0.00339028
0.00373362 0.000844281 -0.000538519
-0.00830979 -0.0244659 0.00345753
-0.00348202 -0.00623426 -0.0134716
-0.0194902 0.0107681 -0.00726181
-0.000251324 -0.000222811 -0.000668178
0.0 0.0 0.0
0.00545326 0.00377894 0.00292738
0.010522 0.00930689 0.0014918
-0.0676147 0.00980556 0.0439816
0.0 0.0 0.0
-0.0226528 -0.01996 -0.0523926
2.5363e-05 -0.00123463 0.000445019
-1.2464e-05 0.000248569 -0.00101479
0.000644727 -0.00708353 -0.0149343
0.00673446 -0.053162 0.0260727
-0.00656018 0.000522132 -0.00613074
0.000661209 0.0155102 0.00572208
-0.0043195 0.00948433 -0.0023192
-0.0696073 -0.0781227 0.0378625
-0.0185008 -0.0217984 -0.0324753
0.000254092 -0.00103124 -0.000936681
0.0 0.0 0.0
-0.0618522 0.041366 0.00506336
0.0108208 -0.0686764 0.0836506
0.0 0.0 0.0
0.0 0.0 0.0
-0.012774 0.0325009 -0.0237051
-0.00776184 0.0152865 -0.0239406
-0.00238424 0.00598196 -0.0120998
8.63439e-05 0.0066099 -0.0060016
-0.0276082 0.0105138 -0.0207348
-0.0343065 0.0442475 -0.0190896
0.131867 -0.0455034 0.0823171
0.0169376 -0.0367256 0.148895
-0.0013203 -0.000307615 -0.00529034
-0.0338164 -0.00779644 -0.0198459
-0.017764 0.00157988 -0.0127609
-0.0263504 -0.0107976 0.0290596
-0.00284788 -0.00485003 -0.0163554
0.021523 -0.0255951 0.080593
0.0106172 0.0128322 -0.0325484
0.00836083 -0.00228001 -0.00621486
0.0 0.0 0.0
0.0062383 -0.00795869 0.0266604
0.0 0.0 0.0
0.0386444 0.073181 -0.0174349
0.00196284 0.088439 0.000766485
-0.00485697 0.0436529 0.0151788
0.00298598 0.0322608 -0.014697
0.0 0.0 0.0
0.00337941 -0.0117967 0.0189992
-4.35429e-06 -0.000104011 0.00010425
0.00478312 0.0198636 0.0314752
0.000140286 -0.000677356 0.00100827
0.000121421 0.000206735 -0.00040395
0.0 0.0 0.0
-0.00040027 0.00028259 -0.000397387
0.0 0.0 0.0
0.0 0.0 0.0
-0.00119594 -0.00054934 0.00174095
-0.000922767 0.00235645 0.00367475
0.00607265 0.00547753 -0.000300776
0.00186254 0.00121001 -0.00649816
-0.0134679 0.019016 0.0271112
-0.0053439 0.00712057 0.00634645
0.0 0.0 0.0
0.0 0.0 -0.000359151
0.00132112 0.0090516 -0.00764762
-0.000117067 -0.000102724 0.0002997
0.0 0.0 0.0
0.000272448 0.000146197 0.000403903
VECTORS omega float
-0.477374 1.5967 -0.626965
12.4988 -2.59242 4.61404
-1.93022 3.03807 -1.92006
-1.08352 -0.152228 -6.03644
8.42121 6.90779 -18.0779
-2.55332 2.36781 2.95884
1.16554 4.49365 -3.27803
-5.6837 0.484919 -2.80446
0.0 0.0 0.0
5.98786 -1.77748 11.8476
-0.671672 -1.17386 -4.29805
1.19971 -4.21297 -1.68155
-3.9219 -10.5375 3.49737
-0.0273546 4.50792 1.32402
1.19314 -0.615064 -0.374352
5.74273 -1.823 1.2651
-4.23315 -3.90055 -5.47618
-11.6886 0.749741 0.308998
-5.44181 3.28436 0.170716
-0.721627 -9.07958 -3.06866
-0.338475 -6.70228 -11.5401
5.72613 -2.99602 7.15388
-3.04502 1.70366 2.8027
3.5463 -1.39332 1.40364
-1.2125 1.3984 8.49154
-1.91197 0.633563 0.309129
7.17536 3.9787 -1.0478
-8.51466 -3.60813 -14.7113
5.68134 0.0763593 0.888622
0.0 0.0 0.0
-6.7327 -9.29854 6.9697
-5.53958 -3.57712 -0.117207
7.73145 6.35952 5.65913
-1.82067 -1.27572 -3.43586
3.69104 -0.386915 -2.69762
2.98219 -2.87034 -3.07874
-11.6657 0.52662 -1.36577
2.37775 -3.28259 -1.4052
-2.2967 1.43641 1.41535
7.81423 0.224936 -9.99474
1.17535 -0.402824 -0.459569
-1.83688 -1.07391 0.481702
-0.177664 -1.30751 9.0474
4.99278 0.586447 6.94347
-3.52763 -0.581557 0.207641
-8.13777 1.73975 -6.59887
4.4209 0.630696 4.41705
0.768469 -16.1824 2.76391
-0.24975 7.09563 -10.2782
-3.36663 0.135566 1.84824
1.96637 -8.76852 6.43623
-0.305732 -3.08292 2.57756
-0.0292693 4.3654 -0.968735
4.23567 -5.69114 -0.417346
-2.05585 4.43759 -0.890914
-6.99278 -0.889438 -2.67776
-0.234515 0.371488 -1.85751
-0.491367 6.08012 1.04129
0.0 0.0 0.0
-9.25053 -0.343341 1.86589
10.0665 5.3832 0.359237
3.72375 6.58117 -1.94159
3.70827 -0.257026 9.3507
3.27226 1.20706 -0.0359275
-4.85765 2.09215 3.7201
-0.907784 -1.15372 -0.841157
-3.31949 -1.49498 0.140275
0.735461 6.89759 -9.17004
12.3633 1.45906 -3.3569
-4.00606 3.63543 -9.81736
-4.4515 16.1749 4.48878
-3.67156 1.35382 7.41889
3.1499 5.00016 -7.57195
-1.97466 -9.3584 -8.28268
1.88431 -0.438477 1.4588
-0.783124 -7.64312 -4.07871
4.76438 -8.50114 1.86315
2.71673 10.303 -4.31004
-2.19803 1.15158 -1.05504
-0.465788 -3.62341 1.42308
-6.95281 -1.58632 0.298814
3.60274 -1.41637 3.86936
0.227129 -4.69737 -4.12798
0.0 0.0 0.0
3.2416 4.17117 -0.782365
0.64805 -1.43282 1.59857
11.1514 -2.3202 4.53898
2.72013 3.65965 1.53505
2.93807 1.31052 -6.46929
-9.42713 5.53235 5.08728
-1.39021 -2.60554 -3.27154
-13.3388 -0.677791 9.81279
-0.0900163 -7.42696 6.53914
2.71073 -6.96999 4.16386
3.05368 -3.29268 6.19049
4.36759 -4.43584 -1.91374
8.3042 -10.7544 -7.12162
-1.01798 -7.50606 -3.15788
5.05404 5.09514 -8.93633
0.810996 3.51776 14.303
-1.92629 5.80561 4.36256
-3.8982 -8.22738 4.04165
2.20063 -5.64535 -2.49419
-1.07567 -1.59662 -1.25019
-1.74172 -6.44757 -4.45013
4.66171 -3.93008 -1.12889
-3.91224 -2.51893 -2.69443
1.06501 -4.98021 -1.61171
0.511004 -0.0208668 0.0486309
2.40406 0.0666227 -0.981757
-6.71641 0.649661 -0.331819
-9.19533 -1.05122 4.40679
7.32983 0.97462 -2.90444
-4.74704 -0.350656 2.05374
-3.50963 8.66881 -11.9793
3.19291 -2.05993 0.400004
2.59125 -2.76021 8.74625
-6.05117 -4.05368 -5.94055
-3.57723 -4.35456 2.88898
0.0392042 -3.37327 1.57128
9.05289 3.39974 2.31763
-3.8898 9.75486 3.00939
-2.84426 -1.18769 2.09366
1.47311 4.04761 -11.7402
3.27942 -6.27342 -1.16175
-4.52598 1.25865 2.25292
5.74697 2.95938 10.7111
-3.17896 1.75715 -1.84209
4.53341 2.49676 -3.38903
3.47969 5.82867 -3.07194
4.61495 5.57939 3.85287
-3.80513 -2.84272 -3.16614
0.520258 -4.22781 -3.07944
-9.59346 -9.49982 -0.515045
-0.822538 2.53855 3.47674
-4.35232 -4.0103 -3.73757
3.55374 0.796585 3.06721
9.79709 -5.56352 -1.63091
-6.27419 0.269821 -0.783206
-5.91374 -1.45672 -2.50675
-2.2138 -6.27868 -6.16359
-0.874314 -6.39258 -0.421424
-3.07452 -1.49986 -4.9694
-3.6864 8.51816 5.74241
-2.6586 0.440078 4.04273
20.3261 -15.1661 14.9952
1.46526 2.25385 -3.8541
0.496991 1.64036 -4.14383
1.98747 2.94713 10.0795
3.54461 4.80838 -7.66723
6.3548 5.01992 7.85348
-0.320882 -6.22434 -4.32269
-0.695144 -1.36229 -0.90629
1.49797 -1.99865 -2.52617
2.05171 -10.2917 -8.03843
-5.38811 -0.517333 0.306094
5.32155 3.54864 0.917344
3.92869 9.13704 -0.0703001
18.6803 0.0464274 3.34272
-7.39466 1.08473 -3.36624
9.78465 -18.978 3.93027
-11.6959 5.49859 -8.95719
0.89139 1.09904 -1.63185
-5.00539 1.26187 1.79302
1.397 2.86358 2.88789
-12.8013 1.60225 7.31908
-1.07103 11.4073 0.762163
-6.46009 -1.11385 5.7623
3.73748 6.71996 -0.16374
-1.9656 -7.17987 -0.632426
-1.82667 -4.6167 -2.27619
2.24045 -6.42298 -16.6295
0.437804 4.94171 1.13234
-4.98445 -6.73428 -0.519741
-0.859352 1.95835 1.75497
-2.43746 4.48619 -0.198308
4.2404 -0.971948 -0.777915
-1.77314 -1.58416 0.599205
-7.62829 7.74974 -1.96351
1.58527 -8.55949 -5.3698
-3.5569 4.06633 15.8266
0.0 0.0 0.0
17.7086 0.561678 -8.02829
-1.59352 -3.87496 1.18314
-4.16833 1.50913 -4.49298
3.54238 -6.46686 -3.1771
9.03388 -5.70098 -2.87093
6.6086 7.11647 -8.06189
0.592829 -2.31526 -2.48243
0.634574 2.19244 -0.186889
2.42502 -0.451005 -4.06993
5.04448 3.93175 -5.25343
7.33081 -0.317084 -2.81597
1.35453 -1.30954 -3.7921
-9.29143 -2.27202 6.96132
-1.06109 4.32835 5.15742
3.78565 -4.43802 1.62311
-16.8639 2.91279 6.66731
-2.83283 -0.929169 5.4735
-1.45542 -0.375047 -0.500442
1.32483 -3.611 4.70326
1.56714 -2.82536 1.56596
0.619822 0.530088 0.721279
-0.896812 2.30096 -2.01064
3.45485 3.27646 -1.76784
-1.14514 -1.735 -0.820079
2.8234 -3.72901 -3.63769
-10.6428 1.95244 12.4465
0.0617754 3.86871 3.27599
-3.39157 1.1279 -1.25327
-4.56624 1.35566 -8.57968
-5.0781 0.387769 5.47865
1.41254 0.138074 2.15045
-11.142 -8.77211 0.952943
1.55803 -3.03353 -4.6768
-0.703912 -6.18291 8.82721
-7.98687 -7.10045 2.50502
-1.05143 -3.5779 0.9117
0.734166 -2.27028 0.525843
-1.78104 -0.707704 0.43937
0.0 0.0 0.0
4.70378 4.42639 3.29843
-1.48768 3.45379 0.527607
-5.25739 -4.16483 -3.76687
3.02083 -5.94962 1.76286
2.87704 -6.38286 2.88238
4.57155 -4.16322 -7.65375
-3.27005 1.46922 1.46259
7.98501 -0.960607 3.64737
0.286573 -0.465184 -1.05798
9.31599 -3.75033 -5.97339
7.06216 2.15191 -1.25993
0.292052 3.47783 0.695202
-2.46685 -9.20885 -0.0172468
1.42896 8.56197 -2.12663
4.12249 0.655534 -3.87859
-0.77213 -3.3623 -1.2726
-8.09946 1.669 4.71655
6.30074 2.08275 -3.55943
-1.56585 0.245445 -0.362882
-6.27154 -4.42623 -4.86925
0.161499 2.74764 -5.07919
-1.42514 0.0182554 6.35031
2.88115 -1.96531 -1.45745
-3.34232 9.08234 3.57956
0.335401 -0.706355 -0.610114
-5.40743 -0.79065 12.3092
7.85029 -10.8481 10.2592
1.72431 -0.319516 0.33311
-0.931135 -2.68432 0.950257
-5.30808 -3.02448 -8.89929
-0.846456 0.315462 0.88829
3.95755 -1.9039 4.78896
3.81579 0.372382 1.57753
4.011 3.19391 -1.4141
7.25899 2.8424 -2.5241
-3.43544 -2.82502 0.767034
-3.9573 -6.18541 4.02314
-0.224044 8.8222 4.37082
-3.52655 -1.05796 3.58074
22.3384 -7.1426 -10.7735
-1.61349 -3.39487 -4.49318
-0.346973 -3.15617 3.20726
-6.95205 -6.88257 -2.8637
-2.61428 -0.0587856 -1.31751
6.77076 -4.27274 5.99382
1.23515 9.10583 -3.95148
2.57471 13.933 0.769855
4.87991 7.31278 13.4887
0.834055 3.98074 -4.9779
-4.74013 0.810792 -3.53374
-1.17432 -1.25053 -0.0464869
-4.55755 -2.42718 0.289969
-14.3037 8.17384 -5.47312
0.603211 -1.0099 -2.23612
-2.65575 1.34775 -0.447906
-5.32253 4.3867 3.8265
-0.216189 -1.51286 11.4214
-1.62687 -0.971252 -0.549242
-13.9649 -10.067 9.06443
-1.64204 -0.470375 -3.3713
-0.0614147 -8.71041 -0.865394
5.15012 -1.24428 2.76213
0.262654 3.65207 -1.31502
0.310753 2.00301 -1.41185
6.09609 3.40056 1.23698
-13.1986 6.5621 -10.4329
-9.52691 12.4323 8.20702
-4.61299 1.33479 -4.88312
0.409473 -0.722688 1.94195
1.3725 -1.17499 -0.748912
0.553323 0.709151 -1.39336
2.46613 4.87164 19.7989
-11.0412 12.3877 -13.9496
-3.15865 -7.19721 7.37804
16.9507 -6.32614 -5.62913
-11.0862 -0.814515 -1.68736
-6.52475 1.13272 -5.06297
8.76562 -5.59259 -3.41008
-0.372452 -2.9092 7.56857
1.02711 -1.25457 2.11884
1.09344 8.66835 -1.37713
-1.30877 3.5254 -4.05295
0.849196 -1.08355 2.07724
-1.18843 -1.89484 -4.79893
7.51953 6.77133 8.37978
-2.04917 -2.51642 -3.00842
8.23287 -0.282836 4.51495
0.701498 1.74884 -1.59469
-23.6372 -15.4792 -31.7471
1.31656 -0.272666 3.21057
-5.13459 -4.42084 1.95579
3.61429 -0.506074 -3.45474
1.75434 2.69352 8.56643
4.4863 15.2999 -0.835745
-14.385 -2.90499 0.833393
-7.77521 -5.48598 1.81935
-3.37041 -1.45143 -0.42386
7.2495 -6.22435 5.65727
-0.172184 -0.0971339 1.87268
-1.20126 -0.861375 -1.34845
3.05849 0.192003 2.60736
-0.678433 -0.0580321 -1.00749
-0.0310828 -5.1494 -0.596561
-11.0708 3.7037 0.745075
-3.75355 -9.26038 -14.526
0.514827 8.65952 8.85878
2.83933 -7.4861 -2.88643
15.6681 3.88714 -0.864358
3.09222 -1.57985 -0.223328
-9.29416 4.41201 3.85137
0.0 0.0 0.0
0.0 0.0 0.0
4.92373 1.38317 -3.13332
1.34319 0.771188 0.725462
0.0 0.0 0.0
0.822564 0.186785 -0.600561
VECTORS v float
0.0127856 0.00307127 0.00437808
-0.029294 -0.0821973 0.00972961
0.0174488 0.00980266 0.000364893
0.0255561 -0.0263458 0.00112935
0.0342054 -0.0300668 0.00213682
0.0234291 0.000428564 -0.0231119
-0.0181855 -0.0136175 -0.0252325
0.00290079 0.0344906 0.00386324
0.0 0.0 0.0
0.0697887 0.016554 -0.0407393
-0.0059902 0.0289126 -0.00722716
-0.0251063 -0.0010276 0.00478249
0.0196455 0.0342403 -0.079587
0.0211214 0.000164808 -0.000108575
0.00151929 0.00564473 0.00711251
-0.00371356 -0.0490677 -0.031008
-0.0719213 -0.085348 0.000714578
-0.0371264 -0.0392692 -0.0151898
0.00345279 0.0277079 -0.0217849
0.0123927 0.0218599 -0.00095303
0.068639 -0.0246877 -0.0289441
0.00792877 -0.00105312 -0.00646968
0.0143462 0.00610869 -0.0577856
-0.0170402 0.0331623 -0.0325801
0.015041 0.013025 0.00457289
0.00469587 -0.00227822 -0.0585612
-0.0255611 -0.0221096 0.0536497
0.0559128 -0.00450126 -0.0443561
-0.0198536 0.0250753 -0.0389117
0.0 0.0 0.0
-0.0240611 0.0551554 -0.0610489
0.0283107 -0.0242216 -0.0815893
-0.00583742 -0.0205899 -0.0841634
-3.69936e-05 0.0380945 -0.000681073
-0.0266964 -0.0159315 -0.0368276
-0.016106 0.080616 -0.0794987
0.0342029 0.0126195 -0.0530719
-0.00261732 -0.0038617 -0.0127313
-0.0317372 0.00733092 0.0267569
-0.00312583 -0.0351756 0.0337701
0.000472537 -0.00242848 0.00730423
0.00036586 0.00284144 0.00769681
-0.0178391 0.0127473 0.0219614
-0.00363961 -0.0145915 -0.00324128
0.00394396 0.000224907 -0.00935597
0.0318443 -0.00593102 -0.0330865
0.00468026 0.027087 -0.00100518
0.0104835 -0.0281765 -0.0341851
0.0508293 0.0263111 -0.0381355
0.00547101 -0.0110208 -0.0279272
0.0298848 0.0408104 0.0196126
0.0262742 0.0221139 -0.0175265
0.0310512 0.0136338 -0.0346138
-0.0224731 -0.0180628 0.00525291
0.00340519 0.0674223 0.00558253
0.00319805 0.019782 -0.0248004
0.0251068 0.0423737 -0.0249644
0.0377163 0.0158039 -0.0204125
0.0 0.0 0.0
-0.0359945 -0.00905903 0.0204321
0.00187009 -0.00195297 -0.0607522
-0.00451943 -0.00437165 -0.0203804
0.00572539 0.0295013 -0.0617516
0.00933384 -0.0164599 0.00897083
-0.00415699 -0.0243475 -0.0273537
0.013417 -0.00480191 0.00104141
0.00498714 8.40683e-05 0.0139273
-0.0051784 0.0142742 0.00904079
0.00161977 -0.0206888 -0.00854652
-0.00268975 0.0394818 0.00642053
-0.025489 0.0594348 -0.0407143
-0.0273939 -0.0138113 0.0159825
-0.0291355 0.0348324 -0.0221885
0.0533062 0.0941861 -0.014222
0.0388938 0.01173 0.00422186
0.0399007 7.16654e-05 -0.00814093
-0.000119355 0.00796633 0.0496937
0.00412285 0.0207258 0.0421952
-0.00560067 0.00215361 -0.0263438
-0.0547672 -0.0136628 -0.040822
0.00929337 -8.02715e-05 -0.0701786
0.0142292 0.021293 -0.00548453
-0.000148236 0.0121576 -0.069127
0.0 0.0 0.0
-0.00496486 0.0103017 0.0344921
-0.015583 0.00533415 0.00596866
0.00767113 0.0120482 0.0376449
0.0192932 0.00223744 -0.003012
0.0098747 0.0212125 0.0269796
0.004449 0.0146318 -0.0655724
0.00263956 0.00749489 -0.00682914
-0.006598 0.0394842 -0.0339091
-0.0654287 0.0223134 -0.0153414
0.0366329 0.0185573 -0.0244503
-0.0282729 0.0281837 -0.00960373
0.0368561 -0.0373073 -0.00666672
-0.00955974 0.0450359 -0.0635331
-0.0567066 0.0211031 -0.031863
-0.0390229 -0.00759247 0.00824567
0.0116737 0.0189117 -0.0248927
-0.0165741 0.00569656 -0.0970657
0.00777313 0.0248175 0.0502151
-0.0234007 -0.0153958 -0.0191255
-0.0152533 0.0135552 -0.0106441
-0.0246409 0.00837918 0.00943769
-0.0090433 -0.0126185 -0.0282224
-0.00818155 0.00691866 0.02226
0.0104182 0.00431088 0.00690039
0.000110023 0.0221885 0.00783411
0.0103406 0.00671157 0.0207753
0.0117024 0.0154346 0.0404178
0.0285987 -0.0128938 -0.00221454
0.040418 -0.00795637 0.00554479
0.0255423 0.0149037 -0.00890848
-0.0481662 0.00208729 -0.0258153
-0.0197715 -0.00209157 -0.0196238
0.00770849 0.0486437 0.0111953
-0.0149601 0.0359632 -0.0243826
0.00895683 -0.0142335 -0.0365552
0.0140987 -0.0291103 -0.0198321
-0.0261652 -0.00725617 -0.0228434
0.0024521 0.0496209 -0.0279346
-0.0304694 -0.00979746 0.0212859
0.0750169 0.0175971 -0.115395
-0.0711605 -0.023085 -0.0254613
-0.0570012 -0.0113352 -0.00138865
0.0356227 -0.0153396 -0.0284544
-0.0519201 0.0212488 -0.0544063
0.0367062 -0.052729 0.00632264
-0.00880305 0.013868 0.0367909
0.0098294 -0.0299851 0.0187097
0.0192503 -0.0191321 0.0158434
0.00609315 0.00243325 0.0480764
0.00588451 -0.000521373 0.048986
-0.0182738 0.0163133 0.0147744
0.074786 -0.0108798 -0.0264731
-0.0100722 0.0313908 0.000897046
-0.0110537 -0.0169809 -0.0447939
0.00813625 0.00561197 -0.000907056
-0.0145149 -0.0100913 0.0130884
0.0243692 0.0173689 -0.0554084
0.00472878 0.00563958 -0.039694
0.00751447 -0.0130101 -0.0266477
-0.00662231 -0.0482965 -0.0126263
-0.0709859 -0.0335256 -0.0407566
-0.0128248 -0.0965102 -0.0905738
-0.00837614 0.0115178 -0.00592449
-0.0349114 -0.00166144 0.00501571
-0.0156469 0.0127892 -0.023336
-0.00536096 0.0183959 -0.0209417
-0.00403455 -0.0435883 0.0257133
-0.00467642 0.00428343 0.000609227
-0.010532 0.0067229 -0.00203907
0.0177722 0.000845267 0.0200269
0.00589826 -0.0440615 -0.0556448
0.0299148 -0.00984468 0.018315
-0.0111938 0.00355776 0.0541518
0.0109868 -0.00459495 -0.0489712
0.00468874 -0.0370333 0.061392
0.0316432 0.0369989 0.00699681
-0.0220803 -0.0223396 -0.0338386
-0.0342616 -0.000840026 -0.0491869
-0.042178 -0.0201813 -0.00851117
-0.00925396 0.0175692 0.0222171
0.0059379 0.0421488 -0.00535165
0.028437 -0.0328037 0.00296292
0.0143651 -0.00151189 -0.0214499
0.0129589 0.00726263 -0.00980751
0.00631669 0.00689711 0.00642831
0.00715889 0.000574945 -0.0590895
0.0130087 0.00133694 -0.0138384
0.011661 -0.102941 0.000360128
0.011734 0.00064071 0.0460584
-0.00334595 -0.00714433 0.030334
0.0111395 -0.00969603 0.00578613
-0.00188733 -0.00782329 0.0142072
0.0225877 -0.0219981 0.0275069
-0.00500634 0.0040185 -0.0098699
-0.00907383 0.0176833 -0.0220565
-0.0383669 0.0271267 -0.00567296
-0.0280987 -0.0203367 -0.0202728
0.0 0.0 0.0
0.0039505 -0.0479731 -0.00357781
-0.00920617 0.0057022 0.0440222
-0.0161298 0.00397803 0.00606695
0.0229625 0.0480898 -0.00513645
0.0174547 -0.044727 -0.0657846
0.0415446 -0.0300232 0.0448415
0.0193961 0.00452005 0.0146949
-0.00624729 -0.00840574 0.000338812
-0.0176839 -0.00588579 -0.0200075
0.0678942 0.0309472 0.0298974
0.00952196 -0.0247852 0.00172705
0.00144304 -0.00157285 -0.0283876
0.0622559 0.0545482 0.0262321
-0.00203047 -0.0110263 0.00384309
0.0188873 0.00457344 -0.0444798
-0.00283801 -0.040223 0.0182201
0.0404598 0.0247588 0.0299826
0.0223947 0.00556874 0.0186933
0.00373191 -0.0327302 -0.0245626
-0.0103705 -0.00785326 0.00930055
-0.00821445 0.00380538 0.00425263
-0.0440143 0.0312449 0.00280551
0.00116477 0.00201602 0.00513071
-0.0279138 0.0558184 -0.0295684
0.048283 0.0337012 0.00845604
0.0218443 -0.0352756 -0.0373165
0.0297226 0.0554649 0.0306355
0.0142478 -0.042538 -0.0415579
-0.0134034 -0.0406173 0.000632548
-4.0185e-05 -0.0193526 0.0171895
0.00228046 0.0843841 -0.0208313
-0.0396106 -0.01087 0.00396703
0.00248303 -0.0199079 0.0324074
0.0211218 -0.0158613 0.0239832
0.00171347 0.0153486 0.0439445
0.00198374 -0.00279403 -0.00879622
0.00206875 0.00234971 0.00674126
-0.00353963 -0.00514725 -0.0552609
0.0 0.0 0.0
0.00417901 0.00849796 -0.0451359
-0.0152906 0.00478934 -0.0229632
-0.0207803 0.00784241 -0.00412386
-0.0900086 0.0528239 -0.0666721
0.027828 0.00588191 0.0196522
-0.046634 0.0657961 -0.0407461
0.0216093 0.0574762 -0.00456362
-0.0158107 -0.0166034 -0.0252735
0.0147125 -0.00736845 0.00786507
0.00814594 0.0277445 0.0525606
-0.0247561 -0.0104454 0.0635835
0.00257468 -0.0243855 0.0387376
-0.0211717 -0.00174385 0.0512806
-0.0220499 0.0190485 0.00427444
0.0334638 0.0660337 0.0116197
-0.0218742 0.00598415 0.00964162
0.0183203 0.0622769 -0.0337929
-0.0209606 0.0305027 0.0509487
0.000235003 0.000158601 -0.00491626
0.0295893 0.00757546 -0.0385672
-0.00284994 -0.0241752 -0.0458833
-0.00375046 -0.0461211 -0.0488035
-0.00386025 0.0147902 -0.0155672
-0.0174233 0.0169847 -0.0207349
0.00499663 -0.0187439 0.0244342
-0.0739242 0.0519713 -0.0758112
-0.107511 0.00907359 -0.0291393
0.0167423 0.0268963 0.033319
0.00689593 0.0140274 0.0126003
-0.0197963 -0.00455178 -0.0550892
0.0219847 0.0223844 0.0367493
-0.0113029 -0.040097 -0.0188419
-0.0266646 0.0156788 0.0250773
0.044248 0.0459716 -0.00709201
0.0553435 -0.0145336 -0.0771615
-0.027607 -0.0326396 0.0718899
-0.0117313 -0.0206567 -0.0344099
-0.0141746 -0.00817864 0.0343197
-0.00416294 0.0414773 -0.0307954
-0.0037494 0.00186689 -0.0194046
-0.0267524 -0.0049327 0.0624777
0.000771493 -0.00424679 -0.0423345
0.0159698 0.0066625 -0.0415097
-0.028355 -0.0617714 0.0231022
-0.00955013 -0.00305818 -0.0254319
-0.0383247 -0.0528215 -0.0180347
-0.080146 -0.0130014 -0.0409987
-0.0325768 -0.000947928 -0.0378306
0.0386789 -0.00902694 0.0376795
0.00907738 0.0115392 0.0357783
-0.00208143 0.0030392 0.0171424
-0.00782985 -0.03392 -0.0218822
0.0568824 0.0287439 -0.014228
0.00240312 -0.0243869 0.0449219
-0.00302277 -0.0222666 0.00600993
0.0364813 0.0376949 0.040653
0.0156754 0.00249242 -0.040716
0.00580472 -0.00789502 -0.00538436
0.00612568 -0.0106783 0.00664783
-0.0195969 0.008378 -0.0148546
0.007195 0.0924504 -0.00109945
-0.00432333 -0.0733874 0.00600014
0.0107989 0.0106644 -0.0154685
0.0182147 0.00720794 -0.00216594
0.00495238 0.00504882 -0.0378017
-0.0151689 0.00668007 -0.00331078
-0.00139715 -0.00297595 0.00754832
0.0169902 0.0164685 -0.0268273
0.00486236 0.0128719 0.0122576
-0.00173985 0.00812844 0.0032355
-0.00362775 0.00383504 0.000427236
0.0972202 0.0221404 -0.00457087
0.076788 0.0325093 -0.084323
0.0424616 0.0116853 -0.0669674
0.0203498 0.0250009 -0.0127948
-0.016541 0.0158558 0.0267233
-0.0249218 -0.0114373 -0.0205896
0.0212059 -0.00390669 0.0106358
0.0255346 0.0422713 -0.00157634
-0.0106217 -0.0133396 -0.00822501
-0.0151789 -0.00931564 -0.00687241
-0.00961371 0.0732085 0.0233449
-0.0171179 0.0163316 0.00841989
0.0269533 0.00630628 -0.000871244
-0.0841412 -0.0650967 0.10239
0.0229064 -0.0181942 -0.00639231
0.0491263 0.0404204 0.0255023
-0.0361718 -0.0152384 0.0301986
-0.0127112 0.0231586 0.0353461
0.00276706 0.00696644 0.0248558
0.0704453 -0.0186529 -0.00586573
0.0441443 0.0603244 0.0266018
0.0102614 -0.0022079 0.0316776
0.0177109 -0.010665 0.0368181
-0.0068331 0.0407527 0.0242461
0.0128311 0.00787689 0.0550626
-0.0181591 0.00520429 0.0435812
-0.0708058 -0.00999591 -0.0252131
0.0012645 0.00138543 0.00437238
-0.0024577 0.00211572 -0.000503117
-0.0129001 0.023777 0.0444044
-0.00553858 0.00822481 -0.000753295
0.0173446 0.00283534 -0.0121071
-0.00950988 -0.0377005 0.0436656
-0.0945246 -0.0880095 0.0815274
-0.0247252 0.0362607 0.012245
0.053638 -0.0147302 0.00533244
-0.00378227 0.0240698 0.0418202
0.00965977 0.0174619 -0.0026493
-0.0477497 -0.000770663 0.0214994
0.0 0.0 0.0
0.0 0.0 -0.00397562
-0.009138 0.0422465 -0.000514586
-0.00653645 0.00617928 0.00543374
0.0 0.0 0.0
0.00259678 0.00548929 0.00526462
SCALARS radius float 1
LOOKUP_TABLE default
0.00605301
0.00605301
0.00605301
0.00605301
0.00605301
0.00605301
0.00605301
0.00605301
0.00605301
0.00605301
0.00605301
0.00605301
0.00605301
0.00605301
0.00968481
0.00968481
0.00968481
0.00605301
0.00968481
0.00605301
0.00605301
0.00968481
0.00968481
0.00968481
0.00968481
0.00605301
0.00605301
0.00605301
0.00968481
0.00605301
0.00605301
0.00968481
0.00605301
0.00968481
0.00968481
0.00968481
0.00605301
0.00605301
0.00605301
0.00605301
0.00605301
0.00605301
0.00968481
0.00605301
0.00968481
0.00968481
0.00605301
0.00605301
0.00605301
0.00968481
0.00605301
0.00605301
0.00968481
0.00605301
0.00968481
0.00605301
0.00605301
0.00605301
0.00605301
0.00968481
0.00605301
0.00605301
0.00605301
0.00968481
0.00968481
0.00968481
0.00968481
0.00968481
0.00605301
0.00968481
0.00605301
0.00968481
0.00605301
0.00605301
0.00968481
0.00605301
0.00605301
0.00605301
0.00968481
0.00605301
0.00968481
0.00605301
0.00968481
0.00605301
0.00605301
0.00968481
0.00605301
0.00605301
0.00605301
0.00605301
0.00605301
0.00605301
0.00605301
0.00968481
0.00968481
0.00605301
0.00605301
0.00605301
0.00605301
0.00968481
0.00605301
0.00605301
0.00968481
0.00605301
0.00605301
0.00605301
0.00605301
0.00605301
0.00605301
0.00968481
0.00968481
0.00605301
0.00605301
0.00968481
0.00605301
0.00968481
0.00605301
0.00605301
0.00968481
0.00968481
0.00605301
0.00968481
0.00968481
0.00605301
0.00605301
0.00968481
0.00968481
0.00968481
0.00605301
0.00605301
0.00605301
0.00605301
0.00605301
0.00605301
0.00605301
0.00605301
0.00968481
0.00968481
0.00968481
0.00605301
0.00605301
0.00968481
0.00605301
0.00605301
0.00968481
0.00605301
0.00605301
0.00968481
0.00605301
0.00605301
0.00605301
0.00605301
0.00605301
0.00605301
0.00605301
0.00968481
0.00968481
0.00605301
0.00605301
0.00605301
0.00605301
0.00605301
0.00968481
0.00605301
0.00968481
0.00605301
0.00605301
0.00605301
0.00605301
0.00605301
0.00605301
0.00968481
0.00968481
0.00605301
0.00605301
0.00605301
0.00605301
0.00605301
0.00968481
0.00605301
0.00605301
0.00605301
0.00605301
0.00605301
0.00605301
0.00605301
0.00605301
0.00605301
0.00968481
0.00968481
0.00968481
0.00968481
0.00968481
0.00968481
0.00968481
0.00968481
0.00968481
0.00605301
0.00605301
0.00605301
0.00605301
0.00605301
0.00605301
0.00605301
0.00605301
0.00968481
0.00968481
0.00605301
0.00968481
0.00968481
0.00605301
0.00968481
0.00968481
0.00605301
0.00968481
0.00605301
0.00605301
0.00605301
0.00605301
0.00605301
0.00605301
0.00968481
0.00968481
0.00968481
0.00605301
0.00605301
0.00968481
0.00605301
0.00968481
0.00968481
0.00968481
0.00605301
0.00605301
0.00605301
0.00605301
0.00968481
0.00968481
0.00968481
0.00605301
0.00605301
0.00605301
0.00605301
0.00968481
0.00968481
0.00605301
0.00605301
0.00605301
0.00605301
0.00968481
0.00968481
0.00968481
0.00605301
0.00968481
0.00968481
0.00968481
0.00605301
0.00605301
0.00605301
0.00605301
0.00968481
0.00605301
0.00605301
0.00605301
0.00605301
0.00605301
0.00605301
0.00605301
0.00605301
0.00605301
0.00968481
0.00605301
0.00605301
0.00968481
0.00605301
0.00968481
0.00605301
0.00968481
0.00605301
0.00605301
0.00605301
0.00968481
0.00605301
0.00605301
0.00605301
0.00968481
0.00968481
0.00605301
0.00605301
0.00968481
0.00968481
0.00605301
0.00605301
0.00605301
0.00605301
0.00605301
0.00605301
0.00968481
0.00968481
0.00968481
0.00968481
0.00605301
0.00968481
0.00968481
0.00968481
0.00968481
0.00968481
0.00968481
0.00968481
0.00605301
0.00605301
0.00605301
0.00968481
0.00968481
0.00968481
0.00968481
0.00605301
0.00968481
0.00968481
0.00968481
0.00605301
0.00605301
0.00605301
0.00605301
0.00605301
0.00605301
0.00605301
0.00605301
0.00605301
0.00605301
0.00605301
0.00605301
0.00605301
0.00605301
0.00605301
0.00605301
0.00605301
0.00605301
SCALARS type float 1
LOOKUP_TABLE default
1.0
1.0
1.0
1.0
1.0
1.0
1.0
1.0
1.0
1.0
1.0
1.0
1.0
1.0
1.0
1.0
1.0
1.0
1.0
1.0
1.0
1.0
1.0
1.0
1.0
1.0
1.0
1.0
1.0
1.0
1.0
1.0
1.0
1.0
1.0
1.0
1.0
1.0
1.0
1.0
1.0
1.0
1.0
1.0
1.0
1.0
1.0
1.0
1.0
1.0
1.0
1.0
1.0
1.0
1.0
1.0
1.0
1.0
1.0
1.0
1.0
1.0
1.0
1.0
1.0
1.0
1.0
1.0
1.0
1.0
1.0
1.0
1.0
1.0
1.0
1.0
1.0
1.0
1.0
1.0
1.0
1.0
1.0
1.0
1.0
1.0
1.0
1.0
1.0
1.0
1.0
1.0
1.0
1.0
1.0
1.0
1.0
1.0
1.0
1.0
1.0
1.0
1.0
1.0
1.0
1.0
1.0
1.0
1.0
1.0
1.0
1.0
1.0
1.0
1.0
1.0
1.0
1.0
1.0
1.0
1.0
1.0
1.0
1.0
1.0
1.0
1.0
1.0
1.0
1.0
1.0
1.0
1.0
1.0
1.0
1.0
1.0
1.0
1.0
1.0
1.0
1.0
1.0
1.0
1.0
1.0
1.0
1.0
1.0
1.0
1.0
1.0
1.0
1.0
1.0
1.0
1.0
1.0
1.0
1.0
1.0
1.0
1.0
1.0
1.0
1.0
1.0
1.0
1.0
1.0
1.0
1.0
1.0
1.0
1.0
1.0
1.0
1.0
1.0
1.0
1.0
1.0
1.0
1.0
1.0
1.0
1.0
1.0
1.0
1.0
1.0
1.0
1.0
1.0
1.0
1.0
1.0
1.0
1.0
1.0
1.0
1.0
1.0
1.0
1.0
1.0
1.0
1.0
1.0
1.0
1.0
1.0
1.0
1.0
1.0
1.0
1.0
1.0
1.0
1.0
1.0
1.0
1.0
1.0
1.0
1.0
1.0
1.0
1.0
1.0
1.0
1.0
1.0
1.0
1.0
1.0
1.0
1.0
1.0
1.0
1.0
1.0
1.0
1.0
1.0
1.0
1.0
1.0
1.0
1.0
1.0
1.0
1.0
1.0
1.0
1.0
1.0
1.0
1.0
1.0
1.0
1.0
1.0
1.0
1.0
1.0
1.0
1.0
1.0
1.0
1.0
1.0
1.0
1.0
1.0
1.0
1.0
1.0
1.0
1.0
1.0
1.0
1.0
1.0
1.0
1.0
1.0
1.0
1.0
1.0
1.0
1.0
1.0
1.0
1.0
1.0
1.0
1.0
1.0
1.0
1.0
1.0
1.0
1.0
1.0
1.0
1.0
1.0
1.0
1.0
1.0
1.0
1.0
1.0
1.0
1.0
1.0
1.0
1.0
1.0
1.0
1.0
1.0
1.0
1.0
1.0
1.0
1.0
1.0
1.0
1.0
1.0
1.0
1.0
1.0
1.0
1.0
SCALARS id float 1
LOOKUP_TABLE default
138.0
141.0
304.0
297.0
293.0
325.0
285.0
241.0
126.0
207.0
240.0
197.0
140.0
258.0
50.0
92.0
60.0
154.0
98.0
188.0
298.0
88.0
80.0
106.0
10.0
183.0
277.0
171.0
41.0
180.0
213.0
23.0
327.0
58.0
32.0
6.0
291.0
174.0
158.0
128.0
264.0
234.0
89.0
263.0
37.0
48.0
328.0
331.0
329.0
121.0
172.0
164.0
84.0
200.0
9.0
305.0
274.0
186.0
135.0
40.0
198.0
173.0
246.0
61.0
119.0
70.0
122.0
38.0
260.0
64.0
288.0
81.0
193.0
205.0
47.0
149.0
257.0
192.0
102.0
232.0
34.0
229.0
94.0
143.0
137.0
85.0
227.0
225.0
199.0
195.0
321.0
259.0
130.0
62.0
79.0
127.0
169.0
265.0
273.0
12.0
184.0
142.0
72.0
230.0
247.0
163.0
295.0
278.0
292.0
17.0
44.0
314.0
159.0
73.0
153.0
100.0
322.0
216.0
2.0
35.0
239.0
30.0
99.0
275.0
301.0
103.0
66.0
13.0
252.0
144.0
222.0
296.0
160.0
238.0
203.0
212.0
75.0
49.0
22.0
228.0
249.0
55.0
319.0
156.0
107.0
245.0
308.0
105.0
201.0
217.0
253.0
276.0
248.0
155.0
294.0
8.0
18.0
250.0
233.0
133.0
152.0
333.0
31.0
175.0
33.0
208.0
147.0
269.0
317.0
267.0
204.0
19.0
24.0
157.0
236.0
324.0
306.0
151.0
93.0
165.0
290.0
145.0
286.0
220.0
280.0
261.0
146.0
182.0
77.0
82.0
4.0
118.0
45.0
69.0
26.0
117.0
97.0
237.0
336.0
326.0
307.0
132.0
210.0
310.0
181.0
65.0
5.0
206.0
101.0
108.0
161.0
111.0
115.0
242.0
95.0
166.0
221.0
231.0
224.0
302.0
185.0
39.0
29.0
46.0
189.0
282.0
68.0
272.0
28.0
83.0
25.0
179.0
279.0
134.0
337.0
3.0
74.0
42.0
177.0
303.0
202.0
124.0
51.0
114.0
311.0
148.0
167.0
300.0
14.0
112.0
91.0
194.0
116.0
104.0
53.0
309.0
136.0
235.0
176.0
20.0
281.0
196.0
330.0
215.0
218.0
335.0
251.0
131.0
271.0
21.0
191.0
315.0
27.0
255.0
52.0
223.0
56.0
123.0
316.0
190.0
76.0
139.0
162.0
332.0
96.0
71.0
318.0
170.0
43.0
63.0
270.0
209.0
268.0
262.0
168.0
214.0
78.0
7.0
59.0
113.0
334.0
86.0
15.0
120.0
109.0
87.0
67.0
54.0
178.0
125.0
219.0
57.0
16.0
110.0
90.0
243.0
11.0
36.0
1.0
312.0
226.0
150.0
256.0
284.0
211.0
323.0
320.0
254.0
289.0
266.0
187.0
299.0
129.0
283.0
287.0
313.0
244.0

