# vtk DataFile Version 2.0
Generated by lpp.py
ASCII
DATASET POLYDATA
POINTS 337 float
-0.0129104 -0.0399075 0.00608024
0.00437625 -0.0353781 0.00616145
0.0420959 -0.0342509 0.00637539
-0.0181346 -0.0271497 0.00624201
-0.00702179 -0.0183381 0.00614438
0.0362277 -0.0218546 0.00597318
0.0145355 -0.0120912 0.0063631
0.00594346 0.00144204 0.00596452
0.0181929 0.0012164 0.00847141
-0.0311758 0.0119788 0.00643251
-0.00564986 0.00995098 0.00636462
-0.0435713 0.014905 0.00745849
-0.00317026 0.0224564 0.00637792
0.0437373 0.0212229 0.00653574
0.0154571 0.033906 0.00622052
0.0432368 0.0406272 0.00792495
0.00497711 0.0412131 0.00610099
0.01145 -0.0437421 0.0125883
-0.0288989 -0.0400721 0.00997796
0.0260035 -0.0363306 0.0101533
-0.00638899 -0.030216 0.0173071
0.0131449 -0.0250251 0.0107504
-0.0332446 -0.0204851 0.0107182
-0.0174309 -0.0177179 0.0158832
0.0439123 -0.0203494 0.0155649
0.00272651 -0.00925865 0.017644
0.0301537 -0.00891131 0.0135895
-0.0400062 -0.00157393 0.0099476
-0.0174716 -0.00232246 0.00973304
-0.0278372 0.00722013 0.0183551
0.0314683 0.0107984 0.00990264
-0.0175097 0.0207024 0.011279
0.0121373 0.0169086 0.0100825
0.00570777 0.0315001 0.0138871
0.0299515 0.0306909 0.0131222
-0.037522 0.0400597 0.00993088
-0.0164013 0.0371955 0.0101451
-0.00245881 0.043804 0.0159487
0.0124644 0.0433987 0.017216
0.00216819 -0.0437271 0.0214392
0.030074 -0.0438749 0.0243044
-0.0421368 -0.0352044 0.0244837
0.0106227 -0.034341 0.0210064
0.00596231 -0.0233366 0.0251581
0.022065 -0.0232808 0.0252485
0.0403056 -0.0314495 0.0268334
0.0383734 -0.0152467 0.0262544
-0.0436916 -0.0132872 0.0212712
-0.028713 -0.007523 0.0256757
-0.0123751 -0.00573296 0.0248105
0.0186429 0.0034014 0.0247081
0.0435827 -0.00424553 0.0227895
-0.0412917 0.00817235 0.022873
-0.01216 0.0106783 0.0240027
0.00326326 0.00703959 0.0197241
0.0437273 0.00840666 0.0226824
-0.0343009 0.0223633 0.018964
0.0184322 0.021932 0.0245931
0.0297183 0.0161072 0.0256948
0.0412235 0.0202216 0.0190575
-0.027229 0.0395466 0.0272651
-0.0431117 0.0437698 0.0265163
-0.0115232 0.0438693 0.0248144
0.0244479 0.0436776 0.0217189
0.0370516 0.0438719 0.019907
-0.0201588 -0.0399481 0.0282054
-0.000322777 -0.0336824 0.0361028
-0.0401916 -0.0205827 0.0370735
-0.0143388 -0.0198751 0.0326484
0.0128513 -0.0139751 0.0353941
-0.0438545 -0.0056056 0.0313917
-0.00128848 -0.00516703 0.0368677
0.0437326 -0.000834433 0.0362523
-0.0270366 0.0128995 0.030312
0.0341393 0.00461128 0.0301224
0.00476593 0.0158399 0.0336278
0.0401975 0.0154329 0.0329057
-0.0437459 0.0314293 0.0289343
-0.00962672 0.0238902 0.0331499
-0.0137882 0.0355418 0.035664
0.00144208 0.035022 0.0291554
0.0219355 0.0334382 0.0288697
0.0400909 0.0317966 0.0305498
-0.0361829 -0.0400131 0.0404785
-0.014714 -0.0421834 0.0436114
0.0186064 -0.0401184 0.0380883
-0.0259539 -0.0266559 0.0413598
0.0301715 -0.0290135 0.0390153
0.040739 -0.0238639 0.0436659
0.00446392 -0.0195635 0.043484
-0.0438308 -0.00650285 0.0443969
0.0284381 -0.00890273 0.0377195
0.0437175 -0.0115742 0.0433415
-0.0197695 0.00237404 0.0407627
0.0128442 0.0033569 0.0399208
-0.0400184 0.00843604 0.0390814
0.0211861 0.0139782 0.0375844
0.0439399 0.0196569 0.0459849
-0.0436164 0.0253149 0.0400758
-0.022962 0.02307 0.0425143
-0.0389827 0.037216 0.0392459
0.0153268 0.0402631 0.0424451
-0.0281153 0.0438752 0.0430942
0.0312573 0.0438002 0.040345
0.0437782 0.0437018 0.0413162
-0.0437789 -0.0437509 0.054468
0.00552381 -0.044005 0.0469801
-0.0225582 -0.0338372 0.0554705
-0.000284777 -0.0323984 0.0526536
0.0395636 -0.0398564 0.0475808
-0.0100824 -0.02637 0.0472118
0.0220928 -0.0224841 0.0513675
-0.0323025 -0.00483763 0.0489785
-0.0163086 -0.0126991 0.0539854
0.00117475 -0.00746088 0.0527178
0.0435297 -0.00552217 0.0555873
0.0171264 -0.00338882 0.0539291
-0.00120913 0.0085407 0.0515845
0.0153937 0.0122527 0.0493507
0.033176 0.00760653 0.0480584
-0.0399245 0.0201494 0.0554292
-0.00940008 0.0238084 0.0520477
0.00814416 0.0259478 0.0546942
0.0312014 0.0295475 0.0484041
-0.00433826 0.0401445 0.0482242
-0.0436405 0.0436326 0.0492099
0.0424855 0.0414044 0.0553841
-0.0333213 -0.0439786 0.0617442
-0.0125319 -0.0437267 0.0639513
7.44331e-05 -0.043843 0.0581354
0.0161544 -0.040171 0.0586223
0.0290451 -0.0319898 0.0637936
0.0434498 -0.0374175 0.0653759
-0.0436251 -0.0306886 0.0575078
-0.00864673 -0.0278394 0.0610755
-0.0365075 -0.0142668 0.0619185
0.00531443 -0.0198259 0.0621956
0.0402473 -0.0211233 0.0599531
-0.00464375 -0.00487975 0.0637555
0.00800132 0.00426482 0.0650476
-0.0259957 0.00599707 0.059497
0.0436544 0.00455533 0.0633082
-0.0203827 0.0213852 0.0585777
-0.0118 0.0134603 0.0629371
0.0244718 0.0177682 0.0630905
0.043069 0.0161632 0.0582083
-0.0437692 0.0353369 0.0604805
-0.0276547 0.0360408 0.0573616
-0.0118962 0.0342679 0.0614197
0.0142896 0.0407356 0.0588042
-0.00415178 0.0436743 0.0647951
0.0288598 0.0437492 0.0563378
-0.0440478 -0.0414938 0.0671568
-0.0235088 -0.0436438 0.0704267
-0.0233322 -0.0320082 0.0755624
-0.000689265 -0.0364576 0.072627
-0.0359133 -0.0301062 0.067603
-0.0161755 -0.0231438 0.0700192
0.0190491 -0.0260891 0.0684899
-0.043651 -0.0226445 0.0744795
-0.0203981 -0.00758695 0.0732019
0.0146944 -0.0083135 0.0698652
0.0309143 -0.00542632 0.0682846
-0.000720919 0.00934786 0.0723251
-0.0281581 0.0196574 0.0681969
-0.00188621 0.0203774 0.0663829
-0.0136869 0.0244538 0.0689339
0.0401372 0.0295527 0.0674218
0.0234687 0.0401463 0.0723778
-0.0437058 0.0437197 0.0699315
-0.0177183 0.0431452 0.0684833
0.00765044 0.0436768 0.0693102
-0.0140091 -0.0436245 0.07907
0.0101517 -0.0439701 0.0822195
0.0438681 -0.0438391 0.0803046
-0.0369921 -0.0390474 0.0816177
0.0140637 -0.0322236 0.0782838
0.0282822 -0.0402019 0.0778043
-0.010424 -0.0285369 0.0830836
0.0423972 -0.0302254 0.0778629
-0.0346131 -0.0146462 0.0784143
-0.0207455 -0.0214323 0.0820542
-0.00460257 -0.0203344 0.0753702
0.00974312 -0.0205577 0.0777379
0.0430758 -0.0164098 0.0766761
0.00139419 -0.00542208 0.0793026
-0.0362152 -0.00280021 0.0740896
-0.0400253 0.0129392 0.0773711
-0.0156982 0.0113969 0.078661
0.018344 0.00668286 0.0785007
0.0402316 0.0081775 0.0794662
-0.0116982 0.0317286 0.0835184
0.00720513 0.0289853 0.0769024
0.0284133 0.0237956 0.0826894
-0.0331437 0.0327202 0.0764365
0.0436258 0.0318097 0.0834683
-0.0220192 0.0439277 0.0803919
0.0395948 0.0436048 0.0807633
-0.0227388 -0.0437942 0.0881581
-0.00133326 -0.0417111 0.090351
0.0377145 -0.0436443 0.0921349
0.0107893 -0.0345688 0.0901766
-0.0320229 -0.0242017 0.0865488
0.0329978 -0.0266173 0.0915358
-0.0439073 -0.0204261 0.0870822
0.00146928 -0.0214123 0.091896
-0.01141 -0.0137483 0.0854205
0.0212011 -0.0119415 0.0851784
0.0401441 -0.00805021 0.0910024
-0.0437158 0.00170063 0.0891902
-0.0273846 1.45713e-05 0.0905827
0.00201282 0.0128773 0.0881492
-0.0440691 0.0199598 0.0920736
-0.0280162 0.0204107 0.0917298
0.0439954 0.0169258 0.0927924
-0.0440117 0.0387886 0.0866395
-0.0325517 0.0437027 0.0886317
0.00058189 0.0436237 0.0850705
0.0125293 0.0435946 0.089661
-0.0438251 -0.0438588 0.0956624
0.00682455 -0.0330368 0.102277
0.0216474 -0.0401643 0.100847
-0.0398907 -0.0287081 0.100708
-0.0200378 -0.0298741 0.0962604
-0.0280735 -0.0175264 0.103179
0.0219201 -0.016814 0.10196
-0.0372522 -0.0125717 0.0943224
-0.0129085 -0.0115441 0.102188
-0.0022502 -0.000348245 0.0966817
0.0206551 0.00316798 0.0982466
0.0318027 0.0209753 0.102571
-0.0436294 0.0310423 0.0986965
-0.0153086 0.0246168 0.100636
-0.00389075 0.0254934 0.0963924
0.0139259 0.0272182 0.0959916
-0.0209581 0.0399947 0.0996094
6.37574e-05 0.0402652 0.10181
0.0297951 0.0400296 0.0944976
-0.0436283 0.0438053 0.0979514
-0.0438483 -0.0428556 0.108116
-0.0278088 -0.0425644 0.10382
0.00876923 -0.0437477 0.11017
-0.00705375 -0.0399672 0.107917
0.0402584 -0.0366434 0.107289
-0.0150614 -0.0257098 0.111514
-0.00302587 -0.0240374 0.107514
0.0228796 -0.0267436 0.111616
0.0378367 -0.0168425 0.109039
-0.0402147 -0.0100266 0.110986
0.00669549 -0.00921042 0.107076
-0.0265241 -0.00235369 0.106768
0.0400594 0.00313073 0.107804
-0.0399726 0.00894715 0.103641
-0.0147832 0.00854914 0.103829
0.00239057 0.017356 0.109032
0.0183776 0.0141702 0.109791
-0.0436602 0.0288481 0.111219
-0.0304108 0.0239425 0.108567
0.0439003 0.0299291 0.109524
-0.0335319 0.0363522 0.109653
0.0346525 0.0381668 0.109947
-0.0437795 0.0437878 0.110371
0.0160759 0.0433018 0.104966
0.00256859 -0.0424673 0.1209
0.0280064 -0.0439579 0.115204
-0.0215052 -0.0362606 0.115009
-0.0315642 -0.0237372 0.113938
0.00531244 -0.0312533 0.115475
-0.00715099 -0.0172057 0.117214
-0.0223761 -0.0116979 0.120197
0.0237698 -0.00468153 0.116731
-0.0355797 0.00136836 0.121797
-0.00580233 0.00151116 0.117302
0.0114312 0.00601137 0.116354
-0.0383391 0.0175084 0.121957
0.0298932 0.0139643 0.121411
0.0437696 0.0180345 0.113538
-0.028483 0.0303925 0.119645
-0.0128342 0.0304735 0.115502
0.0209872 0.0254396 0.11409
0.0384942 0.029014 0.121046
0.022171 0.0402305 0.120139
-0.00320297 0.0436948 0.117708
0.0360316 -0.0438479 0.124715
-0.0360507 -0.0397981 0.121984
0.0175101 -0.0400908 0.126951
0.0438302 -0.0342892 0.122998
-0.0119903 -0.0259175 0.125315
0.00430959 -0.0246167 0.131057
-0.0399641 -0.0209789 0.127951
0.025648 -0.019852 0.123512
-0.008653 -0.0118735 0.128847
0.00214484 -0.0107223 0.122745
0.0146879 -0.0128366 0.127314
0.00963299 -0.00142904 0.126167
0.0402792 -0.00197078 0.127844
-0.0189992 0.011232 0.1234
-0.000609668 0.0214694 0.128451
0.0438885 0.0172081 0.129051
-0.0399643 0.0400748 0.125687
-0.0236009 -0.0440347 0.131297
-0.00803686 -0.0400919 0.132981
0.0393402 -0.0400069 0.140123
-0.0244564 -0.0301853 0.139955
0.022071 -0.0259772 0.140199
-0.00556717 -0.0157349 0.140416
0.0399917 -0.0214645 0.132392
-0.0395189 -0.00548057 0.133289
-0.0199241 -0.00810436 0.140152
-0.00369148 0.00258374 0.134689
0.0222267 0.00209948 0.135742
-0.0318919 0.00801401 0.138626
-0.0399617 0.0263167 0.14019
-0.0195815 0.025289 0.139435
0.0186495 0.0253345 0.133355
0.0383081 0.0277133 0.133732
-0.0222956 0.0397812 0.131855
0.00550673 0.0403222 0.131353
0.0350275 0.0400362 0.133597
0.0183171 -0.0435202 0.143131
-0.0405088 -0.0404243 0.143625
0.00590596 -0.0407116 0.142202
-0.0437396 -0.0242035 0.143725
-0.00593581 -0.0280498 0.143828
-0.0336458 -0.0167732 0.142681
0.0273166 -0.0109671 0.143889
0.0415568 -0.00604025 0.143734
0.0379243 0.00958841 0.143077
-0.00098528 0.0170935 0.143992
0.0147342 0.0138147 0.144059
0.0436247 0.0213653 0.1436
0.00698939 0.0301701 0.143943
-0.00618292 0.0357103 0.143624
-0.0421975 0.0436406 0.143588
-0.0295758 0.0436253 0.141748
0.0244268 0.0420447 0.142516
0.0420264 0.0436301 0.143631
VERTICES 337 674
1 0
1 1
1 2
1 3
1 4
1 5
1 6
1 7
1 8
1 9
1 10
1 11
1 12
1 13
1 14
1 15
1 16
1 17
1 18
1 19
1 20
1 21
1 22
1 23
1 24
1 25
1 26
1 27
1 28
1 29
1 30
1 31
1 32
1 33
1 34
1 35
1 36
1 37
1 38
1 39
1 40
1 41
1 42
1 43
1 44
1 45
1 46
1 47
1 48
1 49
1 50
1 51
1 52
1 53
1 54
1 55
1 56
1 57
1 58
1 59
1 60
1 61
1 62
1 63
1 64
1 65
1 66
1 67
1 68
1 69
1 70
1 71
1 72
1 73
1 74
1 75
1 76
1 77
1 78
1 79
1 80
1 81
1 82
1 83
1 84
1 85
1 86
1 87
1 88
1 89
1 90
1 91
1 92
1 93
1 94
1 95
1 96
1 97
1 98
1 99
1 100
1 101
1 102
1 103
1 104
1 105
1 106
1 107
1 108
1 109
1 110
1 111
1 112
1 113
1 114
1 115
1 116
1 117
1 118
1 119
1 120
1 121
1 122
1 123
1 124
1 125
1 126
1 127
1 128
1 129
1 130
1 131
1 132
1 133
1 134
1 135
1 136
1 137
1 138
1 139
1 140
1 141
1 142
1 143
1 144
1 145
1 146
1 147
1 148
1 149
1 150
1 151
1 152
1 153
1 154
1 155
1 156
1 157
1 158
1 159
1 160
1 161
1 162
1 163
1 164
1 165
1 166
1 167
1 168
1 169
1 170
1 171
1 172
1 173
1 174
1 175
1 176
1 177
1 178
1 179
1 180
1 181
1 182
1 183
1 184
1 185
1 186
1 187
1 188
1 189
1 190
1 191
1 192
1 193
1 194
1 195
1 196
1 197
1 198
1 199
1 200
1 201
1 202
1 203
1 204
1 205
1 206
1 207
1 208
1 209
1 210
1 211
1 212
1 213
1 214
1 215
1 216
1 217
1 218
1 219
1 220
1 221
1 222
1 223
1 224
1 225
1 226
1 227
1 228
1 229
1 230
1 231
1 232
1 233
1 234
1 235
1 236
1 237
1 238
1 239
1 240
1 241
1 242
1 243
1 244
1 245
1 246
1 247
1 248
1 249
1 250
1 251
1 252
1 253
1 254
1 255
1 256
1 257
1 258
1 259
1 260
1 261
1 262
1 263
1 264
1 265
1 266
1 267
1 268
1 269
1 270
1 271
1 272
1 273
1 274
1 275
1 276
1 277
1 278
1 279
1 280
1 281
1 282
1 283
1 284
1 285
1 286
1 287
1 288
1 289
1 290
1 291
1 292
1 293
1 294
1 295
1 296
1 297
1 298
1 299
1 300
1 301
1 302
1 303
1 304
1 305
1 306
1 307
1 308
1 309
1 310
1 311
1 312
1 313
1 314
1 315
1 316
1 317
1 318
1 319
1 320
1 321
1 322
1 323
1 324
1 325
1 326
1 327
1 328
1 329
1 330
1 331
1 332
1 333
1 334
1 335
1 336
POINT_DATA 337
VECTORS i float
0.0 0.0 0.0
0.0 0.0 0.0
0.0 0.0 0.0
0.0 0.0 0.0
0.0 0.0 0.0
0.0 0.0 0.0
0.0 0.0 0.0
0.0 0.0 0.0
0.0 0.0 0.0
0.0 0.0 0.0
0.0 0.0 0.0
0.0 0.0 0.0
0.0 0.0 0.0
0.0 0.0 0.0
0.0 0.0 0.0
0.0 0.0 0.0
0.0 0.0 0.0
0.0 0.0 0.0
0.0 0.0 0.0
0.0 0.0 0.0
0.0 0.0 0.0
0.0 0.0 0.0
0.0 0.0 0.0
0.0 0.0 0.0
0.0 0.0 0.0
0.0 0.0 0.0
0.0 0.0 0.0
0.0 0.0 0.0
0.0 0.0 0.0
0.0 0.0 0.0
0.0 0.0 0.0
0.0 0.0 0.0
0.0 0.0 0.0
0.0 0.0 0.0
0.0 0.0 0.0
0.0 0.0 0.0
0.0 0.0 0.0
0.0 0.0 0.0
0.0 0.0 0.0
0.0 0.0 0.0
0.0 0.0 0.0
0.0 0.0 0.0
0.0 0.0 0.0
0.0 0.0 0.0
0.0 0.0 0.0
0.0 0.0 0.0
0.0 0.0 0.0
0.0 0.0 0.0
0.0 0.0 0.0
0.0 0.0 0.0
0.0 0.0 0.0
0.0 0.0 0.0
0.0 0.0 0.0
0.0 0.0 0.0
0.0 0.0 0.0
0.0 0.0 0.0
0.0 0.0 0.0
0.0 0.0 0.0
0.0 0.0 0.0
0.0 0.0 0.0
0.0 0.0 0.0
0.0 0.0 0.0
0.0 0.0 0.0
0.0 0.0 0.0
0.0 0.0 0.0
0.0 0.0 0.0
0.0 0.0 0.0
0.0 0.0 0.0
0.0 0.0 0.0
0.0 0.0 0.0
0.0 0.0 0.0
0.0 0.0 0.0
0.0 0.0 0.0
0.0 0.0 0.0
0.0 0.0 0.0
0.0 0.0 0.0
0.0 0.0 0.0
0.0 0.0 0.0
0.0 0.0 0.0
0.0 0.0 0.0
0.0 0.0 0.0
0.0 0.0 0.0
0.0 0.0 0.0
0.0 0.0 0.0
0.0 0.0 0.0
0.0 0.0 0.0
0.0 0.0 0.0
0.0 0.0 0.0
0.0 0.0 0.0
0.0 0.0 0.0
0.0 0.0 0.0
0.0 0.0 0.0
0.0 0.0 0.0
0.0 0.0 0.0
0.0 0.0 0.0
0.0 0.0 0.0
0.0 0.0 0.0
0.0 0.0 0.0
0.0 0.0 0.0
0.0 0.0 0.0
0.0 0.0 0.0
0.0 0.0 0.0
0.0 0.0 0.0
0.0 0.0 0.0
0.0 0.0 0.0
0.0 0.0 0.0
0.0 0.0 0.0
0.0 0.0 0.0
0.0 0.0 0.0
0.0 0.0 0.0
0.0 0.0 0.0
0.0 0.0 0.0
0.0 0.0 0.0
0.0 0.0 0.0
0.0 0.0 0.0
0.0 0.0 0.0
0.0 0.0 0.0
0.0 0.0 0.0
0.0 0.0 0.0
0.0 0.0 0.0
0.0 0.0 0.0
0.0 0.0 0.0
0.0 0.0 0.0
0.0 0.0 0.0
0.0 0.0 0.0
0.0 0.0 0.0
0.0 0.0 0.0
0.0 0.0 0.0
0.0 0.0 0.0
0.0 0.0 0.0
0.0 0.0 0.0
0.0 0.0 0.0
0.0 0.0 0.0
0.0 0.0 0.0
0.0 0.0 0.0
0.0 0.0 0.0
0.0 0.0 0.0
0.0 0.0 0.0
0.0 0.0 0.0
0.0 0.0 0.0
0.0 0.0 0.0
0.0 0.0 0.0
0.0 0.0 0.0
0.0 0.0 0.0
0.0 0.0 0.0
0.0 0.0 0.0
0.0 0.0 0.0
0.0 0.0 0.0
0.0 0.0 0.0
0.0 0.0 0.0
0.0 0.0 0.0
0.0 0.0 0.0
0.0 0.0 0.0
0.0 0.0 0.0
0.0 0.0 0.0
0.0 0.0 0.0
0.0 0.0 0.0
0.0 0.0 0.0
0.0 0.0 0.0
0.0 0.0 0.0
0.0 0.0 0.0
0.0 0.0 0.0
0.0 0.0 0.0
0.0 0.0 0.0
0.0 0.0 0.0
0.0 0.0 0.0
0.0 0.0 0.0
0.0 0.0 0.0
0.0 0.0 0.0
0.0 0.0 0.0
0.0 0.0 0.0
0.0 0.0 0.0
0.0 0.0 0.0
0.0 0.0 0.0
0.0 0.0 0.0
0.0 0.0 0.0
0.0 0.0 0.0
0.0 0.0 0.0
0.0 0.0 0.0
0.0 0.0 0.0
0.0 0.0 0.0
0.0 0.0 0.0
0.0 0.0 0.0
0.0 0.0 0.0
0.0 0.0 0.0
0.0 0.0 0.0
0.0 0.0 0.0
0.0 0.0 0.0
0.0 0.0 0.0
0.0 0.0 0.0
0.0 0.0 0.0
0.0 0.0 0.0
0.0 0.0 0.0
0.0 0.0 0.0
0.0 0.0 0.0
0.0 0.0 0.0
0.0 0.0 0.0
0.0 0.0 0.0
0.0 0.0 0.0
0.0 0.0 0.0
0.0 0.0 0.0
0.0 0.0 0.0
0.0 0.0 0.0
0.0 0.0 0.0
0.0 0.0 0.0
0.0 0.0 0.0
0.0 0.0 0.0
0.0 0.0 0.0
0.0 0.0 0.0
0.0 0.0 0.0
0.0 0.0 0.0
0.0 0.0 0.0
0.0 0.0 0.0
0.0 0.0 0.0
0.0 0.0 0.0
0.0 0.0 0.0
0.0 0.0 0.0
0.0 0.0 0.0
0.0 0.0 0.0
0.0 0.0 0.0
0.0 0.0 0.0
0.0 0.0 0.0
0.0 0.0 0.0
0.0 0.0 0.0
0.0 0.0 0.0
0.0 0.0 0.0
0.0 0.0 0.0
0.0 0.0 0.0
0.0 0.0 0.0
0.0 0.0 0.0
0.0 0.0 0.0
0.0 0.0 0.0
0.0 0.0 0.0
0.0 0.0 0.0
0.0 0.0 0.0
0.0 0.0 0.0
0.0 0.0 0.0
0.0 0.0 0.0
0.0 0.0 0.0
0.0 0.0 0.0
0.0 0.0 0.0
0.0 0.0 0.0
0.0 0.0 0.0
0.0 0.0 0.0
0.0 0.0 0.0
0.0 0.0 0.0
0.0 0.0 0.0
0.0 0.0 0.0
0.0 0.0 0.0
0.0 0.0 0.0
0.0 0.0 0.0
0.0 0.0 0.0
0.0 0.0 0.0
0.0 0.0 0.0
0.0 0.0 0.0
0.0 0.0 0.0
0.0 0.0 0.0
0.0 0.0 0.0
0.0 0.0 0.0
0.0 0.0 0.0
0.0 0.0 0.0
0.0 0.0 0.0
0.0 0.0 0.0
0.0 0.0 0.0
0.0 0.0 0.0
0.0 0.0 0.0
0.0 0.0 0.0
0.0 0.0 0.0
0.0 0.0 0.0
0.0 0.0 0.0
0.0 0.0 0.0
0.0 0.0 0.0
0.0 0.0 0.0
0.0 0.0 0.0
0.0 0.0 0.0
0.0 0.0 0.0
0.0 0.0 0.0
0.0 0.0 0.0
0.0 0.0 0.0
0.0 0.0 0.0
0.0 0.0 0.0
0.0 0.0 0.0
0.0 0.0 0.0
0.0 0.0 0.0
0.0 0.0 0.0
0.0 0.0 0.0
0.0 0.0 0.0
0.0 0.0 0.0
0.0 0.0 0.0
0.0 0.0 0.0
0.0 0.0 0.0
0.0 0.0 0.0
0.0 0.0 0.0
0.0 0.0 0.0
0.0 0.0 0.0
0.0 0.0 0.0
0.0 0.0 0.0
0.0 0.0 0.0
0.0 0.0 0.0
0.0 0.0 0.0
0.0 0.0 0.0
0.0 0.0 0.0
0.0 0.0 0.0
0.0 0.0 0.0
0.0 0.0 0.0
0.0 0.0 0.0
0.0 0.0 0.0
0.0 0.0 0.0
0.0 0.0 0.0
0.0 0.0 0.0
0.0 0.0 0.0
0.0 0.0 0.0
0.0 0.0 0.0
0.0 0.0 0.0
0.0 0.0 0.0
0.0 0.0 0.0
0.0 0.0 0.0
0.0 0.0 0.0
0.0 0.0 0.0
0.0 0.0 0.0
0.0 0.0 0.0
0.0 0.0 0.0
0.0 0.0 0.0
0.0 0.0 0.0
0.0 0.0 0.0
0.0 0.0 0.0
0.0 0.0 0.0
0.0 0.0 0.0
0.0 0.0 0.0
0.0 0.0 0.0
0.0 0.0 0.0
0.0 0.0 0.0
0.0 0.0 0.0
0.0 0.0 0.0
0.0 0.0 0.0
0.0 0.0 0.0
0.0 0.0 0.0
VECTORS f float
0.00542757 -0.0276208 -0.00616701
-0.00517912 -0.00292632 -0.000544688
-7.40586e-06 1.94781e-05 -4.16769e-05
-0.00801935 -0.0120251 0.00151495
-0.0112612 -0.0120145 0.00209121
1.34471e-05 0.00144076 0.00170838
5.87932e-05 -0.00216168 -0.00581785
-0.00535415 -0.00701636 0.00476159
0.00248713 -0.00391203 0.00548256
-0.00638499 0.00710619 -0.0386055
3.6142e-05 -0.00276741 -0.000289393
-0.0618014 -0.0108771 -0.0366686
0.00107857 0.00498116 -0.00319269
-0.000732794 0.0100702 -0.00481103
-0.00468712 0.000741931 0.00358422
0.0 0.0 0.0
0.0155367 -0.00190053 -0.000261026
-0.00244108 0.00145753 -0.0154974
0.0146424 -0.0163577 0.0278292
-0.083841 0.0484831 -0.0820059
-0.0548041 -0.0424493 0.0190226
0.0 0.0 0.0
0.0226156 0.0128784 0.0477268
-0.00170687 -0.00278338 -0.000162234
-0.000447595 -0.0058233 -0.000438545
-0.0124703 0.0366075 0.0682087
0.0561986 0.0457188 0.049573
-0.00918481 0.0352013 0.00686516
0.0231287 -0.00908613 0.00118082
0.0228026 0.0141419 0.0194034
0.0122458 0.0296958 0.00339517
0.00117659 -0.017787 -0.00198849
-0.0324484 -0.022518 -0.0428177
-0.0116447 -0.00317837 -0.00517744
-0.0449521 -0.0050276 0.0742717
-0.0475088 -0.000990762 0.0136658
0.0300572 -0.0695327 -0.074561
0.0154675 -0.00187082 -0.0117175
0.0 0.0 0.0
0.00467466 0.00786341 -0.0129761
-0.00500826 0.0074448 0.00360693
0.0 0.0 0.0
-0.00533115 0.0135689 -0.0431268
-0.00608948 0.00667381 -0.000699465
0.00448558 -0.014983 -0.0501271
-0.00780033 0.0117428 0.0280525
0.000217993 -0.00206969 0.0146992
0.0126412 0.00250398 0.0150975
0.0689665 0.00634381 0.0163909
0.0164663 0.00164681 -0.000888595
-0.0116608 0.0148029 0.032792
-0.01035 0.00178019 0.020459
-0.00374416 0.00818988 -0.00445264
0.0299703 -0.00633449 -0.0188449
0.00335263 -0.00215541 -0.00173369
-0.00866949 -0.00193453 0.00210559
0.0110162 0.00832971 0.0549737
-0.00269448 0.00246691 -0.00186717
-0.015391 -0.0109605 -0.00604768
0.00728668 0.00538399 -0.000777522
-0.0588525 -0.00809538 0.0343353
0.000484609 -0.0159202 0.0242325
-0.00996538 0.0106308 0.00828953
-0.00416349 -0.00322824 0.0217201
-0.00450961 -0.00777024 0.0140624
-0.11786 0.0225752 0.0625783
-0.055418 -0.0373159 -0.0163474
-0.0358273 -0.0323051 0.0276744
0.0120953 0.0220575 -0.00961931
-0.0662316 0.0149592 0.0766003
0.00717434 -0.00540206 0.00551931
0.0218989 0.0545425 0.0890306
0.00323882 -0.00251358 -0.00627097
0.0132936 -0.00347627 -0.00729959
-0.013768 0.000253171 0.0194796
0.00209796 0.0232074 0.0136372
-0.019942 -0.0118795 -0.00665495
0.0018631 -0.00756522 0.0100178
-0.00252042 -1.76497e-05 -0.000927881
-0.00410272 0.0200196 -0.0365957
0.0360108 -0.00454329 -0.000585051
-0.0027557 -0.00174273 0.00870499
0.0116997 -0.051654 0.0554555
-0.0638755 0.00827624 0.0158809
0.0294834 -0.0428606 -0.0158752
-0.0266725 0.0212052 0.0458706
-0.0112842 0.00205007 -0.0159229
-0.0024868 0.00553473 0.00796736
0.00322155 0.00997866 0.0295565
0.0 0.0 0.0
0.00509078 -0.00496298 0.00297898
-0.0690596 -0.0143693 0.0387318
-0.00598885 0.00938052 0.0167681
0.0205581 0.00529659 0.0224504
-0.0102699 0.00116451 0.00862227
0.00856449 -0.00611575 -0.019784
0.0 0.0 0.0
-0.00876451 0.0010787 0.00711933
-0.00129029 -0.0300497 0.0425529
-0.0143454 -0.0233972 -0.0614851
0.0124044 -0.0185238 -0.00482916
0.0428922 0.0010667 -0.00919592
-0.0172636 -0.016218 -0.0048757
0.00858505 -0.000530112 0.00668275
0.00130995 -0.000635509 0.00171218
-0.00744152 0.00331435 0.0106641
-0.0175305 -0.00406604 0.000720761
-0.0633516 -0.122067 -0.201673
-0.000347668 0.0153534 -0.0534227
0.062697 0.0475023 0.0358914
-0.0268474 -0.0119183 -0.00149409
-0.0926621 -0.0048863 0.0386953
0.00744484 -0.0123321 0.0113539
0.0289911 -0.0583183 0.118123
-0.0141258 -0.0100891 0.0201317
-0.0147915 -0.0111849 -0.00761529
-0.0356828 0.0256051 0.0367116
0.0190297 0.0423341 0.0718526
0.00690741 0.00622244 0.021365
-0.0659231 0.0177332 -0.030832
0.0201226 -0.0154429 0.0149364
0.0 0.0 0.0
0.0277464 0.0416758 -0.00841813
0.0209278 -0.00236669 0.0704666
0.0317362 0.00995891 -0.12516
0.0263619 -0.0492557 -0.0367314
0.0 0.0 0.0
-0.00151868 -0.00103609 0.00326949
0.00527797 0.0491038 -0.0545363
-0.0554147 0.0244721 -0.0393388
-0.069555 -0.0176114 0.058245
-0.00670903 -0.00566063 -0.00558793
0.0 0.0 0.0
-0.0453317 -0.0645366 -0.125889
-0.00291813 -0.0448104 -0.0469953
0.00784053 -0.0282819 0.0297863
-0.104581 -0.112945 0.0213508
-0.0467975 -0.00170864 0.051145
-0.0105393 -0.00833941 0.0206941
0.0251634 0.0384961 0.0126142
0.0302205 -0.0473719 0.0391835
-0.00961738 -0.0112582 -0.00675212
0.00769282 -0.00498696 -0.00873132
0.0132055 0.00900237 0.00908451
-0.0135024 0.0261836 0.0853762
0.000393602 -0.0139865 0.010313
0.00299159 -0.00225694 -0.0105464
-0.0240497 0.0121735 -0.0554551
-0.0102597 0.00878683 -0.0205264
-0.0199414 0.000125686 0.00399606
-0.000782188 -0.00386227 -0.0236884
0.00920457 0.00259712 0.00339528
-0.00126181 0.00966469 0.0356811
-0.00936053 -0.0666906 0.0546216
-0.0473096 -0.0680331 -0.0797417
-0.108842 0.0722061 -0.0694961
0.0620121 0.0801622 0.0985022
-0.033761 -0.0783869 -0.0544754
0.0139941 0.0343961 -0.00953442
0.000162539 -0.0731709 0.0231371
0.058836 -0.0716468 0.0791856
-0.0462983 -0.0604793 -0.0293599
-0.068683 -0.0238525 0.0821099
0.0186125 0.028944 0.018435
-0.00450446 0.00893836 -0.0130277
-0.00789287 0.0288096 0.00689773
-0.0214533 0.0103725 0.0121787
-0.0100022 0.00528355 -0.0288955
-0.0561843 0.0559235 0.0192751
0.000210642 0.000197663 -0.0127533
0.0186199 0.0183536 -0.0117541
-0.015813 0.00988554 0.00549049
-0.0395528 0.0882115 -0.0748718
-0.0377758 -0.0125848 -0.0395945
-0.00242831 0.00205809 -0.000129081
0.0343601 0.0158152 0.0565189
-0.0136367 -0.00745011 -0.0232654
-0.0183486 0.00515736 -0.0134619
0.0161928 0.0216773 0.0444956
0.0 0.0 0.0
0.0846166 -0.00825093 0.0133134
0.00238283 0.0390778 0.0481025
-0.0148203 0.00123596 0.0233267
-0.0123093 0.00744518 0.0118096
0.0 0.0 0.0
0.0662201 0.0429367 0.00440427
0.061331 -0.00107233 0.033497
-0.00115212 -0.0156783 -0.0203108
-0.014924 -0.0196346 -0.0654811
-0.0177471 0.0543163 0.0952051
-0.00440554 0.0414642 -0.0037508
-0.0110789 0.0478074 0.0592529
-0.0388574 0.117805 0.070376
-0.0195817 0.0312236 -0.0220234
-0.0270747 0.0254689 -0.119806
0.000544033 0.000563075 0.00790878
-0.00184309 -0.00180447 -0.0045436
-0.000298615 -0.00263773 -0.00172701
0.0179707 -0.0189344 -0.00364177
0.0 0.0 0.0
-0.0135794 0.147291 -0.0441745
-0.00358567 0.0138846 -0.0409909
-0.00389892 0.00357203 0.0583296
-0.0405783 0.0319325 -0.00522262
-0.00121205 -0.0201209 0.0218407
0.0611121 0.080814 0.0440592
0.0147284 0.0311347 0.0295619
-0.0457923 0.0568411 0.0391871
-0.034879 0.0416263 0.0337513
0.0120459 -0.000989475 0.00787452
0.0744852 -0.0500936 0.0403423
-0.0714235 0.0587915 0.0786454
0.00740606 -0.0121222 0.00538643
0.0301241 0.118221 0.00742575
0.00303864 0.00511363 -0.00614911
0.00907478 -0.00159963 -0.00797611
0.00689789 -0.00122611 -0.00827873
-5.52378e-06 0.000898261 -1.84383e-05
0.0 0.0 0.0
0.00432512 -0.00291786 0.0171714
0.0176942 -0.000690057 -0.0221527
-0.0262794 -0.0204681 -0.0574967
0.0422227 -0.0815995 0.0587141
0.105107 -0.0619767 0.114208
0.000298379 -0.00911306 0.0238975
0.0 0.0 0.0
-0.00242682 0.0077494 -0.0189531
0.0389467 -0.0632869 0.0857522
0.00289538 -0.00114304 0.0221386
-0.0640986 0.0012915 0.114666
0.0130516 -0.00878465 -0.0308049
0.00219169 0.0152758 -0.0542536
-0.0114757 0.0190192 0.0099764
0.00122467 0.013562 0.0144352
0.0171142 0.0197731 0.0365723
-0.0472201 -0.0226178 -0.000479234
0.0652868 0.0381517 0.00556018
-0.0419322 0.00240074 0.0231837
0.00451152 -0.00246586 -0.00351533
-0.00803431 -0.0205608 0.00791836
0.0 0.0 0.0
0.00741939 -0.00311653 -0.004192
0.0891843 -0.0185305 0.00314989
-0.0237471 0.0184908 -0.00117994
0.0032388 -0.00274303 0.00792077
0.0261531 0.00808511 -0.016133
0.0 0.0 0.0
-0.0492005 0.0234316 0.0407788
0.0277592 -0.0687316 0.0308275
-0.0433704 -0.0107276 0.11693
0.0179511 -0.0202562 0.0156238
-0.0212295 0.0103855 0.0107827
0.038301 -0.0315892 0.0370553
0.0563769 -0.0626961 0.0350648
0.0104696 0.0633367 0.0409597
0.000918288 0.0104149 0.0171616
-0.00476489 0.024617 -0.0170492
0.0 0.0 0.0
-0.00115789 -0.0191152 -0.0187941
0.00612763 -0.00748734 0.0174539
5.732e-05 -0.00409477 0.00326828
0.000698607 -0.00506953 0.00262935
0.0 0.0 0.0
0.0106748 -0.0179884 0.0073122
-0.00147352 0.000153795 -0.00451074
0.0002484 0.0444158 0.00899009
0.0119242 -0.0239172 0.0168902
-0.00937794 -0.0101262 0.00585443
-0.000533254 -0.00789428 -0.00728182
0.0200036 -0.177675 0.0944402
-0.0397831 0.0285298 0.081004
0.00508876 -0.0107526 -0.00600427
0.0 0.0 0.0
-0.00074181 0.028621 0.0336123
-0.00464096 -0.0322752 0.00234416
0.0407326 0.0340561 0.0025813
-0.000128862 0.00386653 -0.0083551
-0.0014107 0.00981884 0.0310672
-0.0827199 -0.0529766 0.0693111
0.0127973 0.00463215 0.000949494
0.00647838 0.0196622 0.0225672
0.0161635 0.0202683 0.0245002
0.0132899 -0.0317354 0.0127955
0.00663963 0.00146977 -0.00057376
-0.000115601 -0.127035 -0.00423401
0.0897788 0.00956363 0.016447
0.00154705 -0.00177164 0.00167338
0.0 0.0 0.0
0.0489545 3.85658e-05 0.014214
-0.263521 -0.128664 -0.132024
0.0 0.0 0.0
0.00671155 -0.00885945 0.0469946
-0.0102075 0.0045676 0.0196483
-0.00442831 0.0198227 0.0248976
-0.000217036 0.0134535 0.0211714
0.0139644 0.0198331 -0.00880602
0.0941196 -0.0399115 0.0824952
0.0119037 -0.01331 0.012828
0.0049646 0.000138038 -0.00319003
-0.0254544 -0.0139323 0.0202665
0.00106995 0.00708234 0.00186064
0.0183662 -0.033656 0.0581746
0.0267295 0.0158812 0.0140664
0.113494 -0.196708 -0.0205207
0.077992 0.0263992 -0.000733569
0.00202627 0.00123385 0.0596858
0.0444003 0.0213624 0.0252258
-0.0307442 -5.247e-05 -0.011266
-0.0572437 0.118601 -0.0398028
0.0184212 0.0592006 0.105697
0.0729515 0.0400731 0.0472311
-0.0582347 0.0275615 0.0473174
-0.054147 -0.049503 -0.0211688
0.024474 0.0277022 0.0200636
0.0463493 0.0320903 0.0277863
-0.000938158 -0.000959582 -0.000161683
0.000126587 -9.73799e-05 0.000109508
0.0192067 0.00819775 0.0410407
-0.000527315 -0.000231128 -0.000393894
0.00646875 -0.00378246 0.0180649
5.37721e-06 2.8822e-06 1.22019e-05
0.00588291 1.9355e-05 0.0104188
0.0480817 0.0893304 0.0202061
0.0208867 0.0015672 -0.00129851
0.0760014 -0.0812219 -0.138706
0.00999177 0.00402409 0.00533433
0.00165403 0.000338192 -0.00238559
0.0 0.0 0.0
0.0105525 -0.00974824 -0.000722094
0.0146484 0.000198091 0.00155835
-0.000558164 9.76164e-06 -4.8511e-06
0.00374708 0.00693754 0.00388879
-0.000104354 6.62455e-05 0.0166046
-0.0330713 -0.108475 0.0530979
-0.00482819 0.00118742 0.00437846
0.0 0.0 0.0
0.000167011 -0.00296162 -0.00231236
VECTORS omega float
-0.222924 -0.0878915 1.65562
-0.368599 0.404515 1.45053
0.875032 1.86758 -4.99108
-1.76469 0.162042 -1.60385
-1.29066 5.83079 -12.3522
4.10994 0.670293 2.88077
1.39802 4.07623 -3.60519
3.54011 -0.289359 -0.226877
2.47609 0.0675061 -0.202475
7.08544 2.53273 5.8949
1.82629 2.21419 -7.25126
-10.9939 -11.222 -11.013
-0.231039 1.10675 8.09854
-5.09154 -2.53973 -0.488927
-0.849024 -4.64822 -1.77774
-14.4154 -9.10386 0.658964
5.18527 -12.8907 4.02099
1.7521 -4.13356 1.15291
0.398912 -1.8807 1.86063
0.15801 2.48312 -4.24489
0.917787 -0.634611 -0.696308
-11.1717 5.91995 -3.60153
-0.34209 -1.66213 -1.30254
-6.76719 -1.23611 3.32366
-4.15781 -0.774034 1.13469
-1.93844 -1.26289 0.607285
-2.31995 1.29149 -2.23446
0.509757 0.0874179 -0.708547
0.342727 -1.0971 1.60264
-8.45064 -0.961477 3.08637
0.772228 0.998507 2.23139
8.99487 -10.6033 9.14184
0.999333 -0.266027 -1.79425
-3.58061 -2.89993 12.7637
0.969682 2.52951 0.600255
-0.853437 -5.75228 -4.78615
-3.39022 -6.96716 2.75323
0.230816 10.9267 -13.0738
-4.48946 5.03989 1.5155
0.953934 -3.98285 1.27116
-0.883237 -2.24291 -1.94354
-6.411 -1.52955 2.29896
0.0564316 2.65722 -0.230859
-0.887763 -0.617647 0.385547
1.81427 -0.56058 -0.794781
1.87103 0.910047 1.33585
0.164526 -2.81184 -0.908718
-5.16924 3.2062 1.56877
-1.32321 0.246506 -0.842236
0.275389 -1.67082 1.8325
-7.34667 3.62408 4.52526
-8.75875 2.42297 -2.61091
4.79412 0.157 -0.428947
-1.98963 -0.348858 -2.10851
2.15141 -0.224241 -0.945824
7.88715 -3.80786 5.63376
2.62199 19.8283 -0.986091
0.642931 -7.27387 -24.3355
6.7211 -3.15822 18.3175
-0.363936 -4.4099 -3.71797
1.74788 8.59989 4.13377
-9.60228 -4.52852 -6.61852
0.467831 -8.14125 -2.79652
-1.31985 -7.49429 -3.48879
0.358259 2.22175 -0.563342
-1.99006 1.66458 -1.2262
1.76633 -0.382829 1.10716
-7.09459 -1.98436 0.048662
0.0684549 -1.70477 0.238675
2.30174 -6.53766 5.2202
8.85129 0.665839 -0.38816
0.157015 1.23419 -1.13176
10.258 4.14556 6.82272
-10.3868 0.642893 11.463
4.68031 -12.3626 -10.8702
-0.484013 -1.66493 -2.62743
-4.18549 11.4036 8.20272
0.278711 -4.5809 16.4901
3.99723 -9.43376 -4.26485
-2.61838 -5.02391 -2.14277
-2.46914 9.18718 0.301661
-10.8153 5.15792 17.1949
-1.30243 -0.0809696 -0.367513
4.47659 0.681142 0.108007
30.5387 0.203585 18.2146
0.107065 0.0479488 1.13513
50.3413 10.476 -10.8379
-1.68339 -3.35518 -5.51
4.79951 13.6755 10.5241
-1.46971 5.56101 0.0443451
9.78418 -0.295985 -0.864118
-5.12995 0.488909 2.38497
1.40114 0.313304 -3.7757
2.91363 0.553386 1.42506
10.5144 -9.61734 13.0964
-5.28788 -0.717257 0.00565969
8.82515 4.65415 -5.33189
-6.84787 0.13491 1.55195
-5.33361 -3.54838 4.01098
3.04401 0.659897 -3.98692
0.986941 7.78971 1.25554
2.60829 -7.6547 1.31961
-4.52905 -5.32582 1.44165
-2.8131 4.58252 -0.674341
1.00519 -0.62361 -0.117549
-5.82488 -1.05011 -0.952566
-0.590088 -2.55753 1.61323
-32.7457 0.102502 -0.227991
5.79822 0.264412 -13.6652
-1.63735 -0.965129 -6.21288
-6.70242 3.76618 6.87064
3.36162 -0.930973 0.41856
20.3672 13.4118 17.4144
-1.20662 -1.5033 -3.40669
1.22292 -2.3353 -5.0058
13.7262 2.68015 3.51695
-4.35313 0.30807 -0.076394
-0.44303 0.209532 2.54964
2.43286 -1.70777 2.23475
5.98394 1.31661 -2.28785
3.21372 0.824909 0.589896
2.16118 3.75658 4.24683
-0.582584 1.72878 -3.34646
3.50577 0.42484 -0.51142
0.832108 0.941755 0.596435
-7.28463 -12.3572 1.92323
-1.22905 5.99387 6.27496
6.76635 -5.69657 -0.585183
5.62948 0.751748 -0.36626
-5.86282 0.108473 3.90446
-1.19675 2.87854 -0.358535
1.44602 -6.95192 0.365521
-10.1413 11.9651 3.582
-12.0939 1.15283 -3.95464
8.0488 -25.7299 -2.38937
-3.35232 -7.5765 -18.3873
-4.8032 2.72455 1.90015
-3.2235 0.840087 0.251426
-2.6829 -8.33966 0.380053
-4.51229 5.48982 5.19282
-2.39584 -1.89137 -0.96526
-2.51251 7.63651 -0.253313
-0.5261 1.95113 -1.54395
-2.86247 -0.95984 -0.421833
-3.72694 -1.86649 1.54103
-7.66568 -5.38984 -1.64815
2.33201 -3.35721 0.272479
3.02348 3.0057 -1.21332
1.68002 -1.33635 0.466559
-2.18667 8.12676 0.873599
-0.632983 -1.19028 1.0232
-3.63411 2.02668 1.01465
-2.22449 -1.12888 -1.74012
7.30035 6.38566 -7.40236
-1.90332 -24.7664 -6.22607
5.66953 10.8081 9.05702
3.86182 -1.75144 11.3679
-15.3599 40.5217 12.71
-8.10994 11.2812 -2.30254
11.0929 1.91806 -2.50406
2.95016 3.93765 1.29455
2.41217 -3.02654 1.06316
0.578963 0.956066 -0.353019
0.20873 -0.958159 2.21047
5.97058 5.86095 -2.82767
-1.83219 -0.417045 0.775044
-2.16014 0.749819 -5.07378
1.99558 0.187954 -0.977238
0.825571 -2.99285 1.03673
-5.18283 -5.27497 -0.222277
-1.9816 -3.02071 -0.828403
2.38341 3.65815 0.0377885
-6.48648 -8.42399 -4.53202
-1.08314 -24.1877 -4.80205
-2.89648 -2.79246 -0.639401
-0.175129 1.84638 0.625146
13.0517 -12.9861 -3.6003
-0.8763 3.49559 1.00403
-9.05269 -3.52197 -0.857655
0.0 0.0 0.0
-4.61373 14.046 5.58952
-6.68908 1.82071 -1.26472
1.30634 -3.66355 14.3267
1.38012 -0.655405 2.22064
8.82173 1.69023 -5.20317
-0.0352751 5.31761 -2.94475
15.2071 -8.65763 -5.65617
-6.13282 -2.3421 -0.527405
0.742096 0.410891 2.10205
-0.0739872 -0.587271 1.03946
1.01012 -0.57688 0.325924
0.826964 0.574757 2.65977
-0.573004 1.20211 -2.23436
-0.416494 0.106916 -0.634325
-3.12991 -1.66466 2.51266
2.22436 -0.505363 2.29178
0.256317 -1.8469 -1.85404
0.0728343 -10.8294 -0.349434
-0.384667 -1.63251 -2.12636
0.619822 0.530088 0.721279
-5.72059 4.3945 1.92179
2.43293 5.97761 -1.90223
-0.176025 -1.52488 -5.5998
2.43115 0.927127 1.18624
14.1812 -1.86085 4.26501
-1.11398 -0.37111 1.22639
0.785077 -8.19229 4.34942
-1.19879 0.830867 -1.32336
-1.18106 0.0908556 -0.380412
-7.44887 1.66058 -5.35948
-3.08581 -1.3144 2.53772
-0.0469975 0.31877 -0.577555
9.78099 -1.04308 3.46943
-0.87467 -0.987593 -3.09731
-2.89421 0.238804 -1.76637
-1.79473 1.68385 -0.0291651
0.431966 -3.19959 -2.05713
4.11956 -0.492245 0.545476
-2.10641 -5.16999 0.629777
0.368122 -1.62165 -0.628361
3.6117 4.18924 -0.581125
-0.95001 0.0410633 -0.913234
-2.75688 -0.152598 0.379393
0.294719 -1.49601 1.66066
10.6799 -7.10999 -5.70629
1.29439 1.24804 -6.91723
-8.28605 -3.89851 -6.53508
-2.88699 4.09733 4.12259
-3.38446 -5.05068 0.0961262
-1.27769 -1.87456 0.878464
0.630277 -0.211099 1.25664
-5.2236 -3.78189 -1.59941
0.592264 4.70969 0.69026
2.29467 -3.82755 -0.680776
-0.928032 -1.13614 0.430114
-0.634271 3.62556 -0.312613
-0.318666 4.2337 0.0892941
0.16855 2.53606 1.32189
0.967428 -1.41538 -0.432121
-0.405888 -0.837162 -0.63339
7.77538 5.54282 -2.49296
0.531749 0.831834 -0.246782
1.40763 -0.240913 0.0115296
-1.02654 -0.840315 0.632009
3.11771 -0.863327 2.32797
1.6859 1.2958 0.157137
0.335401 -0.706355 -0.610114
1.02694 -1.51547 0.446738
0.271104 -1.46321 -1.59545
0.687905 1.17151 2.66713
-2.14595 0.352915 6.20515
-0.162285 -0.065789 -0.836434
-2.00198 1.73857 -0.90696
-1.74214 -1.96027 -3.2084
-2.45085 -0.603268 2.44988
1.93122 2.90561 -1.09415
2.84186 2.68244 2.14228
-7.77535 1.72107 3.27757
0.632565 3.15207 -3.32703
-3.64878 -2.996 3.18608
-2.35132 -3.3191 2.45347
0.282273 1.46392 -0.0735079
-3.14774 -3.00682 1.57696
-1.43782 1.45704 1.63424
-0.228163 0.207645 -0.551428
-20.9616 -0.274989 15.3602
8.30319 -1.11342 0.142149
0.962525 4.03811 2.60972
1.10959 4.16309 9.36475
4.49282 -3.38364 -1.62613
2.07673 1.63335 -1.5277
-3.52961 -1.34757 -0.847348
3.31357 5.81552 -1.37946
-6.09733 2.09 -3.00338
-1.96767 0.243514 -0.827817
0.710818 -0.350703 0.169857
1.53265 0.622156 -0.425277
5.48994 2.0488 0.29975
-3.61862 -1.76365 0.0455895
-1.67857 0.154765 -1.19982
0.0126522 -1.54873 -0.510488
0.813154 -0.652573 0.213572
1.86922 -3.27519 0.0134942
-0.356679 -0.859985 0.598279
-2.65592 -2.01673 -5.06733
0.187185 -0.0226302 -1.29594
-0.170884 -0.427886 -0.208965
9.08847 5.30399 7.51205
6.02796 3.89834 -1.03485
5.11793 -2.51459 -0.252806
3.27949 -0.429041 -6.04178
-7.31651 8.77529 13.8915
-6.12642 -5.83542 3.83932
-6.44461 -3.26443 2.6548
9.04073 4.52526 -3.59472
-1.24293 0.731275 -0.040362
6.89415 -0.0609801 4.1131
0.524563 -0.676371 -4.09816
2.39574 1.1371 0.0197785
-0.76387 -0.387346 0.715519
-0.631974 8.22705 3.288
-1.87899 -5.05144 0.42248
0.112401 0.35442 0.289389
-1.18501 5.09706 9.3202
-0.0174314 -0.504222 1.88213
7.41549 -17.879 -7.16837
0.813194 0.324186 -0.929622
-11.9288 -2.7257 18.5919
-10.0065 9.67709 13.814
-2.2027 -11.8101 0.402913
-1.71174 1.88902 0.962635
3.97372 -2.81167 -17.0122
0.493863 -1.33634 2.61146
-0.739253 0.828514 -0.507201
-1.73296 2.1215 0.06635
-2.8836 -0.180541 4.72227
1.50578 1.08258 -2.64355
-1.18543 1.99488 0.461187
1.81 0.650507 -2.97336
-1.10404 -0.528895 -0.411282
-4.46756 0.629948 -10.0341
0.348625 -2.73971 -0.0653541
-1.42039 2.27868 4.2927
3.43616 7.95721 3.87011
16.697 -4.12659 -15.3559
1.8529 -0.446777 -3.66995
1.48164 -0.907274 -0.784931
0.67543 -2.70899 -0.296763
1.93174 3.32059 1.61792
1.61568 -2.13134 -1.29032
3.18902 -1.10398 -2.74181
1.75406 -2.33251 0.214384
3.53544 1.49295 2.60736
-3.79733 0.861793 -5.58034
0.63684 -1.13096 -1.16601
0.0 0.0 0.0
-0.193195 0.115752 -0.232316
VECTORS v float
-0.00355086 -0.00163669 -0.00348234
0.00301001 0.00284613 -0.00067144
0.0269511 -0.0451349 0.00419726
-0.00116449 0.0121229 -0.00166398
0.0370831 0.00974097 0.00141213
0.00237148 -0.025958 -0.00111139
0.0271926 -0.0088246 0.017542
-0.00419945 -0.0201366 -0.00415213
0.0029411 -0.0287229 -0.0105846
0.0463373 0.00117573 0.00701494
0.00980803 -0.0111849 0.0141451
-0.00670847 -0.106709 0.0211888
0.00676919 0.000422619 0.00658295
0.000613146 0.00490715 -0.0167406
-0.0293681 0.00468233 0.00224119
-0.0167597 -0.00383562 -0.0571498
-0.0812001 -0.0280029 -0.00911033
0.00074747 0.00514625 0.00695325
-0.0161309 -0.00682029 0.00409967
0.0313631 -0.0063568 0.00695953
-0.00524034 -0.00166325 0.00286781
0.0218394 0.047752 -0.0319804
-0.0226618 -0.0139913 -0.00844105
0.021802 2.94568e-05 0.0292247
-0.00168736 -0.00794996 -0.00139712
-0.0157166 -0.027548 -0.00681202
0.013431 -0.0178993 0.0121165
-0.00384095 -0.00175593 -0.00784284
-0.00735891 -0.00694703 -0.0117931
-0.0348234 -0.0159893 -0.0675254
0.00878267 -0.0104547 -0.00354175
-0.0421708 0.0058207 -0.0251009
0.00280949 -0.01516 0.0030803
-0.0559611 -0.0328229 -0.0231528
-0.0216068 -0.00395902 0.00606829
-0.0517892 0.00331068 0.0110752
-0.11327 0.0207032 0.00327657
-0.0804681 -0.0102215 -0.00781041
-0.0434118 0.00274016 -0.0199515
-0.00879631 -0.00710057 0.00697752
0.0112576 -0.01079 -0.00267574
0.00552356 0.0109943 0.0226653
-0.0121199 -0.00574511 0.0155456
-0.00919304 -0.00767462 0.0161374
-0.002303 -0.0168457 0.0198757
0.00880031 -0.0150191 0.0077657
0.00259066 -0.0155572 0.0261333
-0.0120952 0.0111991 -0.0192029
-0.017403 -0.00293523 -0.0119817
-0.0183763 -0.00273964 -0.0016962
0.0236846 0.0317715 -0.0148137
0.0257863 -0.0373615 -0.0212331
0.00427365 -0.0244294 0.0121127
-0.0117365 0.00828191 -0.0176344
-0.0129336 -0.020811 -0.0105823
0.0022242 -0.030222 -0.0262165
-0.0323552 -0.00936615 -0.0186668
0.0245042 -0.0801896 0.046491
0.0112792 -0.122196 0.0844448
0.00321977 -0.00954568 0.00668881
-0.0325737 -0.01521 0.0170749
-0.0495829 -0.0239895 0.0625415
-0.0284474 0.00321737 -0.00209254
-0.0191496 3.5108e-05 0.0142148
-0.00472938 0.00139556 -0.00464201
-0.0133585 0.00958053 0.0229169
-0.0148191 -0.0182516 0.00492579
-0.00239914 -0.00168449 0.0180175
-0.0214193 -0.0101087 -2.7825e-05
-0.0217806 -0.0625425 -0.0207412
-0.00561471 -0.00331967 -0.000934232
-0.0149985 -0.00999681 -0.00187452
-0.009113 -0.0422006 0.0258176
-0.0172644 -0.00496229 -0.0259603
0.0164767 0.0240681 0.021531
-0.00504272 -0.0148427 -0.00576322
0.0591716 0.00266654 0.0435874
0.00615166 -0.0549067 0.122373
-0.00751204 0.0020626 0.00217092
0.01065 0.00918634 -0.0222664
-0.00120534 -0.0088932 -0.0210217
0.0678773 -0.0543991 0.00186832
0.000156316 0.00314731 -0.000362527
-0.000935259 0.0019342 0.0457516
0.118936 -0.202656 -0.0268652
-0.00487648 0.00256711 0.00113641
-0.0178938 -0.131959 -0.106505
0.00912077 -0.00613025 0.0107265
0.0378343 0.0142305 -0.0177588
0.0464575 -0.0376188 0.02042
-0.00905838 -0.00225931 0.00228935
-0.0165553 0.00789567 -0.00153202
-0.00400312 0.0276871 0.00133657
-0.0175769 -0.00381221 -0.01271
0.00428957 -0.0102806 -0.0149719
-0.000292598 -0.000305315 0.00789777
-0.00941667 0.0939591 -0.0456702
0.00586832 -0.00787853 0.00131219
0.0184071 -0.0419541 0.166657
-0.0452826 0.0316479 -0.0392052
0.0370066 0.0014666 0.0995077
0.00926029 9.06142e-05 -0.0261882
0.0089215 0.00238731 0.019482
0.00140547 0.0044452 0.0190143
0.00188241 0.00256413 -0.00274909
-0.0019307 -0.00138968 0.0461389
-0.0112968 -0.0133853 -0.00533479
0.0184024 -0.127686 -0.114139
0.0719202 0.0340139 -0.0391744
0.0647381 0.000306682 -0.015426
-0.033324 -0.0437239 0.0101714
-0.0096218 -0.00388883 0.00588946
0.00184379 0.0173013 -0.0521819
-0.0370955 -0.0153584 -0.0289358
-0.021911 -0.0261991 0.00186749
-0.0185791 0.0236687 0.0106947
-0.013339 -0.00419969 -0.00572124
-0.0189149 -0.0116195 -0.00151664
-0.0220994 -0.0139893 -0.037858
-0.00161489 -0.00129776 -0.00472072
-0.00496436 0.0129929 -0.00643893
-0.00306706 0.010346 -0.0669124
-0.00390795 -0.0093615 -0.0230751
0.00108969 -0.0103752 0.00293641
0.00591668 0.00715136 -0.00958617
0.000428082 0.0256966 0.0915404
-0.0348206 0.0322927 -0.0249088
0.00410862 -0.0079663 0.0435159
-0.00117871 -0.0136354 0.0338284
-0.0261953 0.011389 -0.0265059
-0.00137715 -0.00458167 -0.0106345
-0.00331034 -0.0013163 -0.00465113
-0.0136029 -0.022664 0.0760965
-0.000290343 0.0121887 0.0261423
-0.0199447 -0.0414211 -0.0736894
-0.054483 -0.0385836 -0.0913217
-0.021865 -0.0172962 0.0336015
0.000232829 -0.00103671 0.00476778
-0.0762118 -0.000928125 -0.030096
-0.00249691 0.0303477 -0.0168361
-0.0291838 -0.0121461 -0.0111728
0.00227362 -0.00866753 0.0769118
-0.0178834 -0.00799334 -0.0315044
-0.0256489 -0.0124746 -0.0111356
-0.00225272 -0.0107479 -0.00160367
0.0101445 -0.0243734 0.0158975
-0.00146428 0.00573704 0.024065
0.0047653 0.00562235 0.0130765
0.0103937 -0.0136423 -0.0133512
-0.0149326 -0.00827484 -0.0135748
-0.00057874 -0.0026913 0.000500264
0.00637928 -0.00598048 0.0231964
-0.00755571 -0.0107312 0.00627666
0.0391339 -0.00149092 0.0477878
0.0779092 -0.0324131 0.08021
0.0165475 -0.000532723 -0.0117063
-0.00851394 0.0308676 -0.0309768
0.0186436 -0.0330164 -0.0326319
0.0177913 0.023135 -2.92138e-05
-0.0235318 -0.0214818 -0.0217397
-0.0134062 -0.0225832 -0.0160083
0.00353286 0.0066697 -0.0251601
0.00263677 0.0134699 -0.00992779
-0.00778527 0.0101449 -0.007939
0.00789951 -0.0183948 -0.000774957
-0.0222502 0.0021037 -0.0197194
-0.0193916 -0.00823057 -0.0123446
0.00374161 0.00582167 -0.00228985
0.00967441 0.00282032 -0.0119314
-0.000255133 -0.000832999 0.0344236
0.0260935 -0.0116441 0.010773
0.00313547 0.00222422 -0.0160407
0.0639718 -0.0657691 0.0324759
0.0309617 0.00575324 -0.00461107
0.00122751 0.00477411 -0.0179877
0.00619372 -0.000357444 -0.00297962
-0.00398183 0.0104944 -0.00960019
-0.0100734 -0.00133376 -0.00685727
0.0223691 -0.0413361 0.0416244
0.0 0.0 0.0
0.00126728 -0.0263148 -0.0547644
0.0215992 -0.0270675 -0.00709958
-0.0105798 -0.0330447 0.0413917
-0.00184975 0.0179399 0.0311933
0.0122378 -0.0154008 0.0275815
0.00759927 -0.00553827 -0.00721165
-0.0291775 -0.0126771 0.00155613
-9.14378e-05 -0.00535867 0.022107
-0.0246867 -0.0123527 -0.00475443
-0.00475985 0.0078512 0.000394455
0.0023636 0.00272203 -0.00285469
-0.00336469 0.00345854 -0.00915642
-0.00154513 0.00422549 -0.0264331
-0.000289879 0.00130369 -0.0013699
0.0110915 -0.0159743 0.00722596
-0.00260776 -0.0175986 0.0100547
-0.00931608 0.00308152 0.00095283
-0.000575388 -0.00857892 0.00144123
0.0148162 -0.00282694 -0.00349295
-0.00821445 0.00380538 0.00425263
-0.00676191 -0.060153 -0.0186134
-0.00914586 0.00870305 0.00934144
0.00468211 0.0196912 -0.00412456
0.0029866 0.000644531 -0.00444873
-0.00528497 0.0290047 0.00226669
-0.00289034 0.00939149 0.0344225
-0.00160625 -0.0148963 -0.00984403
-0.00843676 0.0109926 0.0183529
-0.000977579 0.00351786 0.000813433
-0.00409153 -0.0344609 -0.0119705
-0.0027501 -0.035528 0.000912101
-0.0123472 0.00375779 -0.00640159
-0.00804741 0.0233863 0.00488183
-0.00635454 0.0170686 0.0213579
0.00168071 0.0114674 0.00164638
-0.00533774 -0.00195522 -0.0109219
-0.0140071 0.0068299 -0.000652268
0.00350499 -0.0042055 -0.0262692
0.0036766 -0.0134272 0.0128636
0.00260718 -0.00713359 0.00233109
0.0160822 0.0020569 0.0249608
0.00823434 -0.00790136 -0.00881695
-0.00822884 -0.00899359 -0.026652
-0.000270267 0.00126281 0.0083726
-0.0087675 -0.0192345 0.032069
-0.0137942 0.00336916 0.0241426
-0.021625 -0.00557905 0.0472247
-0.0147624 -0.0102146 0.0515424
-0.0356094 0.00865674 0.00710545
-0.0176663 0.0284975 0.00683915
-0.00259449 0.0187529 0.00315255
0.0019499 0.0113957 -0.0420281
0.00432731 -0.00407551 -0.00431688
-0.0072773 0.00112471 -0.00584644
-0.0112843 0.00660679 -0.0081195
-0.00179451 0.00226324 -0.00252412
-0.00448587 0.00350066 0.00489936
0.0142824 0.00271629 0.000315504
-0.00201052 0.0023063 -0.0085888
-0.0121225 -0.00508947 0.00286876
0.0346534 -0.0433336 -0.0927828
0.00511675 0.000863552 0.00307014
0.00174928 0.00200671 0.0126184
0.00828191 -0.00531783 -0.00565509
-0.0272685 -0.00482492 0.0259571
0.00296588 0.0078773 0.0370018
0.00499663 -0.0187439 0.0244342
-0.0108786 0.00436529 -0.00285461
-0.00864648 -0.0131981 0.0169861
-0.0220564 0.0299979 0.0319027
-0.0139669 0.00344311 0.0179862
-0.00185764 0.0106953 0.00192709
-0.000860629 -0.0101689 -0.0136961
-0.0188397 -0.000364499 0.00616195
-0.0198844 0.0106798 0.0112091
-0.0167988 0.0249713 0.00689491
-0.00471366 0.0204768 -0.0228345
0.0149933 -0.023335 0.0508426
0.0094917 0.0192641 0.0185327
0.00879445 0.0179326 0.00866656
0.0215253 0.0254252 0.00975557
-0.00163233 -0.00082658 -0.0053479
0.00360228 0.00320285 -0.0155626
0.00978905 0.00281541 0.0122409
0.00539985 -0.00425104 -0.00390427
-0.0254828 -0.0367228 -0.0183322
-0.0224019 -0.0344189 -0.0171949
0.0450766 0.0104942 -0.0104898
-0.002877 -0.0255339 0.0573201
-0.0258569 -0.0745983 0.0668984
-0.0167717 0.018256 0.0186524
-0.00446219 0.00304992 0.0220462
0.00738675 -0.0112724 -0.0249866
-0.0162258 0.0452907 0.0490957
0.0056648 0.0221786 -0.020035
-0.0028692 0.00745891 0.00369635
0.00297721 0.0112498 0.00730785
0.0114968 0.0195953 -0.0147976
0.0126511 0.0230505 -0.0109721
-0.00149212 0.0158851 -1.5637e-05
0.00501784 -0.00903675 -0.015406
0.00232127 0.0104237 -0.0069221
0.00439528 0.00527965 -0.00600058
-0.00101064 -0.000316574 -0.00255083
-0.0327997 -0.00880314 0.00769002
0.0127629 0.00263065 -0.00038692
-0.00172031 0.00519747 -0.000715339
-0.0790214 0.0279555 0.0186908
-0.0207935 0.022702 0.0302856
0.001149 -0.00949651 0.0223737
-0.01044 -0.0365665 0.00139909
-0.00871293 -0.0135385 0.0497748
-0.0324924 0.0428865 0.0357409
-0.0264045 0.0326413 0.0334622
-0.034015 0.0414139 0.0573407
0.00491005 0.00623224 0.00403929
-0.0409251 -0.0544825 0.012619
-0.0251963 0.0263489 0.0181242
0.0013608 0.000573677 0.00862547
0.00656249 0.00579608 0.0028432
-0.0215112 -0.00936306 -0.00315191
-0.0286854 0.0131706 -0.00943196
-0.00318879 0.00170133 0.000466159
-0.0522659 0.00832754 -0.0167782
0.00243041 0.0022742 0.00186656
-0.0399579 0.000215326 0.0561474
0.0011747 0.00958959 0.00616657
-0.131721 -0.017862 -0.00466393
-0.0895915 -0.0759023 -0.00553569
-0.109264 0.0352572 0.0199838
0.00845239 0.0106588 0.0231212
-0.0941614 -0.0510806 -0.0137793
0.0174766 0.00975657 0.00589887
-0.00873194 -0.00494822 -0.0151592
0.00953839 0.00845204 0.00530884
-0.0023586 0.00824358 -0.00597757
0.00160116 0.00908035 -0.0158957
0.00506854 0.00876511 0.00894861
-0.015776 0.0132291 -0.0129464
0.00466109 0.00483395 0.0156609
-0.0739315 -0.0659698 -0.00412422
-0.00538155 0.00835654 -0.01894
-0.0364204 -0.00967072 -0.00695759
-0.0502539 0.022469 -0.002288
-0.0369128 -0.0566502 0.0588244
0.00629975 0.00634391 0.0121454
0.00641896 0.00875305 0.00513958
-0.0194682 0.0432977 0.0345983
-0.0208433 0.0102505 0.00914858
0.00924921 0.0133011 0.0119723
-0.00380105 0.0174825 -0.00703966
0.012997 0.00945066 0.00810718
-0.00958359 0.0225612 -0.0178725
-0.0205244 0.0433618 0.0014417
-0.00737685 -0.00427645 -0.00381922
0.0 0.0 0.0
-0.000881195 -0.00379525 -0.00501834
SCALARS radius float 1
LOOKUP_TABLE default
0.00638145
0.00638145
0.00638145
0.00638145
0.00638145
0.00638145
0.00638145
0.00638145
0.00638145
0.00638145
0.00638145
0.00638145
0.00638145
0.00638145
0.00638145
0.00638145
0.00638145
0.00638145
0.0102103
0.0102103
0.0102103
0.00638145
0.0102103
0.00638145
0.00638145
0.0102103
0.0102103
0.0102103
0.0102103
0.00638145
0.0102103
0.00638145
0.0102103
0.00638145
0.0102103
0.0102103
0.0102103
0.00638145
0.00638145
0.00638145
0.00638145
0.00638145
0.00638145
0.00638145
0.0102103
0.0102103
0.00638145
0.00638145
0.0102103
0.00638145
0.0102103
0.00638145
0.00638145
0.0102103
0.00638145
0.00638145
0.0102103
0.00638145
0.00638145
0.00638145
0.0102103
0.00638145
0.00638145
0.00638145
0.00638145
0.0102103
0.0102103
0.0102103
0.0102103
0.00638145
0.00638145
0.0102103
0.00638145
0.00638145
0.00638145
0.0102103
0.00638145
0.00638145
0.00638145
0.00638145
0.0102103
0.00638145
0.0102103
0.0102103
0.00638145
0.0102103
0.00638145
0.00638145
0.00638145
0.00638145
0.00638145
0.0102103
0.00638145
0.0102103
0.00638145
0.0102103
0.00638145
0.00638145
0.00638145
0.0102103
0.00638145
0.0102103
0.00638145
0.00638145
0.00638145
0.00638145
0.00638145
0.0102103
0.00638145
0.0102103
0.00638145
0.0102103
0.00638145
0.0102103
0.00638145
0.00638145
0.0102103
0.0102103
0.00638145
0.0102103
0.0102103
0.00638145
0.0102103
0.0102103
0.0102103
0.00638145
0.00638145
0.00638145
0.00638145
0.00638145
0.0102103
0.00638145
0.00638145
0.00638145
0.00638145
0.0102103
0.0102103
0.0102103
0.00638145
0.00638145
0.0102103
0.00638145
0.00638145
0.00638145
0.0102103
0.00638145
0.00638145
0.0102103
0.00638145
0.00638145
0.00638145
0.00638145
0.00638145
0.00638145
0.00638145
0.0102103
0.00638145
0.00638145
0.00638145
0.00638145
0.0102103
0.00638145
0.0102103
0.00638145
0.00638145
0.00638145
0.00638145
0.0102103
0.0102103
0.00638145
0.00638145
0.00638145
0.00638145
0.00638145
0.00638145
0.0102103
0.00638145
0.0102103
0.00638145
0.00638145
0.00638145
0.00638145
0.00638145
0.00638145
0.00638145
0.0102103
0.00638145
0.0102103
0.0102103
0.0102103
0.0102103
0.0102103
0.0102103
0.0102103
0.0102103
0.00638145
0.00638145
0.00638145
0.00638145
0.00638145
0.00638145
0.00638145
0.00638145
0.0102103
0.00638145
0.0102103
0.00638145
0.0102103
0.0102103
0.00638145
0.0102103
0.0102103
0.00638145
0.0102103
0.00638145
0.00638145
0.00638145
0.00638145
0.00638145
0.00638145
0.00638145
0.0102103
0.0102103
0.0102103
0.00638145
0.00638145
0.00638145
0.0102103
0.00638145
0.0102103
0.0102103
0.00638145
0.00638145
0.00638145
0.0102103
0.0102103
0.0102103
0.0102103
0.00638145
0.00638145
0.00638145
0.00638145
0.0102103
0.0102103
0.00638145
0.00638145
0.00638145
0.0102103
0.0102103
0.0102103
0.00638145
0.0102103
0.0102103
0.0102103
0.0102103
0.00638145
0.00638145
0.00638145
0.00638145
0.00638145
0.00638145
0.00638145
0.00638145
0.00638145
0.00638145
0.00638145
0.00638145
0.00638145
0.00638145
0.0102103
0.0102103
0.00638145
0.00638145
0.00638145
0.0102103
0.0102103
0.00638145
0.00638145
0.0102103
0.00638145
0.00638145
0.0102103
0.00638145
0.00638145
0.0102103
0.0102103
0.00638145
0.00638145
0.0102103
0.0102103
0.00638145
0.00638145
0.00638145
0.00638145
0.00638145
0.0102103
0.0102103
0.0102103
0.00638145
0.0102103
0.00638145
0.0102103
0.0102103
0.0102103
0.0102103
0.00638145
0.0102103
0.00638145
0.0102103
0.0102103
0.0102103
0.0102103
0.0102103
0.0102103
0.0102103
0.00638145
0.00638145
0.0102103
0.00638145
0.00638145
0.00638145
0.00638145
0.00638145
0.00638145
0.00638145
0.00638145
0.00638145
0.00638145
0.00638145
0.00638145
0.00638145
0.00638145
0.00638145
0.00638145
0.00638145
0.00638145
0.00638145
SCALARS type float 1
LOOKUP_TABLE default
1.0
1.0
1.0
1.0
1.0
1.0
1.0
1.0
1.0
1.0
1.0
1.0
1.0
1.0
1.0
1.0
1.0
1.0
1.0
1.0
1.0
1.0
1.0
1.0
1.0
1.0
1.0
1.0
1.0
1.0
1.0
1.0
1.0
1.0
1.0
1.0
1.0
1.0
1.0
1.0
1.0
1.0
1.0
1.0
1.0
1.0
1.0
1.0
1.0
1.0
1.0
1.0
1.0
1.0
1.0
1.0
1.0
1.0
1.0
1.0
1.0
1.0
1.0
1.0
1.0
1.0
1.0
1.0
1.0
1.0
1.0
1.0
1.0
1.0
1.0
1.0
1.0
1.0
1.0
1.0
1.0
1.0
1.0
1.0
1.0
1.0
1.0
1.0
1.0
1.0
1.0
1.0
1.0
1.0
1.0
1.0
1.0
1.0
1.0
1.0
1.0
1.0
1.0
1.0
1.0
1.0
1.0
1.0
1.0
1.0
1.0
1.0
1.0
1.0
1.0
1.0
1.0
1.0
1.0
1.0
1.0
1.0
1.0
1.0
1.0
1.0
1.0
1.0
1.0
1.0
1.0
1.0
1.0
1.0
1.0
1.0
1.0
1.0
1.0
1.0
1.0
1.0
1.0
1.0
1.0
1.0
1.0
1.0
1.0
1.0
1.0
1.0
1.0
1.0
1.0
1.0
1.0
1.0
1.0
1.0
1.0
1.0
1.0
1.0
1.0
1.0
1.0
1.0
1.0
1.0
1.0
1.0
1.0
1.0
1.0
1.0
1.0
1.0
1.0
1.0
1.0
1.0
1.0
1.0
1.0
1.0
1.0
1.0
1.0
1.0
1.0
1.0
1.0
1.0
1.0
1.0
1.0
1.0
1.0
1.0
1.0
1.0
1.0
1.0
1.0
1.0
1.0
1.0
1.0
1.0
1.0
1.0
1.0
1.0
1.0
1.0
1.0
1.0
1.0
1.0
1.0
1.0
1.0
1.0
1.0
1.0
1.0
1.0
1.0
1.0
1.0
1.0
1.0
1.0
1.0
1.0
1.0
1.0
1.0
1.0
1.0
1.0
1.0
1.0
1.0
1.0
1.0
1.0
1.0
1.0
1.0
1.0
1.0
1.0
1.0
1.0
1.0
1.0
1.0
1.0
1.0
1.0
1.0
1.0
1.0
1.0
1.0
1.0
1.0
1.0
1.0
1.0
1.0
1.0
1.0
1.0
1.0
1.0
1.0
1.0
1.0
1.0
1.0
1.0
1.0
1.0
1.0
1.0
1.0
1.0
1.0
1.0
1.0
1.0
1.0
1.0
1.0
1.0
1.0
1.0
1.0
1.0
1.0
1.0
1.0
1.0
1.0
1.0
1.0
1.0
1.0
1.0
1.0
1.0
1.0
1.0
1.0
1.0
1.0
1.0
1.0
1.0
1.0
1.0
1.0
1.0
1.0
1.0
1.0
1.0
1.0
1.0
1.0
1.0
1.0
1.0
1.0
SCALARS id float 1
LOOKUP_TABLE default
138.0
141.0
297.0
304.0
293.0
325.0
285.0
241.0
183.0
126.0
171.0
180.0
207.0
240.0
140.0
291.0
197.0
258.0
50.0
92.0
60.0
154.0
98.0
188.0
298.0
88.0
80.0
106.0
10.0
277.0
41.0
213.0
23.0
327.0
58.0
32.0
6.0
174.0
158.0
128.0
264.0
234.0
263.0
331.0
48.0
37.0
329.0
328.0
121.0
172.0
84.0
164.0
200.0
9.0
305.0
274.0
40.0
186.0
149.0
135.0
102.0
143.0
198.0
173.0
246.0
89.0
119.0
122.0
38.0
321.0
260.0
64.0
169.0
193.0
288.0
47.0
184.0
257.0
205.0
232.0
34.0
229.0
94.0
61.0
137.0
70.0
227.0
225.0
199.0
195.0
130.0
62.0
259.0
79.0
127.0
81.0
265.0
275.0
273.0
12.0
192.0
72.0
230.0
247.0
163.0
295.0
278.0
44.0
159.0
85.0
314.0
73.0
153.0
100.0
322.0
216.0
2.0
35.0
239.0
30.0
99.0
301.0
103.0
66.0
13.0
142.0
253.0
252.0
160.0
222.0
17.0
238.0
203.0
292.0
212.0
75.0
49.0
22.0
228.0
147.0
55.0
249.0
319.0
156.0
107.0
245.0
308.0
105.0
201.0
217.0
276.0
248.0
296.0
144.0
233.0
8.0
294.0
152.0
133.0
250.0
31.0
175.0
33.0
269.0
317.0
267.0
204.0
19.0
97.0
157.0
236.0
324.0
155.0
306.0
151.0
93.0
165.0
18.0
290.0
145.0
182.0
220.0
333.0
261.0
146.0
77.0
208.0
45.0
82.0
4.0
118.0
117.0
69.0
26.0
24.0
237.0
336.0
326.0
132.0
210.0
181.0
310.0
206.0
5.0
286.0
65.0
280.0
101.0
108.0
161.0
111.0
115.0
242.0
95.0
166.0
221.0
224.0
302.0
231.0
307.0
185.0
39.0
29.0
46.0
167.0
282.0
189.0
68.0
272.0
28.0
25.0
179.0
134.0
337.0
3.0
74.0
20.0
42.0
177.0
303.0
124.0
202.0
51.0
114.0
251.0
300.0
148.0
14.0
112.0
91.0
194.0
116.0
83.0
104.0
53.0
309.0
136.0
279.0
235.0
176.0
281.0
196.0
330.0
335.0
215.0
218.0
311.0
131.0
271.0
21.0
27.0
191.0
315.0
255.0
52.0
7.0
223.0
190.0
56.0
123.0
316.0
76.0
139.0
332.0
96.0
71.0
318.0
170.0
43.0
63.0
270.0
268.0
262.0
168.0
214.0
78.0
59.0
113.0
334.0
86.0
162.0
120.0
109.0
87.0
67.0
219.0
54.0
209.0
57.0
16.0
110.0
90.0
11.0
36.0
1.0
312.0
226.0
15.0
256.0
211.0
323.0
284.0
178.0
320.0
125.0
254.0
289.0
243.0
266.0
187.0
299.0
129.0
150.0
283.0
287.0
313.0
244.0

