# vtk DataFile Version 2.0
Generated by lpp.py
ASCII
DATASET POLYDATA
POINTS 337 float
-0.0124448 -0.0387803 0.00596235
0.00636806 -0.0322924 0.00592758
-0.019536 -0.0276407 0.00595622
0.0398506 -0.0305555 0.00596426
-0.0101107 -0.0184645 0.00601748
0.0345789 -0.0190803 0.00617138
0.0158303 -0.0110693 0.00674958
0.00682616 -0.00176972 0.00589113
-0.0326047 0.0126468 0.00663443
-0.00676032 0.0218093 0.0082973
0.0438469 0.0188255 0.00893838
0.0149616 0.0316302 0.00757638
0.00623668 0.0399145 0.00639609
0.0116454 -0.0423376 0.0159242
-0.0274391 -0.0404865 0.00953053
0.0263476 -0.0347949 0.0132525
-0.00418998 -0.0282233 0.0165155
0.0129777 -0.026724 0.0140798
-0.0329645 -0.0226104 0.0131791
-0.0177931 -0.0199961 0.0150095
0.0413186 -0.0205989 0.0161404
-0.0398363 -0.0048657 0.0118329
0.00296053 -0.00954903 0.0186365
0.0284371 -0.00814585 0.015297
-0.0178812 -0.00290454 0.00952121
0.0175147 0.00252453 0.012584
-0.024711 0.00881021 0.0170524
-0.0105976 0.0107304 0.0104121
0.0311703 0.0104707 0.012108
-0.0438616 0.0185434 0.0125122
-0.0153871 0.0195827 0.0167628
0.0106853 0.0175891 0.0127312
0.0293777 0.029456 0.0128527
-0.0319298 0.0404821 0.0115561
-0.0138886 0.0346092 0.0133682
0.00673579 0.032151 0.0161916
0.0410623 0.0399956 0.0136828
-0.00203184 0.0440571 0.0165293
0.0143193 0.0425975 0.0147523
0.0021423 -0.0433956 0.023451
0.0307695 -0.04405 0.0253618
-0.0424599 -0.0360695 0.0228468
-0.0184995 -0.0398742 0.026462
0.00940342 -0.0339164 0.0243388
0.0405036 -0.031943 0.0267633
-0.0440553 -0.0160697 0.0217872
0.00516304 -0.0219619 0.027504
0.0206934 -0.0226787 0.0268535
0.0352201 -0.0173193 0.0258575
-0.02922 -0.008358 0.02729
-0.014343 -0.00927258 0.0231788
0.0412729 -0.00712261 0.0239428
0.0164793 0.00081684 0.027962
-0.0392842 0.0111566 0.0218986
-0.0107522 0.0056481 0.0250319
0.0039849 0.00580472 0.0202666
0.0430512 0.00519658 0.0252809
0.017178 0.0210207 0.0264724
0.0404903 0.0208285 0.0218043
-0.0440515 0.0289907 0.0282032
-0.0301899 0.0236175 0.0203133
0.0245916 0.0440393 0.0208258
0.0359342 0.042473 0.024167
-0.0366926 -0.0398215 0.0367512
0.000354505 -0.0330095 0.0371158
0.0177998 -0.0405295 0.0368828
0.0293166 -0.0302084 0.0372969
-0.0405235 -0.0211447 0.0361346
-0.0142706 -0.022078 0.0318337
-0.044061 -0.00515003 0.0312356
-0.0012281 -0.00587437 0.0369064
0.0355731 0.00335767 0.0344392
-0.037381 0.00762379 0.0368839
-0.0231454 0.0116486 0.0322261
-0.0110806 0.0186749 0.0333513
0.00402197 0.0153401 0.0324499
0.0283374 0.0182112 0.0296501
-0.0356812 0.0335017 0.0353783
-0.0235519 0.0404601 0.0287601
0.00322769 0.0343001 0.0311079
0.0195261 0.0325451 0.0284855
0.0404642 0.032416 0.0350705
-0.0423548 0.0422544 0.028933
-0.00853858 0.0440903 0.0291353
0.00530419 -0.0440471 0.0467295
-0.0160891 -0.0389406 0.0417624
0.0389971 -0.0404061 0.0453798
-0.0263528 -0.0248015 0.0410291
0.0398578 -0.025505 0.0411655
0.0118323 -0.0156382 0.0388207
0.0439125 -0.0142387 0.0422071
-0.0399641 -0.00807507 0.0444116
0.0283412 -0.00974533 0.0385263
-0.0189516 -0.000312408 0.0411928
0.0440637 -0.00235832 0.0411941
0.0106535 0.00483655 0.0417616
0.0236872 0.010405 0.0392852
-0.0350921 0.0225967 0.0401225
-0.0206896 0.0202264 0.0453602
0.0374701 0.0181919 0.0405049
-0.044053 0.0392347 0.04161
-0.011134 0.0341072 0.0376024
0.0164631 0.0405476 0.0432032
-0.0269166 0.0415853 0.0438637
0.031864 0.043136 0.04318
0.0439268 0.0440322 0.0447506
-0.0436689 -0.044026 0.0502897
-0.0436983 -0.0330196 0.0548933
0.0172163 -0.040538 0.0559465
-0.0228027 -0.0308299 0.0548149
-0.00997587 -0.0242982 0.0484304
-0.00104843 -0.0311103 0.0524639
0.0223609 -0.0228536 0.0509895
0.00394719 -0.0213505 0.0470006
-0.0300546 -0.00569234 0.050541
-0.0116767 -0.01061 0.0555231
0.00318221 -0.00914976 0.0513713
0.0437711 -0.00751552 0.0538788
0.0172748 -0.00443949 0.0559392
0.0335512 0.00395244 0.0506351
-0.000600689 0.0103692 0.0508835
0.015524 0.0104611 0.0519905
-0.0402506 0.0190676 0.0560306
0.0398613 0.017939 0.0522162
0.0118283 0.0252606 0.0547991
0.0301257 0.029853 0.0509666
-0.00140515 0.0379094 0.0492865
-0.0207487 -0.0437018 0.0631467
0.00189716 -0.041906 0.0579242
-0.0439129 -0.0397638 0.0649031
-0.0338977 -0.0409996 0.0585409
-0.0100906 -0.0393821 0.0583574
0.030673 -0.0334845 0.0584945
0.043697 -0.0375163 0.0598749
-0.00977377 -0.0284264 0.0630787
-0.0323196 -0.0166031 0.063224
0.00728037 -0.0194827 0.0621272
0.0405399 -0.0217583 0.0599388
-0.000899568 -0.00109266 0.0613332
0.0420447 0.0031977 0.0645053
-0.026856 0.00593087 0.0602246
-0.0188959 0.020307 0.0607789
-0.00834946 0.0153637 0.0633494
0.0441421 0.0192452 0.0631748
-0.00351038 0.0244898 0.0569295
-0.0421134 0.0338831 0.0602228
-0.0243483 0.0344852 0.0574144
-0.00934262 0.0340991 0.0620436
0.0151205 0.0380069 0.0629503
-0.00286633 0.0439997 0.0645367
0.0280079 0.0425954 0.0606577
0.044035 0.0412918 0.0563668
-0.0157332 -0.0438131 0.0739233
-0.0015653 -0.0376865 0.072426
0.0292485 -0.0404745 0.0722456
-0.0438516 -0.0282684 0.0709732
-0.032625 -0.0313475 0.0683814
-0.0215404 -0.0272189 0.0698374
0.0186824 -0.0302029 0.0674196
-0.0123198 -0.0198553 0.0714671
-0.0182117 -0.00557341 0.0727189
0.0154659 -0.00894642 0.070713
0.0313619 -0.0073718 0.0684852
-0.035983 0.000516461 0.0735344
0.00891227 0.000897667 0.067811
0.00210862 0.00868829 0.0737585
-0.0290701 0.0196894 0.0669716
0.00130543 0.020011 0.0699273
0.0267038 0.0177451 0.0655698
-0.00976886 0.0252987 0.0701551
-0.034015 0.0327352 0.0736963
0.0383087 0.0326937 0.0679449
-0.0432718 0.0440519 0.0685685
-0.0179328 0.0438978 0.0679488
0.00756225 0.0437579 0.0703271
0.0095509 -0.0440501 0.0828767
0.0440381 -0.0440381 0.0796915
-0.0345002 -0.0383171 0.082104
0.0150889 -0.0346278 0.0778932
-0.00883816 -0.0264739 0.0812618
0.0123667 -0.0230964 0.0765006
0.0423972 -0.0302254 0.0778629
-0.0440395 -0.01738 0.0837435
-0.020056 -0.0212284 0.0806508
-0.00942129 -0.0145869 0.0817552
-0.000999367 -0.0198737 0.0751841
0.0414555 -0.0138837 0.0782892
-0.0367391 -0.0108745 0.0769237
0.00315757 -0.00559819 0.0806198
-0.012506 0.0121231 0.0780621
0.019673 0.00658387 0.0808701
0.0389744 0.00871997 0.0796631
-0.0404777 0.0150173 0.0765964
0.00751435 0.0301713 0.0798695
0.0283986 0.0240706 0.0839012
-0.0441093 0.0381553 0.0840156
-0.0109246 0.0327641 0.083827
0.023015 0.0405459 0.0760217
0.0440596 0.0330413 0.0823176
-0.0232703 0.042851 0.0785688
0.036859 0.0425881 0.0826934
-0.0440334 -0.0439837 0.092942
-0.0203802 -0.0441021 0.0848486
-0.000499494 -0.0420973 0.0899194
0.0136876 -0.0352172 0.0897188
0.0383491 -0.0405129 0.0895689
0.00388784 -0.0232294 0.0894867
0.0318204 -0.0267591 0.0928236
-0.0330026 -0.0211523 0.0862659
0.0212079 -0.0132281 0.0845586
0.0398357 -0.00556982 0.0922738
-0.0236736 0.00168356 0.0894652
-0.00438156 -0.00154211 0.0935181
-0.0388598 0.0044468 0.0879037
0.00324108 0.0121395 0.0888396
-0.0408383 0.0195522 0.0913826
-0.0261526 0.0218995 0.0872471
0.0440535 0.0165403 0.0920634
-0.04258 0.0316127 0.0938404
-0.0304264 0.043408 0.0880968
0.000983303 0.0440393 0.0890848
0.0129131 0.0409092 0.0904963
-0.0159534 -0.0322947 0.0937298
0.0073759 -0.033247 0.10168
0.0219166 -0.0403687 0.101789
-0.0398094 -0.0294106 0.0994727
-0.0306834 -0.0170512 0.097266
-0.0104995 -0.0147586 0.0987527
0.021341 -0.0173555 0.0999223
0.0199575 0.00381125 0.099882
-0.040529 0.00901249 0.102654
-0.0134369 0.010308 0.103063
0.0320753 0.0184036 0.101716
-0.0314499 0.0235664 0.102582
-0.0131532 0.0244946 0.0967893
-0.00102357 0.0250038 0.0971619
0.014545 0.0251908 0.0969547
-0.0182628 0.040468 0.0996883
0.0289579 0.037737 0.097206
-0.0431193 0.0434358 0.0953025
-0.0428144 -0.0428101 0.106684
0.00664941 -0.04381 0.112424
-0.0286909 -0.03982 0.108932
-0.00626866 -0.0354291 0.110255
0.0397328 -0.0366466 0.107652
-0.0314531 -0.0255882 0.112006
-0.0230066 -0.0231771 0.104023
0.0223718 -0.0248373 0.109131
0.00198631 -0.0218467 0.10478
0.0371511 -0.0177747 0.108802
-0.0404653 -0.00921714 0.108439
0.0077302 -0.00819123 0.109326
-0.0284096 -0.000491672 0.104028
0.0405006 0.00306891 0.10926
0.00323973 0.0167165 0.109771
0.019021 0.015818 0.111961
0.0440425 0.0291071 0.110042
-0.0408081 0.0319266 0.105616
-0.0308084 0.0378602 0.108439
0.00290373 0.0387996 0.103551
0.0353722 0.0371928 0.111306
-0.040916 0.0440407 0.107007
0.0173089 0.0440321 0.10708
0.0276856 -0.0440615 0.11567
-0.021727 -0.0334381 0.116221
0.00573964 -0.0244464 0.115765
-0.0148691 -0.0227317 0.112719
-0.00518581 -0.0158041 0.113279
-0.0225508 -0.00949862 0.115158
-0.0350574 0.00128882 0.118483
-0.00591142 0.00183972 0.11756
0.0244006 -0.00333007 0.117225
0.0128514 0.00732328 0.117649
-0.0336969 0.019128 0.117278
0.0440399 0.017624 0.113272
-0.0251457 0.0320316 0.1182
-0.0105941 0.0293927 0.113212
0.0239999 0.0258178 0.116059
0.0236005 0.040533 0.120823
-0.00218633 0.041321 0.11861
-0.0230056 -0.0424361 0.131034
0.0357687 -0.0439775 0.124437
-0.0358975 -0.0398997 0.122795
0.00393513 -0.0372977 0.122033
0.0187227 -0.0378186 0.126655
0.0440361 -0.0351951 0.122724
-0.00859735 -0.0256818 0.12265
0.00448642 -0.0246391 0.131187
-0.0405525 -0.02143 0.123776
0.0263169 -0.0188674 0.123098
-0.0379922 -0.00711329 0.130422
-0.013632 -0.00852678 0.127787
-0.00295644 -0.0127545 0.124588
0.0126119 -0.0120759 0.126658
0.0404745 -0.00524556 0.127312
0.00945237 -0.000505188 0.126343
-0.0161974 0.0138272 0.122705
0.0008075 0.0203956 0.128349
0.0307177 0.0137044 0.123011
0.0440712 0.01702 0.130086
0.0379708 0.0297994 0.121919
-0.0368227 0.0402119 0.124539
0.00731355 0.0381954 0.130462
-0.0061374 -0.0405094 0.133356
0.037198 -0.0405099 0.140475
-0.0199662 -0.0274727 0.134058
0.0214588 -0.0243693 0.139908
0.0386609 -0.0236982 0.131667
-0.0418734 -0.0215909 0.139302
-0.0312766 -0.0170332 0.13524
-0.00547508 -0.0149818 0.138767
-0.0220315 -0.00591601 0.140528
-0.00423213 0.00260845 0.133028
0.0212045 0.0031991 0.135752
0.0393113 0.00438267 0.139814
-0.0313238 0.00906625 0.1333
-0.0404721 0.0255467 0.136192
-0.0182178 0.0252183 0.13788
0.0224921 0.0268852 0.134019
0.0382697 0.0271461 0.133663
-0.0223513 0.0392279 0.132664
-0.00488712 0.0333019 0.139306
0.0358668 0.0388296 0.133939
0.00543467 -0.0410582 0.143735
0.0186184 -0.0413805 0.141749
-0.0322362 -0.0333715 0.141539
-0.00213918 -0.0299703 0.144089
0.0239739 -0.00961892 0.144017
0.0417938 -0.00692712 0.142682
-0.000849836 0.0168053 0.144036
0.0182212 0.0159548 0.144078
0.0427928 0.0188044 0.142336
0.00824837 0.0303175 0.144036
-0.0410808 0.0390251 0.143834
-0.029324 0.0426565 0.141719
0.0244268 0.0420447 0.142516
0.0418498 0.0433226 0.143232
VERTICES 337 674
1 0
1 1
1 2
1 3
1 4
1 5
1 6
1 7
1 8
1 9
1 10
1 11
1 12
1 13
1 14
1 15
1 16
1 17
1 18
1 19
1 20
1 21
1 22
1 23
1 24
1 25
1 26
1 27
1 28
1 29
1 30
1 31
1 32
1 33
1 34
1 35
1 36
1 37
1 38
1 39
1 40
1 41
1 42
1 43
1 44
1 45
1 46
1 47
1 48
1 49
1 50
1 51
1 52
1 53
1 54
1 55
1 56
1 57
1 58
1 59
1 60
1 61
1 62
1 63
1 64
1 65
1 66
1 67
1 68
1 69
1 70
1 71
1 72
1 73
1 74
1 75
1 76
1 77
1 78
1 79
1 80
1 81
1 82
1 83
1 84
1 85
1 86
1 87
1 88
1 89
1 90
1 91
1 92
1 93
1 94
1 95
1 96
1 97
1 98
1 99
1 100
1 101
1 102
1 103
1 104
1 105
1 106
1 107
1 108
1 109
1 110
1 111
1 112
1 113
1 114
1 115
1 116
1 117
1 118
1 119
1 120
1 121
1 122
1 123
1 124
1 125
1 126
1 127
1 128
1 129
1 130
1 131
1 132
1 133
1 134
1 135
1 136
1 137
1 138
1 139
1 140
1 141
1 142
1 143
1 144
1 145
1 146
1 147
1 148
1 149
1 150
1 151
1 152
1 153
1 154
1 155
1 156
1 157
1 158
1 159
1 160
1 161
1 162
1 163
1 164
1 165
1 166
1 167
1 168
1 169
1 170
1 171
1 172
1 173
1 174
1 175
1 176
1 177
1 178
1 179
1 180
1 181
1 182
1 183
1 184
1 185
1 186
1 187
1 188
1 189
1 190
1 191
1 192
1 193
1 194
1 195
1 196
1 197
1 198
1 199
1 200
1 201
1 202
1 203
1 204
1 205
1 206
1 207
1 208
1 209
1 210
1 211
1 212
1 213
1 214
1 215
1 216
1 217
1 218
1 219
1 220
1 221
1 222
1 223
1 224
1 225
1 226
1 227
1 228
1 229
1 230
1 231
1 232
1 233
1 234
1 235
1 236
1 237
1 238
1 239
1 240
1 241
1 242
1 243
1 244
1 245
1 246
1 247
1 248
1 249
1 250
1 251
1 252
1 253
1 254
1 255
1 256
1 257
1 258
1 259
1 260
1 261
1 262
1 263
1 264
1 265
1 266
1 267
1 268
1 269
1 270
1 271
1 272
1 273
1 274
1 275
1 276
1 277
1 278
1 279
1 280
1 281
1 282
1 283
1 284
1 285
1 286
1 287
1 288
1 289
1 290
1 291
1 292
1 293
1 294
1 295
1 296
1 297
1 298
1 299
1 300
1 301
1 302
1 303
1 304
1 305
1 306
1 307
1 308
1 309
1 310
1 311
1 312
1 313
1 314
1 315
1 316
1 317
1 318
1 319
1 320
1 321
1 322
1 323
1 324
1 325
1 326
1 327
1 328
1 329
1 330
1 331
1 332
1 333
1 334
1 335
1 336
POINT_DATA 337
VECTORS i float
0.0 0.0 0.0
0.0 0.0 0.0
0.0 0.0 0.0
0.0 0.0 0.0
0.0 0.0 0.0
0.0 0.0 0.0
0.0 0.0 0.0
0.0 0.0 0.0
0.0 0.0 0.0
0.0 0.0 0.0
0.0 0.0 0.0
0.0 0.0 0.0
0.0 0.0 0.0
0.0 0.0 0.0
0.0 0.0 0.0
0.0 0.0 0.0
0.0 0.0 0.0
0.0 0.0 0.0
0.0 0.0 0.0
0.0 0.0 0.0
0.0 0.0 0.0
0.0 0.0 0.0
0.0 0.0 0.0
0.0 0.0 0.0
0.0 0.0 0.0
0.0 0.0 0.0
0.0 0.0 0.0
0.0 0.0 0.0
0.0 0.0 0.0
0.0 0.0 0.0
0.0 0.0 0.0
0.0 0.0 0.0
0.0 0.0 0.0
0.0 0.0 0.0
0.0 0.0 0.0
0.0 0.0 0.0
0.0 0.0 0.0
0.0 0.0 0.0
0.0 0.0 0.0
0.0 0.0 0.0
0.0 0.0 0.0
0.0 0.0 0.0
0.0 0.0 0.0
0.0 0.0 0.0
0.0 0.0 0.0
0.0 0.0 0.0
0.0 0.0 0.0
0.0 0.0 0.0
0.0 0.0 0.0
0.0 0.0 0.0
0.0 0.0 0.0
0.0 0.0 0.0
0.0 0.0 0.0
0.0 0.0 0.0
0.0 0.0 0.0
0.0 0.0 0.0
0.0 0.0 0.0
0.0 0.0 0.0
0.0 0.0 0.0
0.0 0.0 0.0
0.0 0.0 0.0
0.0 0.0 0.0
0.0 0.0 0.0
0.0 0.0 0.0
0.0 0.0 0.0
0.0 0.0 0.0
0.0 0.0 0.0
0.0 0.0 0.0
0.0 0.0 0.0
0.0 0.0 0.0
0.0 0.0 0.0
0.0 0.0 0.0
0.0 0.0 0.0
0.0 0.0 0.0
0.0 0.0 0.0
0.0 0.0 0.0
0.0 0.0 0.0
0.0 0.0 0.0
0.0 0.0 0.0
0.0 0.0 0.0
0.0 0.0 0.0
0.0 0.0 0.0
0.0 0.0 0.0
0.0 0.0 0.0
0.0 0.0 0.0
0.0 0.0 0.0
0.0 0.0 0.0
0.0 0.0 0.0
0.0 0.0 0.0
0.0 0.0 0.0
0.0 0.0 0.0
0.0 0.0 0.0
0.0 0.0 0.0
0.0 0.0 0.0
0.0 0.0 0.0
0.0 0.0 0.0
0.0 0.0 0.0
0.0 0.0 0.0
0.0 0.0 0.0
0.0 0.0 0.0
0.0 0.0 0.0
0.0 0.0 0.0
0.0 0.0 0.0
0.0 0.0 0.0
0.0 0.0 0.0
0.0 0.0 0.0
0.0 0.0 0.0
0.0 0.0 0.0
0.0 0.0 0.0
0.0 0.0 0.0
0.0 0.0 0.0
0.0 0.0 0.0
0.0 0.0 0.0
0.0 0.0 0.0
0.0 0.0 0.0
0.0 0.0 0.0
0.0 0.0 0.0
0.0 0.0 0.0
0.0 0.0 0.0
0.0 0.0 0.0
0.0 0.0 0.0
0.0 0.0 0.0
0.0 0.0 0.0
0.0 0.0 0.0
0.0 0.0 0.0
0.0 0.0 0.0
0.0 0.0 0.0
0.0 0.0 0.0
0.0 0.0 0.0
0.0 0.0 0.0
0.0 0.0 0.0
0.0 0.0 0.0
0.0 0.0 0.0
0.0 0.0 0.0
0.0 0.0 0.0
0.0 0.0 0.0
0.0 0.0 0.0
0.0 0.0 0.0
0.0 0.0 0.0
0.0 0.0 0.0
0.0 0.0 0.0
0.0 0.0 0.0
0.0 0.0 0.0
0.0 0.0 0.0
0.0 0.0 0.0
0.0 0.0 0.0
0.0 0.0 0.0
0.0 0.0 0.0
0.0 0.0 0.0
0.0 0.0 0.0
0.0 0.0 0.0
0.0 0.0 0.0
0.0 0.0 0.0
0.0 0.0 0.0
0.0 0.0 0.0
0.0 0.0 0.0
0.0 0.0 0.0
0.0 0.0 0.0
0.0 0.0 0.0
0.0 0.0 0.0
0.0 0.0 0.0
0.0 0.0 0.0
0.0 0.0 0.0
0.0 0.0 0.0
0.0 0.0 0.0
0.0 0.0 0.0
0.0 0.0 0.0
0.0 0.0 0.0
0.0 0.0 0.0
0.0 0.0 0.0
0.0 0.0 0.0
0.0 0.0 0.0
0.0 0.0 0.0
0.0 0.0 0.0
0.0 0.0 0.0
0.0 0.0 0.0
0.0 0.0 0.0
0.0 0.0 0.0
0.0 0.0 0.0
0.0 0.0 0.0
0.0 0.0 0.0
0.0 0.0 0.0
0.0 0.0 0.0
0.0 0.0 0.0
0.0 0.0 0.0
0.0 0.0 0.0
0.0 0.0 0.0
0.0 0.0 0.0
0.0 0.0 0.0
0.0 0.0 0.0
0.0 0.0 0.0
0.0 0.0 0.0
0.0 0.0 0.0
0.0 0.0 0.0
0.0 0.0 0.0
0.0 0.0 0.0
0.0 0.0 0.0
0.0 0.0 0.0
0.0 0.0 0.0
0.0 0.0 0.0
0.0 0.0 0.0
0.0 0.0 0.0
0.0 0.0 0.0
0.0 0.0 0.0
0.0 0.0 0.0
0.0 0.0 0.0
0.0 0.0 0.0
0.0 0.0 0.0
0.0 0.0 0.0
0.0 0.0 0.0
0.0 0.0 0.0
0.0 0.0 0.0
0.0 0.0 0.0
0.0 0.0 0.0
0.0 0.0 0.0
0.0 0.0 0.0
0.0 0.0 0.0
0.0 0.0 0.0
0.0 0.0 0.0
0.0 0.0 0.0
0.0 0.0 0.0
0.0 0.0 0.0
0.0 0.0 0.0
0.0 0.0 0.0
0.0 0.0 0.0
0.0 0.0 0.0
0.0 0.0 0.0
0.0 0.0 0.0
0.0 0.0 0.0
0.0 0.0 0.0
0.0 0.0 0.0
0.0 0.0 0.0
0.0 0.0 0.0
0.0 0.0 0.0
0.0 0.0 0.0
0.0 0.0 0.0
0.0 0.0 0.0
0.0 0.0 0.0
0.0 0.0 0.0
0.0 0.0 0.0
0.0 0.0 0.0
0.0 0.0 0.0
0.0 0.0 0.0
0.0 0.0 0.0
0.0 0.0 0.0
0.0 0.0 0.0
0.0 0.0 0.0
0.0 0.0 0.0
0.0 0.0 0.0
0.0 0.0 0.0
0.0 0.0 0.0
0.0 0.0 0.0
0.0 0.0 0.0
0.0 0.0 0.0
0.0 0.0 0.0
0.0 0.0 0.0
0.0 0.0 0.0
0.0 0.0 0.0
0.0 0.0 0.0
0.0 0.0 0.0
0.0 0.0 0.0
0.0 0.0 0.0
0.0 0.0 0.0
0.0 0.0 0.0
0.0 0.0 0.0
0.0 0.0 0.0
0.0 0.0 0.0
0.0 0.0 0.0
0.0 0.0 0.0
0.0 0.0 0.0
0.0 0.0 0.0
0.0 0.0 0.0
0.0 0.0 0.0
0.0 0.0 0.0
0.0 0.0 0.0
0.0 0.0 0.0
0.0 0.0 0.0
0.0 0.0 0.0
0.0 0.0 0.0
0.0 0.0 0.0
0.0 0.0 0.0
0.0 0.0 0.0
0.0 0.0 0.0
0.0 0.0 0.0
0.0 0.0 0.0
0.0 0.0 0.0
0.0 0.0 0.0
0.0 0.0 0.0
0.0 0.0 0.0
0.0 0.0 0.0
0.0 0.0 0.0
0.0 0.0 0.0
0.0 0.0 0.0
0.0 0.0 0.0
0.0 0.0 0.0
0.0 0.0 0.0
0.0 0.0 0.0
0.0 0.0 0.0
0.0 0.0 0.0
0.0 0.0 0.0
0.0 0.0 0.0
0.0 0.0 0.0
0.0 0.0 0.0
0.0 0.0 0.0
0.0 0.0 0.0
0.0 0.0 0.0
0.0 0.0 0.0
0.0 0.0 0.0
0.0 0.0 0.0
0.0 0.0 0.0
0.0 0.0 0.0
0.0 0.0 0.0
0.0 0.0 0.0
0.0 0.0 0.0
0.0 0.0 0.0
0.0 0.0 0.0
0.0 0.0 0.0
0.0 0.0 0.0
0.0 0.0 0.0
0.0 0.0 0.0
0.0 0.0 0.0
0.0 0.0 0.0
0.0 0.0 0.0
0.0 0.0 0.0
0.0 0.0 0.0
0.0 0.0 0.0
0.0 0.0 0.0
0.0 0.0 0.0
0.0 0.0 0.0
0.0 0.0 0.0
0.0 0.0 0.0
0.0 0.0 0.0
0.0 0.0 0.0
0.0 0.0 0.0
0.0 0.0 0.0
0.0 0.0 0.0
0.0 0.0 0.0
VECTORS f float
3.46838e-05 9.2075e-06 -4.58864e-05
-0.0107252 -0.00805993 -0.00135028
0.00221816 0.00325272 0.00208703
0.0 0.0 -0.000384947
0.00436354 -0.000147235 -0.00148151
-0.000181097 0.00058004 0.000710884
0.00107563 7.58888e-05 0.000334728
-0.0035663 0.0203986 0.000871949
0.0 0.0 0.0
0.00429218 0.00863861 -0.00975988
-0.000681299 -0.00056203 0.000201422
0.00334546 0.00430154 -0.00558827
0.000462451 0.000148818 0.000472042
0.0 0.0 0.0
0.00785255 0.0141746 -0.00085752
0.000563727 -0.0208921 -0.0127462
-0.0165107 -0.000123399 0.00699625
-0.00476861 -0.0114228 1.17933e-05
0.0102105 0.0120382 -3.80163e-05
0.00141548 0.00164743 -0.000162664
-0.000270257 0.00106364 0.00162494
-0.00959792 0.00829031 -0.0124058
0.0032572 0.0788271 0.00381957
0.000242399 -0.000605051 -6.94692e-05
0.0142967 0.0161612 -0.0410328
0.00177712 -0.00177097 -0.00316061
0.00439484 -0.00245464 -0.00364131
0.002261 0.000802712 -0.0215665
0.00148095 3.32555e-05 -0.000843812
0.0 0.0 0.0
-0.000833778 -0.0099828 -0.000947143
0.0113356 -0.0371129 -0.0296467
0.00431654 -0.000826625 -0.00093143
-0.00948345 -0.0133535 -0.000971292
-0.00222245 -0.00559791 0.0197399
-0.00397987 -0.00587845 -0.0160348
-0.000342907 -0.000483508 0.00352699
-0.00162326 -0.00203046 0.000823956
-0.000462451 -0.000148818 -0.000472042
0.0 0.0 0.0
-0.000606922 0.0224844 -0.000160888
0.00123108 -0.000121414 0.00475413
-0.0223862 -0.0356437 -0.0196783
0.0 0.0 0.0
-0.0438908 0.0242581 0.000522466
0.00121264 0.000324663 -0.00077226
0.00469717 0.0126536 0.00810379
-0.00701592 -0.0178194 -0.0355127
-0.00661173 -0.00499913 -0.00307581
-0.155662 0.0296704 0.105845
0.124662 -0.033364 -0.0627683
-0.00107565 -0.000114327 -0.000619442
0.00406154 -0.00421832 -0.00131117
0.00284653 -0.00150641 0.00452919
0.0049325 -0.0246652 -0.0596766
0.00544124 -0.00439682 -0.00803658
0.0 0.0 0.0
0.00299536 0.00193401 0.000857032
0.0 0.0 0.0
0.00105367 -0.00312861 0.00546734
0.000321118 -0.00225641 -0.00108976
0.00075355 -0.00175126 0.000232825
-0.000654499 -0.00295455 0.00116815
0.00100802 -0.0111336 0.00145466
-0.0623851 0.000464526 0.0152928
-0.0204168 0.0407068 -0.0346928
-0.0127917 0.0174922 0.00572262
-0.00632757 -0.00858733 0.0172597
0.00245776 0.00318335 -0.0851406
0.00432007 -0.00697155 -0.0031404
0.0269384 0.0265741 -0.0538335
0.0002495 -0.00450457 0.00217139
0.0338054 -0.0083115 0.00545418
-0.00297862 0.000280961 0.00220071
0.00615703 0.00394443 -0.0098408
-0.00274837 -0.0843647 -0.0197098
-0.00263937 0.000384143 -0.000269848
-0.00283702 -0.00175557 0.00798134
-0.0417336 0.0208563 -0.0391886
-0.0149133 -0.0828946 -0.0529275
-0.000355987 -0.00231816 -0.000587184
-0.00035071 0.00370548 -1.57084e-06
0.0 0.0 0.0
-0.00644646 -0.00579654 -0.00375901
-0.000385741 -0.0172452 -0.0137419
-0.00255753 0.00138609 -0.0081911
0.000451949 0.00135531 0.000825839
-0.000238202 0.014207 -0.00173615
-5.9098e-05 -0.00112422 0.000326936
0.0 0.0 0.0
0.00013135 -0.00028222 -1.08142e-05
-0.0134063 -0.00141555 -0.00510182
-0.0171719 -0.0133901 -0.0152749
-0.0105735 0.0185714 0.0253344
0.00120432 0.000979715 -0.00257234
-0.00103472 -0.001303 -0.00407833
0.0 0.0 0.0
0.000477831 -0.00256585 0.0104063
0.00595358 -0.0113495 -0.0375996
0.00127371 0.00570709 -0.0017502
-0.000776886 0.0010128 0.00296658
0.0 0.0 0.0
-0.00163221 -0.033434 0.0178727
-0.0125797 -0.00348615 -0.0234326
-0.00982277 0.0288777 -0.0101455
-0.00202715 -0.00226746 0.00122997
4.90788e-07 -0.000181442 -7.66953e-05
-4.90788e-07 0.000181442 7.66953e-05
-0.0303415 0.0115504 0.0467877
0.00169356 -0.00722502 0.0107453
0.000425244 0.00275682 0.00117556
-0.00115528 0.00131847 -0.000233974
-0.0319139 -0.00637184 -0.0439186
0.0 0.0 0.0
-0.00935869 -0.000727045 -0.000614306
-0.000685451 0.000298947 -0.00941984
0.00118241 0.0180318 -0.00406146
0.0 0.0 0.0
0.00861536 -0.008466 -0.00237924
-0.0105895 0.0214326 -0.00128136
0.00222177 -0.00300452 -0.000277007
0.00157022 -0.00475108 -0.00233662
-0.000143691 0.00112384 0.000294946
0.00449475 0.000571034 0.00319102
-0.0136112 -0.023927 -0.0276441
0.0387383 -0.00197272 0.00352373
-0.0233773 -0.0288436 0.0244048
0.00940103 -0.0321663 -0.0230136
-0.010003 -0.0253726 0.0488025
-0.0374144 -0.0204286 0.00858865
0.0295244 0.0206816 -0.0053376
0.00107317 0.00194282 0.00158257
-0.0141539 0.00724434 0.0220373
-0.000392851 -0.000231087 -0.00115278
-0.000818604 0.00103749 0.00156187
-0.00305488 -0.00458548 0.00486105
0.0256148 0.020622 -0.00791877
-0.0148628 0.00937141 0.050704
-0.00345063 0.00236743 -0.0020425
0.0 0.0 0.0
0.0117162 0.0229831 0.000739895
-0.00158684 0.00272269 0.00812926
-0.002479 0.000988797 -0.00252455
-0.00549244 0.00796297 0.00968334
-0.0024569 -0.00106163 -0.000428709
0.000143691 -0.00112384 -0.000294946
0.0395144 0.0459307 -0.0233368
-0.00964113 -0.00207094 0.00667253
-0.00422804 0.00185064 -0.0111993
0.000479028 1.56953e-05 0.00023163
0.0 0.0 0.0
0.00418799 -0.00548994 0.00422166
0.0236578 -0.0144859 -0.0188912
0.00264275 0.0162 0.0194871
-0.0066627 0.0169064 0.00560005
-0.00356362 -9.2287e-05 0.000761448
-0.00659324 -0.00331241 -0.0006083
-0.00153024 -0.00502105 -0.00239398
-0.00112424 0.00279436 -0.0040857
0.00168062 0.000550267 -0.00816043
0.0125635 -0.000394538 -0.0150265
0.0 0.0 0.0
-0.0251594 0.00510558 -0.0217927
0.000550916 0.00151705 0.0023763
-0.00516614 0.00142085 -0.000450818
0.00386561 0.00137178 0.0037137
-0.00428136 0.00478099 -0.00520223
0.000464807 0.00559855 0.00379706
-0.0196682 -0.0194029 -0.0137982
0.0 0.0 0.0
0.0411197 0.0381963 -0.00541844
-0.0318317 -0.00597694 -0.00622973
0.00333515 -0.00108827 0.00356525
-0.000752051 -0.000354479 -7.30351e-05
-0.000479028 -1.56953e-05 -0.00023163
0.00380864 0.0013921 0.00284542
-0.00133905 0.00121377 0.000560109
-0.00681541 -0.00132588 -0.00191772
-0.00200814 0.00386933 -0.000259773
-0.00442145 0.00629393 0.0132308
-0.0015145 0.00148287 0.000654463
0.0 0.0 0.0
0.00912411 0.00187197 -0.00160529
0.0 0.0 0.0
0.00396849 0.0125917 0.0200768
-0.00425307 -0.000463318 0.00209279
0.00453634 -2.94962e-06 0.00623763
0.00766524 -0.00423652 0.00385691
-0.00105868 0.00337493 0.0122378
0.0103671 0.00618235 -0.00662474
-0.00872316 -0.000181629 0.00094162
-0.0029777 0.0110066 -0.0101878
-0.000363489 0.0218918 -0.0405047
0.0332647 0.0185462 -0.011134
0.0233677 -0.0163475 -0.0247563
0.00565131 0.00360241 0.0108854
0.0462253 0.000341577 0.0218438
0.0198053 -0.00749962 -0.0358442
-0.00977878 -0.000542543 0.00757058
-0.000306636 -0.00130463 -0.00328686
0.00108499 0.000484694 -0.00387166
0.000518743 0.000389873 -0.000216248
-0.00771692 -0.00474935 -0.00322411
0.0 0.0 0.0
0.00137039 0.00305253 -0.00159582
0.000309843 -0.000188058 -0.000556665
-0.0256053 0.0331318 -0.0123798
0.0146182 0.0131763 -0.0138447
-0.000382779 1.17912e-05 5.52339e-05
-0.00160578 0.0144462 -0.00604597
-0.011393 -0.00946689 -0.0278718
0.0140755 0.000443733 0.0137782
0.00235643 0.0253675 0.00983775
0.00576849 -0.00285433 0.00201403
0.00164061 -0.00658435 -0.00524828
-0.028279 0.0108126 -0.0120565
-0.014522 -0.0121864 0.0187603
-0.00543583 -0.00391863 -0.00270975
-0.000893084 -0.00620059 0.0175249
0.000513167 0.000342733 -0.000275512
0.000697674 -0.000565231 -0.00156756
0.0 0.0 0.0
0.0144442 0.00725015 0.0316707
0.0 0.0 0.0
0.00215841 -0.00105959 -0.000619823
-0.000581096 -0.00225487 0.00113696
-0.00161115 0.00469881 -0.00348439
0.0177348 0.0450784 0.0369466
0.000466263 0.00815027 -0.00904458
-0.0576287 -0.0622593 0.0323461
0.0495464 0.00825385 0.0104447
0.00551541 0.00725028 0.00358657
0.00019796 0.0414126 -0.00528429
-0.000483218 -0.00102219 0.00535427
0.000259042 -0.00228422 0.00122626
0.0 0.0 0.0
0.0046559 0.0023159 0.00260034
0.172116 -0.230737 0.0523063
0.00790087 0.00945752 0.0261088
-0.000977721 0.00108498 -0.00207161
0.000581096 0.00225487 -0.00113696
0.00571838 -0.00214151 -0.00902013
0.000394295 0.000361338 0.000412693
0.0 0.0 0.0
-0.00110105 0.000268581 -0.000351438
0.00883758 -0.000264857 -0.0148495
0.015119 0.0212448 -0.00519914
-0.000466263 -0.00815027 0.00904458
-0.00412064 0.00508892 -0.00368887
-0.00407501 -0.00647037 -0.00686885
0.00292418 0.00131501 0.00138626
0.0236271 -0.00126957 3.50154e-05
0.00539502 -0.00447424 0.0084687
-0.0465207 0.0202284 0.00657966
0.00938585 0.000510509 0.00771711
-0.0144559 -0.0322231 -0.0129536
-0.000278168 -0.000399486 0.000210957
0.00441712 -0.00640034 0.0231962
0.00475806 -0.000387927 -0.00347945
0.00697987 -0.000817966 -0.00518055
0.000853458 0.00273222 0.00439034
0.00336601 -0.00287741 0.00123853
0.00246381 0.00344709 0.00698616
0.00322233 0.00159732 0.00579352
-0.000394295 -0.000361338 -0.000412693
0.0108388 0.00329507 -0.00967642
-0.0047706 -0.0163037 0.00234672
0.0120811 0.014204 0.00753175
0.0170432 -0.0297165 0.0299908
0.000634295 -0.000217213 -0.00023616
0.0 0.0 0.0
-0.0210092 -0.0146125 0.0136343
0.0 0.0 0.0
0.0158139 0.0187742 0.0201712
0.000526317 0.00191181 0.000605154
0.00224241 0.00129949 0.000394035
-0.0130615 0.000177374 0.0061837
0.00264515 -0.020573 -0.0120245
0.000450185 -0.0179693 0.0102742
-0.000611471 0.000306998 -0.000306186
-0.000628441 -0.00257875 -0.000836402
0.00421485 -0.00139709 0.00210669
0.00331978 -0.031107 0.007316
0.0101833 0.000335292 -0.00770522
0.00454791 0.00226019 0.00869006
0.000151165 5.99005e-05 4.60934e-05
0.0 0.0 0.0
0.039647 0.00824454 -0.0424294
0.0305054 -0.0483918 -0.0213098
0.0 0.0 0.0
0.0 0.0 0.0
-0.000582498 -0.0058404 -0.000200988
8.98737e-05 0.00330732 -0.00220153
0.0 0.0 0.0
-0.00367277 0.0505481 -0.0140792
-0.0043116 -0.00262931 -0.00124536
-0.00651691 -0.00738863 0.00429831
0.0223632 0.0172931 -0.00769607
-0.00842188 -0.0497865 -0.0334549
-0.00229866 -0.00635851 -0.00536695
0.0 0.0 0.0
0.000655646 -0.00264566 0.00129753
0.00563233 0.0138679 -0.00395206
0.0308389 0.0277737 -0.000994081
-0.00245647 0.010769 -0.00385542
0.0199189 0.0173736 0.0432534
0.00594891 0.0115562 -0.000108713
-0.0131942 0.0200757 -0.00642316
0.0 0.0 0.0
0.00623167 -0.00243508 -0.00549988
0.0 0.0 0.0
0.0382804 0.0307863 -0.0152593
0.0286186 0.00981381 -0.0125321
-0.0115084 -0.0252339 0.00352877
-0.00020385 0.00141003 4.02441e-05
0.0103121 0.0371462 0.0261072
-0.00974471 0.0207366 0.000252873
0.00217638 0.00240853 0.00312592
-0.0101097 -0.0262818 0.00283337
-0.000127371 0.000632993 1.69906e-05
5.90233e-06 -0.00105584 0.000986468
0.0 0.0 0.0
0.000462333 -0.000380459 0.000503108
0.0 0.0 0.0
-0.000116869 0.000772455 -0.000497082
0.0 0.0 0.0
-0.00124671 -0.00124197 -0.0101707
-0.00441451 -0.0112696 0.0112052
-0.000582498 0.0016203 -0.00540879
0.0 0.0 0.000384676
-0.0064525 -0.0109186 0.007385
0.0 0.0 0.0
0.0 0.0 0.000384675
0.000337285 0.00252846 0.00206411
0.00058872 -0.000445556 -0.000625543
0.0 0.0 0.0
-0.000334961 -0.000252534 -0.000520099
VECTORS omega float
-0.199534 0.627035 -0.306751
9.0476 -2.59637 10.511
-0.693977 2.64275 -1.21409
0.0 0.0 0.0
1.84196 6.44405 -12.1331
-1.14394 5.09884 8.39871
1.18583 0.411393 -1.83922
-1.20287 3.04424 2.01981
0.0 0.0 0.0
5.2463 -0.767805 12.5281
-0.543499 0.589379 -0.510045
-2.5204 -4.7836 -0.416851
-0.899233 -0.281099 -1.37097
-0.0273546 4.50792 1.32402
1.1022 -0.0374004 -0.709539
3.96973 -2.34919 1.05047
-3.68451 0.136287 -4.93909
-3.85606 4.74756 0.526166
-4.75619 2.58607 0.182249
1.6565 -8.00795 -2.41742
-5.40397 0.0869545 -17.7688
2.50528 0.27287 0.384374
2.56952 -5.0343 3.39184
-3.24361 -0.468879 0.677973
-4.08317 -3.58553 -5.49477
-4.09641 2.66991 -1.5563
4.94918 3.84498 -1.83327
-1.42507 5.54671 -11.0458
1.74273 -1.05793 -0.544327
0.0 0.0 0.0
0.258686 -6.64754 12.6912
-3.24917 -2.72445 -0.635227
-0.0936829 -1.05013 -0.0376747
1.38241 2.16264 0.384097
-5.18004 -0.281644 -2.94932
7.46468 2.67885 2.64604
-5.1517 -0.0163527 -2.39299
2.34843 -4.90337 2.2694
-0.233322 -1.90354 0.363633
5.71823 1.76695 -7.30846
1.24656 -0.826546 1.58769
-1.77477 -1.27703 0.395912
-2.22737 0.554793 3.74666
-1.58243 -7.22781 5.28732
1.18405 2.80724 -0.462414
3.93588 -0.137458 4.4115
-1.4512 -7.80688 7.79531
-3.68812 2.76307 -7.32908
9.23476 -7.38795 15.3076
-1.0711 -0.540627 1.49357
-1.82815 -2.44065 3.56062
-0.8521 1.27876 -1.63582
3.50763 0.704752 1.42035
0.483276 -1.99162 -0.408483
-2.05217 1.18371 -6.96012
-0.400566 2.15315 -0.527465
-3.21342 0.870936 -2.46816
0.338708 1.22481 -1.78137
0.0 0.0 0.0
4.85721 -6.20629 0.0122789
-2.31172 -0.525062 -0.0234127
3.03648 6.70015 -2.06077
-0.0470268 -1.95874 7.15551
3.83678 0.663929 0.104458
-5.15352 -6.90562 0.909444
5.16106 0.206493 -0.191985
-7.30002 0.802919 2.76514
-3.68621 -2.22199 -0.770138
5.81366 7.67077 -1.8153
1.9394 1.34343 -5.28037
-2.49813 3.09756 -7.08459
-0.556688 0.716782 1.74896
1.12067 -0.269748 6.57326
-0.0474771 -2.8247 6.6674
0.742036 -13.5307 -1.81417
-0.259939 3.01148 5.17723
-0.889779 -3.62626 -0.17121
-3.1258 6.14224 -1.46753
1.34694 3.94357 1.23171
-3.25648 -3.71243 -1.63317
2.64635 -0.921405 2.24853
2.7597 -4.11885 -0.432271
0.0 0.0 0.0
7.54487 1.57329 -1.03542
6.09482 1.47073 3.15813
3.22141 0.326801 -0.547232
-0.789409 -2.69003 -0.620572
8.98499 -2.41627 -2.17455
1.90719 2.07339 -0.0103416
-1.39021 -2.60554 -3.27154
-4.81311 -0.923849 -1.41525
0.530897 -9.61373 4.46641
0.517844 -6.41398 3.63999
5.62382 -3.25337 4.5474
-0.793795 -7.44101 -1.31912
2.77481 -0.134501 -4.17987
0.0 0.0 0.0
3.79061 -3.164 -6.87309
0.782563 7.16614 10.1307
1.81188 1.43836 1.04801
-3.68888 -5.81529 1.90138
-0.412987 2.85491 -0.758136
-1.37598 -3.42748 -3.67331
-2.00885 -2.02954 -0.806883
-0.651183 6.65638 -1.88479
0.182284 -0.229312 -2.52586
-0.273187 -5.01626e-17 -0.00174818
0.553278 -5.01626e-17 0.00354053
1.40348 4.6316 -2.16133
-2.05729 1.43592 0.232345
-8.09062 -2.17093 1.3614
4.90619 0.378047 4.14243
-0.910217 0.991661 -1.54875
0.2289 1.45266 3.38743
-2.65485 10.772 -11.954
2.55909 -2.56069 -0.0569007
0.895487 -0.0207931 0.279482
-6.05117 -3.07811 0.334361
-1.82965 -3.86975 -0.502358
-2.30601 7.55092 1.90568
-0.438777 -1.84007 0.0845268
-2.28205 4.00964 2.77255
-0.361497 1.81898 3.81566
-1.54821 -10.1683 -13.6486
-1.52358 -0.169318 1.62521
8.55435 4.02711 12.5048
0.589631 -1.03901 1.59182
7.38719 8.18044 -3.35052
-4.52577 2.71346 -0.141784
-0.408901 0.447157 -0.730012
3.13718 -5.363 -6.28124
0.471241 -0.716811 -3.1413
-5.58608 -11.475 7.33932
0.453128 0.48834 3.50408
-2.42838 4.17816 1.84873
-1.76624 -0.565103 -1.39703
3.26295 -1.21944 1.33451
-2.03125 2.30619 -3.61978
-2.7143 -1.92414 -1.7665
-4.64337 0.472812 -8.80994
-1.25171 -4.43647 1.19205
-2.12406 -3.84678 10.7921
0.987084 7.08789 -14.089
9.51631 -3.8153 7.03237
3.33739 -2.55341 2.34561
1.84386 1.83312 -2.26506
-3.07066 3.02231 -0.959738
-1.59068 0.733858 -5.07368
3.45821 1.97093 -6.44481
2.66915 -10.7068 -1.4029
-0.695144 -1.36229 -0.90629
-0.0288941 2.02604 2.1712
-11.9309 -3.51701 12.5602
1.02052 0.054387 -2.59858
4.07075 1.76956 0.343286
1.76891 8.51634 -2.44478
1.69543 -4.39934 -2.87721
1.67037 -12.1094 -5.65874
-2.46251 1.02501 1.0576
-14.15 7.90889 2.67884
0.727232 2.81337 -4.74466
0.680372 0.707434 -0.991628
-0.749705 -0.0503365 4.97931
-9.26165 1.35027 3.178
-6.72796 4.46519 5.36401
-2.04727 7.26481 7.22249
2.88638 -3.93116 -6.96304
-4.38603 -7.01921 -6.81176
-0.471318 -0.505745 -1.28181
-0.341558 6.87727 6.67559
4.54778 1.50675 0.509582
2.51807 -4.22542 -5.96565
-2.97682 -4.54773 -1.00179
2.16087 -0.464809 -0.996653
1.18654 3.72592 7.31502
-0.346173 1.54023 -3.95523
-0.328977 -0.328946 -1.72893e-05
-2.90619 7.4959 -0.980772
2.91236 -1.46177 1.37923
1.6465 -0.339418 -5.08522
1.30879 -0.247542 1.33991
0.0 0.0 0.0
6.0395 1.16087 -2.91189
-4.32733 -6.1588 -1.30039
4.27263 2.20276 4.01672
-7.49703 2.41537 -1.32628
3.76416 -0.788432 -4.27363
3.52489 0.926515 -6.33796
1.5646 -1.31298 -0.386534
-1.17286 -3.35648 -3.7879
0.0802468 1.06129 2.34223
2.90529 0.773264 1.60831
2.71203 -1.13862 -1.11009
1.12233 -0.690587 -3.36737
-1.08269 0.0597835 -0.840283
-3.84889 -6.48775 0.266521
-5.11029 4.86377 1.90546
0.174115 -0.777223 0.713848
-10.7997 2.68779 4.14828
3.27172 -2.43311 -1.46082
-1.99916 -0.351953 0.66147
3.63503 -4.17358 1.23693
-3.48456 -7.95004 2.16327
0.619822 0.530088 0.721279
0.320771 -1.55039 4.83233
0.659357 0.734413 0.11753
4.88226 -3.91032 1.13148
-0.965231 -0.949977 -1.81013
-3.62052 -0.191127 4.88942
1.28403 4.3518 -0.226391
-4.46874 0.194798 -1.55186
-3.14566 0.426863 8.49573
-2.48858 1.26726 0.279912
-5.73071 2.08971 -9.75977
3.4649 1.47625 5.61732
-4.63315 0.552084 -4.43412
-0.461247 -6.56165 1.6824
-1.02568 0.46323 3.95065
4.11521 2.8891 -1.3096
-0.404591 1.50334 -0.535968
-2.34326 -6.292 -1.40645
-1.05143 -3.5779 0.9117
-2.10731 -0.464953 -2.61046
0.0 0.0 0.0
-1.60416 0.0207119 -0.394201
0.0249267 0.405304 1.31521
-3.24691 -3.25787 6.39709
2.23356 -6.20353 -0.417202
2.93857 -6.48017 2.79642
3.05947 -1.09233 1.04236
-0.639293 -2.35144 0.670279
5.70266 0.830372 1.72132
-1.91822 0.0210113 -1.96456
-3.0775 -2.9658 -1.20247
-2.49286 -8.89862 -0.0385508
-3.38436 9.92587 -2.16853
-3.30998 -1.13399 -2.69754
-2.0894 -4.17896 2.56746
-6.54972 3.24167 2.43864
1.16375 -1.30246 0.0808851
-1.59825 0.551886 0.222865
-6.09427 -0.411352 -0.0271821
-1.14858e-14 2.80684e-14 -1.36018e-14
2.97592 -0.262432 4.16716
2.19803 -0.0327407 -2.69834
6.78992 5.35104 4.45486
7.80418 -2.21665 -4.83458
0.396933 -0.803669 -0.696075
-1.28314 -2.07124 18.741
0.512764 -3.26544 1.76577
0.00109112 -2.3364 -0.960635
-7.68549 -1.33371 -11.3286
0.494627 1.86493 -2.33286
6.57842 -1.59191 1.4577
-2.74511 -1.29732 2.27654
-2.29007 -0.421373 -4.55076
-2.41815 -5.71861 4.94754
-3.65501 0.951384 0.376194
3.24199 6.1525 8.78094
-4.34752 1.8078 2.13895
14.7583 -7.39887 -10.3449
-1.56783 -5.20483 -6.69375
0.176758 -5.20162 2.56831
3.26867 -1.59246 -3.04855
-1.14858e-14 2.80684e-14 -1.36018e-14
-0.282074 16.7885 -1.95674
1.54236 -4.26027 -1.70769
5.17873 6.59449 16.4157
-1.61394 5.91701 -5.21112
-3.54768 -0.809904 -2.46498
-1.17432 -1.25053 -0.0464869
-5.51358 -0.0308399 -0.325169
8.30553 6.78787 -8.42951
-0.624966 0.341832 1.19527
-6.6379 2.01047 1.15965
1.72968 -1.74514 7.07785
1.3223 1.10384 -2.9566
-3.49459 6.50057 5.77674
3.25594 1.41943 -2.00401
-4.65546 -5.53109 1.97142
-0.293623 -0.661381 1.83647
3.31898 -1.52708 6.62076
3.0622 0.739436 1.13091
2.32508 -5.94759 1.8063
5.91965 -1.98379 -1.08809
-9.55909 5.1364 -6.12316
-7.44335 15.0351 7.37568
-1.5785 -10.3573 -9.61173
-2.14843 -1.22651 -2.20213
1.3725 -1.17499 -0.748912
0.553323 0.709151 -1.39336
-3.54478 -6.90662 2.09761
-4.26903 18.1854 5.42891
-1.64538 2.82308 5.48356
-7.66312 -1.79113 -3.81638
4.72281 2.52291 -10.1483
4.01555 0.203004 1.66296
4.40352 3.17209 5.11815
3.8169 -0.993424 -2.87733
-2.31625 -3.65998 7.0279
-2.41954 -1.54422 -0.655385
3.84562 2.15964 1.97846
-5.16056 3.8178 -5.13915
-2.08866 3.7928 -1.32129
0.988666 -2.49797 -2.50624
2.49892 2.87526 2.57374
-1.90518 3.738 2.49562
2.86082 1.03415 5.96552
0.701498 1.74884 -1.59469
-9.17582 -3.66798 -3.58225
1.31656 -0.272666 3.21057
0.473477 -0.899911 -2.49538
0.0923746 0.502271 0.783443
0.702126 0.25265 7.73694
-11.8543 -2.42241 0.531947
0.848948 3.79724 -1.86551
-3.35991 -1.39735 2.18212
-0.184147 -0.904301 -0.586838
0.648418 -5.84521 2.69034
-0.253212 -0.519924 1.8068
-3.42899 -1.47675 -0.897458
3.05849 0.192003 2.60736
-0.135549 0.031807 -0.829184
1.90274 0.0554408 -2.48363
-8.1427 2.10311 0.410916
0.311389 -0.496053 0.0964063
2.92494 7.15578 7.43805
-7.91136 -3.49321 -5.87274
18.1012 4.2285 -1.17884
0.0 0.0 0.0
-7.25395 7.48494 -1.37055
0.0 0.0 0.0
0.0 0.0 0.0
3.02757 0.810769 -1.84215
3.29813 1.64521 1.90238
0.0 0.0 0.0
0.653803 0.126446 -0.462514
VECTORS v float
0.0187515 0.00317572 0.00533236
-0.015883 -0.0542764 0.00229031
0.0209482 0.0125025 0.00463636
0.0 0.0 0.00392718
0.0435405 -0.016809 0.00729216
0.0325494 -0.00104585 0.00921821
-0.00390689 -0.00601069 -0.0040147
0.0181386 0.00708178 0.00436733
0.0 0.0 0.0
0.0556789 0.0127045 -0.0256871
0.0204942 0.0155154 -0.00422504
0.014638 0.0237938 -0.0428747
-0.0291226 -0.00290089 -0.0209252
0.0211214 0.000164808 -0.000108575
0.00716738 0.00851474 0.008614
-0.0057319 -0.042448 -0.0339284
-0.0137735 -0.054571 0.0208364
-0.0336717 -0.0359005 0.0124189
0.0123977 0.0291046 -0.0136281
0.0219899 0.0221093 0.00636341
0.0644491 0.004811 0.0062676
-0.0139552 0.0303906 -0.0317527
0.0130153 -0.0228916 -0.00315784
0.00442225 0.00530488 -0.00147021
-0.0444704 0.0342759 0.0100584
0.00410071 0.00549068 -0.0503245
-0.0362747 0.0514457 0.0176915
0.0638537 0.000378138 -0.0361227
0.00669106 0.0141041 -0.0147821
0.0 0.0 0.0
0.0304752 -0.0326462 0.0236626
0.0169168 -0.0165814 -0.0573388
0.0110107 0.0252213 -0.00055246
-0.0172865 -0.00629306 -0.0159777
-0.00550059 -0.0169395 -0.0201908
0.000770934 -0.00636495 -0.0470787
0.0215653 0.00340135 -0.0465979
0.0125988 -0.0111145 -0.0144277
-0.031599 -0.000480198 -0.00813598
0.0263785 0.0114529 0.0308739
-0.00616722 0.00336365 0.00830445
0.000967475 0.00186545 0.0104903
-0.00682845 0.00168615 0.00550364
0.0471974 -0.00303164 0.0122447
-0.00727647 0.00444054 0.0289586
0.00510632 0.0260493 0.000506804
0.0245349 -0.0259395 0.000490295
0.0324247 -0.0200277 -0.0230095
0.03841 0.00525632 0.000474985
-0.00575601 0.018176 -0.0252503
-0.0439905 0.0483398 0.0192148
0.0146554 0.0233767 -0.000982532
0.028034 -0.00638227 -0.0416257
-0.014609 -0.0148514 0.00186305
0.00434824 0.0599488 -0.00289969
0.00865801 -0.00863696 -0.0306771
0.0194783 0.0145929 -0.0201903
0.0100029 0.0101531 -0.0224761
0.0 0.0 0.0
0.00219234 -0.000137102 0.0364527
-0.00555182 -0.0114297 -0.00389324
-0.0210358 -0.0054201 -0.0208343
0.00150876 0.0194923 -0.0471331
0.00425945 -0.0225393 0.0141293
-0.00999349 -0.00898853 0.00959569
0.00287877 0.0055538 0.0539459
0.00141185 0.021255 0.055562
0.00785608 -0.00848814 0.0211502
-0.0163667 0.0115242 0.0127089
0.00890658 -0.0399204 -0.0117057
-0.0239043 0.0123287 -0.0194482
0.0151371 0.023929 -0.000291719
-0.0106575 -0.021789 0.00972044
-0.0209733 0.0648997 0.0120919
0.0300791 0.0766966 -0.0113233
0.0132389 -0.0299312 0.00363099
0.0125432 -0.00283042 -0.00590232
0.00431675 -0.00957875 0.0504064
-0.022417 -0.00662558 -0.0136478
-0.0205535 -0.0179478 -0.034723
0.00926572 0.0167995 -0.00393922
-0.00719862 0.00343222 -0.0384223
0.0 0.0 0.0
-0.0108531 0.000828755 -0.0452954
-0.0155152 0.00353364 0.034213
0.0017229 0.00910215 0.0176273
0.00654631 0.00768532 -0.00525963
0.00206259 -0.0340916 0.0495886
0.0164797 0.0181852 -0.00360124
0.00263956 0.00749489 -0.00682914
-0.023315 -0.00697172 -0.0123495
-0.0630975 0.0181807 -0.00312161
0.0355072 -0.00596698 -0.0247342
-0.0279477 0.0286906 -0.00757376
-0.00108577 0.00501 -0.0458342
0.0301932 -0.0416351 -0.0118166
0.0 0.0 0.0
-0.0334332 -0.0175461 0.048706
0.00735858 0.0163435 -0.0098859
-0.0181424 -0.0197948 -0.0742095
0.0011193 0.0118927 0.0353435
-0.00513149 -0.00222624 -0.00557745
-0.0343223 -0.0138134 0.0105813
0.00143784 -0.00672941 0.00187099
-0.0141066 0.0312821 0.00367555
-0.0153223 -0.00797673 -0.000429524
7.86352e-06 0.00484846 -0.00122883
-2.03955e-05 0.0110799 0.0031872
0.0191048 -0.00587768 0.0220256
-0.00512702 -0.0699164 0.0454874
-0.0010543 -0.0367556 -0.00862991
0.0202471 -0.0111156 0.0125855
0.0100569 -0.0100685 -0.0338701
0.00878146 -0.00166555 0.0001175
-0.0442026 -0.0119891 -0.0105664
-0.0265064 -0.0152497 -0.0287453
-0.0102882 0.00776709 -0.0105431
0.0428212 0.0510214 -0.0267237
0.01685 -0.00152213 0.00210049
0.00723832 0.0232225 -0.0319334
0.0168057 -0.0260752 -0.0119354
-0.00310203 0.00736588 -0.00195329
0.00996668 0.0152165 -0.0177104
0.0696902 0.0129089 -0.0655342
-0.0317057 0.0145002 -0.0231382
0.0324832 0.00570208 -0.0238598
-0.0667257 0.0103093 -0.0264798
0.0155848 -0.0911042 0.0231361
0.00149647 -0.0188733 0.0228253
-0.00292629 -0.00171764 0.000586961
-0.0354274 -0.053665 0.0326919
-0.022798 -0.00238526 0.0130676
0.00813277 0.0191986 0.0314454
-0.0144168 0.0186374 0.0102562
0.0103919 0.00407742 0.0158808
-0.00330931 -0.0266715 0.00665675
-0.00340948 -0.0210408 -0.0249981
0.000345737 0.0347407 0.0212395
-0.0242673 -0.0195212 0.00540961
0.0253981 0.0461768 0.0168972
0.0102839 0.00304236 -0.0193227
0.0506296 0.038631 0.00656459
0.0564598 0.0188262 0.0132233
0.00163428 -0.0453018 -0.0248962
-0.043883 -0.0141627 -0.0369674
-0.00549808 0.020155 -0.00435888
0.000479787 0.0235469 0.00423835
-0.078898 0.0169168 -0.0202845
-0.00403748 0.0164942 -0.0123343
-0.0027122 -0.00633986 -0.0159295
-0.010532 0.0067229 -0.00203907
-0.0057574 -0.0126202 0.0114797
0.0445576 -0.0452166 0.0126168
0.0233147 -0.00313801 0.0151702
-0.00305992 0.00547469 0.0375711
-0.0645919 0.010984 -0.00837378
-0.0700889 -0.0164592 -0.0385923
-0.0540469 -0.0613949 0.0595849
0.037987 0.0360908 -0.00999939
-0.0374518 -0.0569594 0.034168
-0.0166468 -0.0226657 -0.00683745
-0.00910484 0.000831251 0.0260827
0.0154473 0.0430175 0.0473289
0.0276523 -0.0317373 -0.00193433
-0.010327 0.0314276 -0.010717
-0.0416459 0.0107786 -3.58943e-05
0.0115692 0.0201926 -0.0193011
-0.0276036 0.00886705 -0.0359203
-0.0278072 -0.0137314 -0.0256652
-0.0389877 0.0141631 -0.0112823
0.0293012 0.0166243 0.0365106
0.0214747 -0.0497617 0.0182317
-0.00594948 -0.00538612 0.0180023
0.0238558 0.0272374 -0.00215455
-0.0150855 0.0131966 0.0239116
0.0231976 0.000767408 -0.00197277
-0.00393191 0.00393191 -0.00196656
-0.0264775 0.00250276 -0.0090473
0.0399452 0.0249409 -0.00493073
-0.010059 -0.0126548 -0.0422031
0.020501 0.029702 0.0210151
0.0 0.0 0.0
-0.00915278 -0.0408747 0.0141147
0.000682734 -0.00236371 0.0406632
5.30889e-07 0.00038914 3.8118e-05
-0.00335997 -0.010004 -0.0157928
0.0257151 0.000876376 0.0208427
0.0130692 -0.0375835 0.0331931
0.00595749 0.0354659 0.0185144
-0.00504409 0.00194495 -0.0113288
0.0211738 0.0826672 -0.0185114
0.00429088 -0.025801 -0.0142058
0.013119 -0.00945142 -0.0287632
-0.00679143 -0.000924298 -0.0184377
0.00274615 -0.0284142 0.014578
0.00339112 0.00198872 0.0375931
0.0011929 0.0243207 0.0145559
0.0107799 -0.013676 -0.00118846
-0.00523254 -0.0241099 0.0410474
0.00352731 0.00528282 -0.00219134
0.0187936 0.00200668 0.017037
-0.000680838 0.0038915 0.0298493
-0.0139574 0.00772511 -0.0135428
-0.00821445 0.00380538 0.00425263
0.0215123 0.00414352 0.000450169
-0.00585317 0.00426043 0.00626117
-0.0185245 -0.0125546 0.00830162
0.0539388 0.00732296 0.0024389
0.0116985 -0.0168373 -0.0180503
0.046169 0.0236338 0.0194184
0.0110074 -0.0261622 -0.00237027
-0.00601741 -0.00847914 0.00408967
0.00421606 0.0524118 0.0182646
-0.0231205 -0.0349311 0.00649213
-0.00590146 0.0006936 0.0117396
-0.028059 0.0115469 -0.0135939
0.0120396 0.00106888 0.0362389
-0.00694255 -0.0236531 0.00355759
-0.0191313 -0.00230693 0.0483123
-0.00669294 -0.00131946 0.00310964
-0.0154974 -0.00366088 -0.0389547
0.00198374 -0.00279403 -0.00879622
-0.0314568 0.0400629 -0.0283427
0.0 0.0 0.0
0.02806 0.0234984 0.0170388
-0.0166716 -0.00239521 -0.0136659
-0.045055 0.0356538 -0.0210825
-0.0177596 0.040853 -0.00610475
0.0271817 0.00829321 0.0164631
0.00443424 -0.00504739 -0.00194089
0.00789633 0.00815299 0.013842
-0.0353539 0.0309748 0.0176262
0.00406867 -0.00519809 0.033911
-0.00859587 0.00608799 0.00565808
-0.0318402 0.0538241 0.0520551
-0.0161987 0.0398527 0.000584003
-0.0167621 0.0250464 0.0178475
-0.0223825 0.0654177 0.00269857
-0.00217518 0.037718 -0.0582024
-0.00539116 0.0131653 0.00160507
-0.00346779 -0.00994876 0.000636606
0.0526734 -0.0222991 -0.0124778
-0.00228792 -0.00209668 -0.00239468
0.00315618 -0.0510565 -0.011009
0.0195118 0.0048195 0.00010091
-0.00912159 -0.00600028 -0.013037
-0.0160408 0.0542035 -0.0143356
0.00564295 -0.0211552 0.0276233
-0.0782955 -0.0604001 0.0228423
0.0240418 0.0171043 0.0219702
0.00735879 -0.00895116 0.0220425
-0.0784542 -0.0183315 -0.0334236
0.0134398 -0.0062322 0.0266383
-0.00470999 -0.0366573 0.0106376
-0.0379289 0.0588349 0.0370793
-0.0381695 -0.057742 -0.00692957
-0.00939063 -0.0310841 -0.0338323
0.00536664 -0.00651303 0.0519143
-0.0235013 0.00193292 0.00685708
-0.0281471 0.0478748 -0.00803893
-0.00871914 -0.00512554 -0.0411057
-0.0388341 -0.00417951 0.0170878
-0.00678482 -0.00339975 -0.0456589
0.0191328 0.00706673 0.0264945
0.00228792 0.00209668 0.00239468
0.0259266 -0.0219185 0.00348531
-0.0190936 -0.077341 0.00776565
-0.0721015 -0.0028578 0.0108879
0.0310386 -0.0307073 0.0199233
0.00897658 0.00392224 0.0243823
-0.00208143 0.0030392 0.0171424
-0.0385348 -0.0610398 -0.0466
-0.0242995 0.0144787 0.00703574
-0.0206194 0.0269828 0.0206035
-0.00787678 -0.0272216 0.0189119
-0.0610195 0.064149 0.028219
-0.038238 0.0732913 0.0263233
-0.0239122 -0.027165 -0.0425546
-0.0212879 -0.0136627 -0.0290535
-0.0163459 0.0144312 0.00131224
0.00781737 -0.0229846 0.00478368
0.00460378 -0.0004263 0.0520868
-0.00591402 -0.0278341 0.00592995
0.016371 -0.000386 -0.0272803
0.00224867 -0.0221849 0.0459718
-0.00406112 0.032493 0.027537
-0.00747444 0.00270585 0.00983913
0.0253193 0.00278359 0.0117338
-0.000210493 -0.0206849 0.0115711
-0.00173985 0.00812844 0.0032355
-0.00362775 0.00383504 0.000427236
0.0511361 -0.0217483 0.018929
0.0620559 0.0200818 -0.0194728
0.0212996 0.00875882 0.00215076
-0.0122492 0.06859 -0.0239588
-0.0111084 -0.0282672 -0.0333411
-0.00416474 0.0321708 -0.000311171
-0.0323223 0.0385299 0.0551457
-0.00365166 -0.0469355 -0.0598398
-0.00766535 -0.0421664 -0.0228383
0.004519 -0.00712836 9.09543e-05
-0.0763735 0.0704823 0.022121
-0.0202903 0.0529811 0.0274322
0.0115411 0.00508988 -0.0196679
0.0243242 0.013017 0.00210784
-0.0048974 0.00652024 0.0291999
0.0102669 -0.0396627 0.0756272
0.00301907 0.0555742 0.0279592
-0.0361718 -0.0152384 0.0301986
-0.0114005 0.011431 0.0148018
0.00276706 0.00696644 0.0248558
0.0150345 0.00598608 -0.00104173
0.0264375 0.00126968 0.0304676
0.001112 -0.0429417 -0.0252666
-0.00856005 0.0452355 0.0169388
0.00897929 0.0171159 0.0216099
0.00809238 0.0243727 0.0125535
-0.0183218 0.00915132 0.0292562
-0.04642 -0.0565356 -0.0490104
0.0022537 0.00154977 0.000669707
-0.00536032 0.013582 0.0013969
-0.0129001 0.023777 0.0444044
-0.00509142 0.0080632 -0.0020052
-0.00506716 0.00993494 -0.0153947
-0.00573172 -0.0330761 0.0546554
-0.0224374 -0.0103091 0.0151218
-0.0429688 0.0170653 -0.00450801
0.0275057 -0.0202307 0.013105
-0.00800628 0.028251 -0.0187452
0.0 0.0 -0.00391799
-0.0452948 -0.0460593 -0.0112245
0.0 0.0 0.0
0.0 0.0 -0.00391799
-0.00484283 0.0388386 0.00501334
-0.0108789 0.0131379 0.00747877
0.0 0.0 0.0
0.00244613 0.0047199 0.00474389
SCALARS radius float 1
LOOKUP_TABLE default
0.00596925
0.00596925
0.00596925
0.00596925
0.00596925
0.00596925
0.00596925
0.00596925
0.00596925
0.00596925
0.00596925
0.00596925
0.00596925
0.00596925
0.00955081
0.00955081
0.00955081
0.00596925
0.00955081
0.00596925
0.00596925
0.00955081
0.00955081
0.00955081
0.00955081
0.00596925
0.00596925
0.00596925
0.00955081
0.00596925
0.00596925
0.00955081
0.00955081
0.00955081
0.00955081
0.00596925
0.00596925
0.00596925
0.00596925
0.00596925
0.00596925
0.00596925
0.00955081
0.00596925
0.00955081
0.00596925
0.00596925
0.00955081
0.00596925
0.00955081
0.00596925
0.00596925
0.00955081
0.00596925
0.00955081
0.00596925
0.00596925
0.00596925
0.00596925
0.00596925
0.00955081
0.00596925
0.00596925
0.00955081
0.00955081
0.00955081
0.00596925
0.00955081
0.00955081
0.00596925
0.00955081
0.00596925
0.00955081
0.00596925
0.00596925
0.00955081
0.00596925
0.00596925
0.00955081
0.00955081
0.00596925
0.00955081
0.00596925
0.00596925
0.00596925
0.00596925
0.00955081
0.00596925
0.00596925
0.00596925
0.00596925
0.00596925
0.00955081
0.00955081
0.00596925
0.00596925
0.00596925
0.00596925
0.00955081
0.00596925
0.00596925
0.00596925
0.00955081
0.00596925
0.00596925
0.00596925
0.00596925
0.00596925
0.00955081
0.00955081
0.00596925
0.00596925
0.00955081
0.00596925
0.00596925
0.00955081
0.00596925
0.00596925
0.00955081
0.00955081
0.00955081
0.00596925
0.00955081
0.00596925
0.00955081
0.00955081
0.00955081
0.00596925
0.00596925
0.00596925
0.00596925
0.00596925
0.00596925
0.00596925
0.00596925
0.00955081
0.00955081
0.00955081
0.00596925
0.00596925
0.00955081
0.00596925
0.00596925
0.00596925
0.00596925
0.00596925
0.00955081
0.00596925
0.00596925
0.00596925
0.00596925
0.00596925
0.00596925
0.00955081
0.00955081
0.00596925
0.00596925
0.00596925
0.00596925
0.00596925
0.00955081
0.00596925
0.00955081
0.00596925
0.00596925
0.00596925
0.00596925
0.00596925
0.00955081
0.00596925
0.00955081
0.00955081
0.00596925
0.00596925
0.00596925
0.00596925
0.00596925
0.00955081
0.00596925
0.00596925
0.00596925
0.00596925
0.00596925
0.00596925
0.00596925
0.00596925
0.00596925
0.00596925
0.00955081
0.00955081
0.00955081
0.00955081
0.00955081
0.00955081
0.00955081
0.00596925
0.00955081
0.00955081
0.00596925
0.00596925
0.00596925
0.00596925
0.00596925
0.00596925
0.00596925
0.00596925
0.00955081
0.00955081
0.00596925
0.00955081
0.00955081
0.00955081
0.00596925
0.00596925
0.00955081
0.00596925
0.00955081
0.00596925
0.00596925
0.00596925
0.00596925
0.00596925
0.00955081
0.00596925
0.00955081
0.00955081
0.00596925
0.00955081
0.00596925
0.00955081
0.00955081
0.00955081
0.00955081
0.00596925
0.00596925
0.00596925
0.00955081
0.00955081
0.00955081
0.00596925
0.00596925
0.00596925
0.00596925
0.00955081
0.00955081
0.00596925
0.00596925
0.00596925
0.00596925
0.00955081
0.00955081
0.00955081
0.00596925
0.00955081
0.00955081
0.00596925
0.00596925
0.00596925
0.00596925
0.00955081
0.00596925
0.00596925
0.00596925
0.00596925
0.00596925
0.00596925
0.00596925
0.00596925
0.00955081
0.00596925
0.00596925
0.00955081
0.00596925
0.00955081
0.00596925
0.00596925
0.00955081
0.00596925
0.00955081
0.00596925
0.00596925
0.00596925
0.00955081
0.00596925
0.00955081
0.00596925
0.00596925
0.00955081
0.00955081
0.00596925
0.00596925
0.00596925
0.00596925
0.00596925
0.00955081
0.00596925
0.00955081
0.00955081
0.00955081
0.00596925
0.00596925
0.00955081
0.00955081
0.00955081
0.00955081
0.00955081
0.00955081
0.00955081
0.00596925
0.00596925
0.00596925
0.00955081
0.00955081
0.00955081
0.00596925
0.00955081
0.00955081
0.00955081
0.00955081
0.00596925
0.00596925
0.00596925
0.00596925
0.00596925
0.00596925
0.00596925
0.00596925
0.00596925
0.00596925
0.00596925
0.00596925
0.00596925
0.00596925
0.00596925
0.00596925
0.00596925
0.00596925
SCALARS type float 1
LOOKUP_TABLE default
1.0
1.0
1.0
1.0
1.0
1.0
1.0
1.0
1.0
1.0
1.0
1.0
1.0
1.0
1.0
1.0
1.0
1.0
1.0
1.0
1.0
1.0
1.0
1.0
1.0
1.0
1.0
1.0
1.0
1.0
1.0
1.0
1.0
1.0
1.0
1.0
1.0
1.0
1.0
1.0
1.0
1.0
1.0
1.0
1.0
1.0
1.0
1.0
1.0
1.0
1.0
1.0
1.0
1.0
1.0
1.0
1.0
1.0
1.0
1.0
1.0
1.0
1.0
1.0
1.0
1.0
1.0
1.0
1.0
1.0
1.0
1.0
1.0
1.0
1.0
1.0
1.0
1.0
1.0
1.0
1.0
1.0
1.0
1.0
1.0
1.0
1.0
1.0
1.0
1.0
1.0
1.0
1.0
1.0
1.0
1.0
1.0
1.0
1.0
1.0
1.0
1.0
1.0
1.0
1.0
1.0
1.0
1.0
1.0
1.0
1.0
1.0
1.0
1.0
1.0
1.0
1.0
1.0
1.0
1.0
1.0
1.0
1.0
1.0
1.0
1.0
1.0
1.0
1.0
1.0
1.0
1.0
1.0
1.0
1.0
1.0
1.0
1.0
1.0
1.0
1.0
1.0
1.0
1.0
1.0
1.0
1.0
1.0
1.0
1.0
1.0
1.0
1.0
1.0
1.0
1.0
1.0
1.0
1.0
1.0
1.0
1.0
1.0
1.0
1.0
1.0
1.0
1.0
1.0
1.0
1.0
1.0
1.0
1.0
1.0
1.0
1.0
1.0
1.0
1.0
1.0
1.0
1.0
1.0
1.0
1.0
1.0
1.0
1.0
1.0
1.0
1.0
1.0
1.0
1.0
1.0
1.0
1.0
1.0
1.0
1.0
1.0
1.0
1.0
1.0
1.0
1.0
1.0
1.0
1.0
1.0
1.0
1.0
1.0
1.0
1.0
1.0
1.0
1.0
1.0
1.0
1.0
1.0
1.0
1.0
1.0
1.0
1.0
1.0
1.0
1.0
1.0
1.0
1.0
1.0
1.0
1.0
1.0
1.0
1.0
1.0
1.0
1.0
1.0
1.0
1.0
1.0
1.0
1.0
1.0
1.0
1.0
1.0
1.0
1.0
1.0
1.0
1.0
1.0
1.0
1.0
1.0
1.0
1.0
1.0
1.0
1.0
1.0
1.0
1.0
1.0
1.0
1.0
1.0
1.0
1.0
1.0
1.0
1.0
1.0
1.0
1.0
1.0
1.0
1.0
1.0
1.0
1.0
1.0
1.0
1.0
1.0
1.0
1.0
1.0
1.0
1.0
1.0
1.0
1.0
1.0
1.0
1.0
1.0
1.0
1.0
1.0
1.0
1.0
1.0
1.0
1.0
1.0
1.0
1.0
1.0
1.0
1.0
1.0
1.0
1.0
1.0
1.0
1.0
1.0
1.0
1.0
1.0
1.0
1.0
1.0
1.0
1.0
1.0
1.0
1.0
1.0
SCALARS id float 1
LOOKUP_TABLE default
138.0
141.0
304.0
297.0
293.0
325.0
285.0
241.0
126.0
207.0
240.0
140.0
197.0
258.0
50.0
92.0
60.0
154.0
98.0
188.0
298.0
106.0
88.0
80.0
10.0
183.0
277.0
171.0
41.0
180.0
213.0
23.0
58.0
32.0
6.0
327.0
291.0
174.0
158.0
128.0
264.0
234.0
89.0
263.0
37.0
328.0
331.0
48.0
329.0
121.0
172.0
164.0
84.0
200.0
9.0
305.0
274.0
186.0
135.0
257.0
40.0
173.0
246.0
61.0
119.0
70.0
225.0
122.0
38.0
260.0
64.0
288.0
81.0
193.0
205.0
47.0
149.0
192.0
102.0
34.0
229.0
94.0
143.0
198.0
278.0
137.0
85.0
227.0
199.0
321.0
259.0
130.0
62.0
79.0
169.0
127.0
265.0
273.0
12.0
184.0
142.0
232.0
72.0
230.0
247.0
163.0
295.0
292.0
17.0
44.0
314.0
159.0
73.0
195.0
153.0
100.0
322.0
216.0
2.0
30.0
35.0
239.0
99.0
275.0
103.0
66.0
13.0
144.0
222.0
296.0
252.0
160.0
238.0
203.0
212.0
75.0
49.0
22.0
228.0
249.0
55.0
319.0
156.0
245.0
301.0
308.0
105.0
201.0
217.0
276.0
248.0
253.0
155.0
8.0
18.0
250.0
294.0
233.0
133.0
152.0
31.0
175.0
33.0
208.0
147.0
269.0
317.0
267.0
107.0
204.0
24.0
19.0
157.0
236.0
324.0
306.0
151.0
93.0
165.0
290.0
261.0
145.0
286.0
220.0
280.0
333.0
146.0
182.0
77.0
82.0
4.0
118.0
45.0
69.0
26.0
221.0
117.0
97.0
237.0
336.0
326.0
307.0
132.0
210.0
310.0
181.0
65.0
5.0
206.0
101.0
108.0
111.0
272.0
161.0
115.0
242.0
95.0
166.0
179.0
224.0
302.0
231.0
46.0
185.0
39.0
29.0
189.0
68.0
282.0
28.0
83.0
104.0
25.0
279.0
134.0
337.0
3.0
74.0
42.0
177.0
303.0
202.0
124.0
51.0
114.0
311.0
167.0
148.0
300.0
14.0
112.0
91.0
194.0
116.0
53.0
309.0
235.0
136.0
176.0
20.0
281.0
196.0
330.0
215.0
218.0
131.0
251.0
271.0
21.0
191.0
315.0
27.0
255.0
52.0
223.0
190.0
56.0
123.0
76.0
139.0
162.0
332.0
96.0
335.0
71.0
318.0
170.0
43.0
63.0
270.0
209.0
268.0
262.0
168.0
78.0
214.0
59.0
113.0
7.0
334.0
316.0
86.0
15.0
120.0
109.0
87.0
67.0
54.0
178.0
125.0
219.0
57.0
16.0
110.0
243.0
90.0
11.0
36.0
1.0
312.0
226.0
150.0
256.0
284.0
211.0
323.0
320.0
254.0
289.0
266.0
187.0
299.0
129.0
283.0
287.0
313.0
244.0

