# vtk DataFile Version 2.0
Generated by lpp.py
ASCII
DATASET POLYDATA
POINTS 337 float
-0.0128966 -0.0399316 0.00608551
0.00436513 -0.0353939 0.00616446
0.0420014 -0.0340925 0.00636075
-0.0181343 -0.0272025 0.00625406
-0.00715661 -0.0183847 0.00614969
0.0362272 -0.0217698 0.00598651
0.014426 -0.0120697 0.0063701
0.00593466 0.0014827 0.00599115
0.0181868 0.00132583 0.00852767
-0.0313456 0.0121193 0.00636202
-0.00569588 0.00999397 0.00636747
-0.0436376 0.0152705 0.00733975
-0.00319151 0.0224695 0.00636022
0.0437402 0.0212325 0.00657843
0.0155602 0.0338827 0.00621764
0.0432954 0.0406406 0.00812498
0.00524916 0.0412879 0.00612397
0.0114466 -0.0437501 0.0125413
-0.0288409 -0.0400631 0.00997248
0.0258802 -0.0362861 0.0101052
-0.00638614 -0.03023 0.0173161
0.0130685 -0.0251923 0.0108623
-0.0331728 -0.0204604 0.0107573
-0.0175089 -0.0177185 0.015779
0.0439237 -0.0203342 0.0155639
0.00274093 -0.009171 0.0177153
0.0301346 -0.00883032 0.0135842
-0.0399976 -0.00157569 0.00997341
-0.0174411 -0.00230311 0.00976711
-0.0276935 0.00726377 0.0185736
0.0314507 0.0108558 0.00991053
-0.017371 0.0206551 0.0113715
0.0121208 0.0169463 0.0100588
0.00586991 0.0315853 0.0139441
0.0300185 0.0307252 0.0131393
-0.0373432 0.0400427 0.00990664
-0.0160306 0.0370954 0.0101289
-0.00217907 0.0438255 0.0159598
0.0126217 0.0433903 0.0172849
0.00221466 -0.043697 0.0214016
0.0300433 -0.0438475 0.024313
-0.0421562 -0.0352429 0.0244044
0.0106583 -0.0342954 0.0208799
0.00597237 -0.0233133 0.0251297
0.0220622 -0.0232186 0.0251685
0.04027 -0.0314025 0.0268022
0.0383507 -0.0152016 0.026208
-0.0436359 -0.0133453 0.0213581
-0.0286483 -0.00752113 0.0257122
-0.0123051 -0.0057261 0.0248151
0.0185423 0.00330921 0.0247749
0.0434971 -0.00413532 0.0229219
-0.0412756 0.00826085 0.0228087
-0.0121038 0.0106514 0.0240514
0.00331507 0.0070971 0.0197402
0.0437235 0.00850348 0.0227683
-0.0341259 0.0223893 0.0190353
0.0183284 0.0222006 0.0244171
0.0296452 0.0165321 0.0253949
0.0412198 0.0202628 0.0190275
-0.0271287 0.0395821 0.0272108
-0.0430125 0.0438029 0.0263478
-0.0114425 0.0438729 0.0248373
0.0245269 0.043678 0.0217335
0.0370636 0.0438687 0.0199527
-0.0201604 -0.0399722 0.0281542
-0.000298785 -0.0336506 0.0360932
-0.0401968 -0.0205734 0.0370215
-0.0142729 -0.0198438 0.0326518
0.0127847 -0.0137987 0.0354903
-0.043832 -0.00559923 0.0313957
-0.00126912 -0.00510523 0.0369112
0.0437468 -0.000669546 0.0361564
-0.026957 0.0129243 0.0303818
0.0340441 0.00453666 0.0300628
0.00478298 0.0158765 0.0336555
0.0399432 0.0154148 0.0327497
-0.0438028 0.031522 0.0285908
-0.00958391 0.0238905 0.0331341
-0.0137812 0.0355441 0.0356771
0.00147606 0.0350427 0.0292171
0.0217048 0.0336029 0.0288661
0.0400883 0.0317688 0.030581
-0.0362007 -0.0400106 0.0403284
-0.0150743 -0.0415499 0.0436958
0.018612 -0.0401194 0.0380997
-0.0259111 -0.0261909 0.0416964
0.0301359 -0.0289839 0.0389927
0.040604 -0.0238779 0.0437799
0.00430132 -0.0194319 0.0434125
-0.0438014 -0.00648965 0.0443942
0.028448 -0.00893586 0.0377501
0.0437056 -0.0116189 0.0433631
-0.0197256 0.00238873 0.0407992
0.0128083 0.00338427 0.0399967
-0.0400076 0.00844869 0.0390398
0.0212191 0.0136493 0.0377443
0.0439042 0.0196737 0.0459948
-0.0437247 0.025348 0.0396639
-0.0228065 0.02298 0.0426073
-0.0390714 0.0371462 0.0388752
0.0153252 0.0402602 0.0425301
-0.0281586 0.0438426 0.0430215
0.031267 0.0437815 0.0403064
0.0437757 0.0436924 0.0413344
-0.0437855 -0.0437356 0.0543147
0.00553492 -0.0439717 0.0469961
-0.0226856 -0.0334482 0.0557921
-0.00052026 -0.032479 0.0527038
0.0393813 -0.0398529 0.0476696
-0.0100479 -0.0262545 0.047198
0.0220945 -0.022467 0.0513786
-0.032319 -0.00490328 0.0491783
-0.0161534 -0.0126566 0.0541377
0.00120606 -0.00736128 0.0527491
0.0435756 -0.00562007 0.0555513
0.017158 -0.00336472 0.0539719
-0.00117798 0.00861042 0.0516122
0.0154805 0.0123121 0.0495159
0.0331439 0.00761585 0.0480787
-0.0399026 0.0200981 0.0554525
-0.00940982 0.0237624 0.0522821
0.00815321 0.0259929 0.0547567
0.0312009 0.0295724 0.0484336
-0.0043283 0.0401282 0.0481907
-0.0436307 0.043579 0.0489061
0.0426074 0.0412913 0.0554713
-0.0333643 -0.0439685 0.0616026
-0.0126009 -0.043707 0.0637945
9.19847e-05 -0.0438564 0.058184
0.0161392 -0.0401566 0.0586697
0.0290321 -0.0319911 0.0638074
0.0434974 -0.0373382 0.0651096
-0.0436393 -0.0307877 0.057342
-0.0086394 -0.0277772 0.0612761
-0.0363061 -0.0141513 0.0622676
0.00533546 -0.0198004 0.0620968
0.0402309 -0.021119 0.0599753
-0.00438907 -0.00489168 0.0638871
0.00808649 0.00426544 0.0651279
-0.0258916 0.00602839 0.0595397
0.0436489 0.00457079 0.0630276
-0.0203259 0.0214184 0.0586585
-0.0117175 0.0135261 0.0629881
0.0244645 0.0178135 0.0631371
0.0430643 0.016234 0.0581847
-0.0437595 0.035305 0.0604073
-0.0276785 0.0360217 0.0572891
-0.0119304 0.0343173 0.0614038
0.0142817 0.0407544 0.0588532
-0.00414698 0.0436769 0.0647371
0.0288521 0.0437692 0.0562788
-0.0440226 -0.0414611 0.0672185
-0.0236672 -0.0436783 0.0703058
-0.0236359 -0.0319869 0.0752088
-0.000768705 -0.0364521 0.0726484
-0.0358611 -0.0301562 0.067784
-0.0162643 -0.0231089 0.0701056
0.0189771 -0.0261369 0.068488
-0.0436428 -0.0226521 0.0745042
-0.0203352 -0.00752827 0.073286
0.0146248 -0.00843101 0.0698921
0.0308823 -0.00547225 0.0683623
-0.00063163 0.00939193 0.0723749
-0.0281995 0.0197197 0.0681679
-0.00184312 0.0204435 0.0664668
-0.0136524 0.0245091 0.0689817
0.0401329 0.0295352 0.0674224
0.0234058 0.0401511 0.0724212
-0.04372 0.043721 0.0697912
-0.0177718 0.0431928 0.0684064
0.00760062 0.0436868 0.0693867
-0.0142015 -0.0434107 0.0789543
0.00999786 -0.044006 0.0822184
0.0438589 -0.0438408 0.0803447
-0.0369976 -0.0390597 0.0816725
0.0140414 -0.0322737 0.0782844
0.028289 -0.0401946 0.0778157
-0.0104431 -0.0283784 0.0830116
0.0423972 -0.0302254 0.0778629
-0.0344916 -0.0145756 0.0786333
-0.0207869 -0.0213048 0.0821776
-0.00455507 -0.0201934 0.0753018
0.00972129 -0.0206096 0.077656
0.0430329 -0.0163559 0.0765796
0.00142583 -0.00535384 0.0793639
-0.0360838 -0.00273305 0.0741686
-0.0400283 0.0129454 0.0772897
-0.0156205 0.0114173 0.0786623
0.0183578 0.00669288 0.078528
0.0402181 0.00818558 0.0794809
-0.0116981 0.0317433 0.0835801
0.00718477 0.02903 0.0770185
0.0284108 0.0238062 0.0826878
-0.0331882 0.0327855 0.076356
0.0436389 0.0318642 0.0834415
-0.0219987 0.0439077 0.080383
0.0395965 0.0436324 0.0807563
-0.0227306 -0.0437965 0.088162
-0.00130451 -0.0417244 0.0903361
0.0377329 -0.0433849 0.0921829
0.0108057 -0.0345865 0.0901253
-0.0320116 -0.0242928 0.0866488
0.0329554 -0.0265995 0.0915452
-0.0438867 -0.0205474 0.0871005
0.00152164 -0.0214149 0.0918122
-0.0113846 -0.0136629 0.0854979
0.0211872 -0.0119403 0.0851312
0.0401189 -0.00803956 0.0910236
-0.0436898 0.00180219 0.0892249
-0.0273512 0.000113415 0.0905954
0.00203453 0.0129016 0.0881894
-0.0440452 0.0198905 0.0920297
-0.0279965 0.0204169 0.0916097
0.043996 0.0169002 0.0927881
-0.0439893 0.0388153 0.0866419
-0.0325013 0.0436713 0.0886193
0.000569718 0.0436407 0.0851625
0.0125164 0.0436435 0.0896159
-0.0438296 -0.0438545 0.0956803
0.00681775 -0.0330437 0.102172
0.0216329 -0.0401576 0.100857
-0.0398748 -0.0287119 0.100808
-0.0199707 -0.0298924 0.0962482
-0.0280291 -0.0175089 0.103095
0.0219684 -0.0168258 0.101875
-0.0371797 -0.0125464 0.0941258
-0.0128441 -0.0115547 0.102058
-0.00214124 -0.000373446 0.0966761
0.0206449 0.00309815 0.0982575
0.0318078 0.0208987 0.102555
-0.0436387 0.0310498 0.098707
-0.0153455 0.0246301 0.100633
-0.00386814 0.0255079 0.0964217
0.0139668 0.0272034 0.0960272
-0.0209656 0.0399875 0.0996583
0.000106618 0.0402643 0.101804
0.0297486 0.0400218 0.0945053
-0.0436198 0.0437939 0.0979683
-0.0438376 -0.0428656 0.108117
-0.0279301 -0.0424127 0.104145
0.0087865 -0.0437577 0.110156
-0.00700093 -0.0399652 0.10788
0.0402324 -0.0366136 0.107298
-0.0149679 -0.0256928 0.111427
-0.00298403 -0.0240335 0.107369
0.0228621 -0.026678 0.11153
0.0378601 -0.0168421 0.109051
-0.0401672 -0.0100173 0.110947
0.00675155 -0.00929097 0.107023
-0.0264543 -0.00239577 0.106735
0.0400608 0.00310587 0.107807
-0.0399656 0.00898008 0.103685
-0.0147056 0.008518 0.103815
0.00244588 0.0173495 0.109016
0.0184222 0.0141294 0.109796
-0.0436494 0.028791 0.11129
-0.0304633 0.0240242 0.108389
0.0438779 0.0298846 0.109479
-0.0335631 0.0363279 0.10966
0.0346149 0.0381169 0.109927
-0.0437868 0.0437867 0.110384
0.0160633 0.0432906 0.10502
0.00257873 -0.0424781 0.120867
0.0279963 -0.043943 0.11521
-0.0213705 -0.0361061 0.11502
-0.0314887 -0.0237091 0.113995
0.00513784 -0.0312671 0.115502
-0.00711664 -0.0171166 0.116992
-0.0222838 -0.0115509 0.120018
0.0238121 -0.0047146 0.116713
-0.0355144 0.00131975 0.121757
-0.00582819 0.00155062 0.117389
0.0114824 0.00593382 0.116273
-0.0383331 0.017416 0.122013
0.0299195 0.013955 0.121403
0.0437592 0.0180117 0.113516
-0.0285217 0.030343 0.119712
-0.01289 0.0303536 0.115539
0.0210389 0.0254149 0.114094
0.0384775 0.0290471 0.121102
0.0221875 0.0402133 0.120165
-0.00324089 0.0435312 0.117722
0.0360386 -0.0438394 0.124718
-0.0359591 -0.0398272 0.121938
0.0175187 -0.0400873 0.126949
0.0438341 -0.0342928 0.122998
-0.0117118 -0.0260172 0.12525
0.00440611 -0.0246876 0.130965
-0.0400972 -0.0210252 0.127837
0.0256845 -0.019724 0.123507
-0.0086153 -0.0118335 0.128747
0.00222594 -0.0108279 0.12268
0.0147661 -0.0129014 0.127251
0.00973403 -0.00152823 0.126037
0.040278 -0.00197632 0.127835
-0.0188357 0.011381 0.123369
-0.000522805 0.021405 0.128415
0.0438942 0.0172133 0.129018
-0.039987 0.0400584 0.125676
-0.0235208 -0.0440035 0.1313
-0.00792146 -0.0401348 0.133024
0.0393576 -0.0400044 0.140124
-0.0242407 -0.0302546 0.140009
0.0221026 -0.0259757 0.140188
-0.00543611 -0.0157157 0.140276
0.0400066 -0.0214802 0.132389
-0.0391956 -0.00544176 0.133218
-0.0196481 -0.00781298 0.140191
-0.00336476 0.00252164 0.134678
0.0222382 0.0020839 0.135693
-0.0316111 0.00818961 0.13867
-0.0400132 0.0262895 0.140167
-0.0195508 0.0253064 0.139488
0.018657 0.0253187 0.133343
0.0383158 0.0276832 0.133752
-0.0223012 0.0397495 0.13191
0.0055181 0.0402937 0.131338
0.03508 0.0399886 0.133637
0.0183123 -0.0435436 0.143149
-0.0402496 -0.0401932 0.143639
0.00593101 -0.0407419 0.142273
-0.043649 -0.0240911 0.143664
-0.00573611 -0.0281187 0.143837
-0.033224 -0.0166952 0.142008
0.0273193 -0.0109815 0.143861
0.0415467 -0.00605768 0.143719
0.0379924 0.00943687 0.142956
-0.000899361 0.0170518 0.143969
0.0147358 0.0137785 0.144026
0.0436377 0.0213042 0.143624
0.00697572 0.0301538 0.143924
-0.00615081 0.0356319 0.143655
-0.0421406 0.043448 0.143608
-0.0295516 0.043639 0.141762
0.0244268 0.0420447 0.142516
0.04203 0.0436418 0.143646
VERTICES 337 674
1 0
1 1
1 2
1 3
1 4
1 5
1 6
1 7
1 8
1 9
1 10
1 11
1 12
1 13
1 14
1 15
1 16
1 17
1 18
1 19
1 20
1 21
1 22
1 23
1 24
1 25
1 26
1 27
1 28
1 29
1 30
1 31
1 32
1 33
1 34
1 35
1 36
1 37
1 38
1 39
1 40
1 41
1 42
1 43
1 44
1 45
1 46
1 47
1 48
1 49
1 50
1 51
1 52
1 53
1 54
1 55
1 56
1 57
1 58
1 59
1 60
1 61
1 62
1 63
1 64
1 65
1 66
1 67
1 68
1 69
1 70
1 71
1 72
1 73
1 74
1 75
1 76
1 77
1 78
1 79
1 80
1 81
1 82
1 83
1 84
1 85
1 86
1 87
1 88
1 89
1 90
1 91
1 92
1 93
1 94
1 95
1 96
1 97
1 98
1 99
1 100
1 101
1 102
1 103
1 104
1 105
1 106
1 107
1 108
1 109
1 110
1 111
1 112
1 113
1 114
1 115
1 116
1 117
1 118
1 119
1 120
1 121
1 122
1 123
1 124
1 125
1 126
1 127
1 128
1 129
1 130
1 131
1 132
1 133
1 134
1 135
1 136
1 137
1 138
1 139
1 140
1 141
1 142
1 143
1 144
1 145
1 146
1 147
1 148
1 149
1 150
1 151
1 152
1 153
1 154
1 155
1 156
1 157
1 158
1 159
1 160
1 161
1 162
1 163
1 164
1 165
1 166
1 167
1 168
1 169
1 170
1 171
1 172
1 173
1 174
1 175
1 176
1 177
1 178
1 179
1 180
1 181
1 182
1 183
1 184
1 185
1 186
1 187
1 188
1 189
1 190
1 191
1 192
1 193
1 194
1 195
1 196
1 197
1 198
1 199
1 200
1 201
1 202
1 203
1 204
1 205
1 206
1 207
1 208
1 209
1 210
1 211
1 212
1 213
1 214
1 215
1 216
1 217
1 218
1 219
1 220
1 221
1 222
1 223
1 224
1 225
1 226
1 227
1 228
1 229
1 230
1 231
1 232
1 233
1 234
1 235
1 236
1 237
1 238
1 239
1 240
1 241
1 242
1 243
1 244
1 245
1 246
1 247
1 248
1 249
1 250
1 251
1 252
1 253
1 254
1 255
1 256
1 257
1 258
1 259
1 260
1 261
1 262
1 263
1 264
1 265
1 266
1 267
1 268
1 269
1 270
1 271
1 272
1 273
1 274
1 275
1 276
1 277
1 278
1 279
1 280
1 281
1 282
1 283
1 284
1 285
1 286
1 287
1 288
1 289
1 290
1 291
1 292
1 293
1 294
1 295
1 296
1 297
1 298
1 299
1 300
1 301
1 302
1 303
1 304
1 305
1 306
1 307
1 308
1 309
1 310
1 311
1 312
1 313
1 314
1 315
1 316
1 317
1 318
1 319
1 320
1 321
1 322
1 323
1 324
1 325
1 326
1 327
1 328
1 329
1 330
1 331
1 332
1 333
1 334
1 335
1 336
POINT_DATA 337
VECTORS i float
0.0 0.0 0.0
0.0 0.0 0.0
0.0 0.0 0.0
0.0 0.0 0.0
0.0 0.0 0.0
0.0 0.0 0.0
0.0 0.0 0.0
0.0 0.0 0.0
0.0 0.0 0.0
0.0 0.0 0.0
0.0 0.0 0.0
0.0 0.0 0.0
0.0 0.0 0.0
0.0 0.0 0.0
0.0 0.0 0.0
0.0 0.0 0.0
0.0 0.0 0.0
0.0 0.0 0.0
0.0 0.0 0.0
0.0 0.0 0.0
0.0 0.0 0.0
0.0 0.0 0.0
0.0 0.0 0.0
0.0 0.0 0.0
0.0 0.0 0.0
0.0 0.0 0.0
0.0 0.0 0.0
0.0 0.0 0.0
0.0 0.0 0.0
0.0 0.0 0.0
0.0 0.0 0.0
0.0 0.0 0.0
0.0 0.0 0.0
0.0 0.0 0.0
0.0 0.0 0.0
0.0 0.0 0.0
0.0 0.0 0.0
0.0 0.0 0.0
0.0 0.0 0.0
0.0 0.0 0.0
0.0 0.0 0.0
0.0 0.0 0.0
0.0 0.0 0.0
0.0 0.0 0.0
0.0 0.0 0.0
0.0 0.0 0.0
0.0 0.0 0.0
0.0 0.0 0.0
0.0 0.0 0.0
0.0 0.0 0.0
0.0 0.0 0.0
0.0 0.0 0.0
0.0 0.0 0.0
0.0 0.0 0.0
0.0 0.0 0.0
0.0 0.0 0.0
0.0 0.0 0.0
0.0 0.0 0.0
0.0 0.0 0.0
0.0 0.0 0.0
0.0 0.0 0.0
0.0 0.0 0.0
0.0 0.0 0.0
0.0 0.0 0.0
0.0 0.0 0.0
0.0 0.0 0.0
0.0 0.0 0.0
0.0 0.0 0.0
0.0 0.0 0.0
0.0 0.0 0.0
0.0 0.0 0.0
0.0 0.0 0.0
0.0 0.0 0.0
0.0 0.0 0.0
0.0 0.0 0.0
0.0 0.0 0.0
0.0 0.0 0.0
0.0 0.0 0.0
0.0 0.0 0.0
0.0 0.0 0.0
0.0 0.0 0.0
0.0 0.0 0.0
0.0 0.0 0.0
0.0 0.0 0.0
0.0 0.0 0.0
0.0 0.0 0.0
0.0 0.0 0.0
0.0 0.0 0.0
0.0 0.0 0.0
0.0 0.0 0.0
0.0 0.0 0.0
0.0 0.0 0.0
0.0 0.0 0.0
0.0 0.0 0.0
0.0 0.0 0.0
0.0 0.0 0.0
0.0 0.0 0.0
0.0 0.0 0.0
0.0 0.0 0.0
0.0 0.0 0.0
0.0 0.0 0.0
0.0 0.0 0.0
0.0 0.0 0.0
0.0 0.0 0.0
0.0 0.0 0.0
0.0 0.0 0.0
0.0 0.0 0.0
0.0 0.0 0.0
0.0 0.0 0.0
0.0 0.0 0.0
0.0 0.0 0.0
0.0 0.0 0.0
0.0 0.0 0.0
0.0 0.0 0.0
0.0 0.0 0.0
0.0 0.0 0.0
0.0 0.0 0.0
0.0 0.0 0.0
0.0 0.0 0.0
0.0 0.0 0.0
0.0 0.0 0.0
0.0 0.0 0.0
0.0 0.0 0.0
0.0 0.0 0.0
0.0 0.0 0.0
0.0 0.0 0.0
0.0 0.0 0.0
0.0 0.0 0.0
0.0 0.0 0.0
0.0 0.0 0.0
0.0 0.0 0.0
0.0 0.0 0.0
0.0 0.0 0.0
0.0 0.0 0.0
0.0 0.0 0.0
0.0 0.0 0.0
0.0 0.0 0.0
0.0 0.0 0.0
0.0 0.0 0.0
0.0 0.0 0.0
0.0 0.0 0.0
0.0 0.0 0.0
0.0 0.0 0.0
0.0 0.0 0.0
0.0 0.0 0.0
0.0 0.0 0.0
0.0 0.0 0.0
0.0 0.0 0.0
0.0 0.0 0.0
0.0 0.0 0.0
0.0 0.0 0.0
0.0 0.0 0.0
0.0 0.0 0.0
0.0 0.0 0.0
0.0 0.0 0.0
0.0 0.0 0.0
0.0 0.0 0.0
0.0 0.0 0.0
0.0 0.0 0.0
0.0 0.0 0.0
0.0 0.0 0.0
0.0 0.0 0.0
0.0 0.0 0.0
0.0 0.0 0.0
0.0 0.0 0.0
0.0 0.0 0.0
0.0 0.0 0.0
0.0 0.0 0.0
0.0 0.0 0.0
0.0 0.0 0.0
0.0 0.0 0.0
0.0 0.0 0.0
0.0 0.0 0.0
0.0 0.0 0.0
0.0 0.0 0.0
0.0 0.0 0.0
0.0 0.0 0.0
0.0 0.0 0.0
0.0 0.0 0.0
0.0 0.0 0.0
0.0 0.0 0.0
0.0 0.0 0.0
0.0 0.0 0.0
0.0 0.0 0.0
0.0 0.0 0.0
0.0 0.0 0.0
0.0 0.0 0.0
0.0 0.0 0.0
0.0 0.0 0.0
0.0 0.0 0.0
0.0 0.0 0.0
0.0 0.0 0.0
0.0 0.0 0.0
0.0 0.0 0.0
0.0 0.0 0.0
0.0 0.0 0.0
0.0 0.0 0.0
0.0 0.0 0.0
0.0 0.0 0.0
0.0 0.0 0.0
0.0 0.0 0.0
0.0 0.0 0.0
0.0 0.0 0.0
0.0 0.0 0.0
0.0 0.0 0.0
0.0 0.0 0.0
0.0 0.0 0.0
0.0 0.0 0.0
0.0 0.0 0.0
0.0 0.0 0.0
0.0 0.0 0.0
0.0 0.0 0.0
0.0 0.0 0.0
0.0 0.0 0.0
0.0 0.0 0.0
0.0 0.0 0.0
0.0 0.0 0.0
0.0 0.0 0.0
0.0 0.0 0.0
0.0 0.0 0.0
0.0 0.0 0.0
0.0 0.0 0.0
0.0 0.0 0.0
0.0 0.0 0.0
0.0 0.0 0.0
0.0 0.0 0.0
0.0 0.0 0.0
0.0 0.0 0.0
0.0 0.0 0.0
0.0 0.0 0.0
0.0 0.0 0.0
0.0 0.0 0.0
0.0 0.0 0.0
0.0 0.0 0.0
0.0 0.0 0.0
0.0 0.0 0.0
0.0 0.0 0.0
0.0 0.0 0.0
0.0 0.0 0.0
0.0 0.0 0.0
0.0 0.0 0.0
0.0 0.0 0.0
0.0 0.0 0.0
0.0 0.0 0.0
0.0 0.0 0.0
0.0 0.0 0.0
0.0 0.0 0.0
0.0 0.0 0.0
0.0 0.0 0.0
0.0 0.0 0.0
0.0 0.0 0.0
0.0 0.0 0.0
0.0 0.0 0.0
0.0 0.0 0.0
0.0 0.0 0.0
0.0 0.0 0.0
0.0 0.0 0.0
0.0 0.0 0.0
0.0 0.0 0.0
0.0 0.0 0.0
0.0 0.0 0.0
0.0 0.0 0.0
0.0 0.0 0.0
0.0 0.0 0.0
0.0 0.0 0.0
0.0 0.0 0.0
0.0 0.0 0.0
0.0 0.0 0.0
0.0 0.0 0.0
0.0 0.0 0.0
0.0 0.0 0.0
0.0 0.0 0.0
0.0 0.0 0.0
0.0 0.0 0.0
0.0 0.0 0.0
0.0 0.0 0.0
0.0 0.0 0.0
0.0 0.0 0.0
0.0 0.0 0.0
0.0 0.0 0.0
0.0 0.0 0.0
0.0 0.0 0.0
0.0 0.0 0.0
0.0 0.0 0.0
0.0 0.0 0.0
0.0 0.0 0.0
0.0 0.0 0.0
0.0 0.0 0.0
0.0 0.0 0.0
0.0 0.0 0.0
0.0 0.0 0.0
0.0 0.0 0.0
0.0 0.0 0.0
0.0 0.0 0.0
0.0 0.0 0.0
0.0 0.0 0.0
0.0 0.0 0.0
0.0 0.0 0.0
0.0 0.0 0.0
0.0 0.0 0.0
0.0 0.0 0.0
0.0 0.0 0.0
0.0 0.0 0.0
0.0 0.0 0.0
0.0 0.0 0.0
0.0 0.0 0.0
0.0 0.0 0.0
0.0 0.0 0.0
0.0 0.0 0.0
0.0 0.0 0.0
0.0 0.0 0.0
0.0 0.0 0.0
0.0 0.0 0.0
0.0 0.0 0.0
0.0 0.0 0.0
0.0 0.0 0.0
0.0 0.0 0.0
0.0 0.0 0.0
0.0 0.0 0.0
0.0 0.0 0.0
0.0 0.0 0.0
0.0 0.0 0.0
0.0 0.0 0.0
0.0 0.0 0.0
0.0 0.0 0.0
0.0 0.0 0.0
0.0 0.0 0.0
0.0 0.0 0.0
0.0 0.0 0.0
0.0 0.0 0.0
0.0 0.0 0.0
0.0 0.0 0.0
0.0 0.0 0.0
0.0 0.0 0.0
0.0 0.0 0.0
0.0 0.0 0.0
0.0 0.0 0.0
VECTORS f float
-0.0074654 0.00424875 0.00437757
-0.011811 -0.00891986 0.00972415
-7.97239e-05 0.000209367 -0.000448064
0.00171357 0.00183864 0.00202479
0.00345856 -0.00719433 0.00618688
-0.0024936 0.0133183 0.01224
-0.0264352 -0.0134721 0.0143584
-0.00933699 -0.0317219 0.00353323
-0.0113219 -0.00429092 0.00522413
-0.0527407 0.0353483 -0.0119115
-5.27092e-05 0.000857915 0.000351413
-0.010338 0.00136563 -0.00120417
3.37925e-05 -0.000899065 -0.000260834
-0.00122327 -0.00490289 -0.00598683
-0.0040699 0.00287494 -0.00808416
0.0 0.0 0.0
-0.0262403 -0.0197939 0.000241376
-0.00890948 0.0144053 0.0228591
-0.0219845 -0.0187661 0.00887583
0.0824986 0.0815299 0.0442161
-0.0185529 -0.0356907 0.0130983
0.0 0.0 0.0
-0.0739615 -0.0658212 -0.0382609
0.00171829 0.00518418 -0.00544462
-0.00236684 -0.00806552 0.00348512
-0.109004 -0.114007 -0.0146276
-0.025033 0.0736171 0.0865053
0.00103776 -0.0566473 -0.0262132
-0.0389591 -0.0111052 0.00320245
0.0170967 -0.0182453 -0.0290301
-0.0244563 0.040922 0.0163546
0.00020779 0.000518988 0.000161648
-0.0310499 -0.0545122 0.0132416
-0.00841618 -0.0223138 -0.0183972
-0.0230752 0.0606874 -0.009729
-0.0356946 0.0101331 0.0431799
-0.0773292 -0.0218999 0.0409287
-0.0224193 -0.0181458 -0.00485928
-0.00199393 0.000562868 -0.00191984
-0.0152459 -0.018735 0.0105437
0.00768142 -0.00141379 -0.00451247
0.0 0.0 0.0
-0.0225845 -0.00784456 0.0418352
-0.0291197 -0.0105549 0.0129796
-0.0367883 -0.0589996 0.0303292
-0.0191775 -0.0210411 -0.0318908
-0.0081145 0.00886693 0.0203956
-0.0245242 -0.0230068 -0.0162094
-0.074762 -0.02444 -0.070696
-0.0245929 0.00402315 0.000274952
-0.0173235 0.0107794 0.0253141
0.0176562 0.00667983 0.029384
0.0276588 -0.00449776 -0.00695314
-0.0617312 -0.0056544 -0.00242546
-0.0185901 -0.0215811 -0.00265966
0.0132218 -0.0127935 0.0104098
0.0914074 0.0191909 -0.00797048
0.00666387 -0.0242299 0.0192274
0.0133556 0.00330489 0.00542147
0.00608975 0.0165975 0.0120456
-0.0155337 0.0307649 0.06996
0.0398595 -0.0120573 -0.00789038
-0.00271438 -0.00589012 -0.00282973
-0.0116191 0.00476545 0.00694439
-0.00410793 -0.00837007 0.0118967
-0.00773824 0.00434925 0.0242861
-0.0167223 -0.0489391 0.0165964
0.00492672 0.0174939 0.0473513
-0.0413753 -0.0303912 3.21944e-05
0.0 0.0 0.0
-0.00109572 -0.0023347 -0.0115681
-0.148317 -0.0156373 0.00424243
-0.00311461 -0.0121211 0.021539
-0.000723124 0.0166072 0.00540366
-0.013539 -0.00163426 0.0079662
-0.0419355 -0.105388 -0.0358453
-0.00853685 0.0262173 -0.0215058
0.0439122 -0.0357599 0.035309
0.0090014 0.000536609 0.00085688
0.0222207 0.00597811 -0.0219122
0.067112 -0.0672527 -0.106495
0.00946749 -0.0158378 -0.00555874
-0.00838888 0.059162 0.034481
0.034584 0.00636342 0.0572032
0.028315 -0.0326044 0.0158874
-0.0460845 -0.00276945 0.0113621
-0.0143863 -0.0118696 -0.0209197
-0.00406955 -0.00612147 0.00139571
-0.0170653 -0.012759 0.0134376
0.0 0.0 0.0
-0.00158621 0.00746451 -0.0106618
-0.0727912 -0.0264652 0.047132
-0.00798368 -0.0272708 -0.00426844
-0.0990314 0.00382328 -0.0497492
-0.00807792 -0.00887203 0.00913585
-0.0180675 0.0175078 -0.0249667
0.0 0.0 0.0
-0.00580149 -0.00373403 0.0111977
0.201237 -0.0365114 -0.0016112
-0.019552 0.131648 -0.0591137
0.15156 0.0787662 0.141354
0.0174821 0.00171123 -0.0575208
0.00193134 0.00724573 0.0142298
0.00498766 0.00397614 0.0268627
9.04444e-05 0.00928601 0.0072024
-0.00154902 0.00258914 0.00621081
0.00797163 -0.00398543 0.00154462
-0.202951 0.040745 -0.104729
0.0601709 -0.0166041 -0.0461677
0.0813768 -0.0562156 0.0386236
0.00950362 -0.00398309 0.0193731
0.0032822 0.00427564 0.0482299
-0.00532649 0.0149501 -0.0192285
0.00612785 0.0146163 -0.0289162
-0.0321043 -0.00875119 0.00827283
0.0119836 0.00306294 0.00300415
-0.00851838 0.0307095 0.062568
-0.118383 0.0133438 -0.0292716
0.00351303 -0.00375145 -0.0109348
-0.0594557 -0.0148512 0.0492606
-0.015469 0.0238808 -0.00110622
-0.00588898 -0.00231101 -0.00166271
0.04069 -0.0303794 -0.0359084
0.0100923 0.0305871 0.0389139
0.0530673 -0.0351914 -0.0237271
0.0 0.0 0.0
0.0 0.0 0.0
-0.0212994 0.00958658 0.00254297
0.0171863 0.0895258 0.0261136
0.0223111 0.000345146 -0.012496
0.0238418 -0.00284286 -0.0585426
-0.00683173 -0.00332457 0.00128361
0.0 0.0 0.0
-0.000447576 -0.000152508 -0.000163775
-0.0333881 0.008747 0.0238067
-0.0271327 -0.122646 -0.157354
-0.122178 -0.0609702 0.0316804
-0.000561444 0.00821819 0.069091
0.0106199 -0.0105576 0.0285414
0.00206759 0.0293956 0.00333176
-0.0671631 -0.0230588 -0.049449
0.019221 0.00415905 0.0166013
-0.01153 0.00535396 -0.0142668
-0.0188589 0.0109608 -0.00744547
-0.0378869 -0.00912921 -0.0402586
0.00781531 0.00251847 0.000823479
0.00763391 0.00401104 -0.000380972
0.00736718 0.0060002 0.0246345
0.00501257 -0.00452344 -0.0251395
-0.0344958 -0.0115829 0.00158328
0.00276163 0.00407572 -0.016548
-0.00154731 -0.00179228 0.0167806
0.00450998 -0.00572127 0.0178913
0.0498718 0.00963961 -0.022411
0.00683912 0.00807472 0.0512038
0.0577827 0.0445547 -0.051773
0.00208783 -0.00973821 0.0141165
-0.0137047 0.00622342 0.0329932
-0.0183298 -0.00839101 -0.00986732
0.00121089 -0.00514981 -0.00374361
0.00538727 -0.0384382 -0.0377366
0.00473221 -0.00277906 -0.00911436
0.027236 0.0455106 0.0520801
-0.0117906 0.0138923 0.00702221
-0.00702803 -0.0165397 -0.00579657
-0.0189938 0.00870378 -0.0221818
-0.00913081 -0.00499113 0.00877463
-0.0306863 -0.0365386 0.0368951
-0.0221509 -0.0229341 -0.00928994
0.00128261 0.00304177 -0.000282152
0.00793484 -0.0403891 -0.0436606
-0.00582624 0.00394746 0.0165027
0.0274439 -0.0323762 -0.00722527
0.00242321 0.0173948 0.0137439
-0.000114484 0.00513123 -0.0114697
-0.00271229 0.0367867 0.0953201
-0.00351918 -0.00408748 0.0122111
-0.0330085 0.0114218 -0.0337631
0.0289151 0.00637454 0.0165261
0.0 0.0 0.0
0.0155945 0.0865229 0.184474
0.0339187 -0.0217314 -0.00491651
0.0345282 -0.00218751 0.0278648
0.00443094 -0.00343785 0.0138811
0.0 0.0 0.0
0.194825 0.00603431 0.0949786
-0.0219435 -0.0177129 0.0253361
0.00583393 -0.0583498 0.00561394
-0.0266151 -0.0328445 0.0323932
-0.0174453 0.0420018 -0.034091
0.00406344 0.016494 0.052581
-0.0431982 -0.0062708 0.0323068
-0.0127889 0.06561 0.0204809
0.0185648 0.0113732 0.0529641
0.0236123 0.0013818 -0.0235462
-0.000579216 0.00339848 -0.000808714
-0.00772349 0.00357801 0.0255966
0.000922976 -0.00334509 0.000645335
0.02435 -0.0038303 0.00159285
0.0 0.0 0.0
0.0 0.0 0.0
0.00729657 0.00385291 0.0215723
0.0168506 -0.00286077 0.0116245
-0.033653 0.0176428 -0.016309
0.00711067 -0.00181855 -0.000903498
0.0940744 0.111876 0.143954
0.0288391 -0.00518202 -0.00687361
-0.0525453 0.0799949 0.0190481
-0.0390651 0.0147142 0.0295252
-0.000837899 -0.00822357 -0.0134882
-0.0431684 -0.0373755 -0.0508013
-0.0646657 0.0455933 -0.0806362
0.00240651 0.0441759 -0.0101544
0.0107077 0.12008 -0.0645615
-0.0031589 -0.00156224 0.00983611
0.00239819 0.011758 -0.0172289
-0.00648069 -0.00642804 -0.000699573
0.000478436 0.00032723 0.000151316
-0.00155331 0.0135626 -0.00253405
-0.0147771 0.0107586 -0.00403326
0.0218107 -0.00194753 0.02338
0.0416966 -0.0280638 -0.0295955
0.0102638 -0.03455 -0.0405334
0.0509436 0.0623458 0.0674379
-0.0173179 -0.00838785 -0.000197094
0.0 0.0 0.0
-0.00154327 -0.0025548 -0.00641844
-0.0262141 0.0423982 0.0806564
-0.00616231 0.0129722 -0.00845615
-0.215569 0.141008 0.0040262
-0.0134701 0.00457718 0.0488353
-0.000988878 -5.82349e-06 1.05769e-05
0.00230132 -0.0181344 0.000692955
-0.00787089 -0.00643157 0.00175815
-0.0350097 -0.0278711 0.0219869
-0.0237157 -0.0711982 0.0568423
-0.00672779 -0.0281566 0.0618541
0.0543709 0.0228168 0.0139556
-0.001612 0.006651 -0.0110789
0.00415375 -0.00483531 0.0143975
0.0 0.0 0.0
-0.00129045 -0.000911139 0.00695076
0.0125499 0.0192668 0.0677354
0.007064 0.00304561 -0.0383409
-0.000509606 0.00201416 0.00399748
0.00132301 -0.00311978 0.0567057
0.0 0.0 0.0
-0.0171388 0.0317434 -0.062685
-0.0148875 -0.0556098 -0.0254501
0.0599846 0.197907 0.0910921
-0.0178174 0.0164702 -0.00436197
0.0319561 0.0347121 0.0149164
0.0396305 0.022312 -0.104428
-0.0500713 -0.00953436 -0.00578186
-0.0625748 -0.0190018 0.0310967
-0.0221712 0.0231185 0.0133957
0.00898673 0.00874896 -0.0208566
0.0 0.0 0.0
0.0112647 0.0248496 0.0156131
0.0074808 -0.010219 0.01168
0.0261403 0.033929 0.00463794
0.00523754 -0.00398601 -0.00124656
0.0 0.0 0.0
-0.00152845 0.00816168 0.00893343
8.98536e-05 0.00707625 -0.0025035
-0.0582001 0.0144577 0.0313345
0.00793599 -0.0148348 -0.0325232
-0.0206987 0.071214 -0.0315845
0.00702084 0.00764552 0.0746745
-0.0687426 -0.163411 0.145267
0.0193652 0.0759118 0.0367987
0.0280863 0.00104291 0.0277486
0.0 0.0 0.0
0.0033304 0.026072 0.0247145
0.0349166 0.141739 -0.140589
0.00964001 0.00417746 -0.00257628
-0.00252333 0.00218804 0.00262825
0.000594474 0.0210753 -0.0203551
0.0279552 -0.00407902 -0.00913491
0.0107615 0.00282426 0.00223446
2.55492e-05 -0.000238922 0.000636705
0.0639558 0.0286219 -0.0323008
0.0613367 0.0964796 -0.020452
-0.00461986 0.00443815 1.15094e-05
0.0301129 -0.0355989 -0.027829
-0.00834947 -0.00958437 0.0208185
-0.0102647 0.0116672 -0.00718908
0.0 0.0 0.0
-0.031349 0.0650723 0.0844562
0.0765874 -0.0766955 -0.0694956
0.0 0.0 0.0
-0.000575936 0.0153472 0.031698
-0.0075071 0.0419846 0.0231813
-0.0126097 0.0247437 0.0165513
-0.00816665 0.0317664 0.0373152
0.00245496 0.0126821 0.0320044
-0.00958932 -0.124609 -0.0268121
-0.0455012 0.11494 0.0688471
-0.00350652 -0.000342449 -0.000561393
0.0287739 0.0356034 0.0117115
0.00105638 0.00796763 -0.0119832
-0.049447 0.0195135 -0.00376399
-0.0234901 -0.000191484 -0.0188479
-0.0554793 0.102097 -0.0463525
-0.0160578 -0.00772562 0.0035725
-0.0159918 -0.026271 0.00757964
-0.0185491 0.0163432 0.0317603
0.0255915 0.0891485 0.0419487
-0.0862994 -0.230707 -0.0290536
-0.166263 0.100623 0.0703232
0.0409009 0.0310553 0.020456
-0.0400389 -0.132762 -0.141376
0.0830741 0.00265041 -0.0184981
-0.000243679 0.00120353 -0.000625559
0.0428246 0.0263331 -0.0307546
-0.000356697 0.000712902 -0.0011502
0.000243679 -0.00120353 0.000625559
0.0730573 -0.0110072 0.00704183
-0.000715994 -0.00125857 -0.00288732
-0.000767347 0.000175334 -5.24584e-05
0.000306281 0.000164434 0.00069526
0.000767347 -0.000175334 5.24584e-05
0.0269998 0.0156484 0.0845772
-0.0127938 -0.00238561 -0.0019077
-0.0927802 -0.0215312 0.0830983
-0.0020508 0.00336306 0.00273496
0.00482237 0.014309 0.00225742
0.0 0.0 0.0
-0.00834367 0.0235558 0.0010246
0.00913077 0.0113293 -0.00683004
0.00164207 3.14184e-05 -0.000118233
0.0309787 0.00765031 -0.00735214
0.0123403 -0.00458717 -0.0857027
0.00107745 8.81273e-05 -0.000218036
-0.000788635 -0.000418345 0.000153374
0.0 0.0 0.0
6.99101e-05 0.000123146 -0.00559804
VECTORS omega float
-1.92624 0.746352 -0.19205
-1.83294 0.0658895 0.702678
0.772008 1.82838 -4.99108
-2.19135 0.575098 -0.891205
-1.90096 5.94092 -12.2188
2.66057 -1.09964 4.99563
-2.16231 2.73407 -5.96476
0.354602 2.28341 -3.81425
3.02591 -0.898637 -0.667129
11.007 6.64834 21.1463
-2.41454 -4.63162 -7.43052
-8.90719 -5.70401 -16.2746
0.981626 0.801073 7.91927
-6.18257 -1.17433 1.14301
0.328768 -0.188197 -7.00757
-14.4154 -9.10386 0.658964
1.89734 -10.8991 6.3203
2.71274 -2.23362 -0.46083
-0.428863 -1.52521 1.49686
2.9239 2.20337 -2.69263
0.943478 -0.292178 -0.416962
-11.1717 5.91995 -3.60153
0.922843 -2.42089 -1.89756
-6.12412 -1.26168 3.26549
-3.0594 0.305412 0.101204
1.4819 -2.97397 3.73107
-1.50837 2.89869 -2.28245
-0.60116 0.178387 0.83095
0.212111 -0.614406 1.68701
-5.69431 -4.71059 10.8762
2.17153 -0.0362174 1.36084
7.83247 -10.5757 8.23305
0.197593 0.892197 -1.58183
-1.26076 -2.34584 9.94713
-1.94476 2.72387 0.570761
-0.349368 -4.44561 -5.51943
-3.97676 -7.67115 2.14731
0.106142 10.0232 -11.6238
-4.30405 3.8894 1.0923
1.10253 -8.17902 1.95241
0.281943 -2.58719 -1.18185
-6.411 -1.52955 2.29896
-0.629297 -1.3828 -3.08615
-4.95252 -3.10554 -3.09875
-3.34483 -0.548744 0.0887415
1.7853 2.00436 0.435696
-4.64453 -1.20868 -0.294996
-6.37661 3.64384 2.36156
-0.886836 0.184257 -1.36791
-0.440916 -1.00299 0.891554
-8.02879 4.42794 4.41031
-6.02244 -1.19064 0.981801
8.20464 2.31991 6.84669
-0.836483 0.0188416 -0.495104
1.53455 -2.9282 -1.29072
11.041 -5.62028 2.99298
-0.436591 20.1496 -4.16023
1.41262 -8.44476 -25.0325
7.07936 -2.2673 17.0682
-3.80891 -2.04683 -2.79984
-1.53642 4.81415 -0.313018
-5.04159 0.931333 -2.55185
1.42262 -5.81557 -1.00747
2.80495 -4.63656 -3.69247
2.29734 3.08703 1.2853
0.692997 3.67117 -1.10909
0.566595 -0.178191 0.185413
-6.58576 -1.53116 -0.00620449
0.634882 -1.03031 1.26454
4.51837 -7.85413 5.24059
11.0816 -0.0441888 0.0226155
-0.427931 3.14055 -4.45529
9.02709 3.38622 7.4501
-6.96351 1.5048 8.35397
9.25503 -13.2667 -9.75203
0.948277 1.05306 0.197377
-3.82703 11.2882 5.86332
-0.527327 -8.64189 5.80431
3.96349 -4.82838 -0.576914
0.668038 -5.7884 -0.7052
-2.3319 4.6536 0.0866202
-12.3889 1.59782 18.3188
-1.47712 -1.18947 -0.790294
3.67475 -1.53253 -0.365976
29.1413 3.11611 15.115
-0.311602 0.281431 0.00972163
44.2682 8.6712 -9.51397
-1.95946 -5.555 -2.29266
4.21046 10.7483 1.75626
-1.46971 5.56101 0.0443451
10.3458 0.200509 -0.546423
-1.54504 0.134818 -0.749579
5.13213 -1.59059 1.81679
1.72426 0.834116 0.0560545
10.4423 -11.0664 8.60389
-5.22332 -0.203635 -0.0877904
8.82515 4.65415 -5.33189
-6.92451 -1.22857 0.974924
-3.29488 -7.75258 0.296774
1.82203 0.984242 -4.8091
-4.15028 2.81157 -1.54204
2.17803 -3.33919 -0.202642
-2.4729 0.13102 2.12242
-0.26135 2.73525 -0.995761
2.35204 -1.33584 -0.151571
-2.4697 3.7279 -1.76017
0.260888 -0.206574 0.26239
-31.6452 3.46811 1.42708
7.11641 -4.25337 -3.7342
-3.56109 0.321798 -3.97356
-2.73593 -1.0816 14.9405
2.12656 0.825503 -0.524473
15.1963 11.3502 15.726
-2.7084 -0.529961 -3.93148
0.620886 -3.03517 -6.47698
14.2616 3.03927 3.20662
-3.48145 0.460161 2.04753
1.02952 -2.32685 4.87489
1.68109 -3.48169 0.835393
3.42019 -0.498217 -1.06413
1.74093 0.680911 0.843881
3.22865 1.53675 2.92022
0.765149 5.54539 -2.54854
2.40019 0.68236 1.17478
-2.74984 2.62237 -1.12157
-12.404 -11.606 -1.86916
-1.22905 5.99387 6.27496
6.31073 -23.218 -4.11996
10.3652 0.336812 -2.96853
-2.06625 -0.422016 -0.445095
-1.31561 0.426864 -0.484426
0.372035 -1.83849 1.0041
-10.1413 11.9651 3.582
-17.0638 -2.48502 -0.166745
4.03632 -26.0682 -2.25164
-4.56158 -5.86351 -17.577
-6.55244 4.15133 2.3296
-5.22611 -1.04961 0.127542
-0.893306 -9.88041 2.59987
-2.38231 2.53224 11.7185
-0.858294 -2.90852 -1.24733
-2.49385 7.55092 2.22388
0.104462 4.04056 -0.832991
-5.29044 1.26576 -3.25561
-3.10729 -2.01218 2.14134
-8.76247 -2.80905 -3.33822
4.1316 -2.20913 1.32575
2.64304 0.0105841 -2.18101
8.09814 -1.57238 3.4575
-3.34674 10.5391 -6.53026
-5.10223 4.78413 -0.151168
-1.13957 3.47875 0.123878
5.3291 6.52941 -0.889294
5.77121 8.17776 -5.64278
1.16094 -19.3909 -7.00347
1.50465 6.8388 9.84472
-1.95557 -7.47247 16.5452
-13.6551 34.2786 12.4931
2.63252 2.04691 -5.03955
12.5457 1.95114 1.5035
3.05957 2.69124 2.15967
2.74144 0.989648 5.67162
2.88416 1.72026 -0.175125
-3.5188 2.52334 -5.47646
5.13861 3.9451 -5.60811
2.51036 -1.64056 -1.51573
-3.2468 -0.800063 -3.62595
3.80804 0.0456631 -0.647013
1.19759 -6.88154 2.16218
-6.40256 -7.51621 0.755626
-5.49848 -4.12097 -3.28216
7.39707 5.95246 -0.46069
-11.0687 -9.40019 -4.47001
-0.923954 -10.5415 -8.07177
-0.55347 -0.521594 0.860286
-2.62735 -3.5713 3.49045
-1.89974 -2.87166 -0.0645831
0.524641 0.891211 -1.12926
-6.13573 -4.5733 0.995547
0.0 0.0 0.0
3.97097 11.1919 1.34345
-2.09229 0.644642 -2.52933
-4.75597 -5.52875 7.3634
8.37065 -5.39044 0.105949
8.82173 1.69023 -5.20317
2.2612 6.92748 -0.550451
15.9577 -11.8169 -5.15482
-3.18555 -2.42422 0.48567
0.571633 0.239051 0.165474
0.241678 -2.26334 1.69425
1.22508 -0.828305 1.23383
0.00637876 0.12083 -1.0445
-3.81962 1.40961 0.524646
-0.663295 0.849866 -1.28044
-2.10246 0.402743 5.15669
3.62248 -0.639027 1.85768
1.26735 4.83435 -0.665938
-0.255153 -10.9061 -0.194335
0.7749 -1.70301 3.8752
0.619822 0.530088 0.721279
-7.72131 4.3945 2.53686
2.87583 -1.74259 7.08618
-3.38094 -2.59765 -6.14274
-1.18668 -1.06302 -1.04391
25.659 1.13213 5.49245
-2.22587 0.0695229 -0.883219
-0.684621 -5.80217 1.26456
-1.10953 4.72054 -0.460313
-0.67625 -1.64039 1.40548
-8.03205 0.416035 -3.54318
-1.72085 0.48088 1.80479
0.759858 1.48523 -1.99874
1.94949 -4.63844 -0.040207
6.61541 0.841488 -1.76967
-2.99323 -0.284278 -0.967494
-3.33772 -1.90997 -2.7166
-1.833 2.68715 0.813883
4.11097 -0.492245 0.596716
-1.97274 -5.16999 0.547468
-0.172408 3.1069 0.238801
1.02131 1.08744 4.1625
1.07653 0.588639 -1.96242
-3.32872 -4.26937 0.680145
-1.09779 -0.00248296 -2.86335
7.16141 -1.06808 -0.76486
1.29439 1.24804 -6.91723
-11.0204 -2.40741 -3.70963
0.239175 2.51546 0.930319
-3.50888 -2.04917 -2.04677
-1.50565 5.26477 7.64653
1.47181 0.382663 -1.48173
-0.387858 -2.59955 -1.68297
-16.0095 5.28571 1.6701
-1.00175 -3.68561 3.69006
-2.32436 -1.46311 3.38279
3.26633 1.77403 0.062185
0.605461 3.91757 -1.33585
0.223816 0.205916 0.741987
-0.220234 1.27644 -0.0944138
0.158394 -2.21951 2.5207
7.77538 5.54282 -2.49296
1.57428 -1.01764 0.942809
0.0604304 0.498397 2.03085
1.06912 -0.0925826 0.647013
3.03579 -1.69712 2.58476
5.23319 3.04889 -4.07748
0.335401 -0.706355 -0.610114
-1.09237 -1.62625 0.143219
-4.63287 -0.995372 0.530801
1.62541 2.37881 1.50376
-3.11436 -3.45168 3.17362
0.362293 -0.195499 -0.347045
0.34446 0.707107 -1.22579
-1.51531 -1.40245 -0.578291
0.856219 1.32454 -1.83639
1.1102 -1.25061 2.97564
0.159735 2.56313 4.03595
-7.77535 1.72107 3.27757
0.246987 0.968994 0.595744
-1.12361 1.58557 -1.08269
1.21046 -3.26446 0.309182
0.573455 -0.122737 0.576755
-3.14774 -3.00682 1.57696
-0.537167 1.64396 -2.82081
-1.08782 0.508918 -0.866813
-23.8067 6.35642 13.0255
8.20527 3.79915 5.92271
1.44265 7.63307 10.338
-2.07423 -0.253748 6.65508
0.111966 -1.31637 -5.39643
1.67972 -0.315668 -0.300598
4.16705 -0.867067 1.51831
3.31357 5.81552 -1.37946
-6.33433 2.92617 -1.11266
-1.64124 -1.37621 -4.10206
0.906203 -0.844432 0.202969
0.0944215 0.188127 -0.274051
1.29433 3.01463 2.11919
6.46148 -2.33523 0.690983
-0.80395 1.12855 1.7765
-0.405063 -1.37803 -0.618419
0.54188 1.09984 -1.5556
-8.02101 6.66031 -1.44281
0.172524 -1.17003 -0.345649
-6.99311 -3.86539 -11.2946
0.113088 -0.740647 1.38531
-1.57847 0.0338582 0.753498
9.00238 5.19769 7.3599
1.01698 -0.234578 -1.73804
8.90679 -0.995687 2.2411
3.27949 -0.429041 -6.04178
-5.76634 6.28684 6.92931
-4.39478 -4.33608 2.4287
-3.77718 1.35073 0.198647
4.62522 0.471717 -1.38872
-0.155415 0.0578725 0.535165
5.28458 -1.23958 2.58471
-1.14638 -2.81269 -0.716267
1.783 1.41562 0.574953
-0.514032 -0.279857 0.0403787
-0.212919 11.4927 2.14805
-1.052 -4.43083 2.41593
-0.243448 0.374171 0.481232
-2.18174 4.32712 10.4426
0.061113 1.6358 0.0883071
4.2003 -13.454 -1.36265
0.101083 -0.80972 -0.175619
-8.57202 -4.65461 10.3912
-4.61778 4.02062 8.52837
1.02598 -6.58568 -0.447878
-1.39331 0.635825 0.170614
1.43459 0.953049 -9.31338
0.0736996 -0.58888 0.78033
-0.739684 0.818642 -0.495555
-1.02527 1.20737 0.0275324
-2.68449 -0.111254 4.53747
1.50294 1.07853 -2.65026
0.293835 -0.863993 -0.830538
2.11072 0.385559 -2.97874
-2.6272 1.92835 0.0143288
-4.41447 0.530992 -10.0341
0.497693 -2.09464 -0.107949
-3.6876 -3.81974 -5.46796
2.58181 8.88788 2.75656
-1.65141 21.0985 -16.6085
0.934153 1.24653 -0.304266
-0.16141 0.229364 -0.0260122
0.67543 -2.70899 -0.296763
1.18213 3.89479 1.85503
1.20884 0.877355 -0.944488
3.18902 -1.13316 -2.74976
0.0976374 1.78271 1.04223
3.38001 1.05988 2.60736
-6.8241 0.720321 -7.46775
0.672806 -1.27243 -1.02953
0.0 0.0 0.0
-0.491084 0.198223 -0.216027
VECTORS v float
-0.00147727 0.008524 -0.00138369
0.00557841 0.00799533 -0.00190896
0.0270511 -0.0453977 0.00417821
0.000275061 0.0146814 -0.00463664
0.0371919 0.0153104 -0.00441146
-0.00173267 -0.0244184 -0.00804573
0.0490599 -0.0081258 -0.0409339
0.0104316 0.00129198 -0.0103268
0.00424824 -0.0340195 -0.0214722
0.0566297 -0.078154 0.0268818
0.0282783 -0.0193 -0.0270389
0.0252458 -0.104667 0.0363548
0.00517809 -0.00607238 0.00417345
-0.00318333 -0.00701702 -0.00730131
-0.0295256 0.0083774 0.00314598
-0.0167597 -0.00383562 -0.0571498
-0.066983 -0.0111015 -0.00355095
0.00294223 -0.00232215 0.0122666
-0.0144106 0.00147062 0.000143805
0.0308585 -0.0203849 0.0129194
0.00207807 0.00964552 -0.00673045
0.0218394 0.047752 -0.0319804
-0.0125647 0.00320227 -0.00836514
0.0219572 -0.00127604 0.0314948
-0.00454861 -0.000175946 0.00175418
0.0135756 -0.0134919 -0.029353
0.00182516 -0.0304849 -0.0109225
-0.00135379 0.0113353 -0.00509748
-0.00718898 -0.0043335 -0.0080292
-0.0480799 -0.00497043 -0.0482137
0.00192707 -0.0237951 -0.00134595
-0.0389896 0.0175099 -0.0289138
0.00628143 -0.00323092 0.00758942
-0.0380117 -0.0107655 -0.00618263
-0.0168929 -0.0195814 -0.0109686
-0.0498641 0.00449381 0.00180609
-0.0921447 0.0333682 0.00245135
-0.0703303 0.00127302 -0.000821773
-0.048256 0.00147243 -0.0186266
-0.0183855 -0.00320365 0.00916595
0.00458764 -0.00307515 0.00112667
0.00552356 0.0109943 0.0226653
-0.00666431 -0.0130174 0.0374645
0.00419155 0.0017031 -0.00214011
0.00568411 -0.0150091 0.0203441
0.0121298 -0.00865678 0.0142884
0.0131836 -0.0125822 -0.000809266
-0.0111465 0.029215 -0.0251177
-0.0120654 0.00115722 -0.0047849
-0.0131829 0.00123183 -0.0014215
0.0348262 0.0205827 -0.0225978
0.0170052 -0.0263707 -0.058467
-0.0198118 -0.0220248 0.0259179
-0.0160934 0.00641788 -0.0116822
-0.0105473 -0.00665073 0.00218273
-0.00716766 -0.0245639 -0.0208865
-0.0686238 -0.00632754 -0.0172256
0.0337036 -0.0680786 0.0487446
0.0258014 -0.1262 0.0847563
-0.00172598 -0.0182163 0.00819107
-0.0326838 -0.0103355 0.00767871
-0.0236485 0.00745656 0.0353529
-0.0188174 -0.00192821 -0.00992193
-0.026219 -0.00197254 -0.0207314
-0.0018131 -0.00260469 -0.0193363
0.00794989 0.0055401 0.0083129
-0.00172322 -0.00118109 -0.00168914
0.00350515 -0.00681956 0.0108862
-0.0135931 -0.00427179 -0.00258305
0.0581165 -0.0444064 -0.0150485
-0.00409181 -0.00220721 0.00280323
0.013065 -0.0196505 -0.0187372
0.00343491 -0.0487819 0.02377
-0.0297772 -0.0162139 -0.0176894
0.0408966 0.0211649 0.0178806
-0.00359415 0.000947333 -0.0073717
0.0859704 0.000214395 0.0467452
0.00850661 0.0137811 0.0651914
-0.0194724 -0.00156924 0.00519663
-0.0202753 -0.00734068 0.011095
-0.0191347 0.00125445 -0.00850051
0.0597425 -0.0401845 0.0034962
0.00192073 0.00554592 -0.0170186
0.00566847 -0.0023509 0.0372691
0.0870435 -0.162239 -0.0299408
0.00236556 -0.00024207 -0.00510549
-0.00381251 -0.131342 -0.0833875
0.0115099 -0.00784764 0.00593077
0.0503099 -0.000956103 -0.045289
0.0464575 -0.0376188 0.02042
-0.00507807 -0.00911592 0.00312427
0.00909745 0.0115412 -0.0181282
0.0126667 0.00333212 -0.00638223
-0.000300776 -0.00431147 -0.0045723
0.0149327 -0.00346929 -0.0291688
-0.00446084 -0.0100824 0.0177302
-0.00941667 0.0939591 -0.0456702
0.012992 -0.00038649 -0.00745223
0.0118505 0.0211894 0.0768437
-0.043702 0.0118358 -0.0154121
-0.00933355 0.0315876 0.0785074
-0.00591571 0.00125374 -0.0192329
0.0128846 0.00924602 0.0173292
-0.00667991 0.00475823 -0.000997366
-0.00199759 0.000516607 -0.00967821
0.00483624 -0.00721548 0.0428911
-0.00116263 -0.00586828 -0.00447642
0.0654524 -0.105214 -0.0716495
0.0449629 0.0187638 0.00853707
0.0388139 0.00456736 -0.0356676
0.00659737 -0.0195883 -0.00708618
0.00172478 -0.00645191 -0.0127108
0.0106109 0.0140365 -0.0511515
-0.0506673 -0.0133008 -0.0480725
0.010317 -0.0299552 -0.0164456
-0.0152702 0.0291041 0.00837038
-0.00572781 -0.0106338 -0.0204796
0.0101222 -0.0258731 -0.00831643
-0.0273857 -0.019069 -0.0488682
0.0195814 -0.00196835 -0.0119129
-0.0061473 0.0137373 -0.00496671
0.00802736 0.0151323 -0.0659736
-0.00204912 -0.0122936 -0.0114171
-0.000135911 -0.00532937 -0.0180113
-0.0118647 0.00482852 0.0230172
0.00556171 -0.0120255 0.0740404
-0.0348206 0.0322927 -0.0249088
0.026782 0.000559718 0.0397797
0.0399692 0.0050285 0.0299713
-0.00123364 0.00123001 -0.00985719
0.00370214 -0.00358627 -0.0102059
0.00976654 0.00161173 -0.00409594
-0.0136029 -0.022664 0.0760965
0.00417763 0.0300426 0.049215
0.0203973 -0.00783544 -0.0499469
-0.0584079 -0.0301519 -0.101319
0.0127223 0.00148835 0.0238623
0.00538022 -0.00180983 -0.0188781
-0.0758388 0.0102074 -0.0463121
-0.03947 -0.0269848 -0.0289269
-0.0246817 -0.00655112 -0.00844169
-0.00477252 -0.00310963 0.0780898
-0.0107774 -0.0136109 -0.0144
-0.0141496 -0.025544 -0.0140549
0.00812516 -0.0124415 -0.0182634
-0.00829942 -0.0200096 0.00122629
-0.00459038 0.0113407 0.0156451
0.00747728 0.00394277 0.0243997
0.00591006 -0.0111835 0.0246983
0.0216138 -0.000532924 -0.013557
-0.00245791 -0.00114143 0.0320822
0.000802923 -0.0048986 0.00730374
-0.00604829 -0.00372281 -0.0375
0.042049 0.00711609 0.0366159
0.0809128 -0.000600128 0.0832479
0.0177264 -0.0022788 -0.00254899
-0.0189001 0.0160962 -0.0584155
0.0278064 -0.0049494 -0.0342517
0.0315668 0.0140974 0.000908887
0.00703523 0.0108281 6.73714e-05
-0.0213685 -0.0129205 -0.0256659
0.0214422 0.0444274 0.00567984
0.0108696 0.00967475 -0.0329292
-0.0360096 -0.0314428 -0.0174727
0.0160094 -0.0127033 0.015326
0.00140181 -0.0366081 -0.0208318
-0.0041263 -0.0200017 -0.0130951
0.00107454 0.00750629 -0.00226653
0.0224167 -0.00171283 -0.0106921
0.00874183 -0.000546702 0.0431654
0.00401042 0.00602273 0.0420088
0.0256135 -0.0069615 -0.0303553
0.0383958 -0.0471043 0.0352463
0.0483513 0.00859238 -0.00916299
0.0046296 -0.00462188 -0.00182737
-0.00102214 0.00631725 -0.0302559
0.0146167 0.0159519 -0.00328535
0.00726162 -0.00304211 0.002231
-0.0120349 -0.0459936 0.00940762
0.0 0.0 0.0
-0.0450325 -0.00767783 -0.0972752
-0.00259586 -0.0299274 -0.0405581
-0.0366994 -0.0529734 -0.00869363
0.0126028 0.0150211 0.0148379
0.0122378 -0.0154008 0.0275815
-0.0345284 -0.0326843 -0.0328931
-0.0169462 -0.0250656 -0.0413647
-0.00087894 0.00442764 0.0224637
-0.0185148 0.00231594 0.000490724
-0.00276026 -0.0123178 -0.0081117
0.0052146 -0.00593558 -0.0089661
0.00540452 -0.009266 -0.0249822
0.0121138 -0.0256116 -0.036008
-0.000715838 -0.00564218 -0.00187582
0.0133261 -0.0206397 0.0319418
-0.00377395 -0.0155183 0.00729885
0.000112983 0.0091634 -4.76346e-05
-0.000694164 -0.00698309 0.00198188
-0.0211513 0.00113728 0.000802443
-0.00821445 0.00380538 0.00425263
-0.00519023 -0.0747357 -0.0135011
-0.00306961 0.00540466 0.00447121
-0.0124176 0.0335126 -0.0433915
0.0209446 -0.00996277 0.000387164
-0.00840483 0.0370733 -0.00834798
-0.0291748 -0.00939606 0.00778101
-0.0173423 -0.0248543 -0.027362
0.0176388 -0.0117595 0.00941678
0.0147509 -0.00925158 -0.0118776
-0.00724712 -0.0209118 -0.00247842
-0.00925332 -0.021867 -0.00323637
-0.000650476 -0.0163778 -0.00845199
-0.00572132 0.00204614 0.0263604
-0.00626136 -0.0195934 0.0533259
-0.0014175 0.00508093 -0.00363515
-0.00504921 -0.0171131 0.0114798
-0.0136505 0.0103237 0.0060804
0.00337436 -0.00528374 -0.0262911
0.00388637 -0.0177065 0.0132043
-0.00019663 0.00360152 -0.0117192
-0.0118237 0.00118851 0.0243768
-0.00481054 0.00502877 0.00132169
-0.000466043 0.00831839 -0.0207879
-0.0315645 0.00334955 -0.00339702
-0.0104829 0.00698769 0.0205068
-0.0137942 0.00336916 0.0241426
-0.0200573 -0.00452625 0.0598698
-0.019347 0.0105691 0.0231332
-0.0236867 0.00258565 0.00430921
0.0331383 0.00330118 -0.0056633
0.000968609 0.0239593 0.00075129
0.00419063 -0.0107072 0.0165384
0.0114926 0.00337297 0.00801221
-0.00336242 -0.00549355 -0.00804551
-0.00892661 0.00379018 -0.0119205
0.00647074 0.00461182 -0.0299693
-0.0152392 3.38391e-06 -0.00449563
0.00628699 0.000152481 -0.00382525
-0.000984014 0.00174112 0.000763871
0.000146928 0.00709706 -0.00337575
0.0346534 -0.0433336 -0.0927828
-0.0116071 0.00303666 0.00229513
-0.0260677 -0.00701516 0.00265555
0.00449475 -0.0103036 0.00256995
-0.0253721 -0.00540393 0.0246745
-0.0214905 -0.00745155 0.0262966
0.00499663 -0.0187439 0.0244342
-0.00489267 -0.00441686 0.00194831
-0.0157995 0.00579916 0.0069414
-0.0167105 0.00432915 0.000829107
-0.0184076 0.0123233 0.00552303
-0.00129108 0.00273606 -0.00419375
-0.00175804 -0.0106684 -0.000473274
-0.0197495 0.0146996 0.00411082
-0.00719214 -0.00217438 -0.00178572
-0.00124703 -0.00512914 -0.00806173
-0.00399936 0.0204486 -0.0181305
0.0149933 -0.023335 0.0508426
-0.0007907 -0.00157434 0.0050321
0.0148838 -0.00373314 -0.00964763
-0.00711893 -0.00601277 0.002187
0.00462863 1.94668e-05 -0.000518284
0.00360228 0.00320285 -0.0155626
-0.0110269 -0.00308977 0.00477213
0.000689024 -0.00603655 -0.000333685
-0.0452766 -0.033374 0.0114979
-0.0241376 0.0132582 -0.00330094
0.0595699 -0.0235045 0.00441202
-0.0210686 -0.0295899 0.0506914
-0.0222016 -0.0114736 0.0324742
-0.0122716 -0.00216538 -0.00646616
-0.0405981 0.0199256 -0.00989934
0.00738675 -0.0112724 -0.0249866
-0.0150883 0.00047991 -0.00179433
-0.00927251 0.0200705 -0.00343006
-0.0104769 -0.000281447 0.0002168
0.00310482 0.000277648 0.00365665
0.00886459 0.00602909 -0.010928
0.0102704 0.0401558 -0.00706407
-0.0270862 -0.00217002 -0.00357174
0.00474955 -0.00931802 -0.0156835
-0.0149021 -0.00151019 -0.00412436
0.0014871 0.0409479 0.0103062
0.000321876 -0.00489628 0.000994667
-0.0218751 0.0179513 0.0185169
-0.0108694 -0.00361094 0.00144463
0.0020064 -0.0062125 0.00270942
-0.0796405 0.0285479 0.018627
-0.030342 0.0149274 0.016465
0.0503292 0.0313579 0.0342871
-0.01044 -0.0365665 0.00139909
-0.0076472 -0.0145476 0.0117968
-0.0140947 0.00900255 -0.00104246
-0.0171455 0.00338237 0.00298566
-0.0219276 0.012081 0.0137316
-0.00450372 -0.00286972 -0.0016303
-0.0464562 -0.0242934 0.0106143
-0.0209063 0.00382336 -0.00117777
-0.00334716 -0.00375528 0.00922918
0.00278923 0.000122214 0.00388659
-0.0235595 -0.0113083 0.00776781
-0.0335492 0.00745178 -0.0122733
-0.00357739 -0.00205389 0.00072844
-0.0603397 0.0164893 -0.0153449
-0.015113 -0.000674483 0.00387517
-0.0294652 -0.000644375 0.0366814
-0.00588909 -0.000348211 -0.00432304
-0.0696724 -0.0247828 0.0442657
-0.0659866 -0.0683455 -0.0146928
-0.0662255 0.00106043 -0.0119967
-0.0133647 -0.00122726 0.00564463
-0.0659263 -0.0415421 -0.000507319
0.00440961 0.00387872 0.00762319
-0.00877197 -0.00499431 -0.0151993
-0.0132797 0.00120861 0.00484568
-0.00206065 0.008809 -0.00551013
0.00158425 0.00906589 -0.0158799
-0.0133798 0.00763218 0.00127193
-0.0140297 0.0141303 -0.00938682
0.000388017 0.00724577 -0.0162029
-0.0741839 -0.0661052 -0.00426158
-0.00754234 0.00873368 -0.0207907
0.0145533 -0.0303718 -0.00922365
-0.0558506 0.0164616 -0.00349534
-0.179994 -0.0140375 0.284159
-0.00599866 0.00206629 0.00421038
-0.00152185 -0.00182229 0.00200179
-0.0194682 0.0432977 0.0345983
-0.0243561 0.00663291 0.00228938
-0.00737185 0.00540018 0.00747058
-0.00402681 0.0174622 -0.00696527
-0.0136137 0.000922163 0.0031344
-0.0106881 0.0229575 0.0321631
-0.016228 0.0556721 -0.00584951
-0.00676938 -0.00327519 -0.00423242
0.0 0.0 0.0
-0.00132216 -0.00322471 -0.00303388
SCALARS radius float 1
LOOKUP_TABLE default
0.00636637
0.00636637
0.00636637
0.00636637
0.00636637
0.00636637
0.00636637
0.00636637
0.00636637
0.00636637
0.00636637
0.00636637
0.00636637
0.00636637
0.00636637
0.00636637
0.00636637
0.00636637
0.0101862
0.0101862
0.0101862
0.00636637
0.0101862
0.00636637
0.00636637
0.0101862
0.0101862
0.0101862
0.0101862
0.00636637
0.0101862
0.00636637
0.0101862
0.00636637
0.0101862
0.0101862
0.0101862
0.00636637
0.00636637
0.00636637
0.00636637
0.00636637
0.00636637
0.00636637
0.0101862
0.0101862
0.00636637
0.00636637
0.0101862
0.00636637
0.0101862
0.00636637
0.00636637
0.0101862
0.00636637
0.00636637
0.0101862
0.00636637
0.00636637
0.00636637
0.0101862
0.00636637
0.00636637
0.00636637
0.00636637
0.0101862
0.0101862
0.0101862
0.0101862
0.00636637
0.00636637
0.0101862
0.00636637
0.00636637
0.00636637
0.0101862
0.00636637
0.00636637
0.00636637
0.00636637
0.0101862
0.00636637
0.0101862
0.0101862
0.00636637
0.0101862
0.00636637
0.00636637
0.00636637
0.00636637
0.00636637
0.0101862
0.00636637
0.0101862
0.00636637
0.0101862
0.00636637
0.00636637
0.00636637
0.0101862
0.00636637
0.0101862
0.00636637
0.00636637
0.00636637
0.00636637
0.00636637
0.0101862
0.00636637
0.0101862
0.00636637
0.0101862
0.00636637
0.0101862
0.00636637
0.00636637
0.0101862
0.0101862
0.00636637
0.0101862
0.0101862
0.00636637
0.0101862
0.0101862
0.0101862
0.00636637
0.00636637
0.00636637
0.00636637
0.00636637
0.0101862
0.00636637
0.00636637
0.00636637
0.00636637
0.0101862
0.0101862
0.0101862
0.00636637
0.00636637
0.0101862
0.00636637
0.00636637
0.00636637
0.0101862
0.00636637
0.00636637
0.0101862
0.00636637
0.00636637
0.00636637
0.00636637
0.00636637
0.00636637
0.00636637
0.0101862
0.00636637
0.00636637
0.00636637
0.00636637
0.0101862
0.00636637
0.0101862
0.00636637
0.00636637
0.00636637
0.00636637
0.0101862
0.0101862
0.00636637
0.00636637
0.00636637
0.00636637
0.00636637
0.00636637
0.0101862
0.00636637
0.0101862
0.00636637
0.00636637
0.00636637
0.00636637
0.00636637
0.00636637
0.00636637
0.0101862
0.00636637
0.0101862
0.0101862
0.0101862
0.0101862
0.0101862
0.0101862
0.0101862
0.0101862
0.00636637
0.00636637
0.00636637
0.00636637
0.00636637
0.00636637
0.00636637
0.00636637
0.0101862
0.00636637
0.0101862
0.00636637
0.0101862
0.0101862
0.00636637
0.0101862
0.0101862
0.00636637
0.0101862
0.00636637
0.00636637
0.00636637
0.00636637
0.00636637
0.00636637
0.00636637
0.0101862
0.0101862
0.0101862
0.00636637
0.00636637
0.00636637
0.0101862
0.00636637
0.0101862
0.0101862
0.00636637
0.00636637
0.00636637
0.0101862
0.0101862
0.0101862
0.0101862
0.00636637
0.00636637
0.00636637
0.00636637
0.0101862
0.0101862
0.00636637
0.00636637
0.00636637
0.0101862
0.0101862
0.0101862
0.00636637
0.0101862
0.0101862
0.0101862
0.0101862
0.00636637
0.00636637
0.00636637
0.00636637
0.00636637
0.00636637
0.00636637
0.00636637
0.00636637
0.00636637
0.00636637
0.00636637
0.00636637
0.00636637
0.0101862
0.0101862
0.00636637
0.00636637
0.00636637
0.0101862
0.0101862
0.00636637
0.00636637
0.0101862
0.00636637
0.00636637
0.0101862
0.00636637
0.00636637
0.0101862
0.0101862
0.00636637
0.00636637
0.0101862
0.0101862
0.00636637
0.00636637
0.00636637
0.00636637
0.00636637
0.0101862
0.0101862
0.0101862
0.00636637
0.0101862
0.00636637
0.0101862
0.0101862
0.0101862
0.0101862
0.00636637
0.0101862
0.00636637
0.0101862
0.0101862
0.0101862
0.0101862
0.0101862
0.0101862
0.0101862
0.00636637
0.00636637
0.0101862
0.00636637
0.00636637
0.00636637
0.00636637
0.00636637
0.00636637
0.00636637
0.00636637
0.00636637
0.00636637
0.00636637
0.00636637
0.00636637
0.00636637
0.00636637
0.00636637
0.00636637
0.00636637
0.00636637
SCALARS type float 1
LOOKUP_TABLE default
1.0
1.0
1.0
1.0
1.0
1.0
1.0
1.0
1.0
1.0
1.0
1.0
1.0
1.0
1.0
1.0
1.0
1.0
1.0
1.0
1.0
1.0
1.0
1.0
1.0
1.0
1.0
1.0
1.0
1.0
1.0
1.0
1.0
1.0
1.0
1.0
1.0
1.0
1.0
1.0
1.0
1.0
1.0
1.0
1.0
1.0
1.0
1.0
1.0
1.0
1.0
1.0
1.0
1.0
1.0
1.0
1.0
1.0
1.0
1.0
1.0
1.0
1.0
1.0
1.0
1.0
1.0
1.0
1.0
1.0
1.0
1.0
1.0
1.0
1.0
1.0
1.0
1.0
1.0
1.0
1.0
1.0
1.0
1.0
1.0
1.0
1.0
1.0
1.0
1.0
1.0
1.0
1.0
1.0
1.0
1.0
1.0
1.0
1.0
1.0
1.0
1.0
1.0
1.0
1.0
1.0
1.0
1.0
1.0
1.0
1.0
1.0
1.0
1.0
1.0
1.0
1.0
1.0
1.0
1.0
1.0
1.0
1.0
1.0
1.0
1.0
1.0
1.0
1.0
1.0
1.0
1.0
1.0
1.0
1.0
1.0
1.0
1.0
1.0
1.0
1.0
1.0
1.0
1.0
1.0
1.0
1.0
1.0
1.0
1.0
1.0
1.0
1.0
1.0
1.0
1.0
1.0
1.0
1.0
1.0
1.0
1.0
1.0
1.0
1.0
1.0
1.0
1.0
1.0
1.0
1.0
1.0
1.0
1.0
1.0
1.0
1.0
1.0
1.0
1.0
1.0
1.0
1.0
1.0
1.0
1.0
1.0
1.0
1.0
1.0
1.0
1.0
1.0
1.0
1.0
1.0
1.0
1.0
1.0
1.0
1.0
1.0
1.0
1.0
1.0
1.0
1.0
1.0
1.0
1.0
1.0
1.0
1.0
1.0
1.0
1.0
1.0
1.0
1.0
1.0
1.0
1.0
1.0
1.0
1.0
1.0
1.0
1.0
1.0
1.0
1.0
1.0
1.0
1.0
1.0
1.0
1.0
1.0
1.0
1.0
1.0
1.0
1.0
1.0
1.0
1.0
1.0
1.0
1.0
1.0
1.0
1.0
1.0
1.0
1.0
1.0
1.0
1.0
1.0
1.0
1.0
1.0
1.0
1.0
1.0
1.0
1.0
1.0
1.0
1.0
1.0
1.0
1.0
1.0
1.0
1.0
1.0
1.0
1.0
1.0
1.0
1.0
1.0
1.0
1.0
1.0
1.0
1.0
1.0
1.0
1.0
1.0
1.0
1.0
1.0
1.0
1.0
1.0
1.0
1.0
1.0
1.0
1.0
1.0
1.0
1.0
1.0
1.0
1.0
1.0
1.0
1.0
1.0
1.0
1.0
1.0
1.0
1.0
1.0
1.0
1.0
1.0
1.0
1.0
1.0
1.0
1.0
1.0
1.0
1.0
1.0
1.0
1.0
1.0
1.0
1.0
1.0
SCALARS id float 1
LOOKUP_TABLE default
138.0
141.0
297.0
304.0
293.0
325.0
285.0
241.0
183.0
126.0
171.0
180.0
207.0
240.0
140.0
291.0
197.0
258.0
50.0
92.0
60.0
154.0
98.0
188.0
298.0
88.0
80.0
106.0
10.0
277.0
41.0
213.0
23.0
327.0
58.0
32.0
6.0
174.0
158.0
128.0
264.0
234.0
263.0
331.0
48.0
37.0
329.0
328.0
121.0
172.0
84.0
164.0
200.0
9.0
305.0
274.0
40.0
186.0
149.0
135.0
102.0
143.0
198.0
173.0
246.0
89.0
119.0
122.0
38.0
321.0
260.0
64.0
169.0
193.0
288.0
47.0
184.0
257.0
205.0
232.0
34.0
229.0
94.0
61.0
137.0
70.0
227.0
225.0
199.0
195.0
130.0
62.0
259.0
79.0
127.0
81.0
265.0
275.0
273.0
12.0
192.0
72.0
230.0
247.0
163.0
295.0
278.0
44.0
159.0
85.0
314.0
73.0
153.0
100.0
322.0
216.0
2.0
35.0
239.0
30.0
99.0
301.0
103.0
66.0
13.0
142.0
253.0
252.0
160.0
222.0
17.0
238.0
203.0
292.0
212.0
75.0
49.0
22.0
228.0
147.0
55.0
249.0
319.0
156.0
107.0
245.0
308.0
105.0
201.0
217.0
276.0
248.0
296.0
144.0
233.0
8.0
294.0
152.0
133.0
250.0
31.0
175.0
33.0
269.0
317.0
267.0
204.0
19.0
97.0
157.0
236.0
324.0
155.0
306.0
151.0
93.0
165.0
18.0
290.0
145.0
182.0
220.0
333.0
261.0
146.0
77.0
208.0
45.0
82.0
4.0
118.0
117.0
69.0
26.0
24.0
237.0
336.0
326.0
132.0
210.0
181.0
310.0
206.0
5.0
286.0
65.0
280.0
101.0
108.0
161.0
111.0
115.0
242.0
95.0
166.0
221.0
224.0
302.0
231.0
307.0
185.0
39.0
29.0
46.0
167.0
282.0
189.0
68.0
272.0
28.0
25.0
179.0
134.0
337.0
3.0
74.0
20.0
42.0
177.0
303.0
124.0
202.0
51.0
114.0
251.0
300.0
148.0
14.0
112.0
91.0
194.0
116.0
83.0
104.0
53.0
309.0
136.0
279.0
235.0
176.0
281.0
196.0
330.0
335.0
215.0
218.0
311.0
131.0
271.0
21.0
27.0
191.0
315.0
255.0
52.0
7.0
223.0
190.0
56.0
123.0
316.0
76.0
139.0
332.0
96.0
71.0
318.0
170.0
43.0
63.0
270.0
268.0
262.0
168.0
214.0
78.0
59.0
113.0
334.0
86.0
162.0
120.0
109.0
87.0
67.0
219.0
54.0
209.0
57.0
16.0
110.0
90.0
11.0
36.0
1.0
312.0
226.0
15.0
256.0
211.0
323.0
284.0
178.0
320.0
125.0
254.0
289.0
243.0
266.0
187.0
299.0
129.0
150.0
283.0
287.0
313.0
244.0

