# vtk DataFile Version 2.0
Generated by lpp.py
ASCII
DATASET POLYDATA
POINTS 337 float
-0.0275111 -0.0407625 0.00884415
-0.0135145 -0.0389568 0.00552864
-0.0203622 -0.0270926 0.00699015
0.00461563 -0.029992 0.00760921
0.0398506 -0.0305555 0.00586926
-0.0112487 -0.0168052 0.00561628
0.0327728 -0.0178192 0.00683314
0.0162128 -0.0106887 0.00706151
-0.0172682 -0.00160998 0.00884252
0.00509271 -0.00225021 0.00751417
-0.0326047 0.0126468 0.00663443
0.0430248 0.0182279 0.0091041
-0.00808455 0.0229045 0.00911745
0.0155499 0.0310435 0.00887036
0.0086496 0.0396359 0.00796394
0.010386 -0.0423478 0.0159318
0.0267567 -0.0343672 0.013948
-0.00540957 -0.024451 0.0162954
0.0123844 -0.0261266 0.0144658
-0.032922 -0.0226939 0.0157165
-0.0188978 -0.0196833 0.0151182
0.0385536 -0.0200892 0.0159843
-0.0387954 -0.00617001 0.0134275
0.0279518 -0.00785325 0.0160006
0.0180484 0.00254001 0.015149
-0.0244774 0.00836454 0.0162774
-0.0125003 0.0115669 0.0120165
0.030536 0.00941882 0.0132642
-0.0438616 0.0185434 0.0125122
-0.0165625 0.0209242 0.0162619
0.0104082 0.0185414 0.0137634
0.0287528 0.0270086 0.0128726
-0.031198 0.0407306 0.0126964
-0.0145369 0.0350087 0.014279
0.00677264 0.0320437 0.0171166
0.0405807 0.0399096 0.0147474
-0.00329193 0.0436014 0.0167972
0.0164427 0.0423441 0.0153325
-0.000965429 -0.0442074 0.0205766
0.0310747 -0.0428118 0.0247532
-0.0423937 -0.0359701 0.0231195
-0.0187529 -0.0392908 0.0241398
0.0036302 -0.034216 0.0217372
0.0388895 -0.0308498 0.0263309
-0.044179 -0.0166314 0.0222759
0.003969 -0.0213234 0.026689
0.0182992 -0.0209626 0.0272212
0.0321439 -0.0173419 0.0259459
-0.0143939 -0.0106284 0.0233989
0.00182488 -0.00871018 0.0199343
0.0395377 -0.00926954 0.0243947
-0.0377405 0.0130897 0.0218937
-0.0101594 0.00565589 0.0263968
0.00362977 0.00562056 0.0221568
0.0427503 0.00503166 0.0256114
0.0159347 0.0210815 0.0272855
0.0404903 0.0208285 0.0218043
-0.0296999 0.0249262 0.0205048
0.0353479 0.0409219 0.0261522
0.0254646 0.0431215 0.0216936
-0.0371919 -0.0382735 0.0363198
-0.0158786 -0.0230394 0.0304972
-0.000724753 -0.0311582 0.0360465
0.0279125 -0.0299037 0.0355764
-0.0411688 -0.0210496 0.0356172
-0.044214 -0.00496395 0.0312857
-0.0294962 -0.0086287 0.0282776
-0.000117709 -0.00782548 0.0374942
0.016356 0.00171679 0.0294047
0.035527 0.00305069 0.0343188
-0.0357104 0.00887291 0.0359057
-0.0217757 0.0110944 0.0331568
-0.0113831 0.0178167 0.0339647
0.00286464 0.0175004 0.0320866
0.0276205 0.0182763 0.0297583
-0.0434904 0.0285187 0.0285266
-0.0359818 0.0324534 0.0356284
-0.00969377 0.0345578 0.037475
0.00359579 0.0351726 0.0320242
0.0194164 0.0321812 0.0284512
0.0408516 0.0320613 0.036046
-0.0423548 0.0422544 0.028933
-0.0238544 0.0411583 0.0287852
-0.00817251 0.0444714 0.0299486
0.00560687 -0.0422719 0.0458202
-0.0165192 -0.0386639 0.0389513
0.0170737 -0.0391304 0.0377372
0.038742 -0.0404413 0.0458442
-0.0273989 -0.0244197 0.0389873
0.0374196 -0.0271557 0.0405123
0.0114266 -0.016179 0.0393954
0.0430732 -0.0148437 0.0425239
-0.0383171 -0.00953668 0.0437372
0.0260986 -0.00988118 0.0385633
-0.0181566 -0.00133481 0.0426644
0.044464 -0.00389075 0.0418174
0.0115935 0.00620098 0.0422112
0.0236872 0.010405 0.0392852
-0.0197259 0.0202278 0.0454199
0.0380842 0.0188209 0.0408968
-0.0326955 0.022731 0.0397489
-0.0440242 0.0378618 0.0409593
0.0175481 0.0408508 0.0412964
-0.0270021 0.0417859 0.0427989
0.0318512 0.0419048 0.0422905
0.0424662 0.0436994 0.0456598
-0.043669 -0.0444714 0.0503077
0.00155896 -0.0414823 0.0560954
-0.0436981 -0.0331715 0.0548493
0.017258 -0.0399191 0.0554094
-0.0230087 -0.0281088 0.0521693
-0.00256619 -0.0299349 0.0511422
-0.0104017 -0.022041 0.0488618
0.00311648 -0.021272 0.047029
0.0205436 -0.0226252 0.0522992
-0.0299181 -0.00613052 0.050362
0.00280454 -0.00987673 0.0514155
0.0423925 -0.00881857 0.0544295
0.0151511 -0.00393434 0.0557658
0.033656 0.00189116 0.0493683
-0.00140764 0.0113628 0.0524951
0.0151728 0.00994552 0.0519977
0.0393022 0.0148033 0.0521704
0.0141058 0.0240513 0.0546537
0.0313902 0.0268056 0.0520778
0.00165551 0.0372492 0.0494841
0.0440354 0.0405791 0.0561533
-0.0439126 -0.0397636 0.064903
-0.0332742 -0.0401625 0.0580686
-0.0194451 -0.0408735 0.0615173
-0.00921027 -0.0394479 0.0575776
0.0316082 -0.034872 0.0570144
0.0444493 -0.0380003 0.0588115
-0.011128 -0.0282328 0.0617098
0.0411577 -0.0236693 0.0590433
-0.0320252 -0.0168558 0.062416
0.00686704 -0.0182165 0.0626167
-0.0107038 -0.00975519 0.0563223
-0.000259811 -0.00170802 0.0620536
0.040037 0.00224856 0.0622716
-0.0290982 0.00473761 0.0597371
-0.0411577 0.0175597 0.0567905
-0.0193091 0.0202594 0.0597883
-0.00983128 0.0157602 0.0632837
0.0444433 0.0182145 0.061337
-1.30615e-05 0.0251815 0.0571157
-0.0408648 0.0333956 0.0624537
-0.0245273 0.0335842 0.0584074
-0.00681066 0.0331703 0.0641183
0.0158416 0.0373604 0.063413
-0.00227622 0.0435945 0.0651894
0.0290737 0.0419165 0.0609216
-0.0165971 -0.0423813 0.0720976
0.0290687 -0.0411577 0.072393
-0.0303884 -0.0320161 0.0709507
-0.00273322 -0.037306 0.072277
0.0174572 -0.0322857 0.0693336
-0.0422817 -0.0286668 0.07142
-0.0217752 -0.0252711 0.0687223
-0.0135077 -0.0180852 0.0702464
0.0150639 -0.00926719 0.0703244
0.0295051 -0.00787198 0.0684584
-0.0180951 -0.00444433 0.0714884
0.00884598 -0.000374183 0.0681866
0.00316524 0.00778583 0.0730331
-0.0305183 0.0182805 0.0664322
0.00232751 0.0192096 0.0717573
0.0276176 0.0181128 0.0670147
-0.00771095 0.0240386 0.0712928
0.0389214 0.0328039 0.0671111
-0.0422298 0.0442849 0.0692929
-0.0182993 0.0432912 0.0678726
0.00813574 0.042861 0.0691291
0.00909933 -0.0444818 0.0838913
0.0444735 -0.0444735 0.0799043
-0.0322159 -0.0393469 0.0831816
0.013739 -0.035519 0.0792348
-0.0079846 -0.0277802 0.0834445
0.0118744 -0.024056 0.0771927
0.0423972 -0.0302254 0.0778629
-0.0434679 -0.016288 0.0842052
-0.0191609 -0.0203056 0.0794889
-0.00929471 -0.016624 0.0830179
-0.000455272 -0.0218103 0.0773924
-0.037586 -0.00928276 0.0776728
0.00240716 -0.00838366 0.08166
0.0192605 -0.0134438 0.0834767
0.0397208 -0.013286 0.077117
-0.0369237 0.00141914 0.0749782
0.0168558 0.00389506 0.0809235
-0.0130884 0.013123 0.0789487
0.039368 0.00959111 0.0810727
-0.0399793 0.0149982 0.0785737
-0.0117387 0.0317963 0.0842791
0.00699032 0.0293479 0.0808211
0.0289596 0.0240201 0.0837968
-0.0343376 0.0322822 0.0752145
0.0444714 0.0331352 0.0803689
-0.0242168 0.0417201 0.0791099
0.0229449 0.0411577 0.0753212
0.0374928 0.04184 0.0819333
-0.042775 -0.0444711 0.0914843
-0.019163 -0.0444778 0.0863221
-0.00019886 -0.0422318 0.0897616
0.0390096 -0.0409949 0.0888684
0.0129883 -0.0364485 0.0903919
0.00583343 -0.0240018 0.0902896
0.0292764 -0.0254392 0.0917672
-0.03377 -0.0204074 0.087566
-0.0231153 0.000339705 0.0891331
-0.00434948 -0.00171879 0.0934608
0.0391635 -0.00443691 0.0933901
-0.0377679 0.00503536 0.0887005
0.00223745 0.0112955 0.0875925
-0.0395235 0.0192471 0.0922939
-0.0261055 0.0218759 0.0871268
0.0440504 0.0158503 0.093139
-0.0419981 0.0302533 0.0930669
-0.0444716 0.0371212 0.0847591
-0.0302087 0.0434467 0.0882439
0.00185358 0.0437979 0.0918735
0.0125341 0.0410081 0.091204
-0.0140424 -0.034098 0.0948498
0.0073759 -0.033247 0.10168
0.0210725 -0.0407484 0.101474
-0.0389974 -0.0292492 0.100207
-0.0296347 -0.0184883 0.0976423
-0.0103497 -0.0157578 0.0994657
0.0199524 -0.0161656 0.0975759
0.019035 0.00285803 0.101314
-0.0411583 0.00974604 0.102944
-0.0121916 0.0096391 0.102552
-0.0110734 0.022538 0.0963029
0.0319776 0.0171948 0.10083
-0.0314915 0.0230867 0.102813
0.000421782 0.0233681 0.0983435
0.0145586 0.025444 0.0967552
-0.0172526 0.0380033 0.0998997
0.0290377 0.0372473 0.0980004
-0.0430765 0.04106 0.0951584
-0.0425552 -0.041753 0.106345
0.00599179 -0.0437219 0.112133
-0.0284365 -0.0395869 0.109198
-0.00490366 -0.03459 0.10999
0.0383827 -0.0367276 0.107724
-0.0299514 -0.0255912 0.110765
-0.0217686 -0.0234287 0.103645
0.0223642 -0.0248157 0.109101
0.0049699 -0.0204988 0.104267
0.0355953 -0.0187218 0.106863
-0.0398957 -0.0082204 0.107935
0.0105645 -0.00914245 0.111172
-0.0273912 -0.00177808 0.103322
0.0396432 0.00247188 0.109668
0.00631294 0.0154727 0.108815
0.0206447 0.0163179 0.109637
-0.0405467 0.0314702 0.104201
-0.00833694 0.0276439 0.112177
0.0440458 0.0296449 0.112077
-0.0292713 0.0376047 0.107898
0.00422446 0.0374795 0.104565
-0.0399816 0.0430999 0.105578
0.0161773 0.0444934 0.108291
0.0276062 -0.0435464 0.114361
0.0363928 -0.0444715 0.121013
-0.0219814 -0.0336713 0.115955
0.00514119 -0.036788 0.121048
0.0443776 -0.0368255 0.121316
-0.00799813 -0.0245832 0.120614
-0.0133117 -0.0169248 0.113484
0.00248785 -0.0227699 0.115163
-0.0241394 -0.00780007 0.115965
-0.00291505 -0.0131759 0.114126
0.0264576 -0.00572011 0.118149
-0.0350315 0.00146404 0.117453
-0.00566644 0.00145414 0.117115
0.0164524 0.0046481 0.117699
-0.0334977 0.0172566 0.117337
-0.0149834 0.0141398 0.121461
0.0436911 0.0168576 0.112701
-0.0243276 0.028328 0.117223
0.0246345 0.0245508 0.115853
0.0376163 0.030378 0.121729
0.0357828 0.0369357 0.113015
-0.00161593 0.0409847 0.118737
0.0233332 0.0411481 0.120294
-0.0233321 -0.0417958 0.13089
-0.0350744 -0.0382255 0.123089
0.0197972 -0.0363566 0.124056
0.00307786 -0.0256642 0.129921
-0.0375443 -0.0207237 0.123812
-0.0066925 -0.0143025 0.125624
0.0265179 -0.0198063 0.122724
-0.0376888 -0.00785091 0.130211
-0.0161418 -0.00765939 0.127937
0.0112684 -0.0127664 0.126523
0.0411551 -0.00945276 0.127266
0.00813509 4.32759e-05 0.127859
0.0301581 0.0105639 0.124084
0.00214288 0.0197795 0.126773
0.042074 0.0172911 0.130154
-0.0352508 0.0390452 0.123829
0.00753441 0.0363114 0.130023
-0.0049623 -0.0411357 0.132866
0.0357542 -0.0411572 0.140789
-0.0200007 -0.0270929 0.134239
0.0223021 -0.0236319 0.136087
0.0391233 -0.0265232 0.131437
-0.0406748 -0.0210482 0.138434
-0.0298416 -0.0155237 0.13478
-0.00548874 -0.0159007 0.136501
-0.0217533 -0.004272 0.140731
-0.00567875 0.00153324 0.13149
0.019628 0.00282255 0.136001
0.039454 0.0033345 0.139293
-0.0316479 0.00913234 0.132942
-0.0411577 0.0236784 0.136245
-0.0171169 0.0253319 0.136811
0.0219871 0.0270358 0.134268
0.0380134 0.0270276 0.133474
-0.0219111 0.0382951 0.132856
-0.00451224 0.0322196 0.137414
0.0364278 0.0379497 0.134185
0.00479264 -0.0413775 0.143425
-0.0313541 -0.0326806 0.141062
0.018716 -0.0407483 0.140783
-0.00118819 -0.0308049 0.142654
0.0223294 -0.00957069 0.143033
0.0418392 -0.00813087 0.141625
-0.000849836 0.0168053 0.144333
0.0187551 0.0164007 0.143662
0.0427928 0.0188044 0.142336
0.00824837 0.0303175 0.144275
-0.0408612 0.03576 0.144032
-0.0287296 0.0419911 0.141284
0.0244268 0.0420447 0.142516
0.0415752 0.0427844 0.142696
VERTICES 337 674
1 0
1 1
1 2
1 3
1 4
1 5
1 6
1 7
1 8
1 9
1 10
1 11
1 12
1 13
1 14
1 15
1 16
1 17
1 18
1 19
1 20
1 21
1 22
1 23
1 24
1 25
1 26
1 27
1 28
1 29
1 30
1 31
1 32
1 33
1 34
1 35
1 36
1 37
1 38
1 39
1 40
1 41
1 42
1 43
1 44
1 45
1 46
1 47
1 48
1 49
1 50
1 51
1 52
1 53
1 54
1 55
1 56
1 57
1 58
1 59
1 60
1 61
1 62
1 63
1 64
1 65
1 66
1 67
1 68
1 69
1 70
1 71
1 72
1 73
1 74
1 75
1 76
1 77
1 78
1 79
1 80
1 81
1 82
1 83
1 84
1 85
1 86
1 87
1 88
1 89
1 90
1 91
1 92
1 93
1 94
1 95
1 96
1 97
1 98
1 99
1 100
1 101
1 102
1 103
1 104
1 105
1 106
1 107
1 108
1 109
1 110
1 111
1 112
1 113
1 114
1 115
1 116
1 117
1 118
1 119
1 120
1 121
1 122
1 123
1 124
1 125
1 126
1 127
1 128
1 129
1 130
1 131
1 132
1 133
1 134
1 135
1 136
1 137
1 138
1 139
1 140
1 141
1 142
1 143
1 144
1 145
1 146
1 147
1 148
1 149
1 150
1 151
1 152
1 153
1 154
1 155
1 156
1 157
1 158
1 159
1 160
1 161
1 162
1 163
1 164
1 165
1 166
1 167
1 168
1 169
1 170
1 171
1 172
1 173
1 174
1 175
1 176
1 177
1 178
1 179
1 180
1 181
1 182
1 183
1 184
1 185
1 186
1 187
1 188
1 189
1 190
1 191
1 192
1 193
1 194
1 195
1 196
1 197
1 198
1 199
1 200
1 201
1 202
1 203
1 204
1 205
1 206
1 207
1 208
1 209
1 210
1 211
1 212
1 213
1 214
1 215
1 216
1 217
1 218
1 219
1 220
1 221
1 222
1 223
1 224
1 225
1 226
1 227
1 228
1 229
1 230
1 231
1 232
1 233
1 234
1 235
1 236
1 237
1 238
1 239
1 240
1 241
1 242
1 243
1 244
1 245
1 246
1 247
1 248
1 249
1 250
1 251
1 252
1 253
1 254
1 255
1 256
1 257
1 258
1 259
1 260
1 261
1 262
1 263
1 264
1 265
1 266
1 267
1 268
1 269
1 270
1 271
1 272
1 273
1 274
1 275
1 276
1 277
1 278
1 279
1 280
1 281
1 282
1 283
1 284
1 285
1 286
1 287
1 288
1 289
1 290
1 291
1 292
1 293
1 294
1 295
1 296
1 297
1 298
1 299
1 300
1 301
1 302
1 303
1 304
1 305
1 306
1 307
1 308
1 309
1 310
1 311
1 312
1 313
1 314
1 315
1 316
1 317
1 318
1 319
1 320
1 321
1 322
1 323
1 324
1 325
1 326
1 327
1 328
1 329
1 330
1 331
1 332
1 333
1 334
1 335
1 336
POINT_DATA 337
VECTORS i float
0.0 0.0 0.0
0.0 0.0 0.0
0.0 0.0 0.0
0.0 0.0 0.0
0.0 0.0 0.0
0.0 0.0 0.0
0.0 0.0 0.0
0.0 0.0 0.0
0.0 0.0 0.0
0.0 0.0 0.0
0.0 0.0 0.0
0.0 0.0 0.0
0.0 0.0 0.0
0.0 0.0 0.0
0.0 0.0 0.0
0.0 0.0 0.0
0.0 0.0 0.0
0.0 0.0 0.0
0.0 0.0 0.0
0.0 0.0 0.0
0.0 0.0 0.0
0.0 0.0 0.0
0.0 0.0 0.0
0.0 0.0 0.0
0.0 0.0 0.0
0.0 0.0 0.0
0.0 0.0 0.0
0.0 0.0 0.0
0.0 0.0 0.0
0.0 0.0 0.0
0.0 0.0 0.0
0.0 0.0 0.0
0.0 0.0 0.0
0.0 0.0 0.0
0.0 0.0 0.0
0.0 0.0 0.0
0.0 0.0 0.0
0.0 0.0 0.0
0.0 0.0 0.0
0.0 0.0 0.0
0.0 0.0 0.0
0.0 0.0 0.0
0.0 0.0 0.0
0.0 0.0 0.0
0.0 0.0 0.0
0.0 0.0 0.0
0.0 0.0 0.0
0.0 0.0 0.0
0.0 0.0 0.0
0.0 0.0 0.0
0.0 0.0 0.0
0.0 0.0 0.0
0.0 0.0 0.0
0.0 0.0 0.0
0.0 0.0 0.0
0.0 0.0 0.0
0.0 0.0 0.0
0.0 0.0 0.0
0.0 0.0 0.0
0.0 0.0 0.0
0.0 0.0 0.0
0.0 0.0 0.0
0.0 0.0 0.0
0.0 0.0 0.0
0.0 0.0 0.0
0.0 0.0 0.0
0.0 0.0 0.0
0.0 0.0 0.0
0.0 0.0 0.0
0.0 0.0 0.0
0.0 0.0 0.0
0.0 0.0 0.0
0.0 0.0 0.0
0.0 0.0 0.0
0.0 0.0 0.0
0.0 0.0 0.0
0.0 0.0 0.0
0.0 0.0 0.0
0.0 0.0 0.0
0.0 0.0 0.0
0.0 0.0 0.0
0.0 0.0 0.0
0.0 0.0 0.0
0.0 0.0 0.0
0.0 0.0 0.0
0.0 0.0 0.0
0.0 0.0 0.0
0.0 0.0 0.0
0.0 0.0 0.0
0.0 0.0 0.0
0.0 0.0 0.0
0.0 0.0 0.0
0.0 0.0 0.0
0.0 0.0 0.0
0.0 0.0 0.0
0.0 0.0 0.0
0.0 0.0 0.0
0.0 0.0 0.0
0.0 0.0 0.0
0.0 0.0 0.0
0.0 0.0 0.0
0.0 0.0 0.0
0.0 0.0 0.0
0.0 0.0 0.0
0.0 0.0 0.0
0.0 0.0 0.0
0.0 0.0 0.0
0.0 0.0 0.0
0.0 0.0 0.0
0.0 0.0 0.0
0.0 0.0 0.0
0.0 0.0 0.0
0.0 0.0 0.0
0.0 0.0 0.0
0.0 0.0 0.0
0.0 0.0 0.0
0.0 0.0 0.0
0.0 0.0 0.0
0.0 0.0 0.0
0.0 0.0 0.0
0.0 0.0 0.0
0.0 0.0 0.0
0.0 0.0 0.0
0.0 0.0 0.0
0.0 0.0 0.0
0.0 0.0 0.0
0.0 0.0 0.0
0.0 0.0 0.0
0.0 0.0 0.0
0.0 0.0 0.0
0.0 0.0 0.0
0.0 0.0 0.0
0.0 0.0 0.0
0.0 0.0 0.0
0.0 0.0 0.0
0.0 0.0 0.0
0.0 0.0 0.0
0.0 0.0 0.0
0.0 0.0 0.0
0.0 0.0 0.0
0.0 0.0 0.0
0.0 0.0 0.0
0.0 0.0 0.0
0.0 0.0 0.0
0.0 0.0 0.0
0.0 0.0 0.0
0.0 0.0 0.0
0.0 0.0 0.0
0.0 0.0 0.0
0.0 0.0 0.0
0.0 0.0 0.0
0.0 0.0 0.0
0.0 0.0 0.0
0.0 0.0 0.0
0.0 0.0 0.0
0.0 0.0 0.0
0.0 0.0 0.0
0.0 0.0 0.0
0.0 0.0 0.0
0.0 0.0 0.0
0.0 0.0 0.0
0.0 0.0 0.0
0.0 0.0 0.0
0.0 0.0 0.0
0.0 0.0 0.0
0.0 0.0 0.0
0.0 0.0 0.0
0.0 0.0 0.0
0.0 0.0 0.0
0.0 0.0 0.0
0.0 0.0 0.0
0.0 0.0 0.0
0.0 0.0 0.0
0.0 0.0 0.0
0.0 0.0 0.0
0.0 0.0 0.0
0.0 0.0 0.0
0.0 0.0 0.0
0.0 0.0 0.0
0.0 0.0 0.0
0.0 0.0 0.0
0.0 0.0 0.0
0.0 0.0 0.0
0.0 0.0 0.0
0.0 0.0 0.0
0.0 0.0 0.0
0.0 0.0 0.0
0.0 0.0 0.0
0.0 0.0 0.0
0.0 0.0 0.0
0.0 0.0 0.0
0.0 0.0 0.0
0.0 0.0 0.0
0.0 0.0 0.0
0.0 0.0 0.0
0.0 0.0 0.0
0.0 0.0 0.0
0.0 0.0 0.0
0.0 0.0 0.0
0.0 0.0 0.0
0.0 0.0 0.0
0.0 0.0 0.0
0.0 0.0 0.0
0.0 0.0 0.0
0.0 0.0 0.0
0.0 0.0 0.0
0.0 0.0 0.0
0.0 0.0 0.0
0.0 0.0 0.0
0.0 0.0 0.0
0.0 0.0 0.0
0.0 0.0 0.0
0.0 0.0 0.0
0.0 0.0 0.0
0.0 0.0 0.0
0.0 0.0 0.0
0.0 0.0 0.0
0.0 0.0 0.0
0.0 0.0 0.0
0.0 0.0 0.0
0.0 0.0 0.0
0.0 0.0 0.0
0.0 0.0 0.0
0.0 0.0 0.0
0.0 0.0 0.0
0.0 0.0 0.0
0.0 0.0 0.0
0.0 0.0 0.0
0.0 0.0 0.0
0.0 0.0 0.0
0.0 0.0 0.0
0.0 0.0 0.0
0.0 0.0 0.0
0.0 0.0 0.0
0.0 0.0 0.0
0.0 0.0 0.0
0.0 0.0 0.0
0.0 0.0 0.0
0.0 0.0 0.0
0.0 0.0 0.0
0.0 0.0 0.0
0.0 0.0 0.0
0.0 0.0 0.0
0.0 0.0 0.0
0.0 0.0 0.0
0.0 0.0 0.0
0.0 0.0 0.0
0.0 0.0 0.0
0.0 0.0 0.0
0.0 0.0 0.0
0.0 0.0 0.0
0.0 0.0 0.0
0.0 0.0 0.0
0.0 0.0 0.0
0.0 0.0 0.0
0.0 0.0 0.0
0.0 0.0 0.0
0.0 0.0 0.0
0.0 0.0 0.0
0.0 0.0 0.0
0.0 0.0 0.0
0.0 0.0 0.0
0.0 0.0 0.0
0.0 0.0 0.0
0.0 0.0 0.0
0.0 0.0 0.0
0.0 0.0 0.0
0.0 0.0 0.0
0.0 0.0 0.0
0.0 0.0 0.0
0.0 0.0 0.0
0.0 0.0 0.0
0.0 0.0 0.0
0.0 0.0 0.0
0.0 0.0 0.0
0.0 0.0 0.0
0.0 0.0 0.0
0.0 0.0 0.0
0.0 0.0 0.0
0.0 0.0 0.0
0.0 0.0 0.0
0.0 0.0 0.0
0.0 0.0 0.0
0.0 0.0 0.0
0.0 0.0 0.0
0.0 0.0 0.0
0.0 0.0 0.0
0.0 0.0 0.0
0.0 0.0 0.0
0.0 0.0 0.0
0.0 0.0 0.0
0.0 0.0 0.0
0.0 0.0 0.0
0.0 0.0 0.0
0.0 0.0 0.0
0.0 0.0 0.0
0.0 0.0 0.0
0.0 0.0 0.0
0.0 0.0 0.0
0.0 0.0 0.0
0.0 0.0 0.0
0.0 0.0 0.0
0.0 0.0 0.0
0.0 0.0 0.0
0.0 0.0 0.0
0.0 0.0 0.0
0.0 0.0 0.0
0.0 0.0 0.0
0.0 0.0 0.0
0.0 0.0 0.0
0.0 0.0 0.0
0.0 0.0 0.0
0.0 0.0 0.0
0.0 0.0 0.0
0.0 0.0 0.0
0.0 0.0 0.0
0.0 0.0 0.0
0.0 0.0 0.0
0.0 0.0 0.0
0.0 0.0 0.0
0.0 0.0 0.0
0.0 0.0 0.0
0.0 0.0 0.0
0.0 0.0 0.0
0.0 0.0 0.0
0.0 0.0 0.0
0.0 0.0 0.0
0.0 0.0 0.0
0.0 0.0 0.0
0.0 0.0 0.0
0.0 0.0 0.0
0.0 0.0 0.0
0.0 0.0 0.0
0.0 0.0 0.0
0.0 0.0 0.0
0.0 0.0 0.0
0.0 0.0 0.0
VECTORS f float
0.00503725 -0.00524897 0.0159826
0.0 0.0 0.000564186
0.0 0.0 0.0
0.000935166 -0.0010617 -0.00177645
0.0 0.0 0.0
-0.00166105 0.00255695 -0.00354653
0.000801897 -0.00326036 -0.00344817
0.0 0.0 0.0
0.0079388 0.0244346 0.0156772
0.000455047 0.000704937 -0.00266566
0.0 0.0 0.0
0.0 0.0 0.0
0.0 0.0 0.0
-0.00128142 0.00225998 -0.00148305
-0.00230099 0.00209756 -0.000392623
0.0 0.0 0.0
-0.00334449 0.000166354 -0.0032078
-0.00789969 0.00105255 -0.00904949
0.00153769 5.00971e-05 0.000333415
-0.0080716 -0.00443867 -0.00230283
-0.00254863 0.00238848 -0.00178512
0.000686676 -0.000855574 0.000502758
-0.0156464 0.00402489 -0.00415029
0.00334978 -0.0118021 -0.00296947
0.00340771 -0.00139612 0.000313971
-0.00032309 0.00056193 0.0021656
0.00330183 0.000440944 0.00375005
0.00333622 0.00917209 -0.00351499
0.0 0.0 0.0
0.00224047 -0.00145595 0.00142018
0.00236777 -0.00461752 -0.000662986
0.00143063 0.0142623 0.000531476
-0.00714643 0.00572055 -0.00391056
0.0030033 0.00333151 0.00027603
-0.00311088 0.00316099 0.00140657
0.0 0.0 0.0
0.00296587 0.00278141 0.000541103
0.00195323 0.000122217 0.00133267
-0.000374545 -0.00152169 -6.31366e-06
-0.00114069 -0.00293662 0.000827944
-0.00109193 0.000685687 -0.00257339
-0.00128375 -0.00448546 0.00368468
0.000696176 -0.000664679 0.000871588
0.00332476 0.00288302 0.00403428
0.00666083 0.00298405 -0.00365189
0.000135792 0.00326561 0.0017885
0.0162774 -0.00943602 0.000173809
0.000516324 -0.00508062 0.00317613
-0.000688222 0.00330707 -0.00299822
-0.00518896 -0.00551519 -0.00777317
0.00423942 0.0033978 0.00109553
-0.00155539 -0.00136934 0.000188059
-0.00104137 -0.00318779 -0.00176592
0.0 0.0 0.0
0.0 0.0 0.0
7.79719e-05 6.01754e-05 -7.59065e-05
0.0 0.0 0.0
-0.00146691 0.000386714 0.0019073
-0.000729168 0.00221761 -0.00222879
-0.00171036 -0.00051168 -0.000879818
0.00108513 -0.000668612 0.00256383
0.00765701 0.00470714 -0.000978942
-0.00742655 -0.0100444 0.0144465
-0.00125906 -0.000777447 -0.00202214
0.0332903 0.00886765 -0.00153686
0.0 0.0 0.0
-0.000661201 -0.000181228 -0.000557901
-0.000251453 -0.00119527 -0.00185934
0.00750092 -0.0078334 0.00141604
0.0 0.0 0.0
-0.00234892 -0.000374473 0.000463374
0.00234892 0.000374473 -0.000463374
-0.00202533 -0.00104877 -0.000752844
-0.00960526 -0.0229941 -0.0050044
0.0 0.0 0.0
-0.00122711 -0.000209945 -0.000893358
0.000767144 0.000704871 0.000251171
-0.000265593 -0.000158356 0.000186466
0.00973729 0.0153595 -0.00373016
0.0 0.0 0.0
0.00173408 0.005066 -0.000756261
0.0 0.0 0.0
0.000782149 -0.00199658 -0.000339083
0.0 -0.000643094 0.0
-0.00196322 -0.000553831 0.00146594
0.0 0.0 0.0
0.00193207 0.000634912 -0.00404194
0.000426327 -0.00259722 -0.00275292
-0.000709493 0.000715716 -0.0022691
0.00220275 0.0021037 -6.33883e-05
0.00206609 -0.00140027 -0.000338033
5.30349e-07 0.000484278 0.000195265
0.00554759 0.00419712 0.00240757
0.00685477 0.00184647 0.0078524
4.08263e-05 0.000885679 -0.00179402
-5.30349e-07 -0.000484278 -0.000195265
0.000470956 -0.00055498 -0.000541973
0.0 0.0 0.0
-0.000734443 0.000292552 -4.85265e-05
-0.00150103 -0.00695837 0.00240709
-0.0017358 6.63141e-05 -0.000355475
1.04072e-07 -1.13771e-07 -2.07827e-07
0.00279996 0.00841352 0.00348966
-0.000476959 4.99664e-05 0.00208854
0.00223937 -1.00078e-05 0.000215343
-0.000168815 0.000284419 -0.00100332
0.0 0.000642922 0.0
0.00115685 -0.000225652 -7.46206e-05
0.0 0.0 0.0
3.11531e-05 -8.10816e-05 0.00257601
0.0006889 -0.00371599 0.00132811
0.0 0.0 0.0
0.00166433 -0.00094712 -0.00143326
0.0 0.0 0.0
0.00264469 -0.000750811 -0.00189214
-0.000107404 -0.00147235 -0.0012692
-0.00216774 -0.000175726 -0.00392928
0.0 0.0 0.0
0.00238006 0.00184935 -0.000576043
-0.00317651 -0.00744138 -0.00913415
0.000985132 -0.000521574 -0.0015164
9.91041e-06 -0.000855143 0.000303975
0.00100198 0.00958537 0.00767681
-0.000135931 -0.00124355 0.000524312
0.00235254 0.00789468 -0.00488105
0.000305241 0.00514645 0.00328767
0.000858976 0.000729973 -0.00037829
0.0 0.0 0.0
0.0 0.0 0.0
0.000663143 0.000380904 -0.00334458
0.000140586 0.000538408 -0.00126862
-0.000952656 0.00078978 0.00148077
0.000743064 0.000368438 0.00170325
0.0 0.0 0.0
-0.00198914 0.0 0.0
-0.00188993 0.00237451 0.00254935
-0.00371042 -0.000178813 0.00103785
-0.000534094 -0.00316943 0.00680813
0.000262478 0.000737172 0.000443009
0.0 0.0 0.0
0.000107404 0.00147235 0.0012692
0.000520121 -9.97286e-05 -0.00133402
-0.00049263 -0.00162525 0.00234017
0.000898296 -0.000277702 0.00293469
0.0108766 0.0120166 0.0132047
-0.00171822 -0.00163907 0.00122846
-0.000876396 0.000159694 -0.00172722
-0.000893923 0.00243252 0.000150417
0.0 0.0 0.0
-0.000171344 -0.00109299 -0.00224974
0.0 0.0 0.0
0.0 0.0 0.0
-0.00196058 -0.00069366 0.00468782
0.0 0.00196227 0.0
-0.000217383 0.00150746 -0.00212857
0.0 0.0 0.0
0.000383361 0.000330364 -0.00101466
0.0 0.0 0.0
-0.000844401 -0.000729178 -0.000131336
0.0014221 0.000964466 -0.000759036
0.00175802 -9.32275e-06 0.0013153
0.0 0.0 0.0
-0.00378604 0.00191027 0.00504226
0.00015634 0.000537048 0.00158338
-0.000173543 0.000416339 6.64687e-05
0.00143607 9.80935e-05 0.00131214
-0.000632597 -0.00137545 -0.00122967
-0.00108295 -0.00227059 0.00367245
0.000750167 0.00148761 -0.00103405
-0.00144588 -0.00106945 -0.000412072
0.0 0.0 0.0
0.0 0.0 0.0
-0.000769238 0.000572055 0.00061709
0.00701017 -0.00553537 0.00153749
0.00164533 -0.00142454 -0.000963886
-0.00465275 0.00965366 -7.86666e-05
-0.000383361 -0.000330364 0.00101466
0.000792603 0.000791227 -0.0010786
-0.00440206 -0.00704639 -0.00551755
0.0 0.0 0.0
-0.00120267 0.00051835 -0.00040203
-0.000577699 -0.000235288 0.000890371
-0.0015332 -0.00113621 0.00016465
-0.00030363 -0.00179961 -0.000521388
0.000156066 -0.010602 0.00161591
-0.00100222 0.00441863 0.000831325
0.00518007 0.0036815 0.00106836
0.0 0.0 0.0
0.000123826 0.00550098 -0.00143743
0.00252633 0.00228071 -0.0017154
-0.00107706 -0.00283283 -0.00245776
-0.000944841 -0.000559065 -0.00085459
-0.00225977 0.00539585 -0.0150659
0.00423272 0.000749266 -0.00340061
0.000632597 0.00137545 0.00122967
0.0 0.0 0.0
-0.00050683 -0.00143513 0.00123676
0.000109856 5.57087e-05 0.00183287
0.00202385 0.00112277 -0.000436197
0.000957362 -0.00146366 0.00165924
0.0 0.0 0.0
-0.00146338 -0.000238867 0.00112534
-0.0028609 -0.00202923 -0.000704882
0.0 0.0 0.0
-0.000603682 0.000395903 0.000935572
0.00605981 0.00607294 0.00375937
-0.00902941 0.032526 0.00408689
0.00205571 -0.00412906 -0.00177713
0.000638435 -0.000809618 -0.00100488
0.0 0.0 0.0
0.0 0.0 0.0
-2.4731e-05 -0.00136552 -0.00337081
0.000144458 -4.79483e-05 0.000598226
0.000128212 0.00102204 0.00304196
0.0010042 0.00644164 -0.0022144
-0.00308242 0.0022024 0.00122275
0.0019763 0.000645451 0.000802748
0.000459622 -0.00188262 0.000857994
0.000552286 0.000876665 -0.000926312
-0.000640621 0.000152671 0.000926652
-0.00190821 0.00135553 -0.00255102
0.00104544 -2.77264e-05 -0.000530189
-0.000371383 0.00228951 0.00147726
0.0 0.0 0.0
0.00468103 -0.00617464 0.0023755
-0.000535688 0.00129568 -0.00232464
-0.000460342 0.00103425 0.000522067
0.0022644 0.00102189 -0.00304902
-0.00106142 0.00117191 0.00327749
0.00200129 0.00195166 -0.00117131
0.00207428 -0.00667198 0.0131183
-0.000151699 -0.00174997 0.000847776
0.000151699 0.00174997 -0.000847776
-0.00140035 -4.18172e-05 0.000138909
0.0 0.0 0.0
-0.00216538 -0.00189712 -0.00254757
0.00160501 -0.00944647 -0.00971716
-0.00102631 0.00122061 0.00307886
0.0 0.0 0.0
-0.000486629 0.000801884 -0.00114898
-0.000446857 -0.00168588 0.000861242
0.00097897 -0.000895793 4.67731e-05
-0.000664059 -0.000608554 -0.000695045
-0.000607416 0.00077001 0.000556512
0.00147433 0.000968358 -0.000903969
0.00034323 0.000278548 0.00229455
0.000322669 -0.00171971 0.00051026
0.0 0.0 0.0
0.0 0.0 0.0
0.00119324 0.00129076 0.00286955
-0.00376387 -1.85009e-05 -0.00192961
-0.00143692 -0.00267255 0.00135819
-0.000356416 0.000697467 -0.00147886
0.00379106 0.00344099 0.00117246
-0.000424609 -0.00848046 0.00207355
-0.000630791 -0.000828221 -0.000116048
0.0 0.0 0.0
-0.0133532 -0.00384387 0.00030541
0.000853723 -0.000762729 -7.9819e-05
0.0 0.0 0.0
-0.00802095 -0.00460851 -0.00276612
0.000386867 0.000155297 0.00125247
0.00238759 -0.00168464 -0.00216543
-0.00135301 -0.00182828 -0.00112066
0.000107178 -0.000205513 0.000690734
0.000664059 0.000608554 0.000695045
1.62583e-05 0.000105061 3.37154e-05
0.000812908 0.000780657 2.14017e-05
0.0 0.0 0.0
0.00128839 -0.00168433 0.00171004
0.000646633 -0.000892583 8.11384e-05
0.00350302 -0.000312856 0.00411628
-0.00202981 0.000592964 0.000265106
-0.000685185 -0.00108725 0.00196713
-0.00159431 0.00138471 0.000174603
-0.00397176 0.000109186 -0.00364597
0.0 0.0 0.0
-0.00164463 9.61421e-05 -0.00298258
-0.00238338 -0.00612192 0.00435609
0.0 0.0 0.0
0.00124704 0.00149253 7.24915e-06
-1.49994e-05 0.000223366 0.000112638
0.000204483 -0.000688747 0.000894963
-0.00105821 0.00145148 -0.000815143
0.0 0.0 0.0
0.00663431 0.00384354 0.00755764
0.0 0.0 0.0
0.000495953 -0.0033883 -0.000110196
-0.00178575 -0.00165731 -0.00105574
0.00587708 0.0114239 -0.00200421
-0.00154053 0.000956789 -0.00227027
-0.000123834 0.000164404 -0.00111894
0.0 0.0 0.0
-1.03214e-05 0.00173234 0.000877938
-0.00399121 -0.0020714 -0.00159084
0.0 0.0 0.0
0.00224956 0.00208382 0.000210197
-9.15294e-06 -0.00341311 -0.00845635
0.013788 0.00540089 -0.000871169
-0.00101055 -0.00323734 -0.000620676
0.000415328 -0.000981335 -0.000339973
0.0 0.0 0.0
-0.00178456 0.00508293 -0.000195934
-0.00666959 -0.0110702 0.00105679
-0.000546949 -0.00107625 0.00185588
0.0015403 0.000758078 -0.000925711
-0.00288851 0.00264782 0.00338629
0.00295762 -0.00156933 -0.00187759
0.0 0.0 0.0
0.0010549 0.000699176 0.00150253
0.000123834 -0.000164404 0.00111894
-0.00351448 -0.00059791 0.00247272
-0.0246595 0.0016249 -0.000690875
0.0223581 -0.00105256 0.0127825
0.0 0.0 0.0
0.00226781 -0.00444915 0.00240163
0.000300621 0.00126021 -0.00048966
-0.00106653 -0.00271073 0.000457898
0.00279511 -0.00184559 0.00081661
-0.000250206 -0.000114009 0.000289269
-0.00063906 0.00176474 -0.000536092
0.00170559 0.000946 7.81941e-05
-0.000697061 0.000619835 -0.000822302
0.000577604 -0.000790567 0.00119803
-0.0015403 -0.000758078 0.000925711
0.0 0.0 0.0
0.000198649 0.000331892 -0.00028433
0.0 0.0 0.0
0.0 0.0 0.0
0.0 0.0 0.0
0.0 0.0 0.0
0.0 0.0 0.0
0.0 0.0 0.0
6.16837e-05 0.00164457 0.00106715
0.0 0.0 0.0
0.0 0.0 0.0
0.000531938 0.000475508 0.000873005
VECTORS omega float
0.321448 -0.119765 -0.212871
0.0 0.0 0.0
0.0 0.0 0.0
0.744672 0.369202 0.917012
0.0 0.0 0.0
2.18857 0.80126 -0.834905
0.125983 0.42729 -0.594195
0.0 0.0 0.0
0.0902003 0.251017 -1.13335
0.728082 -0.0148782 0.188926
0.0 0.0 0.0
0.0 0.0 0.0
0.0 0.0 0.0
-0.763938 -0.36609 0.842042
0.389397 0.143895 0.559441
0.0 0.0 0.0
-0.175792 0.386153 -0.0279219
-0.59539 -0.0471963 0.371693
-0.177447 -1.44735 1.01622
-0.296479 -0.510151 0.784101
0.622959 0.196428 -1.00704
-1.93908 -1.82814 0.77241
0.549619 0.31452 -1.80651
-0.426014 0.146284 0.867022
-0.627294 -0.679792 0.207953
-0.236963 -0.259409 0.116635
1.55849 1.74635 -0.509028
0.557266 -1.08553 -0.658605
0.0 0.0 0.0
-0.708091 -1.61105 1.3119
-0.113551 0.126346 0.165103
0.205541 -0.123577 0.506371
1.16915 -0.0457565 0.300141
-1.06203 -0.727008 0.310995
-0.0603828 0.0386973 -0.221254
0.0 0.0 0.0
0.416707 -0.243381 -0.996571
0.482271 -0.322409 -0.474825
0.999798 -0.217652 -2.0409
-0.314921 -0.444737 0.326782
1.24708 0.253775 -0.447167
0.798682 -0.385396 0.760797
-0.351075 -0.113007 0.372027
-0.812788 0.436469 -0.814782
-0.600259 1.33863 -2.95787
-0.889841 -1.42046 -2.98297
-0.397579 2.28441 -0.154788
2.00615 -1.97176 3.21414
0.332742 0.0708037 0.326399
-0.882194 -0.507115 0.312353
-1.77702 0.495552 1.15515
0.999204 -0.709923 -0.270031
-0.400149 -0.161497 0.193286
0.0 0.0 0.0
0.0 0.0 0.0
0.0294824 0.395901 0.372255
0.0 0.0 0.0
-1.53869 -0.0882222 0.376722
0.148084 -0.0949453 -0.751187
-0.186691 0.931604 1.05471
-0.134956 -0.0293872 0.0546017
-1.20275 -0.556201 -0.545478
0.674047 0.00351374 0.333797
-0.947284 -1.99537 1.23261
0.0589945 0.0440984 0.235283
0.0 0.0 0.0
-0.181367 0.327542 0.167484
1.24804 0.228628 0.0279821
0.646502 0.694961 0.423324
0.0 0.0 0.0
1.79202e-16 -1.14161e-15 -1.41865e-17
1.17398e-15 -7.47915e-15 -9.31387e-17
-0.286186 -0.0189368 -0.485605
-0.262934 -0.442874 0.21144
0.0 0.0 0.0
-1.66484 0.410254 1.54591
0.721412 -0.34633 -1.38363
-0.249642 1.20529 -0.478981
-0.219394 -0.057203 0.562685
0.0 0.0 0.0
0.0584597 -0.256458 -0.251061
0.0 0.0 0.0
0.0220018 0.487312 -0.103135
0.0 0.0 0.0
-0.0952585 1.48777 -0.821541
0.0 0.0 0.0
0.305824 -0.351973 0.861753
0.305919 -1.20396 -0.236374
3.0159 -0.377593 0.75227
1.63976 1.50351 -1.71193
-0.404243 -0.582077 -0.0861786
0.191456 0.0555899 1.18094
-0.272077 1.06891 -0.439493
-0.22858 -3.01119 3.38684
0.246343 -0.160531 -0.232636
0.796283 0.641613 -0.482035
-0.900917 -1.70236 -0.0396728
0.0 0.0 0.0
0.711103 0.657058 0.730797
0.228197 -0.104459 -0.15523
-0.434351 -1.70914 -0.269947
1.07503 0.454583 1.16542
0.231534 -0.541035 -0.0292016
-0.713245 -0.45443 -0.1417
-0.455428 2.11626 -0.0450009
-0.428173 -0.841959 0.704925
0.0 0.0 0.0
-0.787373 0.823678 -0.675794
0.0 0.0 0.0
-0.47842 0.628449 0.0330675
-0.703387 1.58188 -0.563726
0.0 0.0 0.0
0.835402 -0.725218 0.65774
0.0 0.0 0.0
0.0992757 -0.572634 0.37322
0.648846 0.0610616 -0.969501
0.0610448 0.732125 -0.909136
0.0 0.0 0.0
-0.485194 -0.526199 0.0697535
0.0683247 1.45673 -1.50243
0.105928 0.21441 -0.00555906
0.749592 5.25482 1.45099
-1.9634 -0.0107621 -0.385274
-0.929734 0.769072 0.618705
0.239606 -0.00714608 -0.442838
-0.448401 -0.0751873 -1.1402
0.716378 -1.87945 -0.527262
0.0 0.0 0.0
0.0 0.0 0.0
0.094577 1.10144 0.534565
-0.420549 -1.84939 0.157031
-0.00812327 1.79726 -0.89362
-0.784857 1.22942 0.121998
0.0 0.0 0.0
0.0 0.0 0.0
-0.648094 -0.674353 0.113004
-0.727341 0.109965 0.402338
-0.0262305 -0.451118 -0.00496849
-1.0133 0.341885 0.379714
0.0 0.0 0.0
-0.418949 -0.707041 0.869635
-2.80574e-16 0.117919 -0.00881538
-0.781885 -1.00985 -0.388397
0.579169 1.80172 0.771666
1.1943 -0.826106 -0.362668
0.221747 -1.30842 1.67967
0.219983 -0.204719 -0.129636
-0.657028 -0.275535 -0.166894
0.0 0.0 0.0
0.699189 -0.0489747 -0.622598
0.0 0.0 0.0
0.0 0.0 0.0
-0.00147437 0.339025 0.0487109
0.0 0.0 0.0
-0.030997 0.546628 0.113497
0.0 0.0 0.0
0.823824 -0.309384 0.171706
0.0 0.0 0.0
0.686847 -1.48637 -1.14371
0.726309 -1.46968 0.618613
2.44239 2.7454 -0.574943
0.0 0.0 0.0
-0.266256 0.526078 -0.315275
-1.3139 -0.662763 -0.801532
0.746537 -0.283878 1.67266
-1.83846e-15 -0.727116 0.0543579
1.37052e-14 -4.73364e-15 -1.75572e-15
0.835833 -0.349846 0.011934
0.652385 -0.438656 -0.166886
0.0555932 -0.945141 0.0126375
0.0 0.0 0.0
0.0 0.0 0.0
0.106309 0.670029 -0.503796
0.190647 0.573732 -0.621865
-0.310014 -0.30971 2.11054e-05
-0.683962 1.02321 -1.55728
-1.74192 -0.707935 -0.0318459
-3.75596 0.565552 2.63307
-0.401138 0.368281 -0.150916
0.0 0.0 0.0
0.43736 0.746076 -0.341098
1.86016 -2.43508 -0.661001
5.42507 1.6377 0.306964
-0.56362 -0.301801 1.27508
-0.224436 -0.0331342 -0.186862
-0.257936 0.29546 -0.892838
0.190703 -0.247531 -1.04407
0.0 0.0 0.0
-0.456662 -0.172219 0.201202
-0.175035 1.18493 -0.173229
0.0137827 -0.301944 0.0879325
-0.168331 0.930324 -0.416244
-0.131879 -1.03868 1.08054
-0.136127 0.178835 -0.49827
2.09183e-15 -7.22479e-16 -2.67998e-16
0.0 0.0 0.0
-0.0806133 0.11988 -0.0877458
-0.353997 1.42853 0.121234
-0.196958 0.131306 0.0776963
-0.127259 -0.109749 0.123949
0.0 0.0 0.0
1.35554 -0.159166 1.63043
-0.522838 -0.889903 0.659449
0.0 0.0 0.0
0.650052 0.722435 0.116477
-1.58014 -1.08128 -0.438342
0.775327 -1.44658 0.917377
-0.301939 0.10765 0.331427
-0.463722 -0.125241 0.200465
0.0 0.0 0.0
0.0 0.0 0.0
-1.03666 0.828764 -0.290816
-0.199997 1.2228 1.26163
0.108995 -0.608958 1.18305
-0.0347178 3.66062 -0.570501
0.301585 0.768796 -0.682393
-0.305305 0.120437 -0.422956
-0.350956 -0.930748 -0.196839
0.749781 0.476683 0.0408079
0.551105 -0.858731 0.522898
-0.829579 0.409471 0.144754
-0.519418 -1.75338 -0.981498
-0.244434 -0.513131 -0.787872
0.0 0.0 0.0
0.273543 0.301524 -0.0864774
0.115622 -0.343077 0.0388509
-0.0309844 -1.16308 -0.824225
0.989307 -0.0579797 0.325222
-0.328921 0.288098 -0.715037
1.01612 -1.36308 -0.855788
0.315411 -0.114722 -0.0110828
4.90811e-16 -1.15495e-16 -1.5058e-16
3.21592e-15 -7.56748e-16 -9.86625e-16
0.134373 -0.192815 0.424208
0.0 0.0 0.0
-0.518826 1.64859 -2.97894
-0.953413 -1.45378 1.07675
0.528153 -0.514372 0.392193
0.0 0.0 0.0
-0.484467 -0.132503 0.404598
-0.368475 0.273363 0.342551
0.744383 0.778223 -0.452705
-1.4468e-14 2.75007e-14 -1.02555e-14
0.30041 0.439776 -0.173975
0.454039 -0.837202 -0.111023
0.173403 -1.20096 -0.778336
-0.425913 2.25065 -0.732051
0.0 0.0 0.0
-1.16431 -0.989179 3.37623
-1.02901 -0.455333 0.626225
-0.403418 -0.444341 0.757455
-0.95665 0.631433 -1.12958
-0.0951124 -0.393342 -0.144448
-1.2741 -1.97021 -3.43027
-1.13068 -0.407996 -0.37949
-0.262334 0.0543244 0.785421
0.0 0.0 0.0
-0.265965 0.984199 0.725501
-0.204863 -0.216745 -0.119996
0.0 0.0 0.0
1.02992 0.350357 -2.31758
0.616271 0.0956541 -0.202068
0.547421 -0.448141 1.78973
-1.44229 0.182152 1.05115
0.245585 -0.44099 -0.192081
-1.4468e-14 2.75007e-14 -1.02555e-14
-0.648962 0.133491 -0.318322
-0.350724 0.373142 -0.0990989
0.0 0.0 0.0
3.89958 -3.58909 -3.24669
0.628557 0.256908 -0.383326
-0.00203935 0.312891 -1.58904
0.224554 1.54643 4.9418
-1.95007 -0.597028 3.03647
-0.323673 -0.177778 1.45406
-0.324312 0.051502 0.00111356
2.31056 2.02455 -2.27851
0.509886 0.550425 0.236436
0.162711 0.237643 0.463072
0.0 0.0 0.0
0.497037 -0.420128 -0.190863
-0.611222 0.532717 -0.299936
0.204902 0.216787 0.120019
3.91427e-05 4.14131e-05 2.29274e-05
0.0 0.0 0.0
-0.434302 -0.755979 0.161223
0.0 0.0 0.0
-0.144751 -0.0239196 0.0845417
0.883544 -0.269416 0.458868
0.0664312 -0.0485774 -0.0615327
-0.0100816 -0.00279926 0.00430702
-1.18884e-14 -1.11894e-14 -3.28346e-16
1.3725 -1.17499 -0.748912
0.428975 0.0984647 -0.188381
0.0268655 0.424792 0.699111
0.0 0.0 0.0
3.09811 0.111714 -2.93315
0.145244 -0.133797 -1.26836
-0.116656 0.320535 0.105113
-0.123417 -0.0296277 0.355474
0.279607 0.0727405 0.10968
0.0 0.0 0.0
3.20664e-05 7.69792e-06 -9.23598e-05
0.0206482 -0.00331251 0.0236103
1.73811 -1.21007 -0.524394
4.22478e-16 -9.20483e-16 -5.08312e-17
-0.517975 -0.134578 0.129599
-2.694 1.49891 2.41145
0.0 0.0 0.0
0.453305 0.039909 -0.337268
-1.18884e-14 -1.11894e-14 -3.28346e-16
-0.652069 -0.519613 -0.156382
-0.140156 0.674925 0.320281
-0.0742096 -0.595137 0.358273
0.0 0.0 0.0
-0.0307632 0.529367 -0.698285
-0.405252 -0.244453 0.25751
1.51526e-06 -2.03022e-06 -8.48948e-06
0.123449 0.0296354 -0.355567
-0.382312 -0.0378579 0.302697
0.037431 -0.0501519 -0.209713
-0.0374147 0.0501301 0.209622
-0.0549559 0.00660964 -0.23605
-0.393846 0.294377 0.370629
2.76719e-15 -6.02947e-15 -3.33267e-16
0.0 0.0 0.0
0.555024 -0.135662 0.13113
0.0 0.0 0.0
0.0 0.0 0.0
0.0 0.0 0.0
0.0 0.0 0.0
0.0 0.0 0.0
0.0 0.0 0.0
0.390109 -0.180761 0.26001
0.0 0.0 0.0
0.0 0.0 0.0
0.606963 0.117208 -0.429067
VECTORS v float
-0.0033463 -0.00242012 -0.0058429
0.0 0.0 0.00364333
0.0 0.0 0.0
0.00978778 -0.0086852 -0.00932394
0.0 0.0 0.0
-0.00486617 0.000771344 -0.00504176
0.00806049 -0.0136751 -0.0118174
0.0 0.0 0.0
-0.000865737 -0.0128069 -0.0032674
0.00466049 0.00757225 -0.0176159
0.0 0.0 0.0
0.0 0.0 0.0
0.0 0.0 0.0
-0.00392099 0.00516635 -0.00637784
-0.0136789 0.00592611 -0.00915142
0.0 0.0 0.0
-0.0027571 0.000124742 -0.00521846
0.00160015 -0.0101113 -0.00265458
0.00645571 -2.15129e-05 0.0010971
-0.0225957 -0.00761097 -0.00697264
-0.0101944 -0.00476271 -0.00386923
0.00539972 -0.00541325 0.000738485
-0.0100472 0.0103626 -0.00493749
0.00417363 -0.00689565 -0.00679418
-0.00748863 -0.00226315 -0.0147208
0.00198524 -0.00233428 -0.000950676
0.0165783 -0.00925409 0.00244708
0.00450188 0.00317431 -0.00565113
0.0 0.0 0.0
0.0100562 -0.00411745 0.0102651
-0.00218938 -0.00357393 0.000919426
0.00590164 0.0127071 -0.000304001
-0.00948548 0.00362683 -0.0088901
0.0037228 0.00729953 -0.0019599
-0.000516223 -1.97548e-05 0.000137419
0.0 0.0 0.0
0.0117194 0.0116336 0.00176548
-0.00980823 0.00476459 -0.00288308
-0.000188285 -0.0117117 0.00115652
0.00168267 -0.00240763 0.00334401
-0.00257007 -0.00159925 -0.00807512
-0.00173357 -0.00866763 0.00493579
0.0115122 -0.00928262 0.00619115
0.0117209 0.00370295 -0.0034622
-0.0248983 0.00696652 -0.00344231
0.009855 -0.00902597 0.0105973
0.0251896 -0.0250789 0.000898543
0.0283729 -0.00787941 -0.00651984
0.00142109 0.00782099 -0.00507976
0.00019909 0.00535567 -0.00955206
0.0153438 0.0133906 -0.00160506
-0.00801366 -0.0127427 0.00406145
-0.00013366 -0.00651296 -0.00582495
0.0 0.0 0.0
0.0 0.0 0.0
0.015324 0.00330064 -0.00470961
0.0 0.0 0.0
-0.0043445 -0.00456696 -0.000873665
0.00580874 0.00756255 -0.00330206
-0.00163822 0.00698639 -0.00124556
0.00225964 -0.00916926 0.00118266
-0.00572461 0.00395919 0.00561254
-0.00727665 -0.0121104 0.0149392
0.00225733 0.0135403 -0.00485626
-0.00292758 0.0025488 -0.000585269
0.0 0.0 0.0
-0.000838867 -0.000898505 0.000874881
-0.0033457 0.00434491 0.00137815
-0.00689714 -0.00566336 -0.00523097
0.0 0.0 0.0
-0.00179223 -0.000285724 0.000353555
0.00734098 0.00117032 -0.00144816
-0.00253788 0.00335793 -0.00560421
0.00573324 -0.0017018 -0.00296561
0.0 0.0 0.0
-0.00743728 0.00121252 -0.008319
-0.00269692 0.0083816 -0.00542272
-0.0110487 -0.00169504 0.00142353
-0.00376248 -0.000984907 -0.00799615
0.0 0.0 0.0
0.00395474 -0.00055854 0.00276911
0.0 0.0 0.0
-0.000880356 -0.00568573 5.96251e-05
0.0 -0.0036096 0.0
-0.00814327 -0.00853325 0.00271398
0.0 0.0 0.0
-0.00506808 -0.00304676 -0.00547942
-0.00461641 -0.00342542 -0.00470799
-0.0189375 0.000179631 0.00293277
0.00612589 0.0108964 0.00223773
0.00379208 -0.0024752 -0.000838028
-0.00324604 -0.00452472 0.000742621
-0.00195075 0.00998839 0.00281138
0.0111368 0.00213889 0.00986555
-0.00512529 0.00372879 -0.00796512
-0.0060196 0.00113953 0.00419115
-0.0139823 -0.00477404 0.000682259
0.0 0.0 0.0
-0.0036576 -0.00132926 0.00599213
-0.00204123 -0.011569 0.0047883
-0.0127675 -0.00255139 -0.000804499
-0.00666589 0.00803218 0.0030143
0.000737562 0.00252978 0.00183598
-0.0010105 -0.00123194 0.00903201
0.0104018 0.00290926 -0.0044998
0.025336 0.00838517 -0.00762121
0.0 0.00360974 0.0
0.00196483 -0.00185899 0.0108952
0.0 0.0 0.0
-0.00215083 -0.00195329 0.00590015
-0.00438461 -0.0120497 0.00483117
0.0 0.0 0.0
0.00200483 -0.00952517 -0.00653628
0.0 0.0 0.0
0.00413637 -0.00305253 -0.00578225
0.0098641 0.000763926 0.0024943
0.00763048 -0.009752 0.00746646
0.0 0.0 0.0
0.0171164 -0.00832213 0.00866166
-0.00282249 0.0192166 0.0254545
0.00235749 -0.0012073 -0.0016731
0.00284633 -0.00227674 0.00711585
0.00829083 0.00674792 0.00539128
-0.00231384 0.0122148 0.00776754
0.00756981 0.0145393 -0.00133847
-0.00617028 0.00535152 0.00212493
0.0123317 0.00494553 0.000944071
0.0 0.0 0.0
0.0 0.0 0.0
-0.0127431 -0.000466662 0.00273449
-0.00518044 0.00312558 0.00521314
-0.00710493 0.00157617 0.00323933
-0.00412554 -0.000972913 0.00499879
0.0 0.0 0.0
-0.00580153 0.0 0.0
-0.0031633 0.00433983 0.00785491
-0.0088856 -0.0021989 -0.00355284
-0.00516796 -0.00397329 0.00182098
-0.00024763 0.00518209 0.00341893
0.0 0.0 0.0
0.0047734 0.00805407 0.00884742
0.00580071 -7.72194e-05 -0.00103292
-0.00362926 -0.00315626 0.0156019
0.00456331 -0.00397063 0.0132211
0.00457763 0.0047624 0.0042277
-0.0127256 -0.00102182 0.0088055
-0.00447905 9.47846e-05 -0.00775299
-0.00259668 0.00494169 0.00206123
0.0 0.0 0.0
-0.00315568 -0.00483775 -0.00796328
0.0 0.0 0.0
0.0 0.0 0.0
-0.000567667 -0.000118343 0.000806483
0.0 0.00578943 0.0
-0.00696439 0.00196523 -0.0158361
0.0 0.0 0.0
0.00382439 0.00278581 -0.0132917
0.0 0.0 0.0
0.00434868 0.00703714 -0.0153098
0.00934634 0.00846009 0.00301033
0.00477961 0.000190171 -0.00328006
0.0 0.0 0.0
-0.00809219 0.00308042 0.0120166
0.00493465 0.0111027 0.00726459
-0.00427042 0.0145879 0.00526375
0.0107396 0.000556942 0.00744992
-0.00244107 -0.00530759 -0.00474507
0.000630307 0.00165558 0.00318171
0.00229779 0.00575788 -0.00609311
-0.00679907 -0.00252924 -0.000940731
0.0 0.0 0.0
0.0 0.0 0.0
-0.00332458 0.000759311 0.000308555
0.00118967 -0.00628761 -0.00235092
-0.00371449 0.00370657 -0.00169745
-0.00512945 0.00459183 -0.00346551
-0.00340339 0.00496858 -0.00726089
0.00133053 -0.00344438 -0.0136675
-0.000654204 -0.00159081 -0.00214428
0.0 0.0 0.0
-0.00630331 0.0018188 -0.00410286
-0.0123887 -0.00479042 -0.00489023
-0.00934779 0.0106865 -0.00808751
-0.00226287 0.00339612 -0.00020249
0.000248569 -0.00289012 0.000213983
0.00075989 0.0135803 -0.00260089
0.00704315 -0.00565137 -0.00118458
0.0 0.0 0.0
0.000358675 -0.00562556 -0.00306205
0.0146501 0.00696712 -0.00164353
-0.00401075 -0.00327404 -0.00583295
0.00150743 -0.00257234 -0.00635943
-0.0144739 -0.000694082 -0.00562695
0.00575322 0.00333026 -0.00419968
0.000595963 0.0012958 0.00115847
0.0 0.0 0.0
-0.000395485 -0.00174446 0.000555982
-0.00362666 -0.000671462 0.00785294
0.00689545 0.00465151 0.000696504
0.00108886 -0.0057934 0.00111285
0.0 0.0 0.0
-0.00887311 0.00379822 0.00738431
-0.000226806 0.000835163 -0.00201846
0.0 0.0 0.0
-0.00557852 0.00408277 0.00585501
0.00436454 -0.00644324 -0.0044998
-0.00535942 -0.00151529 -0.0127791
0.00862642 -0.0168871 0.00529254
0.000350571 -0.00131941 -0.00500417
0.0 0.0 0.0
0.0 0.0 0.0
0.00289032 -0.000398361 -0.0114527
-0.00323748 -0.00385881 0.00321818
0.00325929 0.00469327 0.0066322
-0.005095 0.00526514 -0.00220281
-0.00799617 0.00505175 0.00379301
0.0141142 0.00221428 -0.00254693
0.00264082 -0.00593736 0.0020192
0.00352777 0.000276941 -0.00267347
-0.0007965 0.00239899 0.00477919
-0.00262615 0.010454 -0.0174655
0.00392604 0.00122905 -0.00427338
-0.00026069 0.00754754 0.00337835
0.0 0.0 0.0
0.00265806 -0.000757164 0.00569952
-0.00200052 0.0006555 -0.00167978
-0.00318699 0.000951729 0.00290464
0.00488446 -0.00113042 -0.00554303
0.00425631 -0.00832007 0.00772008
-0.000849332 0.00556373 -0.00982395
0.00545557 -0.00129008 0.00296715
-0.000142914 -0.00164863 0.000798681
0.000585377 0.0067528 -0.0032714
0.0058964 0.0023322 0.00192495
0.0 0.0 0.0
-0.00665748 -0.00309699 -0.00885093
0.0042121 -0.0125421 -0.00984176
-0.000165653 0.00460864 0.00627078
0.0 0.0 0.0
-0.000244982 0.00139951 -0.00168176
-0.0030328 -0.0075698 0.00277902
0.0107979 -0.00759746 0.00468887
-0.0020986 -0.00192319 -0.00219653
0.0049473 0.0024361 0.0136477
0.00353287 0.00271224 -0.00611005
-0.00209526 -0.000855204 0.0115907
0.000807614 -0.00652451 0.0030867
0.0 0.0 0.0
-0.0205348 -0.0132129 -0.00248176
0.0068995 0.000551384 0.0117398
-0.0174047 0.00245415 -0.00715653
-0.0215737 0.00579808 -0.00655674
-0.0038802 0.00466421 -0.00931378
0.00680155 0.0220503 -0.00854963
-0.00970747 -0.00657769 0.00286213
-0.00144018 -0.00435196 0.00610223
0.0 0.0 0.0
-0.0190791 -0.00397007 0.00114583
0.0025195 -0.00186611 -0.000930711
0.0 0.0 0.0
-0.00508343 -0.00184239 -0.0106783
0.00124139 0.00240727 0.00492557
0.00945471 -0.00633959 -0.00265341
-0.00417345 -0.0034983 -0.00466289
0.0011126 0.00366623 0.00137729
0.0020986 0.00192319 0.00219653
0.00160228 -0.00367889 -0.00481746
0.00745106 0.00752718 0.00146442
0.0 0.0 0.0
-0.0177333 -0.0286552 -0.0029609
0.00349431 -0.00617827 0.0023777
-0.00744891 -0.00216114 -0.000963073
-0.0226553 -0.011715 0.0106324
-0.0141662 0.0328985 -0.00668536
-0.0104542 0.0085901 0.000235844
0.000117001 0.000704172 -0.00596148
-0.032496 0.0281331 -0.00792383
0.000462194 -0.000572825 -0.00545554
-0.0113338 -0.0185304 0.0134872
0.0 0.0 0.0
0.00560933 0.00736306 -0.00158495
0.00130152 0.00428384 0.00534114
-8.17115e-06 -0.00157828 0.00286475
-0.00251133 0.00344439 -0.00193404
0.0 0.0 0.0
0.00861696 -0.00357918 0.00967122
0.0 0.0 0.0
0.000756086 -0.00756176 -0.000842752
-0.0151477 -0.00406426 0.00087394
0.00253462 0.00629117 -0.00142995
-0.00163 0.00377841 -0.0017454
-0.000391348 0.000519559 -0.00353616
-0.00173985 0.00812844 0.0032355
-0.000604728 0.0111547 0.00445309
0.000118308 -0.00739887 0.00556035
0.0 0.0 0.0
-0.00628161 0.0259964 0.000753449
0.00114987 -0.000586447 -0.00288188
0.00506645 0.0030975 -0.00382369
-0.00299635 -0.00500963 -0.00145784
0.00277856 -0.00768137 -0.00198152
0.0 0.0 0.0
-0.00243562 0.00693896 -0.000267282
-0.00363429 -0.00489627 -5.75947e-05
0.00466388 0.00597479 0.0152501
0.0014511 0.000714178 -0.000872103
-0.0197938 0.00274794 0.0116132
-0.00831143 0.0144142 0.00177638
0.0 0.0 0.0
0.00418429 0.0043419 0.00614796
0.000391348 -0.000519559 0.00353616
-0.00327287 0.000451098 0.0119751
0.00135328 0.00394701 0.00272585
0.00317175 -0.0022238 0.00560466
0.0 0.0 0.0
0.00820465 -0.0100283 0.00178761
0.00568578 0.00226399 0.00216271
-0.000927972 -0.00235834 0.000398355
0.00543197 -0.00192933 0.00172512
-0.00181668 -0.00198103 -0.000249467
-0.00294243 0.00652122 -0.0020847
0.0067434 0.00313854 0.00045304
-0.00321913 0.00527173 -0.00216065
0.00432474 -0.00131942 0.00564368
-0.00594371 -0.00292527 0.00357214
0.0 0.0 0.0
-0.00142275 -0.000715198 0.00526678
0.0 0.0 0.0
0.0 0.0 0.0
0.0 0.0 0.0
0.0 0.0 0.0
0.0 0.0 0.0
0.0 0.0 0.0
0.0010287 0.0109907 0.00609381
0.0 0.0 0.0
0.0 0.0 0.0
0.00225724 0.00439067 0.00439164
SCALARS radius float 1
LOOKUP_TABLE default
0.0088544
0.005534
0.005534
0.005534
0.005534
0.005534
0.005534
0.005534
0.0088544
0.005534
0.005534
0.005534
0.005534
0.005534
0.005534
0.005534
0.0088544
0.0088544
0.005534
0.0088544
0.005534
0.005534
0.0088544
0.0088544
0.005534
0.005534
0.005534
0.0088544
0.005534
0.005534
0.0088544
0.0088544
0.0088544
0.0088544
0.005534
0.005534
0.005534
0.005534
0.005534
0.005534
0.005534
0.0088544
0.005534
0.0088544
0.005534
0.005534
0.0088544
0.005534
0.005534
0.0088544
0.005534
0.005534
0.0088544
0.005534
0.005534
0.005534
0.005534
0.0088544
0.005534
0.005534
0.0088544
0.0088544
0.0088544
0.005534
0.0088544
0.005534
0.0088544
0.0088544
0.0088544
0.005534
0.0088544
0.005534
0.005534
0.0088544
0.005534
0.005534
0.005534
0.005534
0.0088544
0.005534
0.0088544
0.005534
0.0088544
0.005534
0.005534
0.005534
0.0088544
0.0088544
0.005534
0.005534
0.005534
0.005534
0.005534
0.0088544
0.0088544
0.005534
0.005534
0.005534
0.0088544
0.005534
0.005534
0.005534
0.0088544
0.005534
0.005534
0.005534
0.005534
0.005534
0.005534
0.0088544
0.0088544
0.005534
0.005534
0.005534
0.0088544
0.005534
0.005534
0.005534
0.0088544
0.0088544
0.0088544
0.005534
0.005534
0.0088544
0.0088544
0.0088544
0.005534
0.005534
0.005534
0.005534
0.005534
0.005534
0.005534
0.005534
0.0088544
0.0088544
0.0088544
0.0088544
0.005534
0.005534
0.0088544
0.0088544
0.005534
0.005534
0.005534
0.005534
0.005534
0.0088544
0.005534
0.005534
0.005534
0.005534
0.005534
0.0088544
0.005534
0.0088544
0.005534
0.005534
0.005534
0.005534
0.005534
0.0088544
0.0088544
0.005534
0.005534
0.005534
0.005534
0.0088544
0.005534
0.0088544
0.005534
0.005534
0.005534
0.005534
0.005534
0.0088544
0.005534
0.005534
0.005534
0.005534
0.005534
0.005534
0.005534
0.005534
0.005534
0.0088544
0.0088544
0.005534
0.005534
0.0088544
0.0088544
0.0088544
0.0088544
0.0088544
0.0088544
0.0088544
0.0088544
0.005534
0.005534
0.0088544
0.005534
0.005534
0.005534
0.005534
0.005534
0.005534
0.0088544
0.0088544
0.005534
0.0088544
0.005534
0.0088544
0.005534
0.0088544
0.005534
0.0088544
0.005534
0.005534
0.005534
0.005534
0.005534
0.005534
0.0088544
0.005534
0.0088544
0.0088544
0.005534
0.0088544
0.005534
0.0088544
0.0088544
0.0088544
0.005534
0.0088544
0.005534
0.005534
0.0088544
0.0088544
0.0088544
0.005534
0.005534
0.005534
0.005534
0.0088544
0.0088544
0.005534
0.005534
0.005534
0.005534
0.0088544
0.0088544
0.0088544
0.005534
0.0088544
0.0088544
0.005534
0.005534
0.0088544
0.005534
0.005534
0.0088544
0.005534
0.005534
0.005534
0.005534
0.005534
0.005534
0.005534
0.005534
0.005534
0.005534
0.0088544
0.005534
0.0088544
0.005534
0.005534
0.005534
0.0088544
0.0088544
0.005534
0.005534
0.005534
0.005534
0.005534
0.005534
0.0088544
0.005534
0.0088544
0.0088544
0.0088544
0.0088544
0.005534
0.005534
0.005534
0.005534
0.005534
0.0088544
0.005534
0.0088544
0.0088544
0.005534
0.0088544
0.0088544
0.0088544
0.0088544
0.0088544
0.0088544
0.0088544
0.005534
0.005534
0.005534
0.0088544
0.0088544
0.0088544
0.005534
0.0088544
0.0088544
0.0088544
0.0088544
0.005534
0.005534
0.005534
0.005534
0.005534
0.005534
0.005534
0.005534
0.005534
0.005534
0.005534
0.005534
0.005534
0.005534
0.005534
0.005534
0.005534
0.005534
SCALARS type float 1
LOOKUP_TABLE default
1.0
1.0
1.0
1.0
1.0
1.0
1.0
1.0
1.0
1.0
1.0
1.0
1.0
1.0
1.0
1.0
1.0
1.0
1.0
1.0
1.0
1.0
1.0
1.0
1.0
1.0
1.0
1.0
1.0
1.0
1.0
1.0
1.0
1.0
1.0
1.0
1.0
1.0
1.0
1.0
1.0
1.0
1.0
1.0
1.0
1.0
1.0
1.0
1.0
1.0
1.0
1.0
1.0
1.0
1.0
1.0
1.0
1.0
1.0
1.0
1.0
1.0
1.0
1.0
1.0
1.0
1.0
1.0
1.0
1.0
1.0
1.0
1.0
1.0
1.0
1.0
1.0
1.0
1.0
1.0
1.0
1.0
1.0
1.0
1.0
1.0
1.0
1.0
1.0
1.0
1.0
1.0
1.0
1.0
1.0
1.0
1.0
1.0
1.0
1.0
1.0
1.0
1.0
1.0
1.0
1.0
1.0
1.0
1.0
1.0
1.0
1.0
1.0
1.0
1.0
1.0
1.0
1.0
1.0
1.0
1.0
1.0
1.0
1.0
1.0
1.0
1.0
1.0
1.0
1.0
1.0
1.0
1.0
1.0
1.0
1.0
1.0
1.0
1.0
1.0
1.0
1.0
1.0
1.0
1.0
1.0
1.0
1.0
1.0
1.0
1.0
1.0
1.0
1.0
1.0
1.0
1.0
1.0
1.0
1.0
1.0
1.0
1.0
1.0
1.0
1.0
1.0
1.0
1.0
1.0
1.0
1.0
1.0
1.0
1.0
1.0
1.0
1.0
1.0
1.0
1.0
1.0
1.0
1.0
1.0
1.0
1.0
1.0
1.0
1.0
1.0
1.0
1.0
1.0
1.0
1.0
1.0
1.0
1.0
1.0
1.0
1.0
1.0
1.0
1.0
1.0
1.0
1.0
1.0
1.0
1.0
1.0
1.0
1.0
1.0
1.0
1.0
1.0
1.0
1.0
1.0
1.0
1.0
1.0
1.0
1.0
1.0
1.0
1.0
1.0
1.0
1.0
1.0
1.0
1.0
1.0
1.0
1.0
1.0
1.0
1.0
1.0
1.0
1.0
1.0
1.0
1.0
1.0
1.0
1.0
1.0
1.0
1.0
1.0
1.0
1.0
1.0
1.0
1.0
1.0
1.0
1.0
1.0
1.0
1.0
1.0
1.0
1.0
1.0
1.0
1.0
1.0
1.0
1.0
1.0
1.0
1.0
1.0
1.0
1.0
1.0
1.0
1.0
1.0
1.0
1.0
1.0
1.0
1.0
1.0
1.0
1.0
1.0
1.0
1.0
1.0
1.0
1.0
1.0
1.0
1.0
1.0
1.0
1.0
1.0
1.0
1.0
1.0
1.0
1.0
1.0
1.0
1.0
1.0
1.0
1.0
1.0
1.0
1.0
1.0
1.0
1.0
1.0
1.0
1.0
1.0
1.0
1.0
1.0
1.0
1.0
1.0
1.0
1.0
1.0
1.0
1.0
SCALARS id float 1
LOOKUP_TABLE default
50.0
138.0
304.0
141.0
297.0
293.0
325.0
285.0
10.0
241.0
126.0
240.0
207.0
140.0
197.0
258.0
92.0
60.0
154.0
98.0
188.0
298.0
106.0
80.0
183.0
277.0
171.0
41.0
180.0
213.0
23.0
58.0
32.0
6.0
327.0
291.0
174.0
158.0
128.0
264.0
234.0
89.0
263.0
37.0
328.0
331.0
48.0
329.0
172.0
88.0
164.0
200.0
9.0
305.0
274.0
186.0
135.0
40.0
246.0
173.0
61.0
38.0
119.0
225.0
122.0
260.0
121.0
64.0
84.0
288.0
81.0
193.0
205.0
47.0
149.0
257.0
192.0
232.0
34.0
229.0
94.0
143.0
102.0
198.0
278.0
137.0
70.0
85.0
227.0
199.0
321.0
259.0
130.0
62.0
79.0
169.0
127.0
265.0
12.0
184.0
273.0
142.0
72.0
230.0
247.0
163.0
295.0
222.0
292.0
17.0
44.0
159.0
314.0
195.0
73.0
153.0
322.0
216.0
2.0
30.0
35.0
239.0
275.0
103.0
66.0
13.0
253.0
296.0
252.0
144.0
160.0
238.0
203.0
212.0
22.0
75.0
49.0
100.0
228.0
249.0
55.0
99.0
319.0
156.0
245.0
301.0
308.0
105.0
201.0
217.0
276.0
248.0
155.0
18.0
294.0
8.0
133.0
250.0
233.0
152.0
175.0
33.0
31.0
147.0
269.0
317.0
267.0
107.0
204.0
19.0
157.0
236.0
324.0
306.0
151.0
93.0
165.0
290.0
261.0
145.0
286.0
220.0
280.0
333.0
182.0
77.0
101.0
146.0
208.0
4.0
82.0
118.0
45.0
117.0
69.0
26.0
24.0
237.0
336.0
97.0
326.0
307.0
132.0
210.0
181.0
310.0
65.0
5.0
206.0
111.0
272.0
108.0
161.0
115.0
242.0
95.0
166.0
179.0
221.0
224.0
302.0
231.0
46.0
185.0
39.0
29.0
189.0
68.0
282.0
28.0
83.0
104.0
134.0
25.0
279.0
337.0
3.0
74.0
42.0
177.0
303.0
202.0
124.0
51.0
114.0
311.0
167.0
148.0
300.0
14.0
112.0
91.0
194.0
116.0
53.0
309.0
136.0
56.0
235.0
176.0
20.0
196.0
330.0
215.0
332.0
218.0
335.0
318.0
170.0
251.0
131.0
21.0
271.0
27.0
191.0
315.0
255.0
52.0
59.0
223.0
190.0
123.0
316.0
281.0
139.0
76.0
162.0
96.0
71.0
43.0
63.0
262.0
270.0
209.0
268.0
168.0
78.0
214.0
7.0
113.0
334.0
86.0
15.0
120.0
109.0
87.0
67.0
54.0
178.0
125.0
219.0
57.0
16.0
110.0
243.0
90.0
11.0
36.0
1.0
312.0
226.0
150.0
256.0
284.0
323.0
211.0
320.0
254.0
289.0
266.0
187.0
299.0
129.0
283.0
287.0
313.0
244.0

