# vtk DataFile Version 2.0
Generated by lpp.py
ASCII
DATASET POLYDATA
POINTS 337 float
-0.0276028 -0.0408843 0.0091407
-0.0135139 -0.0389569 0.0056328
-0.020391 -0.0273329 0.00665915
0.00506731 -0.0302972 0.00723114
0.0398506 -0.0305555 0.00586926
-0.0112467 -0.0169298 0.00563778
0.0330308 -0.0182522 0.00645646
0.0162128 -0.0106887 0.00706151
-0.0172599 -0.00191136 0.00900698
0.0052853 -0.00200347 0.00685224
-0.0326047 0.0126468 0.00663443
0.0430248 0.0182279 0.0091041
-0.00806736 0.022908 0.00911675
0.0153839 0.0312104 0.00868665
0.00820415 0.0398355 0.00770742
0.010386 -0.0423478 0.0159318
0.0266874 -0.0343614 0.0138083
-0.0330811 -0.0229897 0.0152704
-0.00504226 -0.0248245 0.0163035
0.0126263 -0.0261406 0.0144749
-0.0187702 -0.0199204 0.0149855
0.0387008 -0.0202456 0.015984
-0.0390348 -0.00592833 0.0132484
0.0281156 -0.00807616 0.0157724
0.0179111 0.00243891 0.0147546
-0.0244933 0.00840235 0.0164725
-0.01197 0.0113361 0.0123158
0.0306783 0.00954606 0.0130783
-0.0438616 0.0185434 0.0125122
-0.0162439 0.0208889 0.0165905
0.0103693 0.018428 0.013775
0.0289113 0.0274737 0.0128673
-0.0314783 0.0408432 0.0124383
-0.0144507 0.035232 0.0142345
0.00670437 0.0321945 0.0171626
0.0405807 0.0399096 0.0147474
-0.00297378 0.0439454 0.0168409
0.0161548 0.0424566 0.0152451
-0.00063619 -0.0443654 0.020814
0.0311287 -0.042885 0.0248546
-0.0424183 -0.0360007 0.0229655
-0.0186194 -0.0395464 0.0246992
0.00443121 -0.0343824 0.022092
0.0392614 -0.0307897 0.0262237
-0.0442939 -0.0165521 0.0221515
0.00432476 -0.0216176 0.0270515
0.0189301 -0.0217912 0.0271625
0.0328914 -0.0176323 0.0257599
-0.0142704 -0.0104439 0.0232611
0.00195618 -0.00853192 0.0195301
0.0400161 -0.00883611 0.0242774
-0.0379685 0.0127433 0.0220062
-0.0101476 0.00541334 0.0261799
0.00388535 0.00577197 0.0220109
0.0427503 0.00503166 0.0256114
0.0163201 0.0211118 0.0271331
0.0404903 0.0208285 0.0218043
-0.0298071 0.0248002 0.0204682
0.0253893 0.0433265 0.0216393
0.0355259 0.0411423 0.0260473
-0.0370666 -0.0385397 0.0363575
-0.0154997 -0.0229054 0.0308538
-0.000758487 -0.0315702 0.0365438
0.0280189 -0.029624 0.0355257
-0.0410072 -0.0209699 0.0357211
-0.044214 -0.00496395 0.0312857
-0.0295044 -0.00867981 0.0282899
-0.000190271 -0.00751644 0.0373881
0.0162045 0.00144368 0.0292637
0.035527 0.00305069 0.0343188
-0.0359187 0.00886884 0.0359726
-0.0217267 0.0110903 0.0331203
-0.011469 0.0178363 0.0338137
0.00304818 0.017276 0.0319905
0.0276205 0.0182763 0.0297583
-0.0436862 0.0285521 0.0283074
-0.0360431 0.0326899 0.0354757
-0.00995852 0.0345165 0.037497
0.0035007 0.0352825 0.0317824
0.0194164 0.0321812 0.0284512
0.0409835 0.0320187 0.0361209
-0.0423548 0.0422544 0.028933
-0.0238866 0.0409936 0.0287785
-0.00817251 0.0443688 0.0299486
0.00536471 -0.0425503 0.0458831
-0.0164641 -0.0386909 0.0391599
0.0169504 -0.0392363 0.0375629
0.0386176 -0.0405395 0.0457138
-0.0272837 -0.0244898 0.0393932
0.0376611 -0.0268541 0.0406201
0.011487 -0.0161362 0.0393306
0.0429818 -0.0150013 0.0425413
-0.038265 -0.00917474 0.0439287
0.0262524 -0.0101088 0.0387605
-0.0183672 -0.00120097 0.0424016
0.0442911 -0.00383075 0.041938
0.0112168 0.00602277 0.0422475
0.0236872 0.010405 0.0392852
-0.0330448 0.0227156 0.0397577
-0.0198538 0.0201905 0.0455828
0.0380368 0.0185357 0.0410144
-0.0442124 0.0380824 0.0410455
-0.0270306 0.0417496 0.0430603
0.0176075 0.0410145 0.0413906
0.032187 0.0420049 0.0422156
0.0431552 0.0439011 0.0454906
-0.043669 -0.0443688 0.0503077
-0.0436981 -0.0331715 0.0548493
0.0172215 -0.04006 0.0555594
-0.0229372 -0.0286245 0.052753
-0.00246527 -0.0300407 0.0511664
-0.0103226 -0.022319 0.0488062
0.00318333 -0.0212285 0.0470035
0.0206991 -0.0227055 0.0521829
-0.0295815 -0.00616971 0.0504185
0.00283479 -0.0100033 0.0514917
0.0423925 -0.00881857 0.0544295
0.0155853 -0.0041481 0.0559386
0.0334888 0.00211001 0.0498513
-0.00133856 0.0113274 0.0524457
0.0152582 0.00998179 0.0521114
0.0393589 0.015268 0.0524537
0.0137999 0.0244063 0.0548964
0.031279 0.0274588 0.051768
0.00146746 0.0374223 0.0495591
0.0443844 0.0407651 0.0562365
0.00161841 -0.0415325 0.0564583
-0.0439126 -0.0397636 0.064903
-0.0332742 -0.0401625 0.0580686
-0.0198415 -0.0408793 0.0615359
-0.00936225 -0.0393441 0.0576982
0.031409 -0.0348261 0.057108
0.0443356 -0.0380281 0.0589563
-0.011128 -0.0282328 0.0617098
0.0409936 -0.0236693 0.0590433
-0.0321159 -0.0167248 0.0626951
0.00670918 -0.0185308 0.0627423
-0.0109603 -0.00980814 0.0563901
-0.000385499 -0.00143349 0.0620787
0.0403346 0.00231361 0.0627939
-0.0287372 0.00482943 0.0600314
-0.0409876 0.0176345 0.0567632
-0.0194126 0.0201543 0.0602176
-0.00968939 0.0156384 0.0636757
0.0443103 0.0187313 0.0621502
-0.000613406 0.0252033 0.0573553
-0.0411027 0.0334468 0.0620117
-0.0246051 0.0337335 0.0584653
-0.00681066 0.0331703 0.0641183
0.0157844 0.0372126 0.0631803
-0.00241169 0.0436243 0.0651729
0.0290737 0.0419165 0.0609216
-0.0166183 -0.0424002 0.072222
0.0290687 -0.0409936 0.072393
-0.0306536 -0.0318796 0.0704185
-0.00273322 -0.037306 0.072277
0.0176623 -0.032065 0.06879
-0.0422817 -0.0286668 0.07142
-0.0216509 -0.0252364 0.0683961
-0.0132861 -0.0179579 0.0703881
0.0151829 -0.00925388 0.0702665
0.0296355 -0.00783211 0.0683596
-0.0368271 0.00124953 0.0747578
-0.0183654 -0.00430328 0.0718651
0.00889121 -0.000113058 0.0683243
0.00292666 0.00809594 0.0732301
-0.0302076 0.0183378 0.0666493
0.00217858 0.0192133 0.0715436
0.0276553 0.01821 0.0668027
-0.00786873 0.0242902 0.071084
0.0387875 0.0328871 0.0672207
-0.0422298 0.0442849 0.0692929
-0.0182993 0.0432912 0.0678726
0.00809859 0.0428786 0.069157
0.00913845 -0.0443687 0.0836637
0.0443709 -0.0443709 0.0798553
-0.0325034 -0.0390553 0.0830482
0.0137422 -0.0352389 0.0788624
-0.0079184 -0.0278228 0.0830635
0.01185 -0.0241128 0.0768886
0.0423972 -0.0302254 0.0778629
-0.0437322 -0.0163687 0.0841824
-0.0195251 -0.0205359 0.0794057
-0.00949433 -0.0163097 0.0827747
-0.000704505 -0.0215302 0.0769364
-0.0375457 -0.00962202 0.0776172
0.00251972 -0.00802224 0.0815782
0.0195458 -0.0135892 0.0835533
0.0398839 -0.0133603 0.07724
0.0173473 0.00410272 0.0809465
-0.0131272 0.0129692 0.0787373
0.0393999 0.00951627 0.0808895
-0.0403062 0.0150443 0.0782235
0.00704201 0.0294686 0.0808004
0.028968 0.0240437 0.0838015
-0.0344402 0.0325007 0.0750186
-0.0115081 0.0318734 0.0841639
0.0443644 0.0331237 0.0807601
-0.0240299 0.0419615 0.0790803
0.0229874 0.0409936 0.0753559
0.0374267 0.0419126 0.0819997
-0.0430541 -0.0443688 0.0917008
-0.0192159 -0.0443121 0.086241
-0.00019886 -0.0422318 0.0897616
0.0132171 -0.0361139 0.0901541
0.0388523 -0.0408799 0.0890342
0.00544125 -0.0237019 0.090048
0.0295589 -0.0259669 0.0919884
-0.0337521 -0.0204698 0.0874195
-0.0231153 0.000339705 0.0891331
-0.00434948 -0.00171879 0.0934608
0.0392631 -0.00444977 0.0930287
-0.0378847 0.0050654 0.0886638
0.00237886 0.0114382 0.087784
-0.039744 0.019352 0.0922567
-0.0262709 0.0219759 0.0871476
0.0443978 0.0159137 0.093063
-0.0420073 0.0303513 0.0931717
-0.0443865 0.0372829 0.0846169
-0.0302355 0.0435234 0.0883531
0.001773 0.0440466 0.0914456
0.012624 0.0410434 0.0910887
-0.0140182 -0.0337715 0.0949712
0.0073759 -0.033247 0.10168
0.0211912 -0.0408848 0.101486
-0.0391088 -0.0292557 0.100163
-0.029652 -0.0183515 0.0976958
-0.0101929 -0.0157879 0.0993293
0.0200985 -0.0164795 0.0978984
-0.0275079 -0.00163685 0.103048
0.0189908 0.00298735 0.101031
-0.04099 0.00953557 0.103057
-0.0121957 0.00959212 0.102575
-0.0110568 0.0227304 0.0962097
0.0321226 0.0172638 0.100884
-0.0314915 0.0230867 0.102813
0.000203544 0.0231959 0.0980861
0.0146445 0.0250742 0.0965349
-0.0172056 0.0381375 0.100067
0.0290377 0.0372473 0.0980004
-0.0430987 0.0414132 0.0951474
-0.0426418 -0.0420026 0.106445
0.00629818 -0.0439403 0.112267
-0.0284964 -0.0396418 0.109135
-0.00475997 -0.0345186 0.110397
0.0384704 -0.0366793 0.107594
-0.0300543 -0.0256194 0.111081
-0.0217459 -0.0236317 0.103738
0.0223642 -0.0248157 0.109101
0.00420321 -0.0206752 0.104325
0.0358178 -0.0187112 0.107247
-0.0404347 -0.0081377 0.107709
0.00986633 -0.00893 0.110998
0.0398403 0.0030507 0.109401
0.00601536 0.0152231 0.108908
0.020594 0.0161624 0.109827
-0.0405615 0.0314992 0.104284
-0.00886899 0.0275023 0.112183
0.0441176 0.0295914 0.112051
-0.0294772 0.0375953 0.108038
0.0039797 0.0373558 0.104283
-0.0399326 0.0432538 0.1058
0.01634 0.0441495 0.10821
0.0274816 -0.0437312 0.114418
0.0362718 -0.0443643 0.121439
-0.0219214 -0.0336164 0.116017
0.00504999 -0.0367713 0.120982
0.0443643 -0.0365101 0.121589
-0.00804008 -0.0245238 0.120568
0.00269734 -0.0229037 0.115295
-0.0139271 -0.0177918 0.113342
-0.0243998 -0.00789216 0.115912
-0.0035556 -0.0135664 0.11457
0.026073 -0.00497667 0.117811
-0.0353384 0.00172134 0.117462
-0.00576202 0.00149637 0.116896
0.0155425 0.00543583 0.117477
-0.0333047 0.01728 0.117398
-0.0152646 0.0136775 0.121806
0.0436911 0.0168576 0.112701
-0.0240825 0.0286529 0.117223
0.0246493 0.0246648 0.116001
0.0376164 0.0303327 0.121811
0.0357109 0.0370343 0.112959
-0.00161593 0.0409847 0.118737
0.0235558 0.0409937 0.120553
-0.0232275 -0.0418519 0.130955
-0.0350721 -0.038435 0.123053
0.0193146 -0.0364651 0.12416
0.00324337 -0.025278 0.129863
-0.037597 -0.0206087 0.123758
-0.00671738 -0.0142479 0.125533
0.0264691 -0.0195787 0.122814
-0.0377046 -0.00752905 0.130341
-0.016237 -0.00793546 0.128041
0.0112684 -0.0127664 0.126523
0.0409989 -0.0087205 0.127182
0.00826267 9.01857e-06 0.127662
0.0301787 0.0114009 0.124091
0.00206527 0.0196487 0.126734
0.0422375 0.017111 0.130123
-0.0352508 0.0390452 0.123829
0.0074915 0.0365233 0.129996
-0.00502974 -0.0409965 0.132871
-0.0199593 -0.0270725 0.134214
0.0217977 -0.0235044 0.136426
0.0388759 -0.0261177 0.131332
-0.0406748 -0.0210482 0.138434
-0.0297238 -0.0154027 0.134953
-0.00554726 -0.0157282 0.136639
-0.00576828 0.00168745 0.131537
0.019828 0.00292248 0.136156
0.039454 0.0033345 0.139293
-0.0313683 0.00884665 0.133194
-0.0409937 0.0237432 0.136346
-0.0171773 0.0252489 0.136831
0.0221585 0.0269906 0.134301
0.03797 0.0269788 0.133473
-0.0219998 0.038475 0.1328
-0.00437372 0.0323136 0.13746
0.036334 0.0381021 0.134123
0.00493279 -0.0413336 0.143598
0.0358572 -0.0410096 0.141
-0.0315235 -0.032764 0.141164
0.018716 -0.0407483 0.140783
-0.00118331 -0.0307122 0.14272
0.022472 -0.00968658 0.143116
0.0418006 -0.00807046 0.141789
-0.0219125 -0.00430969 0.141017
-0.000849836 0.0168053 0.144333
0.0187444 0.0163199 0.14373
0.0427928 0.0188044 0.142336
0.00824837 0.0303175 0.144275
-0.0408378 0.0360945 0.144208
-0.0287296 0.0419911 0.141284
0.0244268 0.0420447 0.142516
0.0416393 0.0429081 0.142821
VERTICES 337 674
1 0
1 1
1 2
1 3
1 4
1 5
1 6
1 7
1 8
1 9
1 10
1 11
1 12
1 13
1 14
1 15
1 16
1 17
1 18
1 19
1 20
1 21
1 22
1 23
1 24
1 25
1 26
1 27
1 28
1 29
1 30
1 31
1 32
1 33
1 34
1 35
1 36
1 37
1 38
1 39
1 40
1 41
1 42
1 43
1 44
1 45
1 46
1 47
1 48
1 49
1 50
1 51
1 52
1 53
1 54
1 55
1 56
1 57
1 58
1 59
1 60
1 61
1 62
1 63
1 64
1 65
1 66
1 67
1 68
1 69
1 70
1 71
1 72
1 73
1 74
1 75
1 76
1 77
1 78
1 79
1 80
1 81
1 82
1 83
1 84
1 85
1 86
1 87
1 88
1 89
1 90
1 91
1 92
1 93
1 94
1 95
1 96
1 97
1 98
1 99
1 100
1 101
1 102
1 103
1 104
1 105
1 106
1 107
1 108
1 109
1 110
1 111
1 112
1 113
1 114
1 115
1 116
1 117
1 118
1 119
1 120
1 121
1 122
1 123
1 124
1 125
1 126
1 127
1 128
1 129
1 130
1 131
1 132
1 133
1 134
1 135
1 136
1 137
1 138
1 139
1 140
1 141
1 142
1 143
1 144
1 145
1 146
1 147
1 148
1 149
1 150
1 151
1 152
1 153
1 154
1 155
1 156
1 157
1 158
1 159
1 160
1 161
1 162
1 163
1 164
1 165
1 166
1 167
1 168
1 169
1 170
1 171
1 172
1 173
1 174
1 175
1 176
1 177
1 178
1 179
1 180
1 181
1 182
1 183
1 184
1 185
1 186
1 187
1 188
1 189
1 190
1 191
1 192
1 193
1 194
1 195
1 196
1 197
1 198
1 199
1 200
1 201
1 202
1 203
1 204
1 205
1 206
1 207
1 208
1 209
1 210
1 211
1 212
1 213
1 214
1 215
1 216
1 217
1 218
1 219
1 220
1 221
1 222
1 223
1 224
1 225
1 226
1 227
1 228
1 229
1 230
1 231
1 232
1 233
1 234
1 235
1 236
1 237
1 238
1 239
1 240
1 241
1 242
1 243
1 244
1 245
1 246
1 247
1 248
1 249
1 250
1 251
1 252
1 253
1 254
1 255
1 256
1 257
1 258
1 259
1 260
1 261
1 262
1 263
1 264
1 265
1 266
1 267
1 268
1 269
1 270
1 271
1 272
1 273
1 274
1 275
1 276
1 277
1 278
1 279
1 280
1 281
1 282
1 283
1 284
1 285
1 286
1 287
1 288
1 289
1 290
1 291
1 292
1 293
1 294
1 295
1 296
1 297
1 298
1 299
1 300
1 301
1 302
1 303
1 304
1 305
1 306
1 307
1 308
1 309
1 310
1 311
1 312
1 313
1 314
1 315
1 316
1 317
1 318
1 319
1 320
1 321
1 322
1 323
1 324
1 325
1 326
1 327
1 328
1 329
1 330
1 331
1 332
1 333
1 334
1 335
1 336
POINT_DATA 337
VECTORS i float
0.0 0.0 0.0
0.0 0.0 0.0
0.0 0.0 0.0
0.0 0.0 0.0
0.0 0.0 0.0
0.0 0.0 0.0
0.0 0.0 0.0
0.0 0.0 0.0
0.0 0.0 0.0
0.0 0.0 0.0
0.0 0.0 0.0
0.0 0.0 0.0
0.0 0.0 0.0
0.0 0.0 0.0
0.0 0.0 0.0
0.0 0.0 0.0
0.0 0.0 0.0
0.0 0.0 0.0
0.0 0.0 0.0
0.0 0.0 0.0
0.0 0.0 0.0
0.0 0.0 0.0
0.0 0.0 0.0
0.0 0.0 0.0
0.0 0.0 0.0
0.0 0.0 0.0
0.0 0.0 0.0
0.0 0.0 0.0
0.0 0.0 0.0
0.0 0.0 0.0
0.0 0.0 0.0
0.0 0.0 0.0
0.0 0.0 0.0
0.0 0.0 0.0
0.0 0.0 0.0
0.0 0.0 0.0
0.0 0.0 0.0
0.0 0.0 0.0
0.0 0.0 0.0
0.0 0.0 0.0
0.0 0.0 0.0
0.0 0.0 0.0
0.0 0.0 0.0
0.0 0.0 0.0
0.0 0.0 0.0
0.0 0.0 0.0
0.0 0.0 0.0
0.0 0.0 0.0
0.0 0.0 0.0
0.0 0.0 0.0
0.0 0.0 0.0
0.0 0.0 0.0
0.0 0.0 0.0
0.0 0.0 0.0
0.0 0.0 0.0
0.0 0.0 0.0
0.0 0.0 0.0
0.0 0.0 0.0
0.0 0.0 0.0
0.0 0.0 0.0
0.0 0.0 0.0
0.0 0.0 0.0
0.0 0.0 0.0
0.0 0.0 0.0
0.0 0.0 0.0
0.0 0.0 0.0
0.0 0.0 0.0
0.0 0.0 0.0
0.0 0.0 0.0
0.0 0.0 0.0
0.0 0.0 0.0
0.0 0.0 0.0
0.0 0.0 0.0
0.0 0.0 0.0
0.0 0.0 0.0
0.0 0.0 0.0
0.0 0.0 0.0
0.0 0.0 0.0
0.0 0.0 0.0
0.0 0.0 0.0
0.0 0.0 0.0
0.0 0.0 0.0
0.0 0.0 0.0
0.0 0.0 0.0
0.0 0.0 0.0
0.0 0.0 0.0
0.0 0.0 0.0
0.0 0.0 0.0
0.0 0.0 0.0
0.0 0.0 0.0
0.0 0.0 0.0
0.0 0.0 0.0
0.0 0.0 0.0
0.0 0.0 0.0
0.0 0.0 0.0
0.0 0.0 0.0
0.0 0.0 0.0
0.0 0.0 0.0
0.0 0.0 0.0
0.0 0.0 0.0
0.0 0.0 0.0
0.0 0.0 0.0
0.0 0.0 0.0
0.0 0.0 0.0
0.0 0.0 0.0
0.0 0.0 0.0
0.0 0.0 0.0
0.0 0.0 0.0
0.0 0.0 0.0
0.0 0.0 0.0
0.0 0.0 0.0
0.0 0.0 0.0
0.0 0.0 0.0
0.0 0.0 0.0
0.0 0.0 0.0
0.0 0.0 0.0
0.0 0.0 0.0
0.0 0.0 0.0
0.0 0.0 0.0
0.0 0.0 0.0
0.0 0.0 0.0
0.0 0.0 0.0
0.0 0.0 0.0
0.0 0.0 0.0
0.0 0.0 0.0
0.0 0.0 0.0
0.0 0.0 0.0
0.0 0.0 0.0
0.0 0.0 0.0
0.0 0.0 0.0
0.0 0.0 0.0
0.0 0.0 0.0
0.0 0.0 0.0
0.0 0.0 0.0
0.0 0.0 0.0
0.0 0.0 0.0
0.0 0.0 0.0
0.0 0.0 0.0
0.0 0.0 0.0
0.0 0.0 0.0
0.0 0.0 0.0
0.0 0.0 0.0
0.0 0.0 0.0
0.0 0.0 0.0
0.0 0.0 0.0
0.0 0.0 0.0
0.0 0.0 0.0
0.0 0.0 0.0
0.0 0.0 0.0
0.0 0.0 0.0
0.0 0.0 0.0
0.0 0.0 0.0
0.0 0.0 0.0
0.0 0.0 0.0
0.0 0.0 0.0
0.0 0.0 0.0
0.0 0.0 0.0
0.0 0.0 0.0
0.0 0.0 0.0
0.0 0.0 0.0
0.0 0.0 0.0
0.0 0.0 0.0
0.0 0.0 0.0
0.0 0.0 0.0
0.0 0.0 0.0
0.0 0.0 0.0
0.0 0.0 0.0
0.0 0.0 0.0
0.0 0.0 0.0
0.0 0.0 0.0
0.0 0.0 0.0
0.0 0.0 0.0
0.0 0.0 0.0
0.0 0.0 0.0
0.0 0.0 0.0
0.0 0.0 0.0
0.0 0.0 0.0
0.0 0.0 0.0
0.0 0.0 0.0
0.0 0.0 0.0
0.0 0.0 0.0
0.0 0.0 0.0
0.0 0.0 0.0
0.0 0.0 0.0
0.0 0.0 0.0
0.0 0.0 0.0
0.0 0.0 0.0
0.0 0.0 0.0
0.0 0.0 0.0
0.0 0.0 0.0
0.0 0.0 0.0
0.0 0.0 0.0
0.0 0.0 0.0
0.0 0.0 0.0
0.0 0.0 0.0
0.0 0.0 0.0
0.0 0.0 0.0
0.0 0.0 0.0
0.0 0.0 0.0
0.0 0.0 0.0
0.0 0.0 0.0
0.0 0.0 0.0
0.0 0.0 0.0
0.0 0.0 0.0
0.0 0.0 0.0
0.0 0.0 0.0
0.0 0.0 0.0
0.0 0.0 0.0
0.0 0.0 0.0
0.0 0.0 0.0
0.0 0.0 0.0
0.0 0.0 0.0
0.0 0.0 0.0
0.0 0.0 0.0
0.0 0.0 0.0
0.0 0.0 0.0
0.0 0.0 0.0
0.0 0.0 0.0
0.0 0.0 0.0
0.0 0.0 0.0
0.0 0.0 0.0
0.0 0.0 0.0
0.0 0.0 0.0
0.0 0.0 0.0
0.0 0.0 0.0
0.0 0.0 0.0
0.0 0.0 0.0
0.0 0.0 0.0
0.0 0.0 0.0
0.0 0.0 0.0
0.0 0.0 0.0
0.0 0.0 0.0
0.0 0.0 0.0
0.0 0.0 0.0
0.0 0.0 0.0
0.0 0.0 0.0
0.0 0.0 0.0
0.0 0.0 0.0
0.0 0.0 0.0
0.0 0.0 0.0
0.0 0.0 0.0
0.0 0.0 0.0
0.0 0.0 0.0
0.0 0.0 0.0
0.0 0.0 0.0
0.0 0.0 0.0
0.0 0.0 0.0
0.0 0.0 0.0
0.0 0.0 0.0
0.0 0.0 0.0
0.0 0.0 0.0
0.0 0.0 0.0
0.0 0.0 0.0
0.0 0.0 0.0
0.0 0.0 0.0
0.0 0.0 0.0
0.0 0.0 0.0
0.0 0.0 0.0
0.0 0.0 0.0
0.0 0.0 0.0
0.0 0.0 0.0
0.0 0.0 0.0
0.0 0.0 0.0
0.0 0.0 0.0
0.0 0.0 0.0
0.0 0.0 0.0
0.0 0.0 0.0
0.0 0.0 0.0
0.0 0.0 0.0
0.0 0.0 0.0
0.0 0.0 0.0
0.0 0.0 0.0
0.0 0.0 0.0
0.0 0.0 0.0
0.0 0.0 0.0
0.0 0.0 0.0
0.0 0.0 0.0
0.0 0.0 0.0
0.0 0.0 0.0
0.0 0.0 0.0
0.0 0.0 0.0
0.0 0.0 0.0
0.0 0.0 0.0
0.0 0.0 0.0
0.0 0.0 0.0
0.0 0.0 0.0
0.0 0.0 0.0
0.0 0.0 0.0
0.0 0.0 0.0
0.0 0.0 0.0
0.0 0.0 0.0
0.0 0.0 0.0
0.0 0.0 0.0
0.0 0.0 0.0
0.0 0.0 0.0
0.0 0.0 0.0
0.0 0.0 0.0
0.0 0.0 0.0
0.0 0.0 0.0
0.0 0.0 0.0
0.0 0.0 0.0
0.0 0.0 0.0
0.0 0.0 0.0
0.0 0.0 0.0
0.0 0.0 0.0
0.0 0.0 0.0
0.0 0.0 0.0
0.0 0.0 0.0
0.0 0.0 0.0
0.0 0.0 0.0
0.0 0.0 0.0
0.0 0.0 0.0
0.0 0.0 0.0
0.0 0.0 0.0
0.0 0.0 0.0
0.0 0.0 0.0
0.0 0.0 0.0
0.0 0.0 0.0
0.0 0.0 0.0
0.0 0.0 0.0
0.0 0.0 0.0
0.0 0.0 0.0
0.0 0.0 0.0
0.0 0.0 0.0
0.0 0.0 0.0
0.0 0.0 0.0
0.0 0.0 0.0
0.0 0.0 0.0
0.0 0.0 0.0
0.0 0.0 0.0
0.0 0.0 0.0
0.0 0.0 0.0
0.0 0.0 0.0
0.0 0.0 0.0
0.0 0.0 0.0
0.0 0.0 0.0
0.0 0.0 0.0
VECTORS f float
-0.00704128 -0.00271699 -0.0100974
0.00459207 -0.000145849 0.00475251
-0.00187651 -0.000599807 -0.00272772
-0.00118708 -0.000381292 -0.000691007
0.0 0.0 0.0
0.00217046 -0.00285838 0.00255553
-0.000322789 -0.000200524 -0.00114306
0.0 0.0 0.0
0.000263612 -0.00334972 -0.000238576
-0.000379537 -0.000705785 -0.00128766
0.0 0.0 0.0
0.0 0.0 0.0
0.00401384 0.000971422 -0.00276756
-0.000361821 0.00158658 -0.00114647
-0.00128894 0.000569311 -0.000642116
0.0 0.0 0.0
0.00474293 0.0021389 0.00522399
0.00397969 0.00146351 0.00557827
-0.0444898 -0.00166157 -0.0298462
0.00108126 0.000495798 0.000986918
-0.00288904 0.00293454 -0.00593039
5.15104e-05 0.000642747 0.00126687
-0.00207381 0.000605116 -0.00326978
-0.00513146 -0.000957542 -0.00655688
0.00022644 0.000175453 -0.0022254
-0.000942345 0.00136829 0.000896977
0.000710429 0.00177765 0.000363952
0.000620227 0.0104386 -0.00902218
0.0 0.0 0.0
0.00319134 -0.00256158 -0.000344011
-5.32997e-05 -0.00363234 0.000254306
0.00187369 0.0103785 0.00153368
-0.00541886 0.00555407 -0.00509962
0.00228678 -0.00242601 0.00010802
-0.000487986 0.00193252 0.000469349
0.0 0.0 0.0
0.00117586 0.000622666 0.000357521
0.000594676 0.000169673 0.000500095
0.000725602 -0.00223261 0.000551688
-0.00167206 -0.00561873 0.00169949
-0.000630126 0.00033892 -0.00131105
-0.000440837 -0.00856108 -0.00391938
-0.0101178 0.000781632 -0.00171024
0.030325 -0.0272979 0.00721794
-0.00803739 -0.0014105 -0.00543242
0.00145853 0.00117222 0.00459698
0.0307957 0.00611713 0.0190972
0.00639407 -0.00396431 0.00211691
0.00115192 -0.00148123 0.000899154
-0.0153373 -0.00746792 -0.00402351
-0.00175116 0.000706176 -0.00100519
-0.00161683 0.00323791 -0.00643384
-0.00168622 -0.00296912 -0.00194334
0.00185843 -0.00141933 -0.0010545
0.0 0.0 0.0
0.000318618 0.000460579 -0.000832151
0.0 0.0 0.0
-0.00418359 0.00535162 -0.00437036
0.000791563 -0.000565993 0.000842167
-9.89085e-05 0.000189329 -0.000344023
0.00256264 -0.00729178 0.00283852
0.0114654 0.00630273 0.0135099
-0.00215873 0.0035236 -0.00170841
-0.00265525 0.00444542 -0.00722937
0.0109912 0.00107259 -0.00561482
0.0 0.0 0.0
0.00207381 -0.000605116 0.00326978
-0.00270977 0.00333643 -0.00256464
-0.0020913 0.00493605 -0.00150752
0.0 0.0 0.0
-0.00328405 -0.0136467 0.0139384
-0.000532915 0.000204202 0.000521688
-0.00238938 -0.000184245 -0.000563296
-0.00727836 -0.0146563 -0.00355983
0.0 0.0 0.0
-0.0004992 1.98002e-06 -0.000630838
0.00128364 0.000859378 -0.00204413
-0.00365876 6.34531e-05 0.00107629
-0.00784364 -0.0164446 -0.0106806
0.0 0.0 0.0
-0.0118757 0.016597 0.0001096
0.0 0.0 0.0
0.00198151 -0.00191133 0.00119073
0.0 -0.000671486 0.0
-0.001164 -0.000557464 -5.29539e-05
-0.00012274 -0.000172033 0.00139679
0.00125747 0.000397135 -0.00534406
0.02906 -0.00290932 0.0149729
-0.000967078 0.00146428 -0.00338298
-0.0202758 -0.000989334 -0.0129249
0.00158882 -0.000918803 -0.000216681
5.62145e-05 -0.00299629 -0.000217939
0.00115446 0.0037496 -0.000173408
0.00624006 0.00635746 0.00409463
0.0212155 -0.00483658 0.00958447
2.67273e-06 0.00289086 0.00013319
-0.000828474 0.000883049 0.00176652
0.0 0.0 0.0
-0.00320365 0.000803255 -0.000709732
0.00395323 0.000728204 0.0023205
-0.00027802 -0.00168275 0.000516267
-0.00213548 0.00147063 0.0012644
-0.000444777 0.000108633 0.00194348
0.00448529 -0.0228854 0.00669784
0.00181197 -0.00277247 0.00141013
-0.00788117 0.000741087 -0.00305049
0.0 0.000671486 0.0
0.0 0.0 0.0
-0.00037195 -0.00382299 0.00488949
0.00175638 -0.00269289 0.00128368
-0.00677822 0.00263801 0.000358744
1.77306e-05 0.000306121 -0.00100721
0.00698928 -0.0027679 -5.4663e-05
0.00303437 0.00214307 -0.00160141
-0.0189566 0.00629154 -0.0117943
0.00258601 0.0015416 -0.000259865
0.0 0.0 0.0
-6.48396e-05 -0.00230888 0.000787725
-0.00156849 -0.00313705 0.000504785
0.000764088 -0.000406065 -0.00141231
4.13653e-05 0.00238279 -0.000703067
0.00266456 5.11151e-05 0.00110387
-0.00352718 -0.00169062 0.000258286
-0.00492107 0.00159479 -0.00166064
0.000476128 0.00137784 -0.00269035
0.0111336 0.00217716 -0.000444937
0.000862304 -7.97538e-05 0.000756137
0.0 0.0 0.0
0.0 0.0 0.0
-0.00133075 -2.37593e-06 -0.000753615
4.41186e-05 0.000352545 -0.000377726
-0.000143972 0.000187261 0.00171191
0.00187675 -0.00100099 0.00468335
0.0 0.0 0.0
-0.00205082 0.0 0.0
-0.00151493 0.00268214 -0.000411115
0.000758174 -0.0017679 0.00763127
-0.00156375 -0.00333679 0.00197796
0.0004004 0.00178047 -5.28811e-05
0.00109182 -6.67797e-05 0.00191949
0.00769498 0.00935006 0.0134269
-0.00450549 0.0032464 -0.00226841
1.86358e-05 -0.00144389 0.00265892
0.000219842 8.29507e-05 0.00235338
0.0 0.0 0.0
-0.0025341 -0.001934 0.00202083
0.000171994 2.13659e-05 -0.000659619
-0.000532698 0.00181498 0.000359571
0.0 0.0 0.0
-0.000212344 -0.00111785 -0.00235548
-0.00106221 5.8745e-05 -0.000431852
0.0 0.0 0.0
0.000372981 -0.0001551 0.00110409
0.0 0.00205044 0.0
0.000154444 0.00104782 -0.00186584
0.0 0.0 0.0
0.00040397 0.000323748 -0.00103102
0.0 0.0 0.0
0.000780468 -0.00194338 0.000356635
0.00142421 -0.000962968 -0.00137582
0.000256741 0.00188291 -0.000986774
-0.00379179 0.000152355 -0.0017818
0.000886759 -0.000709706 -0.00104395
-0.00408373 0.00300982 0.00441283
0.0014257 0.00268411 0.00258875
0.00140065 0.000454662 -0.000745505
0.000981545 7.12621e-05 0.00113359
0.00117366 2.61195e-05 0.000783352
-0.000700619 -0.00130727 -4.75628e-05
0.00226656 0.00217681 -0.00112924
-0.017109 -0.00490779 0.0124879
0.0 0.0 0.0
0.0 0.0 0.0
0.000329738 0.000531695 0.00109584
-0.000390605 -0.00111671 -0.000320981
0.00173891 -0.00150961 -0.00102248
-0.00277856 -0.000469766 -0.0016137
-0.00040397 -0.000323748 0.00103102
0.000514666 0.00161073 -0.00478291
-0.000401993 -0.00195843 -0.00236807
0.0 0.0 0.0
-0.00185009 -0.000576816 0.000681061
-0.00100982 -0.000394593 0.00102411
-0.000861486 -0.000774407 3.44438e-05
0.00341584 -0.00473226 0.00362473
0.000797536 -0.00108121 -0.000406238
-0.00285069 0.00665601 -0.0055116
0.00279315 -0.00130763 -0.00122124
0.000270874 -0.000421527 0.00069321
0.00195705 0.00284957 -0.00130709
-0.000787256 -0.00360373 0.000471583
-0.0134423 -0.00715123 -0.0149723
-0.0031822 0.00366873 -0.00310444
0.000208141 -0.00429022 0.00338133
0.000326788 0.00082953 0.00043546
-0.0032214 0.00135071 0.00557572
0.000167255 -0.00384435 -0.0054007
0.00270927 -0.000664951 0.00119539
0.0088593 -0.00106015 -0.00517265
0.00096623 -0.00145969 0.00171784
-0.000227343 0.000479501 -1.86251e-05
-0.00166792 -6.78185e-05 0.00125934
-2.33743e-05 -0.00314335 -0.00302435
0.0 0.0 0.0
0.00305304 -0.00164697 0.00344892
-0.000616205 0.000400737 0.000974906
-0.000584666 -0.00121352 0.00420221
0.00152212 -0.00535872 -0.00231442
0.000620302 -0.000694113 -0.000657611
0.0 0.0 0.0
0.0 0.0 0.0
-0.000342103 -0.00150149 -0.00332057
0.000475193 -0.000942529 0.00122965
-0.000272422 0.00125036 0.00195428
0.0013122 -5.17111e-05 0.000726553
0.0183294 -0.00232566 -0.00760618
-0.00148422 0.00137751 -0.00102933
0.000751988 -0.0015786 -0.000305013
0.00195757 0.00163979 0.00233898
9.82123e-05 -0.000196783 -0.000354379
-0.00145624 0.00146339 -0.00264745
0.000960442 -0.000281669 -0.000116943
-0.0136456 0.00316292 -0.0276315
0.0 0.0 0.0
-0.00285963 0.00224127 -0.0031734
-0.00204309 -0.000249537 -0.00218343
0.00112057 0.00233477 7.5886e-05
0.00684972 -0.00168662 -0.0078851
-0.00141483 0.000900702 0.00269947
-0.00325573 0.00340792 -0.00846422
0.00341878 0.0029927 -0.00306044
-0.00522529 0.00222617 -0.00778327
-0.000158406 -0.00182734 0.000885257
0.000158406 0.00182734 -0.000885257
-0.0247276 0.00347313 0.00636254
0.0 0.0 0.0
-0.00304086 0.000235116 -0.000517394
0.00222025 0.00115778 -0.00631557
-0.000543023 0.00119723 0.00356122
0.0 0.0 0.0
-0.000331371 -0.000184256 -0.00110425
-0.000447711 -0.00173946 0.000882055
-0.00581755 0.000185528 -0.00217633
-0.000693343 -0.00063539 -0.000725695
-0.0301633 -0.00942153 -0.0242929
0.0 0.0 0.0
0.000593241 0.000524282 0.00221027
0.0005639 -0.00179752 8.41642e-05
0.0 0.0 0.0
4.08398e-05 0.000385244 0.000414537
0.00141531 0.00171022 0.00369852
-0.015513 0.00090053 -0.00605085
-0.00304897 -0.000378928 0.000711229
0.000755398 0.0020823 0.00257578
-0.0126892 -0.00206598 0.00337872
-0.00256702 -0.000781902 0.00432776
4.81675e-06 5.69721e-05 0.00107291
-0.00225307 0.00106724 8.23998e-05
0.000890371 -0.000797989 -7.86979e-05
-0.00237856 -3.87241e-06 0.00170052
-0.000624131 0.0010874 -0.000983416
0.000331371 0.000184256 0.00110425
0.00100216 0.00176877 -0.00173288
0.00251276 0.00150525 -0.000359041
-0.00224221 -0.00421081 -0.00158414
0.000693343 0.00063539 0.000725695
-0.00536395 -0.00389306 0.00429956
0.00208262 2.39406e-05 -5.53914e-06
-0.00742767 0.00891761 0.00529489
-0.00429746 -0.00755558 -0.00276769
-0.000779035 -0.00247164 -0.00600775
0.00332974 -0.00342521 -0.0130836
-0.00217654 0.000429038 0.000123771
-0.00274644 -0.00139881 -0.00314693
6.9607e-05 -2.32788e-05 -2.78744e-05
0.000151486 1.97857e-05 -0.0022642
0.0 0.0 0.0
-0.0149973 0.0201155 -0.019961
-0.00188042 -0.00407102 0.00269911
0.0 0.0 0.0
0.0012693 0.00229448 -0.00108954
-0.0023083 0.00185966 0.00447435
0.000217248 -0.000721238 0.000931858
-0.00110762 0.00151923 -0.00085316
0.0 0.0 0.0
0.00193236 -0.00227733 0.00269395
0.00149668 -0.000425074 0.000999432
-0.000968224 -0.00350511 -0.00117324
0.0462815 -0.00689956 0.0245149
0.0129871 0.0127969 0.0179555
-0.00162224 0.00122924 -0.00239385
0.000214615 0.000165081 -0.000748632
0.0 0.0 0.0
-1.05519e-05 0.00196717 0.000995169
0.00268813 -0.00400654 0.0111503
0.0 0.0 0.0
-0.000667529 -0.0177701 0.00114528
-0.00470436 0.000121792 0.000195642
0.00526169 0.00930733 0.000117844
0.000512443 0.00238135 0.000647803
-0.000844389 -0.00477145 -0.00195393
0.0 0.0 0.0
-0.0014841 0.00434485 -0.00548533
-0.00471958 0.00180033 0.0031037
0.0016084 0.000791593 -0.000966638
-0.00236889 0.00457145 0.0077947
0.00740424 0.00357553 -0.00283553
0.0 0.0 0.0
0.00110433 0.000733778 0.00157249
-0.00136588 0.00257078 0.0031988
0.0127913 -0.00198094 -0.0107179
-0.00144803 0.000984935 0.00302292
0.0 0.0 0.0
-0.0184221 0.0281727 -0.0383523
-0.00675828 0.0119075 0.0015153
-0.00440554 -0.00443792 0.00013936
0.00707193 -0.00289824 -7.50928e-05
0.00150993 0.000592539 0.00138619
-0.00105092 0.00146043 -0.000358805
-0.000250348 0.000813958 0.00370178
-0.00188168 0.00332399 -0.000741334
0.00102851 8.75212e-05 0.00160812
0.00192861 -0.0423038 -0.000249375
-0.0016084 -0.000791593 0.000966638
0.0 0.0 0.0
-0.000470098 -0.000242183 0.00343169
0.000457199 -0.00212225 0.00118198
-0.000100563 -0.000195263 0.00167775
0.0316499 -0.033356 0.0244287
0.0 0.0 0.0
-0.000393466 -0.00166442 0.00143029
0.0 0.0 0.0
0.0 0.0 0.0
-0.000390388 0.00336819 0.00178523
0.0 0.0 0.0
0.0 0.0 0.0
0.000632295 0.000879335 0.00111888
VECTORS omega float
-0.364917 -0.460835 0.0546608
-0.00659295 0.243224 0.0747479
-0.930552 3.44714 -2.94869
0.46248 1.19527 -0.012314
0.0 0.0 0.0
1.95926 0.598183 -0.957144
-0.45082 0.143456 -0.674386
0.0 0.0 0.0
1.1847 0.0348897 -1.3408
2.08903 0.932012 1.04231
0.0 0.0 0.0
0.0 0.0 0.0
-0.433135 2.3823 0.167684
-0.697478 -0.386053 1.47936
0.386867 0.23203 -0.242629
0.0 0.0 0.0
0.070321 0.409714 -0.25313
-0.114069 2.33658 0.661268
-0.376417 0.79844 2.0334
-0.187034 -3.64764 2.28253
2.33286 -6.03497 -2.52935
-1.80848 -1.78126 0.704558
1.08666 0.285447 -0.565918
-0.749766 0.410669 1.05588
-0.721145 -0.793963 0.206526
-1.85235 -1.4638 0.166829
-0.235024 2.87808 -0.0302634
1.13726 -1.12489 -0.908751
0.0 0.0 0.0
-0.435377 -1.10069 1.22458
-0.0691596 0.106233 0.133757
0.081642 -0.116879 0.655864
1.33213 -0.0529989 0.468081
-1.14621 -0.75731 0.348176
-0.126837 0.0647356 -0.397968
0.0 0.0 0.0
0.46405 -0.241392 -1.21507
0.31541 -0.214477 -0.33033
5.05758 -2.49758 -7.53846
-0.350724 -0.0872254 -0.801901
0.192022 0.196017 -0.0432749
1.03886 0.837024 0.130364
-5.66973 0.270528 3.6375
0.28711 1.55435 -2.0721
-1.9028 -0.0117916 -0.561255
1.29106 -1.94645 0.624547
-0.728919 2.49252 -1.44989
1.61794 -4.06334 4.14435
-0.078427 1.92692 3.40725
-2.69362 -0.728134 0.912494
-2.16939 -0.326517 0.336122
-0.266316 -0.652502 0.0805678
-0.227086 -0.210468 1.12563
4.63651 0.359294 -1.24414
0.0 0.0 0.0
0.535289 -0.457342 1.10048
0.0 0.0 0.0
-1.63132 -0.434456 0.304146
-0.149219 0.642033 0.798734
0.506717 0.556426 -0.253245
0.709396 0.161118 -0.515123
-1.65235 0.679058 -1.37465
0.948883 -0.332827 -1.09825
-2.49414 -3.08015 2.46328
0.217267 -1.05409 0.11084
0.0 0.0 0.0
-0.419697 -0.125377 0.236179
1.64301 -0.261994 0.509056
1.0325 0.52397 -0.119771
0.0 0.0 0.0
0.0300008 -0.422789 0.850055
-0.32642 1.36435 -1.40734
0.137949 -0.578352 -1.9887
-1.02004 0.0143688 0.520065
0.0 0.0 0.0
-1.4473 0.382911 1.33006
-0.41194 0.0905256 0.048036
-0.227082 1.34303 -0.404978
0.489552 0.0372933 0.181295
0.0 0.0 0.0
-0.0680662 0.197686 -0.88368
0.0 0.0 0.0
0.0392497 0.539458 -0.132013
0.0 0.0 0.0
-0.469897 1.53391 -1.5486
-2.07555 -1.34985 0.387126
1.29435 -0.209525 0.731162
0.670121 -1.52659 -0.993918
6.7743 -2.17599 0.484976
0.417436 2.40792 0.293705
-0.273554 -0.91489 -2.33707
-0.117589 0.0760706 0.883304
-1.96201 1.33183 0.560257
0.660068 -3.39247 2.99617
0.268998 -0.990689 -0.756395
1.05018 -0.329583 0.735008
-1.59312 -1.94936 -0.210458
0.0 0.0 0.0
-0.962405 -1.2014 -1.77599
0.8555 0.76715 0.418497
-0.0525937 -0.151023 -0.451347
1.58788 0.913515 1.47082
-0.732831 -0.478045 -0.145134
-0.337679 -0.898342 -0.310887
-1.49112 1.20972 1.42521
0.255566 -3.32947 -0.113532
0.0 0.0 0.0
0.0 0.0 0.0
-0.865139 0.763944 -1.52536
-2.67265 0.262576 -0.191346
-0.535514 -1.28414 -2.09747
-0.773209 2.79058 3.46847
0.27632 0.802746 2.07242
0.492153 0.28937 0.913686
2.49423 0.700921 -3.37308
0.971857 -0.466171 -1.86717
0.0 0.0 0.0
-1.84469 -1.12048 -0.583134
-1.20274 1.9081 -1.71571
0.110002 0.221484 -0.00528297
2.69148 5.41211 1.94218
-2.9279 -11.242 1.29943
-0.857886 1.08085 1.40164
2.09272 1.53366 -0.68764
-0.455082 -0.233158 -1.31005
-0.900515 0.948401 -0.962018
-0.59687 0.812946 -0.623998
0.0 0.0 0.0
0.0 0.0 0.0
0.118422 1.15474 0.55437
-0.393723 -2.32369 0.0824161
-0.235531 1.40598 -0.841357
-1.58921 1.2658 0.462695
0.0 0.0 0.0
0.0 0.0 0.0
-1.51445 -0.981958 0.234239
0.623316 -0.275236 0.846228
-0.157534 -0.235837 0.776676
-1.48418 1.23312 0.160441
1.01153 -0.631516 -0.494594
-0.934516 -1.66904 1.10498
-0.107575 0.0854623 0.377699
-0.74772 -1.12176 -0.374997
0.619076 1.92434 0.834434
2.61561 6.29215 -3.63958
-0.141805 -1.84328 0.221697
-0.693125 0.180821 0.36319
-0.657828 -0.276697 -0.174015
0.0 0.0 0.0
0.664316 0.00226264 -0.66503
-0.232615 -0.800031 0.465031
0.0 0.0 0.0
-0.0167675 0.811888 0.120169
0.0 0.0 0.0
-0.430994 -0.743656 -0.715425
0.0 0.0 0.0
-0.776088 0.307141 -0.234147
0.0 0.0 0.0
3.70108 4.08731 -1.07236
1.5467 -0.893989 3.23778
-2.08659 2.98901 0.595801
0.182246 -1.38272 0.225256
0.385047 0.0795571 1.06345
-0.495997 1.34275 -0.162376
2.37533 -1.17566 -1.52807
-0.56919 0.119019 4.06338
0.605627 -0.547694 -0.62511
-4.7534 -1.74221 -3.80331
0.0248804 0.117085 0.0933191
2.54696 4.61256 3.38815
0.647569 -1.74449 0.530628
0.0 0.0 0.0
0.0 0.0 0.0
0.188386 0.884992 -0.593218
-2.69788 3.87678 0.550245
-0.314913 -0.314879 9.86687e-05
-0.90427 1.0664 -0.567705
-0.134127 -1.29156 0.4076
-4.52079 0.800892 2.36668
-1.93755 -2.03644 -3.44626
0.0 0.0 0.0
0.201296 0.7477 -0.8381
0.177139 -3.06555 -1.9087
5.09176 2.04876 -0.108492
1.39802 -1.2112 -1.23707
-0.932392 -1.06603 -1.37551
0.24102 -0.0324823 -0.949719
1.19841 -1.34986 -0.722637
0.123347 -0.787205 -0.636382
-1.35762 1.89413 -0.575302
0.401095 0.147889 0.3081
-0.188243 0.071126 0.0429926
-1.53194 -0.720864 0.60117
2.89245 1.20624 -0.389721
0.393032 -0.148507 0.0207771
-0.818791 1.63472 0.0602685
-0.358679 0.411857 0.736896
-0.223824 2.67141 0.028171
3.72594 -2.41492 -1.62711
-0.147509 -0.256862 0.198926
-2.23266 -1.72497 -0.306039
1.38309 0.0425642 1.79974
-1.08214 -0.648928 0.389735
0.0 0.0 0.0
2.5044 -1.10896 0.811521
0.650771 0.723751 0.116407
0.26212 -0.827882 2.0126
-0.139249 0.253421 0.308132
-1.17504 1.28063 1.54317
0.0 0.0 0.0
0.0 0.0 0.0
-1.39324 1.1722 -0.430026
0.53639 0.729167 0.617247
0.0900426 -1.56186 1.85896
1.84397 2.57555 3.07324
0.349536 -0.965992 -1.80517
-0.526908 -0.930692 -0.358149
-0.743642 -2.00837 -4.433
-0.280574 0.852347 2.51721
0.533544 0.288562 0.306837
-0.17454 0.38158 0.157603
-0.508676 -1.73509 -0.845401
0.340537 -0.561273 -1.03615
0.0 0.0 0.0
0.820853 -0.482391 -0.53036
-0.0313681 0.0983024 0.585522
-0.18298 -1.62048 -0.660293
0.976592 0.126093 0.799826
-0.964828 1.17748 0.118579
0.17011 -1.25319 -0.624407
1.43952 -1.69981 -0.887568
-0.604863 0.249245 -1.05169
-4.02538e-16 2.2982e-16 4.02365e-16
-2.63669e-15 1.50552e-15 2.63588e-15
0.203518 1.22825 0.247434
0.0 0.0 0.0
0.124872 1.62974 -3.33693
-0.0212729 -1.99252 1.27028
0.455736 -0.827811 0.485477
0.0 0.0 0.0
0.144845 -0.30096 1.46186
-0.237366 0.0785109 0.0212482
0.430173 0.623758 0.622271
-9.91525e-15 2.73284e-14 -1.44544e-14
0.333625 -0.128806 -0.464505
0.309121 -0.331447 0.17671
0.567185 -1.26179 -0.912439
0.391531 2.07593 -1.87307
0.0 0.0 0.0
1.59911 1.00427 4.78543
-1.55418 -0.563991 0.893624
-0.495299 -0.581923 0.941782
-1.51227 1.10477 -2.02484
-0.977429 -2.79243 -3.66534
-1.64668 -0.635617 -0.723346
-0.296333 -0.537837 1.7977
1.11794 1.73917 -0.330583
-0.269237 1.07571 0.821651
-0.203358 -0.215154 -0.119115
-0.106525 0.196875 -0.149123
0.428079 -0.600154 -1.53337
2.81491 0.41606 -0.916891
1.03383 1.22432 0.197621
-1.54961 -0.885515 0.720916
4.14807 -2.98245 3.24794
-9.91525e-15 2.73284e-14 -1.44544e-14
-2.51779 0.00195406 -1.85803
-5.06563 3.70014 -2.82795
-2.89461 0.369376 1.56883
-0.223174 0.895327 -0.604882
3.89617 -5.59385 -3.06124
0.445221 1.66255 -2.03257
0.304895 1.94899 7.42784
-1.87765 -0.170088 3.29794
-0.333702 -0.223815 1.67145
-0.796667 -1.49445 0.00867593
2.31056 2.02455 -2.27851
-0.708786 -0.203447 1.30343
0.168788 0.16387 0.362403
0.0 0.0 0.0
-0.477553 0.384595 -0.484797
-1.18793 1.38558 -1.08567
0.203397 0.215195 0.119138
3.89237e-05 4.11815e-05 2.27991e-05
0.0 0.0 0.0
-0.992611 -1.06951 0.859688
-0.45355 -0.0949254 0.639017
-0.137204 -0.0231922 0.074047
0.243785 -0.0632005 0.883481
0.0254538 0.517396 -0.925374
0.058141 0.00905219 -0.0931559
-1.99525 -0.73799 0.112729
1.3725 -1.17499 -0.748912
0.409847 0.0766865 -0.145218
-0.28321 -0.323164 1.33718
0.0 0.0 0.0
1.54232 -0.289735 -3.00773
0.0733658 -0.68081 -1.70265
4.09207 3.32215 -3.39406
-0.104928 -0.00620115 0.204819
1.00037 -1.78152 0.99159
0.0 0.0 0.0
-0.498759 0.490995 -0.377024
0.125408 -0.0395076 0.336102
-3.43805e-16 1.30503e-15 4.96649e-16
-0.660934 1.2967 -0.307043
0.862555 2.28288 1.87408
0.0 0.0 0.0
0.416442 0.0396503 -0.311246
0.535403 -0.480216 3.02222
0.120001 0.971127 0.440556
0.820957 -0.11762 2.42765
0.0 0.0 0.0
1.67702 -0.321604 -0.646657
-1.38781 -0.827002 0.322524
0.369772 -0.801245 0.0196269
-0.0778914 -0.387225 -0.588007
-0.778959 -0.909936 1.89856
-0.152849 -0.44488 -1.27594
0.424325 0.686301 1.07271
-0.026372 0.0456929 -0.829358
0.667443 0.358881 -0.607741
-1.29974 -0.444569 -0.479445
-2.25303e-15 8.55065e-15 3.25342e-15
0.0 0.0 0.0
1.853 -0.77423 0.301141
0.212828 -1.41587 -2.60243
2.67051 1.01057 -0.222269
-0.490928 0.163497 0.131649
0.0 0.0 0.0
-0.0813015 -0.303256 -0.372162
0.0 0.0 0.0
0.0 0.0 0.0
0.987683 0.042971 -0.104692
0.0 0.0 0.0
0.0 0.0 0.0
0.63841 0.122992 -0.451444
VECTORS v float
-0.0028043 -0.00152617 0.0119536
0.000886757 -3.55797e-05 0.00452448
0.00753831 -0.0128414 -0.0172224
0.0218434 -0.0110414 -0.0144993
0.0 0.0 0.0
0.00430065 -0.012186 0.0110658
0.00822544 -0.0132751 -0.012558
0.0 0.0 0.0
0.000302727 -0.0105991 0.00586367
0.00954945 0.00880917 -0.0267932
0.0 0.0 0.0
0.0 0.0 0.0
0.00960177 0.00184303 -0.00136879
-0.00583374 0.00599547 -0.00641868
-0.0156746 0.00703597 -0.00891454
0.0 0.0 0.0
0.000803059 0.00018857 -0.00204597
0.000798227 -0.0134433 -0.0238435
0.0240742 -0.019074 0.00991954
0.0129668 -0.000711611 -5.80968e-05
0.0152145 -0.0181435 -0.00772256
0.00482777 -0.00488943 3.15558e-05
-0.0058789 0.00647131 -0.00728931
0.0036202 -0.00242451 -0.0119981
-0.00477644 -0.00363859 -0.0142309
-0.000566131 0.00142089 0.00701231
0.0185719 -0.00850388 0.010593
0.00466852 0.0075525 -0.00939202
0.0 0.0 0.0
0.00899173 -0.00193016 0.00997742
-0.00131182 -0.00397916 0.000390962
0.00568987 0.0178047 5.16904e-05
-0.0100678 0.00408222 -0.00927982
0.00256692 0.00714083 -0.00187092
-0.00243252 0.00555529 0.00167803
0.0 0.0 0.0
0.0108114 0.0115564 0.00156797
-0.00953002 0.00390845 -0.00295915
0.0427183 0.00859352 0.0284433
0.000873945 -0.0084688 0.00296569
-0.000728081 6.89818e-05 -0.00302974
0.00635319 -0.00645724 0.0226318
0.0647646 0.00942252 0.0320781
0.0261358 -0.0131289 -0.00390559
0.0134312 -0.00381156 -0.00294635
0.00982493 -0.00599573 0.011906
0.0157676 -0.0183438 -0.00263317
0.0181322 -0.00303269 0.000713877
0.00915815 0.00540021 -0.00258741
0.0117416 0.0107027 -0.0129278
0.0132789 0.0177952 -0.00653863
-0.00810041 -0.0083172 0.00176322
0.00152564 -0.00836966 -0.00938221
0.0107092 0.0206072 -0.00857785
0.0 0.0 0.0
0.0126996 0.000793821 -0.00584172
0.0 0.0 0.0
-0.00462377 -0.00383694 -0.00094442
-0.00179292 0.00615686 -0.000601196
0.00846826 0.00643522 -0.0037446
0.00423723 -0.0101618 0.00368605
0.0234574 0.00209473 0.0184544
0.0244643 -0.0217539 0.0230029
0.0274635 -0.0115762 0.0136836
0.00604336 0.00108916 0.0104867
0.0 0.0 0.0
0.00114897 -0.00192672 0.000938913
0.000764088 0.0193139 -0.00189736
-0.00566319 -0.00947566 -0.0051098
0.0 0.0 0.0
-0.0116935 -0.00598812 0.00371214
-0.00349388 -0.00492992 -0.00218424
-0.00236963 0.00129143 -0.00551691
0.00542125 -0.009378 -0.00370457
0.0 0.0 0.0
-0.00523846 0.00167899 -0.00616283
-0.00211115 0.0162835 -0.00801026
-0.0102931 -0.00149173 0.000787145
-0.00531533 -8.73231e-05 -0.0102936
0.0 0.0 0.0
0.0102238 -0.00436147 -0.000503608
0.0 0.0 0.0
-0.0011912 -0.00586076 -0.000338956
0.0 -0.00367732 0.0
-0.00846355 -0.0117304 0.00166738
0.00752512 -0.00297473 0.0299524
-0.00428899 -0.00622074 -0.00720789
-0.00170153 -0.00609757 -0.00228403
0.013531 -0.00854718 0.0247043
0.0336934 0.0161204 0.0180558
0.0021287 0.00500685 -0.00201005
-0.00285642 -0.00686475 0.00018088
0.003152 0.0151631 0.00937332
0.00425733 -0.00918235 0.00643645
-0.0109517 0.00589158 -0.011646
-0.0106509 0.0011847 0.00482708
-0.0136445 -0.00623814 0.00141261
0.0 0.0 0.0
-0.0112606 0.00735908 0.00365762
-0.00415866 -0.000122027 0.00662701
-0.0012274 -0.0111025 0.00392729
-0.00937516 0.0107792 0.00343137
-0.00101072 -0.00126573 0.00927003
-0.00179422 -0.00398461 0.00169738
0.00877398 0.00821585 0.00389208
0.0194496 0.0069242 -0.00817687
0.0 0.00367732 0.0
0.0 0.0 0.0
0.000612494 -0.010871 0.00441588
0.00618366 -0.0231589 0.0315676
0.0134356 -0.00942905 0.00139735
0.00181119 -0.0117534 0.00122212
0.00742304 0.00218424 -0.00183585
0.00653871 -0.00179058 -0.0030284
0.0196628 0.00367467 0.00607637
-0.00344552 -0.00298756 0.00501212
0.0 0.0 0.0
0.0150548 -0.00509278 0.00442153
-0.00673209 0.00674782 0.0150604
0.00244825 -0.00125654 -0.00174581
0.00393587 0.00379096 0.000967413
-0.00307312 0.0161966 0.0107802
-0.0132795 0.0127919 0.00838806
-0.00745321 0.0225043 -0.0148261
-0.00673493 0.00499389 0.00196375
-0.00567908 0.00695363 0.0030197
0.00230833 -0.00141712 0.0124361
0.0 0.0 0.0
0.0 0.0 0.0
-0.0137858 -0.00021037 0.000647371
-0.00520708 0.00358043 0.00404838
-0.0062538 0.00113964 0.00368493
-0.00305001 -0.00246823 0.00769543
0.0 0.0 0.0
-0.0058973 0.0 0.0
-0.0037951 0.00520735 0.0105265
-0.0064688 -0.0176941 0.00685148
-0.0145317 -0.00116902 0.00198221
-0.0083893 0.0153604 -0.00247409
0.0099854 0.00300944 0.0171279
0.0192371 0.00698511 0.0173321
0.00430199 0.00382084 -0.000965466
-0.00367336 -0.00366182 0.0162743
0.00527025 -0.00443728 0.0141139
-0.00721758 0.0193764 0.0325602
-0.0234433 0.00111215 0.00892387
-0.0119679 0.00378748 -0.0243795
-0.00274204 0.00524109 0.00203486
0.0 0.0 0.0
-0.0015334 -0.00540832 -0.00836652
-0.00735964 0.00162655 -0.000883027
0.0 0.0 0.0
-0.000706332 -0.00066031 0.00436158
0.0 0.00589723 0.0
-0.0098265 0.00501889 -0.0191995
0.0 0.0 0.0
0.00831902 0.00930237 -0.0211134
0.0 0.0 0.0
0.00576799 -0.00489863 -8.13171e-05
0.00684857 0.00319435 0.00728392
0.00550089 -0.0034187 -0.00279514
0.0158251 0.0016778 -0.00889561
0.0051658 -0.005221 -0.00874702
-0.011626 0.00558549 0.0146501
0.00119305 0.00759972 0.00338557
-0.0170575 0.00444491 0.0112661
0.00984987 0.00254648 0.00717647
-0.0182884 0.0106192 -0.0191311
0.000552928 0.00194075 -0.0110621
-0.0258125 0.0161657 -0.0113895
-0.00822457 0.00194397 0.00584439
0.0 0.0 0.0
0.0 0.0 0.0
-0.000387087 0.00053426 0.00124795
-0.00307225 0.00506536 -0.0151842
-0.00376383 0.00375728 -0.00174928
-0.0109477 0.0106307 -0.00514038
0.00108148 0.0114775 -0.015033
0.00242602 -0.000886767 -0.0145199
-0.000156784 0.000194619 -0.0108069
0.0 0.0 0.0
-0.0105506 -0.00542254 0.00105927
-0.0130181 -0.0103029 -0.00124717
-0.00495743 0.0126184 -0.00969027
-0.0130625 0.0143301 -0.023615
0.00162448 -0.0106526 -0.0043935
0.00710429 0.0128129 -0.00228797
0.0118934 -0.00636213 0.00670824
0.0120812 -0.00439114 0.00775769
0.0218998 0.0061798 0.00395129
0.00213486 -0.00806437 -0.0105941
-0.00360276 -0.00425969 -0.00973753
-0.00910935 0.00338487 -0.0188415
0.0044099 0.0117857 -0.0120144
0.000686318 0.0020386 0.00159988
0.00693036 0.0143504 -0.0224124
0.0131601 0.00444517 -0.00370599
-0.00457583 7.06567e-05 0.01426
0.0119965 0.0152253 -0.00371
0.0017838 -0.00590723 0.00131578
-0.00735879 0.00816379 0.00765738
-0.0101023 0.00371706 0.00775981
-0.00306894 0.00585344 -0.00507051
0.0 0.0 0.0
0.00281623 0.0142315 -0.0172227
-0.00563013 0.00411528 0.0059339
-0.0202475 0.00911201 -0.0100734
0.0115787 -0.0212797 0.0109068
0.00062692 -0.00293733 -0.00487987
0.0 0.0 0.0
0.0 0.0 0.0
0.00414151 -0.000239334 -0.0142695
-0.00343177 0.0060635 -0.00455787
0.00807207 0.00575374 0.00680561
-0.00973026 -0.00140055 0.000385147
-0.00319079 0.00528732 -0.00588314
-0.0041121 0.00228897 -0.00425358
-0.00442414 0.00882084 0.00707349
0.00636643 0.0134789 -0.00499787
-0.000469047 0.00143431 -0.000409352
-0.0023239 0.00669237 -0.0124568
0.00444758 0.000757624 -0.00422791
-0.00127332 0.012027 2.28045e-05
0.0 0.0 0.0
0.00154561 -0.00818252 -0.0109919
-0.00578936 -0.000896333 -0.00158711
0.000677835 0.00707789 0.00108228
0.00711295 -0.00150941 -0.00461316
0.00649642 -0.0143006 0.0153176
-0.00786459 0.0075447 -0.0166615
-0.00307349 0.00279362 -0.00978955
0.00664183 -0.0125574 0.0048755
-0.000145601 -0.00167963 0.000813697
0.000596383 0.00687976 -0.0033329
-0.0101013 0.00331355 0.00493753
0.0 0.0 0.0
-0.00372295 -0.00633098 -0.00700212
0.00674077 -0.0114522 -0.000659714
0.00311048 0.00464725 0.00534178
0.0 0.0 0.0
2.67719e-05 0.022445 0.00123039
-0.00283845 -0.00980435 0.00421466
0.00678321 -0.00738394 0.00355248
-0.00213817 -0.00195945 -0.00223794
-0.0040256 0.0003076 0.00610642
0.00277203 0.000859128 -0.00323504
-0.00449296 -0.000573875 0.00998363
0.000894151 -0.00698275 0.002784
0.0 0.0 0.0
-0.0318398 -0.00368084 5.85315e-05
0.00900499 0.000167544 0.0157184
-0.0213903 0.003108 -0.00863424
-0.0288275 0.00845888 -0.00572902
0.0065107 0.0229397 -0.011879
-0.0131117 -0.0114372 0.00670179
-0.00840069 -0.00691196 0.0165195
-0.00198714 0.00417902 0.0153194
-0.0199922 -0.00449544 0.00132972
0.00255601 -0.00190093 -0.000930138
-0.00804591 -0.00067479 0.00481407
-0.00986752 -0.001843 -0.00603135
0.00220863 0.0087518 0.0107452
0.00453506 -0.0100558 -0.000912009
-0.000883647 -0.00898574 0.00717596
-0.0112314 0.00339114 0.0267608
0.00213817 0.00195945 0.00223794
-0.00524811 -0.00468109 0.0127819
-0.00388327 0.0158943 0.0208652
-0.0067236 0.00977726 0.0034723
0.0129004 0.00626363 0.0111374
-0.0221152 -0.032487 -0.00881781
-0.0081945 -0.00515475 -0.0128177
-0.0264109 -0.00951591 0.019843
-0.0172893 0.0325193 -0.0158442
-0.00838444 0.00740686 8.16393e-05
-0.00330583 0.00173585 -0.00850455
-0.032496 0.0281331 -0.00792383
0.0119929 0.00270914 0.00741822
-0.00991108 -0.0165947 0.0121836
0.0 0.0 0.0
0.0110563 0.0149751 0.00119971
-0.000667049 0.00507965 0.00763786
4.07758e-06 -0.00161032 0.00290171
-0.00256009 0.00351125 -0.00197158
0.0 0.0 0.0
0.00814883 -0.00591242 0.00934222
0.00772564 -0.00404581 0.00488248
-0.00063802 -0.00728732 -0.00178564
-0.0133231 -0.0060849 0.00903776
0.00629352 0.0150282 7.02899e-05
-0.00213502 0.00440043 -0.00205153
-0.0019299 0.00488002 -0.00221944
-0.00173985 0.00812844 0.0032355
-0.00050205 0.0116698 0.00475809
0.00677926 -0.0128436 -0.0111085
0.0 0.0 0.0
-0.00703864 0.0362802 -0.00507878
0.00140924 -0.00108298 -0.00683848
-0.00372207 0.0370213 6.84844e-05
-0.00115574 -0.00108373 -0.00062408
0.0262688 0.00206675 0.00536449
0.0 0.0 0.0
0.00429931 0.00991835 -0.00517703
-0.00302067 0.00605345 0.000977751
0.00147838 0.000727605 -0.0008885
-0.015781 0.00640141 0.0122464
-0.0125293 0.0195238 -0.0217709
0.0 0.0 0.0
0.00413477 0.00420073 0.00607645
-0.00521917 0.0139421 0.00676677
-0.00284883 0.00532292 0.00101502
0.00418537 0.00602778 0.00457029
0.0 0.0 0.0
0.0082262 -0.00358341 0.00819725
0.00533882 0.00345061 0.00746906
-0.011239 -0.00703658 0.00266298
0.0100943 -0.00233998 -3.81672e-05
0.00265017 0.00178569 0.00282295
-0.00485315 0.00447444 -0.000986318
-0.00232831 0.00459976 0.00819166
-0.00497693 0.00792404 -0.00208965
0.00477782 0.00187168 0.00635134
0.00424142 0.0096226 -0.00891613
-0.00605546 -0.00298027 0.0036393
0.0 0.0 0.0
0.000893573 0.00336411 0.00316786
0.00784152 -0.0050514 0.00340021
-0.00200179 0.00653261 0.00541227
0.00182054 -0.00936191 -0.00220582
0.0 0.0 0.0
-0.00100566 -0.0068544 0.00580478
0.0 0.0 0.0
0.0 0.0 0.0
0.000114034 0.0146838 0.00686277
0.0 0.0 0.0
0.0 0.0 0.0
0.00230183 0.00453942 0.00449294
SCALARS radius float 1
LOOKUP_TABLE default
0.00901885
0.00563678
0.00563678
0.00563678
0.00563678
0.00563678
0.00563678
0.00563678
0.00901885
0.00563678
0.00563678
0.00563678
0.00563678
0.00563678
0.00563678
0.00563678
0.00901885
0.00901885
0.00901885
0.00563678
0.00563678
0.00563678
0.00901885
0.00901885
0.00563678
0.00563678
0.00563678
0.00901885
0.00563678
0.00563678
0.00901885
0.00901885
0.00901885
0.00901885
0.00563678
0.00563678
0.00563678
0.00563678
0.00563678
0.00563678
0.00563678
0.00901885
0.00563678
0.00901885
0.00563678
0.00563678
0.00901885
0.00563678
0.00563678
0.00901885
0.00563678
0.00563678
0.00901885
0.00563678
0.00563678
0.00563678
0.00563678
0.00901885
0.00563678
0.00563678
0.00901885
0.00901885
0.00901885
0.00563678
0.00901885
0.00563678
0.00901885
0.00901885
0.00901885
0.00563678
0.00901885
0.00563678
0.00563678
0.00901885
0.00563678
0.00563678
0.00563678
0.00563678
0.00901885
0.00563678
0.00901885
0.00563678
0.00901885
0.00563678
0.00563678
0.00563678
0.00901885
0.00901885
0.00563678
0.00563678
0.00563678
0.00563678
0.00563678
0.00901885
0.00901885
0.00563678
0.00563678
0.00563678
0.00563678
0.00901885
0.00563678
0.00563678
0.00563678
0.00901885
0.00563678
0.00563678
0.00563678
0.00563678
0.00901885
0.00901885
0.00563678
0.00563678
0.00563678
0.00901885
0.00563678
0.00563678
0.00563678
0.00901885
0.00901885
0.00901885
0.00563678
0.00563678
0.00901885
0.00901885
0.00901885
0.00563678
0.00563678
0.00563678
0.00563678
0.00563678
0.00563678
0.00563678
0.00563678
0.00563678
0.00901885
0.00901885
0.00901885
0.00901885
0.00563678
0.00563678
0.00901885
0.00901885
0.00563678
0.00563678
0.00563678
0.00563678
0.00563678
0.00901885
0.00563678
0.00563678
0.00563678
0.00563678
0.00563678
0.00901885
0.00563678
0.00901885
0.00563678
0.00563678
0.00563678
0.00563678
0.00563678
0.00901885
0.00563678
0.00901885
0.00563678
0.00563678
0.00563678
0.00563678
0.00901885
0.00563678
0.00901885
0.00563678
0.00563678
0.00563678
0.00563678
0.00563678
0.00901885
0.00563678
0.00563678
0.00563678
0.00563678
0.00563678
0.00563678
0.00563678
0.00563678
0.00563678
0.00901885
0.00901885
0.00563678
0.00901885
0.00901885
0.00901885
0.00901885
0.00901885
0.00901885
0.00901885
0.00901885
0.00563678
0.00563678
0.00901885
0.00563678
0.00563678
0.00563678
0.00563678
0.00563678
0.00563678
0.00901885
0.00901885
0.00563678
0.00901885
0.00563678
0.00901885
0.00563678
0.00901885
0.00563678
0.00901885
0.00563678
0.00563678
0.00563678
0.00563678
0.00563678
0.00563678
0.00901885
0.00563678
0.00901885
0.00901885
0.00563678
0.00901885
0.00563678
0.00563678
0.00901885
0.00901885
0.00901885
0.00563678
0.00901885
0.00563678
0.00563678
0.00901885
0.00901885
0.00901885
0.00563678
0.00563678
0.00563678
0.00563678
0.00901885
0.00901885
0.00563678
0.00563678
0.00563678
0.00563678
0.00901885
0.00901885
0.00901885
0.00901885
0.00901885
0.00563678
0.00563678
0.00901885
0.00563678
0.00563678
0.00901885
0.00563678
0.00563678
0.00563678
0.00563678
0.00563678
0.00563678
0.00563678
0.00563678
0.00563678
0.00563678
0.00901885
0.00563678
0.00901885
0.00563678
0.00563678
0.00563678
0.00901885
0.00901885
0.00563678
0.00563678
0.00563678
0.00563678
0.00563678
0.00563678
0.00901885
0.00563678
0.00901885
0.00901885
0.00901885
0.00901885
0.00563678
0.00563678
0.00563678
0.00563678
0.00563678
0.00901885
0.00563678
0.00901885
0.00901885
0.00563678
0.00901885
0.00901885
0.00901885
0.00901885
0.00901885
0.00901885
0.00563678
0.00563678
0.00563678
0.00901885
0.00901885
0.00563678
0.00901885
0.00901885
0.00901885
0.00901885
0.00563678
0.00563678
0.00563678
0.00563678
0.00563678
0.00901885
0.00563678
0.00563678
0.00563678
0.00563678
0.00563678
0.00901885
0.00563678
0.00563678
0.00563678
0.00563678
0.00563678
0.00563678
0.00563678
0.00563678
SCALARS type float 1
LOOKUP_TABLE default
1.0
1.0
1.0
1.0
1.0
1.0
1.0
1.0
1.0
1.0
1.0
1.0
1.0
1.0
1.0
1.0
1.0
1.0
1.0
1.0
1.0
1.0
1.0
1.0
1.0
1.0
1.0
1.0
1.0
1.0
1.0
1.0
1.0
1.0
1.0
1.0
1.0
1.0
1.0
1.0
1.0
1.0
1.0
1.0
1.0
1.0
1.0
1.0
1.0
1.0
1.0
1.0
1.0
1.0
1.0
1.0
1.0
1.0
1.0
1.0
1.0
1.0
1.0
1.0
1.0
1.0
1.0
1.0
1.0
1.0
1.0
1.0
1.0
1.0
1.0
1.0
1.0
1.0
1.0
1.0
1.0
1.0
1.0
1.0
1.0
1.0
1.0
1.0
1.0
1.0
1.0
1.0
1.0
1.0
1.0
1.0
1.0
1.0
1.0
1.0
1.0
1.0
1.0
1.0
1.0
1.0
1.0
1.0
1.0
1.0
1.0
1.0
1.0
1.0
1.0
1.0
1.0
1.0
1.0
1.0
1.0
1.0
1.0
1.0
1.0
1.0
1.0
1.0
1.0
1.0
1.0
1.0
1.0
1.0
1.0
1.0
1.0
1.0
1.0
1.0
1.0
1.0
1.0
1.0
1.0
1.0
1.0
1.0
1.0
1.0
1.0
1.0
1.0
1.0
1.0
1.0
1.0
1.0
1.0
1.0
1.0
1.0
1.0
1.0
1.0
1.0
1.0
1.0
1.0
1.0
1.0
1.0
1.0
1.0
1.0
1.0
1.0
1.0
1.0
1.0
1.0
1.0
1.0
1.0
1.0
1.0
1.0
1.0
1.0
1.0
1.0
1.0
1.0
1.0
1.0
1.0
1.0
1.0
1.0
1.0
1.0
1.0
1.0
1.0
1.0
1.0
1.0
1.0
1.0
1.0
1.0
1.0
1.0
1.0
1.0
1.0
1.0
1.0
1.0
1.0
1.0
1.0
1.0
1.0
1.0
1.0
1.0
1.0
1.0
1.0
1.0
1.0
1.0
1.0
1.0
1.0
1.0
1.0
1.0
1.0
1.0
1.0
1.0
1.0
1.0
1.0
1.0
1.0
1.0
1.0
1.0
1.0
1.0
1.0
1.0
1.0
1.0
1.0
1.0
1.0
1.0
1.0
1.0
1.0
1.0
1.0
1.0
1.0
1.0
1.0
1.0
1.0
1.0
1.0
1.0
1.0
1.0
1.0
1.0
1.0
1.0
1.0
1.0
1.0
1.0
1.0
1.0
1.0
1.0
1.0
1.0
1.0
1.0
1.0
1.0
1.0
1.0
1.0
1.0
1.0
1.0
1.0
1.0
1.0
1.0
1.0
1.0
1.0
1.0
1.0
1.0
1.0
1.0
1.0
1.0
1.0
1.0
1.0
1.0
1.0
1.0
1.0
1.0
1.0
1.0
1.0
1.0
1.0
1.0
1.0
1.0
1.0
1.0
1.0
1.0
1.0
1.0
SCALARS id float 1
LOOKUP_TABLE default
50.0
138.0
304.0
141.0
297.0
293.0
325.0
285.0
10.0
241.0
126.0
240.0
207.0
140.0
197.0
258.0
92.0
98.0
60.0
154.0
188.0
298.0
106.0
80.0
183.0
277.0
171.0
41.0
180.0
213.0
23.0
58.0
32.0
6.0
327.0
291.0
174.0
158.0
128.0
264.0
234.0
89.0
263.0
37.0
328.0
331.0
48.0
329.0
172.0
88.0
164.0
200.0
9.0
305.0
274.0
186.0
135.0
40.0
173.0
246.0
61.0
38.0
119.0
225.0
122.0
260.0
121.0
64.0
84.0
288.0
81.0
193.0
205.0
47.0
149.0
257.0
192.0
232.0
34.0
229.0
94.0
143.0
102.0
198.0
278.0
137.0
70.0
85.0
227.0
199.0
321.0
259.0
130.0
62.0
79.0
169.0
127.0
265.0
273.0
12.0
184.0
142.0
230.0
72.0
247.0
163.0
295.0
292.0
17.0
44.0
159.0
314.0
195.0
73.0
153.0
322.0
216.0
2.0
30.0
35.0
239.0
275.0
103.0
66.0
13.0
253.0
222.0
296.0
252.0
144.0
160.0
238.0
203.0
212.0
22.0
75.0
49.0
100.0
228.0
249.0
55.0
99.0
319.0
156.0
245.0
301.0
308.0
105.0
201.0
217.0
276.0
248.0
155.0
18.0
294.0
8.0
133.0
250.0
233.0
152.0
175.0
33.0
208.0
31.0
147.0
269.0
317.0
267.0
107.0
204.0
19.0
157.0
236.0
324.0
306.0
151.0
93.0
165.0
290.0
261.0
145.0
286.0
220.0
280.0
333.0
182.0
77.0
101.0
146.0
4.0
82.0
118.0
45.0
69.0
26.0
24.0
117.0
237.0
336.0
97.0
326.0
307.0
132.0
210.0
310.0
181.0
65.0
5.0
206.0
111.0
272.0
108.0
161.0
115.0
242.0
95.0
166.0
179.0
221.0
224.0
302.0
231.0
46.0
185.0
39.0
29.0
189.0
68.0
282.0
194.0
28.0
83.0
104.0
134.0
25.0
279.0
337.0
3.0
74.0
42.0
177.0
303.0
202.0
124.0
51.0
114.0
311.0
167.0
148.0
300.0
14.0
112.0
91.0
116.0
53.0
309.0
136.0
56.0
235.0
176.0
20.0
196.0
330.0
215.0
332.0
218.0
335.0
318.0
170.0
131.0
251.0
21.0
271.0
27.0
191.0
315.0
255.0
52.0
59.0
223.0
190.0
123.0
316.0
281.0
139.0
76.0
162.0
96.0
71.0
43.0
63.0
262.0
270.0
209.0
268.0
168.0
78.0
214.0
7.0
113.0
334.0
86.0
15.0
120.0
87.0
67.0
54.0
178.0
125.0
219.0
16.0
110.0
243.0
90.0
11.0
36.0
1.0
312.0
226.0
150.0
256.0
284.0
109.0
323.0
211.0
320.0
254.0
289.0
57.0
266.0
187.0
299.0
129.0
283.0
287.0
313.0
244.0

