# vtk DataFile Version 2.0
Generated by lpp.py
ASCII
DATASET POLYDATA
POINTS 337 float
-0.0125125 -0.0398264 0.00614925
0.00480027 -0.035085 0.0061321
0.0411352 -0.0326256 0.00623052
-0.0182395 -0.0274125 0.00623042
-0.00792129 -0.0189952 0.00619675
0.0361846 -0.0210015 0.00603602
0.0151169 -0.011816 0.00628329
0.00559912 0.000611552 0.00608697
-0.0326047 0.0126468 0.00663443
-0.00686077 0.0104791 0.00743888
-0.00319096 0.0225783 0.00623627
0.0438461 0.0202367 0.00848227
0.016021 0.0331625 0.00619446
0.00561168 0.0410877 0.00612285
0.0119827 -0.0437734 0.0145651
-0.0282506 -0.0400779 0.00992478
0.0255875 -0.0363578 0.00989727
-0.00574407 -0.0304749 0.0173699
0.0122127 -0.026856 0.0120939
-0.0328476 -0.0207391 0.0111183
-0.0168269 -0.0188894 0.0153618
0.0438923 -0.0204097 0.015591
0.00248653 -0.00988821 0.017813
0.0294258 -0.00856455 0.0135337
-0.0400391 -0.00220427 0.00993166
-0.0176786 -0.00261211 0.00976455
0.0174198 0.00183601 0.00961973
0.0306223 0.0110833 0.00991165
-0.0438207 0.0176487 0.0098374
-0.0160696 0.0198937 0.0128096
0.0115573 0.0169077 0.00992757
0.00648025 0.0316612 0.0140319
0.0301253 0.0306464 0.013641
-0.0350307 0.0400813 0.00985475
-0.0146539 0.0357658 0.0101835
0.04374 0.0407565 0.00992921
-0.00138291 0.0437836 0.0160597
0.0126885 0.0437015 0.0160221
0.00295767 -0.0438776 0.0231863
0.0301939 -0.0438847 0.0244892
-0.0423301 -0.0355892 0.0236904
-0.0196626 -0.0400096 0.0278856
0.0111587 -0.0346721 0.023445
0.00627396 -0.0234942 0.0254748
0.0223215 -0.0231253 0.0250068
0.040216 -0.0315001 0.0265958
-0.0437595 -0.01414 0.0213662
0.0384878 -0.0150968 0.0254918
-0.0287684 -0.00807513 0.0259325
-0.0127444 -0.00658002 0.0244668
0.0175367 0.00152464 0.0257381
0.0438004 -0.00413796 0.023055
-0.0407869 0.00906127 0.0221206
-0.0270348 0.00746798 0.0188516
-0.0119242 0.00943727 0.0243888
0.00330218 0.00659827 0.0192968
0.0437639 0.00827373 0.0237181
0.0175332 0.0223432 0.0246872
0.0290065 0.0177082 0.0264536
0.0409072 0.0199394 0.0204956
-0.0318817 0.0229268 0.0193273
-0.0248189 0.0400923 0.0268554
0.0203099 0.0339778 0.0281555
-0.00916148 0.0438571 0.0258189
0.0239563 0.0437156 0.0212804
0.03666 0.043841 0.02026
-0.000111226 -0.0337882 0.0360975
-0.0402388 -0.0202873 0.0369536
-0.0140927 -0.0204208 0.0323385
0.0127836 -0.014635 0.0363566
-0.0438468 -0.0056573 0.0311486
-0.00190308 -0.00530804 0.0365817
-0.0263784 0.0128954 0.0306429
0.0338894 0.00506672 0.0320119
0.00493172 0.0148009 0.0331909
0.0380852 0.0165674 0.0351185
-0.04366 0.0313624 0.0298858
-0.00875972 0.0233015 0.0328652
-0.0121783 0.0349217 0.0354245
0.00307644 0.034112 0.0295427
0.0400785 0.0322167 0.0308852
-0.0424675 0.0436562 0.028213
-0.0363037 -0.0397774 0.0387622
-0.0160469 -0.0394503 0.0436641
0.0185575 -0.0401673 0.0380028
0.039139 -0.0400718 0.0469511
-0.0258125 -0.0238228 0.0426172
0.0301169 -0.0291437 0.0387431
0.0403559 -0.0242791 0.0439466
0.00382719 -0.0201266 0.0439164
-0.0438621 -0.00621997 0.0440763
0.0290292 -0.00943055 0.0376569
0.0438278 -0.0124233 0.043288
-0.0201089 0.00195696 0.0407657
0.0117433 0.00232357 0.0407776
0.043648 -0.000364092 0.0375292
-0.0397556 0.00825965 0.0383467
0.0212621 0.0116265 0.0387548
-0.0214889 0.0223334 0.0427864
0.0438508 0.0186897 0.0460127
-0.039797 0.024393 0.0398836
-0.0354717 0.0359472 0.0382919
0.0158468 0.0401942 0.0433341
-0.0437876 0.0420063 0.0452922
-0.0272142 0.0438942 0.0430838
0.0314979 0.0438014 0.0421602
0.0438559 0.043786 0.0422338
-0.0438171 -0.0437845 0.0524776
0.00566769 -0.0439203 0.0469727
-0.0437754 -0.0317699 0.055771
0.000138667 -0.0322128 0.0522102
-0.00928028 -0.0256223 0.0468793
0.0227251 -0.0225942 0.0513336
-0.0328717 -0.00498195 0.0497113
-0.0140534 -0.0118006 0.0542318
0.00172073 -0.00747062 0.0521022
0.0437869 -0.00553392 0.0536151
0.017206 -0.00385472 0.054573
-0.00119271 0.00836044 0.051059
0.014762 0.0112432 0.0493922
0.0338265 0.0063631 0.0486528
-0.040092 0.0197606 0.0553825
-0.00759924 0.0237791 0.0540041
0.00856924 0.0253449 0.0543038
0.0314129 0.0288948 0.0484223
-0.00349398 0.0400393 0.0480781
-0.0329525 -0.0437736 0.0591397
-0.0111016 -0.0411738 0.0614409
0.000920561 -0.0439116 0.0583461
0.0165505 -0.0401426 0.0582551
0.0291474 -0.0318432 0.0636213
0.0432372 -0.0365806 0.0622492
-0.0229383 -0.0313733 0.0564126
-0.00848995 -0.0273894 0.0621009
-0.0342489 -0.015237 0.0626602
0.00578612 -0.0200635 0.0612787
0.0402336 -0.020773 0.0604247
-0.00234351 -0.00376959 0.0636635
0.0434473 0.00404541 0.0615076
-0.025911 0.00636206 0.0591427
-0.0195526 0.0212385 0.0588359
-0.0104284 0.0139828 0.0630812
0.0248294 0.0169614 0.0628475
0.0430688 0.0161055 0.0586133
-0.0423164 0.0352309 0.0596999
-0.026336 0.035737 0.0568788
-0.0108605 0.0341158 0.0611918
0.014243 0.0395778 0.0599502
0.0435628 0.0403074 0.0563057
-0.00323891 0.0437156 0.0638787
0.0286883 0.0437665 0.0575144
-0.0224241 -0.0438981 0.0664528
-0.0429216 -0.0410066 0.0659457
-0.0217419 -0.0329633 0.0728337
-0.000323935 -0.0364562 0.0725322
-0.0437568 -0.0241326 0.0727704
-0.0340249 -0.0304448 0.0681564
0.0187076 -0.0269713 0.0681556
-0.0151217 -0.0219024 0.0709343
-0.0031191 -0.0189925 0.0746686
-0.0194613 -0.0065062 0.072714
0.0155364 -0.00850057 0.0699837
0.0312696 -0.00505509 0.0683717
-0.034746 -0.0016036 0.0744917
0.00851011 0.00348236 0.0660122
0.000181731 0.00973629 0.0727167
-0.0286988 0.0200312 0.0671626
-0.000505075 0.0205372 0.0667099
-0.0116345 0.0251007 0.0696857
0.0398519 0.0292063 0.0675031
0.0236188 0.0401233 0.0733779
-0.0437846 0.043851 0.0694294
-0.0177313 0.0436532 0.0681714
0.00781303 0.0437982 0.0697778
-0.0147455 -0.0427508 0.0761441
0.00951326 -0.0438677 0.0828503
0.0438058 -0.0438009 0.0798538
-0.0366474 -0.0390885 0.0815703
0.014062 -0.0322037 0.0783446
0.0282802 -0.0398638 0.0776467
-0.00996338 -0.0273509 0.0818235
0.0423972 -0.0302254 0.0778629
-0.0207219 -0.0211874 0.0819544
-0.0104861 -0.0144128 0.0834982
0.0111279 -0.020285 0.0765129
0.0426475 -0.0158708 0.0757108
-0.0343124 -0.0131004 0.0794757
0.00285608 -0.00446546 0.0799267
-0.0401167 0.0134742 0.0765906
-0.0147141 0.0119129 0.0785633
0.0189736 0.00724146 0.0791072
0.0401231 0.00817246 0.0799093
0.0072154 0.0296401 0.077569
0.0289895 0.0240496 0.0836479
0.0437316 0.0319029 0.083
-0.0333345 0.0331006 0.0753316
-0.0113967 0.0323163 0.0841057
-0.0221316 0.043785 0.0802116
0.0393227 0.0437088 0.0811887
-0.0219004 -0.0438109 0.0862095
-0.00104576 -0.0418443 0.0902022
0.0382332 -0.0414975 0.0907817
0.0117518 -0.0342442 0.0902596
-0.032088 -0.0241225 0.0856481
0.0327376 -0.0263099 0.0921617
-0.0438947 -0.0206705 0.0858871
-0.035986 -0.0136008 0.0927958
0.00229114 -0.0213022 0.0904177
0.0215821 -0.0114995 0.085102
0.0401236 -0.00789603 0.0915011
-0.041861 0.0028591 0.0888189
-0.0259413 0.000285646 0.0901764
-0.0438855 0.0203007 0.0911926
-0.0278701 0.0211123 0.0902455
0.00254266 0.0135201 0.0882977
0.0439884 0.0166176 0.0929773
-0.0437998 0.0389636 0.0861323
-0.0312333 0.0436729 0.0889194
0.000647772 0.0437695 0.0862356
0.0126947 0.0423834 0.0898314
-0.0438232 -0.0437717 0.0952497
0.00706168 -0.0333636 0.101725
0.0217803 -0.0401489 0.101166
-0.0400668 -0.0285964 0.0994485
-0.0191705 -0.0305575 0.0950467
-0.0278121 -0.0182379 0.101063
0.0224029 -0.0169319 0.101115
-0.012991 -0.0121017 0.0994472
-0.00330013 0.000203111 0.0953958
0.0187884 0.00283322 0.0985452
-0.0437159 0.0309263 0.0976656
-0.0153345 0.0248066 0.0996243
-0.00328052 0.0258513 0.0968061
0.0144671 0.0269868 0.0968341
-0.0201112 0.0401645 0.100131
0.000880471 0.0401609 0.102833
0.0301644 0.0401416 0.0951688
-0.0437848 0.0438098 0.0975619
-0.0427419 -0.0427413 0.107581
0.00869291 -0.0435886 0.110098
-0.0290217 -0.0410477 0.107068
-0.00746147 -0.0386388 0.108969
0.0401608 -0.0364622 0.107594
-0.00293679 -0.02329 0.105574
0.0227048 -0.0260876 0.11076
-0.0316341 -0.0229223 0.112082
0.0378619 -0.0168838 0.109406
-0.04018 -0.00935898 0.109835
0.00535002 -0.00935572 0.106707
-0.027426 -0.000394747 0.106184
0.0401595 0.00274463 0.108265
-0.0400388 0.00964143 0.103401
-0.0148524 0.0093176 0.104014
0.00257289 0.0170865 0.109172
0.0184787 0.0142529 0.109958
0.0320589 0.0201717 0.103007
-0.0429179 0.0296031 0.110063
-0.0310259 0.0236467 0.105992
0.0438454 0.0291713 0.109795
-0.0329123 0.0370302 0.109728
0.0348383 0.0376182 0.110418
-0.043733 0.0437745 0.110018
0.0166123 0.0435501 0.105449
0.0281174 -0.043975 0.115297
-0.0214711 -0.0352459 0.116157
0.00301344 -0.0410942 0.120968
-0.0160556 -0.0246877 0.112569
0.00295206 -0.0280421 0.115427
-0.00715865 -0.0163478 0.114988
-0.0219834 -0.0104542 0.117657
0.0237449 -0.00487654 0.116421
-0.0348404 0.00193215 0.120395
-0.00606087 0.0019057 0.118176
0.0117845 0.00588957 0.116137
0.0300744 0.0134416 0.121614
-0.0363032 0.0180987 0.121038
0.0437234 0.0174704 0.113942
-0.0272648 0.0313753 0.119349
-0.011707 0.0303393 0.11514
0.0219143 0.0252973 0.114337
0.0383333 0.0292964 0.121564
0.022311 0.0401836 0.120253
-0.00255591 0.0437881 0.118182
0.0360522 -0.0438448 0.124793
-0.0356908 -0.0401474 0.121818
0.0179219 -0.0399649 0.12696
0.0438024 -0.0342714 0.123197
-0.0100883 -0.0255682 0.123464
-0.0402001 -0.021301 0.125764
0.0264934 -0.0193997 0.123912
-0.00930479 -0.0105384 0.127583
0.00208146 -0.0116885 0.122285
0.0143944 -0.0131631 0.126457
0.00924147 -0.00202824 0.125273
0.0400656 -0.00244447 0.128059
-0.0173588 0.0126564 0.124049
0.000104919 0.0215074 0.128364
0.0438403 0.0168121 0.1293
-0.0395621 0.0400569 0.125211
-0.0233106 -0.0438054 0.131472
-0.0076886 -0.04021 0.133084
0.0390712 -0.0400625 0.14014
-0.0238889 -0.0301485 0.14019
0.00450837 -0.0248305 0.1312
0.0220985 -0.0259794 0.140232
-0.03218 -0.0164234 0.138759
-0.0050162 -0.0148587 0.139529
0.0400686 -0.0217407 0.132663
-0.0382904 -0.00562274 0.131762
-0.0191576 -0.00716058 0.140188
-0.00323108 0.00287253 0.134124
0.0214275 0.00170129 0.135106
-0.0314242 0.00822981 0.1376
-0.0400729 0.0260389 0.139344
-0.0192753 0.0254645 0.139967
0.0190179 0.0253088 0.132948
0.0383576 0.027339 0.133876
-0.0223477 0.039461 0.132411
0.00594861 0.0401997 0.131423
0.0354668 0.0394672 0.133841
0.00617086 -0.0410111 0.142927
0.0182918 -0.0437866 0.14366
-0.0377302 -0.0380124 0.143644
-0.00495244 -0.0285616 0.143856
-0.0437709 -0.0229019 0.141485
0.0265641 -0.0108678 0.143812
0.0417549 -0.00588661 0.143787
0.0386057 0.00807299 0.141866
-0.000647492 0.0168966 0.143818
0.0151738 0.014162 0.143878
0.0431377 0.0200576 0.142835
0.00761401 0.03022 0.143894
-0.00574498 0.0348831 0.142259
-0.0416395 0.0415016 0.143799
-0.0294702 0.0434178 0.141886
0.0244268 0.0420447 0.142516
0.0420195 0.043676 0.143573
VERTICES 337 674
1 0
1 1
1 2
1 3
1 4
1 5
1 6
1 7
1 8
1 9
1 10
1 11
1 12
1 13
1 14
1 15
1 16
1 17
1 18
1 19
1 20
1 21
1 22
1 23
1 24
1 25
1 26
1 27
1 28
1 29
1 30
1 31
1 32
1 33
1 34
1 35
1 36
1 37
1 38
1 39
1 40
1 41
1 42
1 43
1 44
1 45
1 46
1 47
1 48
1 49
1 50
1 51
1 52
1 53
1 54
1 55
1 56
1 57
1 58
1 59
1 60
1 61
1 62
1 63
1 64
1 65
1 66
1 67
1 68
1 69
1 70
1 71
1 72
1 73
1 74
1 75
1 76
1 77
1 78
1 79
1 80
1 81
1 82
1 83
1 84
1 85
1 86
1 87
1 88
1 89
1 90
1 91
1 92
1 93
1 94
1 95
1 96
1 97
1 98
1 99
1 100
1 101
1 102
1 103
1 104
1 105
1 106
1 107
1 108
1 109
1 110
1 111
1 112
1 113
1 114
1 115
1 116
1 117
1 118
1 119
1 120
1 121
1 122
1 123
1 124
1 125
1 126
1 127
1 128
1 129
1 130
1 131
1 132
1 133
1 134
1 135
1 136
1 137
1 138
1 139
1 140
1 141
1 142
1 143
1 144
1 145
1 146
1 147
1 148
1 149
1 150
1 151
1 152
1 153
1 154
1 155
1 156
1 157
1 158
1 159
1 160
1 161
1 162
1 163
1 164
1 165
1 166
1 167
1 168
1 169
1 170
1 171
1 172
1 173
1 174
1 175
1 176
1 177
1 178
1 179
1 180
1 181
1 182
1 183
1 184
1 185
1 186
1 187
1 188
1 189
1 190
1 191
1 192
1 193
1 194
1 195
1 196
1 197
1 198
1 199
1 200
1 201
1 202
1 203
1 204
1 205
1 206
1 207
1 208
1 209
1 210
1 211
1 212
1 213
1 214
1 215
1 216
1 217
1 218
1 219
1 220
1 221
1 222
1 223
1 224
1 225
1 226
1 227
1 228
1 229
1 230
1 231
1 232
1 233
1 234
1 235
1 236
1 237
1 238
1 239
1 240
1 241
1 242
1 243
1 244
1 245
1 246
1 247
1 248
1 249
1 250
1 251
1 252
1 253
1 254
1 255
1 256
1 257
1 258
1 259
1 260
1 261
1 262
1 263
1 264
1 265
1 266
1 267
1 268
1 269
1 270
1 271
1 272
1 273
1 274
1 275
1 276
1 277
1 278
1 279
1 280
1 281
1 282
1 283
1 284
1 285
1 286
1 287
1 288
1 289
1 290
1 291
1 292
1 293
1 294
1 295
1 296
1 297
1 298
1 299
1 300
1 301
1 302
1 303
1 304
1 305
1 306
1 307
1 308
1 309
1 310
1 311
1 312
1 313
1 314
1 315
1 316
1 317
1 318
1 319
1 320
1 321
1 322
1 323
1 324
1 325
1 326
1 327
1 328
1 329
1 330
1 331
1 332
1 333
1 334
1 335
1 336
POINT_DATA 337
VECTORS i float
0.0 0.0 0.0
0.0 0.0 0.0
0.0 0.0 0.0
0.0 0.0 0.0
0.0 0.0 0.0
0.0 0.0 0.0
0.0 0.0 0.0
0.0 0.0 0.0
0.0 0.0 0.0
0.0 0.0 0.0
0.0 0.0 0.0
0.0 0.0 0.0
0.0 0.0 0.0
0.0 0.0 0.0
0.0 0.0 0.0
0.0 0.0 0.0
0.0 0.0 0.0
0.0 0.0 0.0
0.0 0.0 0.0
0.0 0.0 0.0
0.0 0.0 0.0
0.0 0.0 0.0
0.0 0.0 0.0
0.0 0.0 0.0
0.0 0.0 0.0
0.0 0.0 0.0
0.0 0.0 0.0
0.0 0.0 0.0
0.0 0.0 0.0
0.0 0.0 0.0
0.0 0.0 0.0
0.0 0.0 0.0
0.0 0.0 0.0
0.0 0.0 0.0
0.0 0.0 0.0
0.0 0.0 0.0
0.0 0.0 0.0
0.0 0.0 0.0
0.0 0.0 0.0
0.0 0.0 0.0
0.0 0.0 0.0
0.0 0.0 0.0
0.0 0.0 0.0
0.0 0.0 0.0
0.0 0.0 0.0
0.0 0.0 0.0
0.0 0.0 0.0
0.0 0.0 0.0
0.0 0.0 0.0
0.0 0.0 0.0
0.0 0.0 0.0
0.0 0.0 0.0
0.0 0.0 0.0
0.0 0.0 0.0
0.0 0.0 0.0
0.0 0.0 0.0
0.0 0.0 0.0
0.0 0.0 0.0
0.0 0.0 0.0
0.0 0.0 0.0
0.0 0.0 0.0
0.0 0.0 0.0
0.0 0.0 0.0
0.0 0.0 0.0
0.0 0.0 0.0
0.0 0.0 0.0
0.0 0.0 0.0
0.0 0.0 0.0
0.0 0.0 0.0
0.0 0.0 0.0
0.0 0.0 0.0
0.0 0.0 0.0
0.0 0.0 0.0
0.0 0.0 0.0
0.0 0.0 0.0
0.0 0.0 0.0
0.0 0.0 0.0
0.0 0.0 0.0
0.0 0.0 0.0
0.0 0.0 0.0
0.0 0.0 0.0
0.0 0.0 0.0
0.0 0.0 0.0
0.0 0.0 0.0
0.0 0.0 0.0
0.0 0.0 0.0
0.0 0.0 0.0
0.0 0.0 0.0
0.0 0.0 0.0
0.0 0.0 0.0
0.0 0.0 0.0
0.0 0.0 0.0
0.0 0.0 0.0
0.0 0.0 0.0
0.0 0.0 0.0
0.0 0.0 0.0
0.0 0.0 0.0
0.0 0.0 0.0
0.0 0.0 0.0
0.0 0.0 0.0
0.0 0.0 0.0
0.0 0.0 0.0
0.0 0.0 0.0
0.0 0.0 0.0
0.0 0.0 0.0
0.0 0.0 0.0
0.0 0.0 0.0
0.0 0.0 0.0
0.0 0.0 0.0
0.0 0.0 0.0
0.0 0.0 0.0
0.0 0.0 0.0
0.0 0.0 0.0
0.0 0.0 0.0
0.0 0.0 0.0
0.0 0.0 0.0
0.0 0.0 0.0
0.0 0.0 0.0
0.0 0.0 0.0
0.0 0.0 0.0
0.0 0.0 0.0
0.0 0.0 0.0
0.0 0.0 0.0
0.0 0.0 0.0
0.0 0.0 0.0
0.0 0.0 0.0
0.0 0.0 0.0
0.0 0.0 0.0
0.0 0.0 0.0
0.0 0.0 0.0
0.0 0.0 0.0
0.0 0.0 0.0
0.0 0.0 0.0
0.0 0.0 0.0
0.0 0.0 0.0
0.0 0.0 0.0
0.0 0.0 0.0
0.0 0.0 0.0
0.0 0.0 0.0
0.0 0.0 0.0
0.0 0.0 0.0
0.0 0.0 0.0
0.0 0.0 0.0
0.0 0.0 0.0
0.0 0.0 0.0
0.0 0.0 0.0
0.0 0.0 0.0
0.0 0.0 0.0
0.0 0.0 0.0
0.0 0.0 0.0
0.0 0.0 0.0
0.0 0.0 0.0
0.0 0.0 0.0
0.0 0.0 0.0
0.0 0.0 0.0
0.0 0.0 0.0
0.0 0.0 0.0
0.0 0.0 0.0
0.0 0.0 0.0
0.0 0.0 0.0
0.0 0.0 0.0
0.0 0.0 0.0
0.0 0.0 0.0
0.0 0.0 0.0
0.0 0.0 0.0
0.0 0.0 0.0
0.0 0.0 0.0
0.0 0.0 0.0
0.0 0.0 0.0
0.0 0.0 0.0
0.0 0.0 0.0
0.0 0.0 0.0
0.0 0.0 0.0
0.0 0.0 0.0
0.0 0.0 0.0
0.0 0.0 0.0
0.0 0.0 0.0
0.0 0.0 0.0
0.0 0.0 0.0
0.0 0.0 0.0
0.0 0.0 0.0
0.0 0.0 0.0
0.0 0.0 0.0
0.0 0.0 0.0
0.0 0.0 0.0
0.0 0.0 0.0
0.0 0.0 0.0
0.0 0.0 0.0
0.0 0.0 0.0
0.0 0.0 0.0
0.0 0.0 0.0
0.0 0.0 0.0
0.0 0.0 0.0
0.0 0.0 0.0
0.0 0.0 0.0
0.0 0.0 0.0
0.0 0.0 0.0
0.0 0.0 0.0
0.0 0.0 0.0
0.0 0.0 0.0
0.0 0.0 0.0
0.0 0.0 0.0
0.0 0.0 0.0
0.0 0.0 0.0
0.0 0.0 0.0
0.0 0.0 0.0
0.0 0.0 0.0
0.0 0.0 0.0
0.0 0.0 0.0
0.0 0.0 0.0
0.0 0.0 0.0
0.0 0.0 0.0
0.0 0.0 0.0
0.0 0.0 0.0
0.0 0.0 0.0
0.0 0.0 0.0
0.0 0.0 0.0
0.0 0.0 0.0
0.0 0.0 0.0
0.0 0.0 0.0
0.0 0.0 0.0
0.0 0.0 0.0
0.0 0.0 0.0
0.0 0.0 0.0
0.0 0.0 0.0
0.0 0.0 0.0
0.0 0.0 0.0
0.0 0.0 0.0
0.0 0.0 0.0
0.0 0.0 0.0
0.0 0.0 0.0
0.0 0.0 0.0
0.0 0.0 0.0
0.0 0.0 0.0
0.0 0.0 0.0
0.0 0.0 0.0
0.0 0.0 0.0
0.0 0.0 0.0
0.0 0.0 0.0
0.0 0.0 0.0
0.0 0.0 0.0
0.0 0.0 0.0
0.0 0.0 0.0
0.0 0.0 0.0
0.0 0.0 0.0
0.0 0.0 0.0
0.0 0.0 0.0
0.0 0.0 0.0
0.0 0.0 0.0
0.0 0.0 0.0
0.0 0.0 0.0
0.0 0.0 0.0
0.0 0.0 0.0
0.0 0.0 0.0
0.0 0.0 0.0
0.0 0.0 0.0
0.0 0.0 0.0
0.0 0.0 0.0
0.0 0.0 0.0
0.0 0.0 0.0
0.0 0.0 0.0
0.0 0.0 0.0
0.0 0.0 0.0
0.0 0.0 0.0
0.0 0.0 0.0
0.0 0.0 0.0
0.0 0.0 0.0
0.0 0.0 0.0
0.0 0.0 0.0
0.0 0.0 0.0
0.0 0.0 0.0
0.0 0.0 0.0
0.0 0.0 0.0
0.0 0.0 0.0
0.0 0.0 0.0
0.0 0.0 0.0
0.0 0.0 0.0
0.0 0.0 0.0
0.0 0.0 0.0
0.0 0.0 0.0
0.0 0.0 0.0
0.0 0.0 0.0
0.0 0.0 0.0
0.0 0.0 0.0
0.0 0.0 0.0
0.0 0.0 0.0
0.0 0.0 0.0
0.0 0.0 0.0
0.0 0.0 0.0
0.0 0.0 0.0
0.0 0.0 0.0
0.0 0.0 0.0
0.0 0.0 0.0
0.0 0.0 0.0
0.0 0.0 0.0
0.0 0.0 0.0
0.0 0.0 0.0
0.0 0.0 0.0
0.0 0.0 0.0
0.0 0.0 0.0
0.0 0.0 0.0
0.0 0.0 0.0
0.0 0.0 0.0
0.0 0.0 0.0
0.0 0.0 0.0
0.0 0.0 0.0
0.0 0.0 0.0
0.0 0.0 0.0
0.0 0.0 0.0
0.0 0.0 0.0
0.0 0.0 0.0
0.0 0.0 0.0
0.0 0.0 0.0
0.0 0.0 0.0
0.0 0.0 0.0
0.0 0.0 0.0
0.0 0.0 0.0
0.0 0.0 0.0
0.0 0.0 0.0
0.0 0.0 0.0
0.0 0.0 0.0
0.0 0.0 0.0
0.0 0.0 0.0
0.0 0.0 0.0
0.0 0.0 0.0
0.0 0.0 0.0
0.0 0.0 0.0
0.0 0.0 0.0
0.0 0.0 0.0
0.0 0.0 0.0
0.0 0.0 0.0
0.0 0.0 0.0
0.0 0.0 0.0
0.0 0.0 0.0
0.0 0.0 0.0
0.0 0.0 0.0
0.0 0.0 0.0
VECTORS f float
0.0309669 0.0383674 0.067541
0.0289708 -0.0330577 -0.0113318
-0.000153444 0.000398274 0.000853621
1.1361e-05 -3.37393e-07 0.000970728
0.0193875 -0.0440924 -0.0385084
-0.00192313 0.0106515 0.000596832
0.0 0.0 0.0
-0.00806841 0.0152656 -0.00997787
0.0 0.0 0.0
0.0 0.0 0.0
0.0069799 -0.00183391 -0.00300202
-0.0297631 -0.00309677 0.0130397
0.0468311 -0.016715 0.0524322
-0.00621467 0.00634027 -0.0024073
0.0318203 -0.00255098 0.0762527
-0.0381488 -0.0774072 -0.0939911
-0.00151973 0.0105683 0.0683312
0.0184416 -0.11523 -0.0142806
0.0 0.0 0.0
0.078598 -0.00707674 0.154877
-0.14521 0.0828543 -0.0103108
0.00604783 0.0080833 0.000356729
-0.0705115 0.10609 -0.00338323
0.00853592 0.137892 0.028296
0.00936809 -0.284474 -0.0189703
-0.0025507 0.0281874 0.0315259
-0.0388352 -0.0205084 0.177757
0.0600735 0.00275623 0.170967
-0.00925851 -0.0270533 -0.00826577
-0.00728535 0.0168321 -0.0136381
-0.0291232 -0.0962136 -0.112648
-0.0370149 0.0120431 -0.0367065
-0.0669497 -0.0263047 -0.116716
0.0967486 -0.000158447 -0.00291282
-0.010107 0.107146 -0.0549389
0.0 0.0 0.0
-0.00014967 0.00151201 -6.11195e-05
0.00271952 -0.00365437 0.0199615
-0.00239472 0.00556475 -0.0173514
-0.00782788 -0.000561357 0.00229011
0.0 0.0 0.0
-0.00549575 -0.0217626 -0.013658
-0.0763155 -0.0485006 -0.018211
0.148586 -0.0427444 -0.0683272
0.0454255 0.0245648 -0.0214301
0.0176767 0.0116614 -0.0110633
0.0 0.0 0.0
-0.0299323 -0.030186 0.0034678
-0.119058 -0.0292016 0.0531417
0.00583273 0.0168226 0.0285913
-0.0141192 0.0826987 0.0328366
-0.0344616 -0.0455969 -0.00682424
0.0 0.0 0.0
0.0141361 0.0113299 0.00715416
0.0616134 0.0154221 0.048698
0.0293356 -0.0445042 0.0134109
-0.00346876 -0.0107047 0.0217912
5.87999e-05 0.000239391 -4.52088e-05
0.0 0.0 0.0
-0.049518 -0.0171552 -0.0178756
-0.150266 -0.0214478 0.071499
0.0254025 -0.018315 0.12049
0.00934575 0.00861832 -0.00479309
-0.0138496 -0.0136961 0.0194468
0.0199995 -0.00271502 0.0211398
0.00478474 0.00214074 -0.0016396
-0.0655276 0.0990838 0.0352258
0.162307 0.031059 -0.0453226
-0.133431 0.197853 0.128683
0.0 0.0 0.0
-0.0593014 -0.0499808 0.0580419
0.0462771 -0.37148 0.0240057
-0.0548018 0.0658957 -0.0720648
-0.0074255 0.0102886 -0.00312886
0.0372163 0.178916 0.114669
0.0 0.0 0.0
-0.000202065 -0.00198926 0.00029365
0.0247316 0.0393172 0.036097
0.0128961 0.0180447 0.0311989
0.0330137 -0.190609 0.107469
0.00202171 0.023849 -0.0835432
0.000202065 0.00198926 -0.00029365
0.0134825 0.00918168 0.0250907
-0.000214522 -0.00063876 0.0106434
0.0285496 -0.0271428 0.0325232
-0.0619467 -0.0693114 -0.0142482
0.00522982 -0.00909353 0.0136881
0.0259243 -0.0539397 0.035324
-0.0103767 0.0538594 0.0041218
0.0 0.0 0.0
-0.0444644 -0.042673 0.0263156
0.0612697 0.0421056 0.0355824
0.0173246 -0.0665321 0.0518914
0.155016 0.0172246 -0.0453609
0.0660934 0.208896 0.10861
0.0074255 -0.0102886 0.00312886
0.0245914 0.122705 -0.101313
-0.0076097 0.00355529 0.0104573
0.0137606 0.028064 0.150004
-0.00502011 0.0379083 -0.00477236
-0.0263602 -0.00722792 0.0137279
0.0333653 0.0204967 0.0192015
0.0838686 0.251961 -0.162993
-0.0404153 -0.0257919 -0.0339257
-0.00837631 -0.0349064 -0.0176051
0.0525677 0.035663 0.112197
0.0187517 0.000383908 0.00342849
-0.00770443 0.00640075 -0.103389
-0.0487711 0.0865574 -0.0741108
-0.0152341 -0.0454591 -0.00359609
-0.0163653 -0.0215713 -0.0142015
0.0286085 -0.0132632 0.0312391
-0.049709 -0.0128185 0.386075
0.0858254 -0.0219011 0.0422517
0.0 0.0 0.0
0.112764 -0.0201429 -0.234287
0.00841074 -0.0438331 -0.0175839
0.0263855 0.000440183 -0.0960021
-0.2956 -0.10987 0.296556
-0.00782522 0.0272243 -0.00678068
-0.0416788 0.0860379 0.0327453
-0.0111212 -0.0504051 0.0417542
0.0 0.0 0.0
0.0656176 0.0266613 -0.0456077
-0.0303742 -0.0612551 0.121329
0.040037 0.182633 0.0697435
-0.0238565 0.0861736 0.0942775
-0.0214657 0.0391941 0.119071
-0.011015 -0.0807043 -0.036504
0.140423 -0.29904 -0.516474
0.0326923 0.0060565 -0.0518966
0.045107 -0.0261679 0.0246458
-0.0250683 -0.387082 -0.260693
-0.0255224 -0.0117187 -0.00688943
0.106923 -0.298833 0.0978417
-0.182436 -0.0727839 -0.0422089
-0.109729 0.278906 0.03498
0.0 0.0 0.0
0.00391995 -0.0327819 0.02377
-0.131294 -0.0127271 -0.0725374
0.130763 0.00564933 0.112276
0.0595043 0.0567896 -0.0802012
-0.0300824 0.0495956 0.0903127
-0.00455777 -0.0300263 0.0056643
0.00307731 -0.00964573 -0.00264394
-0.00746949 -0.292765 0.10921
0.0181169 -0.00147687 -0.0044236
0.0 0.0 0.0
-0.00448821 0.0252176 0.0044566
0.0 0.0 0.0
-0.0235297 -0.0262193 0.0804108
-0.00202623 0.00495698 0.0132661
-0.20216 0.00931757 0.114077
0.0 0.0 0.0
-0.0809754 -0.00643183 0.0115268
0.0 0.0 0.0
0.0324898 0.220093 0.0436562
-0.0150335 -0.00878829 -0.0360897
0.00294385 -0.014918 -0.00906545
-0.000146055 -0.00227415 0.0486303
-0.150328 0.279553 -0.194116
-0.0858095 0.096207 0.0571887
-0.0747642 0.00297267 -0.038245
0.0132004 -0.00403646 0.0116026
0.00742923 -0.00682485 0.00399565
0.0551795 -0.0577817 -0.0879865
-0.0429215 -0.0280024 -0.0532454
-0.0109302 -0.0129407 0.0443366
-0.0378407 0.0494616 -0.00942137
-0.00665683 0.124085 0.00170783
0.158506 -0.174545 0.181165
-0.0130955 0.00428936 0.00555737
0.0 0.0 0.0
0.000943705 -0.000266487 -0.00433214
0.0225573 0.00880264 0.0184483
-0.0346787 0.0231063 -0.0377743
0.00376342 -0.0398863 -0.00416619
0.25654 -0.184556 0.0777186
-0.0579411 -0.107313 0.0144781
0.0636953 0.147401 -0.0200445
0.0329529 0.159425 0.0953266
0.0 0.0 0.0
-0.183097 -0.14568 -0.0614163
-0.0124257 0.0496477 0.0338233
0.00361887 -0.00212109 -0.0325357
0.0 0.0 0.0
0.0 0.0 0.0
-0.0131734 -0.0057056 0.125534
0.0361733 0.110901 0.11887
0.14494 -0.152628 0.0186682
0.0207599 0.000981511 0.0357643
0.0170633 0.015461 -0.0909803
-0.270177 0.129132 -0.26707
-0.00888719 -0.010642 -0.0978829
0.000623305 2.68937e-05 0.00356741
-0.252505 0.00583588 0.102913
0.0435477 0.0961722 0.136585
-0.0118922 -0.00187792 0.00325166
0.0 0.0 0.0
0.0619647 0.0266567 -0.158998
0.0 0.0 0.0
-0.000924658 0.00591284 -0.00210443
0.0190121 -0.0443924 0.0183587
-0.0977734 0.0487902 -0.198881
0.0390184 -0.0243021 -0.0763121
0.168727 0.00151981 -0.352929
0.0 0.0 0.0
0.0486865 -0.00784894 0.0368152
0.0724441 -0.0265833 -0.0963526
0.0757201 0.214004 -0.215271
0.0680421 0.03074 0.062501
0.0112645 0.0630035 -0.0850319
-0.0173713 -0.0118887 0.0128204
0.500999 -0.0268308 -0.126799
0.121301 -0.0913358 0.00216558
0.000667653 0.00183066 -0.01549
-0.0145901 -0.042739 0.0129063
-0.0268666 0.0182737 -0.0420226
4.80562e-05 -0.000856089 0.000425338
0.0 0.0 0.0
-0.133127 0.0550488 -0.244852
-0.0398925 -0.0315034 0.103768
0.0469876 -0.0702112 -0.0119354
-0.29937 -0.107837 0.465943
0.194499 0.0692931 -0.14947
-0.0684255 -0.00890841 0.0197648
0.0 0.0 0.0
0.349005 0.27522 -0.345266
0.0153137 0.000543868 -0.0266697
0.119433 0.106427 -0.041468
-0.0206975 0.0201524 0.00944449
-0.128928 -0.0610105 -0.00819332
0.0340665 0.00566464 -0.00892943
-0.290281 -0.175022 0.144339
0.0899008 0.0209439 0.0788508
0.147508 0.258495 -0.111732
-0.11485 0.051904 0.0114572
-0.00421082 -0.0576622 -0.0996128
0.0266804 -0.0517684 -0.119224
0.0186765 0.00481053 -0.00949812
-0.00562002 0.00169106 0.0235248
-0.146824 -0.0247305 0.0918358
0.0667793 0.071199 0.0599254
0.155702 0.0779511 -0.0445567
0.0 0.0 0.0
0.000388763 0.0891392 -0.0520903
0.0113907 -0.0584219 -0.0945757
-0.0433275 0.0235449 -0.0421068
-0.0732972 -0.0557512 0.30791
-0.039136 0.00857094 0.017906
-0.0798295 -0.415743 -0.0546532
-0.103849 0.0431285 0.0431403
-0.0695183 -0.166921 0.176813
-0.0613278 -0.174071 -0.0015293
0.0308282 0.203128 0.0139798
0.00298445 0.0896617 0.00103206
-0.00148534 -0.000594364 -0.000605736
0.0 0.0 0.0
0.00202953 -0.00759258 -0.00956815
0.00148534 0.000594364 0.000605736
0.0439872 -0.105012 -0.0270549
-0.00270818 0.000304851 -0.0428535
0.00362296 -0.00244699 0.00443246
-0.0430878 -0.0563226 -0.122533
0.0518723 0.0163544 -0.00341513
0.10766 0.0788572 0.0867738
0.0313524 0.0428824 -0.0406348
-0.200845 -0.0326863 0.0360501
0.0162056 -0.00285887 -0.0347601
0.0891185 -0.154187 0.0930179
0.115772 -0.135019 -0.0351054
0.0 0.0 0.0
0.0 0.0 0.0
0.0217206 0.0161963 0.0185753
0.00968135 0.036667 0.0083427
-0.0336319 0.0802161 -0.0387148
-0.0956224 -0.00619769 -0.00193448
0.00239441 0.0152337 -0.0145506
0.00278608 -0.0136703 0.0529022
-0.013698 0.0223408 0.0115363
-4.54793e-06 1.47004e-05 4.79787e-05
-0.00805026 0.0624598 0.0755138
0.0574045 0.00566772 0.0586888
-0.0035052 -0.00930452 0.0349275
0.121345 -0.0297515 0.0554971
-0.00641999 -0.132865 -0.0265877
-0.0215063 0.0184272 0.0463972
0.0309077 0.0182561 0.00111343
-0.009703 0.107349 -0.00586276
0.0 0.0 0.0
0.0500521 -0.021822 -0.00847887
-0.0876739 0.043118 -0.00463384
0.00664988 0.00762282 0.0270197
-0.0245885 0.0555894 0.0220401
0.0614955 0.124111 -0.0440223
0.0681162 0.0256903 -0.285712
-0.0470559 0.00346817 0.0881011
0.00460265 0.017726 -0.00814104
0.154127 5.67446e-05 -0.174848
0.0244531 -0.0341716 0.0132032
-0.157993 -0.04752 -0.109794
-0.343068 0.0139672 0.0365486
0.0305839 -0.0899875 -0.762514
0.022211 0.0600368 -0.00648697
-0.0317417 0.0830178 -0.0204235
-0.0109424 0.0417133 -0.0278209
0.0072183 -0.00130367 0.0411813
0.0138605 -0.136089 0.0250455
0.0 0.0 0.0
0.00461402 -0.0199315 -0.0247821
-0.0488148 0.031274 0.293171
0.0808198 0.21008 0.122377
0.0177868 0.0190303 -0.00851577
-0.0199271 -0.00853285 0.0153899
0.000895589 -0.00411084 0.00221342
-0.0700622 -0.104576 -0.0244206
-8.18282e-05 0.00039307 0.000158654
-0.000895589 0.00411084 -0.00221342
0.0707751 0.121356 0.0658357
8.49123e-05 -0.000407532 -0.00020835
-0.00622442 0.0313556 -0.00484767
-0.00144556 -0.0242488 0.00692352
0.0 0.0 0.0
0.000647841 0.0178986 0.00127632
-0.00215024 0.000120805 -0.00189437
-0.0123928 0.016863 -0.016365
0.00278966 0.0123688 -0.00535659
0.0 0.0 0.0
-0.00535789 0.0123263 0.015964
-0.00375814 -0.000162023 0.00795661
0.0 0.0 0.0
-0.00229331 -0.00363517 0.00563268
0.0 0.0 0.0
0.00443695 -0.0848366 -0.0164877
-0.00102606 0.000279612 -4.30635e-05
0.0 0.0 0.0
1.46378e-06 -2.39058e-07 1.71669e-06
VECTORS omega float
-2.90443 -5.99878 6.81559
-2.92836 -10.1042 -6.24445
-0.158974 1.4717 -4.99108
0.0967122 3.25648 -3.34251
-9.89737 -1.82843 -21.9735
5.85279 0.944491 -0.01069
1.44944 -5.44072 -0.175068
-8.39909 -5.24271 -17.3325
0.0 0.0 0.0
-8.59142 -3.5895 -15.6399
1.32121 -0.4567 -0.290075
17.6969 -17.1186 2.39726
3.04911 3.12975 0.711298
0.174078 6.92728 -2.99838
-4.36876 -0.550384 1.57416
0.0732155 -3.0318 3.68278
-0.503037 -1.93307 0.216692
2.70857 4.54751 1.00564
-8.01461 9.37585 1.13143
-3.71698 -10.1208 -4.85963
-4.27819 -5.51508 -6.34347
-11.5928 -0.783414 0.692479
6.16927 16.2826 -3.15569
-6.48088 3.5494 -3.57823
3.02923 2.35204 3.33597
1.93981 1.66793 12.7311
-10.0767 9.27231 -6.23727
4.29597 -0.00250863 3.55161
-0.048853 18.6245 -10.5302
2.7905 -9.88784 6.06145
3.1753 -0.964941 1.87934
1.34292 -14.4383 -5.17298
-5.27039 -3.5161 -3.18639
0.69669 -7.30698 -6.54994
3.91402 -7.19391 -3.11808
-14.4154 -4.43834 6.03758
0.493774 -8.0557 7.39213
-3.3593 -15.3056 0.166807
-8.09358 6.12073 9.76671
-2.97108 0.736979 1.12816
-6.411 -1.52955 2.29896
4.39789 1.51562 0.733471
13.2276 10.8539 -8.98207
-10.0653 0.480761 -8.21484
6.56808 -6.23456 1.79317
5.51934 0.757833 -0.804696
7.53927 4.579 5.35126
-0.752287 7.32928 -5.14101
2.2088 2.62009 -9.11825
0.380364 -11.1302 14.2816
4.37121 -7.81079 8.86326
2.45259 -0.203962 2.07991
13.0843 -1.50552 -2.28494
-16.7498 6.42546 5.1323
-4.1473 -1.595 0.808035
1.57388 -4.84976 -7.58288
-7.07297 -5.26497 0.184954
3.17918 12.6444 -1.79434
0.554582 -3.83843 -3.93805
-8.13194 19.8301 -1.20349
8.95153 -15.4474 17.5681
-2.15637 4.25004 5.15183
10.2484 -6.46571 -2.14221
-0.638444 -3.99658 -12.1334
-6.96462 15.6089 1.42116
1.95082 -3.46512 1.80285
-0.146389 0.437864 3.66034
-11.571 -0.0787247 1.19256
-1.75392 3.1384 -7.85207
5.61464 -11.984 -2.92914
21.7948 -0.470558 4.06079
-3.65827 -12.6038 0.877807
-5.27779 -2.11677 -0.0528981
2.72118 13.3685 0.935441
4.46349 0.252722 -9.13249
-5.78282 9.91402 -4.72344
-17.8086 0.207694 11.1215
7.05469 -15.99 1.49081
10.0573 -4.97386 1.03714
-3.45428 5.92564 8.19318
6.77505 -5.86058 3.97334
12.2185 -2.21688 -6.60038
-2.46681 7.46041 -6.50566
-0.51689 3.18719 5.90354
2.32417 -3.79727 -1.98631
8.35276 -0.497591 -2.63848
42.0551 -0.963124 -2.20845
-13.2853 0.429282 4.10179
-17.4878 -7.49683 3.47766
-6.19169 5.43654 3.88276
25.7203 -7.3395 3.46481
-6.82564 1.39834 -4.27457
7.48764 3.07293 2.70265
1.77213 0.260989 13.1424
-3.66576 6.72907 2.14811
8.43941 -7.32093 -2.04551
-18.0328 0.344334 6.8181
-9.5556 -5.01144 1.56673
-4.90594 4.72116 0.100876
-19.4087 -15.1669 -10.1308
16.0597 19.5775 14.2896
20.1597 15.0551 -38.558
0.220031 -0.838988 -1.22025
-3.53263 -23.2275 17.0454
0.684312 -24.0062 4.60568
10.1672 19.7818 2.4504
18.9156 -18.4519 -0.529273
9.76907 -6.14148 2.65955
0.475399 -2.88581 -2.41607
-14.6368 -1.60046 -0.161839
4.26082 -5.05612 13.6767
10.6005 -2.8424 6.62423
6.88717 -1.06893 6.34282
-4.83415 12.0187 3.59928
5.63546 -1.71737 -1.9787
13.3372 6.81865 2.80133
-2.86 -2.24495 2.7215
-7.96195 -0.396312 -5.1309
2.19278 -0.403962 1.12781
8.21059 0.0697825 5.21997
-0.796379 3.31244 7.54026
-6.12583 4.08317 -0.43581
12.0821 -9.63181 4.34958
-2.05421 1.42554 -3.987
-6.80485 7.10088 -6.05331
-2.24775 6.26785 -1.36957
14.3513 -5.20979 7.18737
-5.27464 15.7897 10.7516
0.19895 -4.44255 6.74148
6.67737 -4.99035 1.6003
-17.3665 -2.44643 -5.92245
-10.8356 -1.2922 5.16937
-29.9254 -1.20683 -17.2125
6.61253 -5.0568 17.8667
-9.89159 1.9813 -1.01389
-8.1552 -0.155582 -7.58101
-5.01055 0.318586 2.74252
-5.42934 -2.59429 -6.26135
-8.92165 3.04156 -4.51781
-3.92918 1.76408 -2.92065
9.10048 -6.81655 -7.21325
-10.2177 -0.295665 -0.16027
3.60335 -0.780179 -5.02043
7.39689 9.94104 4.96599
10.8543 2.36443 0.307883
0.389688 0.250066 6.2271
8.47601 -6.16982 -11.0732
2.30552 9.82603 -2.36151
5.33517 10.3544 12.5717
1.38689 9.21695 2.08224
-2.22294 3.69239 -0.532158
24.3177 10.0883 17.1947
-7.38667 10.7366 -13.9451
8.09628 -2.94128 1.75357
-1.91037 3.69987 -4.85909
-13.2105 -25.7705 20.1446
36.7747 14.7574 -23.4956
-5.30723 3.3555 10.5685
-1.54356 2.46388 -20.7604
-1.52098 5.75916 14.1838
1.08897 -5.89045 6.76241
2.66437 -5.98562 0.618288
2.22677 2.96895 -0.597499
-4.43818 11.5144 -4.60006
1.13427 -0.0801902 17.3737
-2.53445 0.553099 -7.00054
4.68238 17.9659 10.847
8.00758 -9.00489 6.65895
-3.15338 6.13666 -3.60712
-2.9601 0.57661 -6.03815
7.46606 -8.47519 -4.56021
0.261883 0.174108 1.37291
-1.7617 4.7348 0.614634
4.52014 -5.49555 0.440038
-11.5976 4.10024 4.98435
0.700526 -4.08864 4.18763
9.04578 8.58042 1.99109
-12.265 1.60757 -0.791761
-3.15625 -15.1379 13.6056
6.20793 0.0520955 -0.455897
8.49772 -10.0341 5.53182
0.0 0.0 0.0
0.0759348 7.6232 1.95954
0.892921 0.590178 -0.0318401
2.64832 0.630577 -9.2033
8.82173 1.69023 -5.20317
6.05034 10.1864 -9.2001
-2.0223 4.71043 4.07969
-1.1658 -0.454992 -1.29234
3.47129 4.1731 -1.12679
2.28629 -2.50076 -0.658426
-4.27705 -1.43394 -0.890667
-4.54996 5.12629 -7.0134
-4.51362 2.36876 7.50457
0.155079 -8.97639 -1.03285
-8.14528 3.95651 -1.18287
-1.79367 4.11779 3.41779
-1.12225 -3.1769 -7.22079
5.08769 -6.06506 4.81949
5.85783 -8.08442 6.18223
0.619822 0.530088 0.721279
-1.61163 -6.67538 9.14655
7.77586 6.61121 4.24373
46.2546 23.1007 10.3079
1.05366 1.22153 -3.11624
-18.7052 -24.6352 -12.5812
-12.4906 8.13434 11.6683
-8.54513 3.90156 -6.50302
-1.70549 6.6852 2.43482
5.70698 -0.61528 2.34572
-12.2175 4.85697 -8.67871
0.403329 3.9244 2.47541
-12.3105 -3.65837 3.58784
2.14073 -2.66586 -1.4281
8.07921 1.14495 0.96867
-0.258044 -3.14443 -5.45843
3.56944 -2.95796 8.01329
0.793447 12.5261 6.7662
0.482879 -0.865526 0.266207
-9.34498 -5.54327 -0.318597
9.44657 -4.94182 3.53814
-8.45006 0.31379 -2.87604
-2.35733 4.34068 -0.228679
-6.64158 -3.27798 2.30244
0.215383 5.29895 -0.323067
-1.44615 1.4556 7.1822
1.29439 1.24804 -6.91723
6.25055 -4.18372 -11.8329
-10.3635 18.4227 4.87997
4.37702 -1.11696 0.920264
15.7302 -2.63991 -8.94848
-0.732867 13.2889 -0.996185
-14.9783 -6.35892 2.87283
-11.0154 2.67995 2.99436
0.748562 -6.85578 -5.18184
4.03617 -2.16764 -8.99326
5.9893 3.52061 -3.94759
1.42909 4.65438 -0.117067
0.13755 14.0164 -2.74719
-2.39693 -5.55263 0.396432
7.7798 5.47895 -2.48706
7.1648 5.38534 -13.9256
-4.77637 -3.35144 0.619499
32.6629 3.05722 -22.5083
0.335401 -0.706355 -0.610114
-1.16023 22.4116 13.4997
2.97407 13.4521 -0.439097
-4.78867 -5.96041 -5.98622
-14.9654 -4.31292 -2.39676
6.19943 11.0066 7.74191
0.585328 -2.02308 1.25621
6.499 -3.93632 -1.18209
3.59796 5.39949 -0.884922
3.33391 -2.28552 4.5811
-5.38557 1.70387 8.71982
6.73264 -3.09662 -1.33786
-8.36432 5.3679 3.74462
3.18248 5.36587 -3.06064
-1.69107 -3.80631 -1.16034
17.2904 3.8994 -2.60637
-2.11985 3.84873 3.34214
-2.00875 -16.712 -12.3859
-3.22637 -0.201772 7.11444
1.63809 -11.6554 3.3429
-9.93842 -4.64932 6.28592
-18.7204 -25.0842 -10.016
12.3916 -9.2203 8.30035
-2.86747 -3.54318 23.4626
-11.3463 -0.184749 9.83828
1.82394 -0.112202 -3.67534
-10.1515 5.06904 7.6338
8.66824 -0.648228 10.8432
3.31357 5.81552 -1.37946
-0.475847 -1.8834 -7.50912
-3.08514 4.16641 4.52901
-4.07613 -5.68097 0.0263642
-0.355869 -7.83177 1.7127
-14.1236 -7.11767 5.40374
-0.837039 5.23029 0.149786
2.99326 -0.429085 -6.00332
-1.78446 -1.51701 -0.641702
0.300273 2.2476 0.149295
-3.6616 8.58383 0.831082
1.81813 13.8612 0.744723
-7.95416 -4.43171 -2.04534
1.40011 10.2366 13.6116
4.77703 0.890675 -2.98936
-8.92689 3.45627 11.1319
22.773 -5.61178 0.0981099
2.30471 -1.5879 -1.9086
-6.75231 16.0357 12.3814
15.106 5.91699 10.3776
-3.837 -23.1425 9.3902
3.45297 14.1132 -2.9858
3.00315 -3.88991 -1.82532
-5.12198 5.49521 -0.0386197
-1.71369 1.62131 1.23328
7.61651 -5.14723 -3.15743
-1.15995 14.3072 -2.33087
-2.023 -2.30142 -7.97296
-1.78952 1.82085 4.0806
0.670991 -3.15756 6.40951
-3.07968 4.81502 5.31564
-1.95041 -4.21657 -5.29552
-5.34235 1.55725 -5.47353
-23.9519 -5.8195 0.287834
3.31425 -1.46054 5.79509
-3.43273 -2.22568 1.7131
-9.43604 3.70916 -4.94638
-3.18475 7.07334 1.24383
-0.891335 -12.4184 0.718866
1.33936 -4.87343 2.43768
0.335145 11.4422 -6.07742
-4.55124 -7.58297 1.12289
-0.7435 0.812937 -0.504812
3.73653 -0.162004 -2.41116
-1.77998 0.308366 3.18551
1.47794 1.04115 -2.7109
0.644384 -2.9237 -1.97835
1.06161 0.326402 -1.80339
0.570076 -2.35713 -2.28396
-2.55465 1.66587 0.0749687
-2.32109 -3.34732 -10.0341
3.84999 7.22129 4.78062
-19.2552 -1.7308 -8.23034
5.13989 0.067985 4.19772
-2.60539 2.97134 1.4492
0.67543 -2.70899 -0.296763
0.430531 0.552067 0.123817
-3.21382 4.44532 -4.42665
-7.36528 2.32349 -1.43393
-1.12997 3.1072 4.02575
3.05849 0.192003 2.60736
-2.50894 1.20789 -4.30387
1.31619 -0.655683 -1.70795
0.0 0.0 0.0
0.916299 0.188141 -0.663939
VECTORS v float
-0.0397365 0.014957 -0.00382045
-0.0627876 0.0183803 -0.000495511
0.0279504 -0.0477452 0.00406908
0.0202936 -0.000602688 0.00406857
-0.0119761 0.0607058 0.00142531
0.00170543 -0.0339406 -0.000137845
-0.0302148 -0.00932585 0.0067282
-0.0301677 0.0564474 -0.00692896
0.0 0.0 0.0
0.0536674 -0.00376334 -0.0441554
-0.0143947 -0.00520629 0.00460456
-0.0186279 -0.00304327 -0.13458
0.00614265 -0.0179648 -0.00635877
0.0385299 -0.00101562 0.00555547
-0.0427609 -0.00156125 -0.0190303
-0.0359239 0.00270857 0.00392848
-0.0201688 0.00406682 0.0310471
-0.0642897 0.0292877 -0.00494438
0.03172 0.0552868 -0.0440851
-0.0361738 0.0172738 -0.0595384
-0.028566 0.0289752 0.0162422
0.00300548 -0.0021479 -0.00606758
-0.0254779 0.0749355 0.00600963
0.0439602 0.00135 0.00430535
0.00608804 0.0326892 -0.016812
0.0147894 -0.0221551 -0.00877328
-0.00218658 -0.0486929 -0.0390044
0.00129468 -0.0415755 -0.0215996
-0.00591606 -0.0670673 -0.118905
-0.0459954 0.0149292 -0.0735478
-0.00757961 -0.0359584 0.00651901
-0.0181951 -0.0267639 0.00608337
0.0182589 -0.0290213 0.00839076
-0.0718186 -0.00363388 -0.00213676
-0.0288277 0.0407127 -0.00947653
0.0480976 0.00960452 -0.0688079
0.0138743 -0.0207145 0.0341953
-0.006816 -0.00574119 0.0230316
-0.0581998 0.0119963 -0.0497274
-0.00685674 0.00479225 -0.0188186
0.00552356 0.0109943 0.0226653
-0.0400539 -0.0182971 0.0202947
-0.0476819 0.0275675 -0.0955465
-0.0186315 0.0350193 -0.0399353
-0.00421128 0.00398802 0.00784218
0.00238365 0.00726131 0.00487461
0.00138617 0.0323633 -0.0120387
-0.0250638 -0.0556012 0.0212059
-0.0011884 0.012266 -0.0489766
0.022959 0.0279243 0.00360994
-0.0146224 -0.0194485 -0.0256873
-0.000684072 -0.022416 0.00246794
-0.0219558 -0.0604194 -0.00415149
-0.0886828 -0.0597556 0.00453361
-0.0671657 0.0334066 -0.0253419
-0.0828853 -0.0258677 -0.0370781
-0.00512335 -0.00935491 -0.0283616
-0.0255225 0.0045582 -0.0352027
-0.0118496 -0.0141234 -0.0903282
-0.0138992 -0.0491028 -0.106193
-0.0662737 -0.0370305 -0.0582553
-0.0943644 -0.00117424 0.0264427
0.0136965 -0.0011623 0.0362328
-0.0778328 -0.0150233 0.003654
0.0151126 0.0259297 0.0309279
0.01086 0.000310959 -0.0131327
0.00276501 0.00791276 -0.0113825
0.00106932 0.0114504 -0.000444382
0.0157612 0.0412878 0.0116683
0.0234676 0.0210898 -0.0606029
0.00425518 0.0245634 0.00390521
0.00276965 0.0612405 0.0155422
-0.0748082 -0.014609 -0.0269876
-0.066256 -0.10152 -0.0622605
-0.0472289 -0.035838 -0.00939115
0.0203112 -0.0840903 -0.102088
0.0185805 0.0705858 -0.00382205
-0.0105587 0.0405599 -0.0459362
-0.055872 0.0196691 0.0161308
-0.0551638 -0.0128521 0.00459524
-0.000190888 -0.0418303 -0.0515807
-0.00687209 0.075505 -0.0378973
-0.0061889 0.0160608 0.103122
-0.00505786 -0.0475737 0.0233725
0.0183453 0.0103549 0.0201976
0.0268246 -0.0030611 0.0844583
0.00833198 -0.0477972 -0.0166159
0.0100522 0.0236268 0.0121882
0.0385106 -0.00793723 0.060682
0.00279842 0.0454042 -0.0306462
0.00113506 0.01533 0.0406485
-0.0179694 0.00852143 0.0335199
0.00105769 0.00034885 0.00856383
-0.0301878 -0.00465624 -0.0161605
-0.0703526 -0.0700715 -0.0304504
0.00532617 0.0175877 -0.0567608
-0.0676031 0.0369534 0.0255467
0.00352965 0.024432 -0.0373851
-0.0439085 0.0477154 -0.0725198
-0.00448829 0.0619847 -0.0939025
-0.190615 0.0464885 -0.0613074
-0.0744785 0.0373005 0.0825697
-0.01288 -0.0074871 -0.00896686
0.00659067 0.105276 0.143859
0.0300913 0.00557724 -0.0136147
-0.0141745 -0.0108054 -0.10766
-0.00616944 0.00143391 -0.114435
0.00567463 0.00494424 0.1219
0.0110674 0.0072434 0.00512136
0.00573545 0.0339909 0.0461852
-0.0403754 -0.0307276 0.0194025
0.0171662 -0.00923783 0.0137119
-0.0382974 -0.000703272 0.0137659
0.0181273 -0.0118351 0.0501438
-0.0692612 -0.0325769 -0.00407654
-0.0757409 0.0280003 0.0320473
-0.00793449 -0.0225144 0.0303632
-0.0515281 -0.00119569 0.00212298
-0.0731345 0.025839 -0.00634232
-0.0368279 0.017565 -0.0324795
-0.0124641 0.0681401 -0.0325634
-0.00983653 0.000721764 -0.0474819
-0.0772925 -0.00490018 -0.0534202
-0.0396743 0.0241283 0.0137691
0.00286372 -0.0157412 -0.0393774
-0.0169082 -0.0181633 0.0233775
-0.0758007 -0.0141511 0.0416787
-0.114679 -0.0647224 0.0867934
-0.0357771 -0.0015495 -0.0046746
-0.0220378 0.00705917 0.0661971
-0.0247985 0.00730534 0.1062
0.0242438 -0.000552598 0.105244
-0.0849687 -0.0541884 0.019189
-0.0726414 -0.0109875 0.00555883
-0.0709197 0.0388355 -0.0331864
-0.0622544 0.0172789 0.00804887
-0.00992197 -0.0251993 0.00177957
-0.0248717 -0.0611751 0.0553011
0.00339437 0.0289362 -0.0247458
-0.0343467 -0.0133421 -0.00880069
-0.0411362 -0.00211884 -0.0392191
-0.0821306 -0.0300051 0.00892738
-0.013597 0.0407135 0.00114241
-0.0160508 0.0318824 -0.0323343
0.00213033 0.0143783 -0.029478
-0.0462939 0.00135032 0.00157498
-0.0380024 -0.0144166 0.0335723
-0.0147365 0.0142497 -0.0626123
-0.0180233 0.0128992 -0.0292712
-0.00584779 -0.00645498 -0.0222018
0.0222418 0.0236068 -0.0734886
-0.107805 0.0137498 0.143791
-0.063564 -0.0296583 0.0301206
-0.114665 0.0228602 0.0478749
-0.0289068 0.00697813 -0.00330995
0.0192176 0.126917 0.16173
-0.064092 0.0425391 0.0405989
-0.0385884 0.0667692 0.0367577
-0.091039 -0.0207871 0.0325734
-0.0341873 0.0854301 0.0221225
-0.0379841 0.0049733 0.0222397
-0.0525894 -0.0160909 0.000347754
-0.0250137 -0.0104801 0.000491056
-0.053166 -0.0354829 0.029371
-0.0843751 0.0242069 -0.0258445
-0.118519 -0.0125452 -0.0247108
-0.00701672 0.00280521 0.0134026
-0.0829687 0.00173575 -0.00280148
-0.105456 -0.0292562 0.0127743
0.0356762 0.0152512 -0.000925805
-0.0475966 -0.00164989 -0.0756597
0.00529633 0.00115068 -0.00292452
-0.00180893 -0.0163985 0.00366506
0.00181956 -0.00917892 -0.0265256
-0.0372554 0.0381701 0.0903865
-0.025429 0.000320568 0.0039855
-0.0116031 0.0114023 0.0556044
-0.056627 -0.0306198 0.0181855
-0.0445 0.0481076 0.0368512
-0.0400752 0.0269491 0.133676
-0.0457335 -0.0139795 0.0052564
0.0 0.0 0.0
-0.0406392 0.0427159 0.0815493
-0.0396456 0.038583 0.0452624
-0.0668085 0.0295993 0.00470285
0.0122378 -0.0154008 0.0275815
0.0378377 -0.0496943 0.0363513
-0.0699177 -0.0232728 -0.0650195
-0.00571064 -0.00595679 0.0155859
-0.108302 0.0246566 0.0255719
-0.0717487 0.00989628 -0.0319581
0.000564216 0.0032427 -0.0119283
-0.0470094 -0.013522 -0.00354239
-0.0497775 -0.0121942 -0.0756874
0.00153152 0.0288237 0.0162138
0.0202793 0.0275218 0.0258532
-0.0421506 -0.00766625 0.0132318
-0.0452037 -0.00113161 0.00659664
0.0301866 -0.0126841 -0.0318804
-0.0547967 0.0146312 0.0835359
-0.00821445 0.00380538 0.00425263
-0.0265149 -0.0584365 0.083422
-0.0745109 -0.0011539 0.0268102
0.0255876 -0.114519 0.203289
0.000557199 -0.0229293 -0.0742625
0.030628 -0.0990074 0.164737
0.0207074 0.0838514 0.0551232
-0.0497851 0.0255479 0.0450119
-0.0223158 -0.00453436 -0.0464762
-0.000706306 -0.0173776 -0.012711
-0.100033 -0.0316201 0.0211535
-0.0875937 -0.0243818 0.034775
-0.0307024 0.0257902 0.0233261
-0.0632113 0.0219531 0.0700505
-0.0872085 -0.0265915 -0.00269045
-0.002966 0.0338217 -0.0189986
0.00994393 0.0457002 0.0140658
-0.0581801 0.0244898 -0.000969357
-0.00213934 -0.0040715 -0.0366316
-0.00978951 0.0490875 -0.0117109
-0.0111654 -0.00279039 0.0512981
-0.0288921 -0.0119977 0.0359268
-0.00542458 -0.00557247 -0.0246194
-0.015505 0.00788451 0.052439
-0.058015 0.0274881 0.0717953
-0.0586776 0.0683282 0.0218557
-0.0137942 0.00336916 0.0241426
-0.0495846 0.00275396 0.0730664
-0.000528456 -0.0510625 0.0327357
0.0145879 -0.0235085 -0.0147109
-0.00741541 0.0306336 0.0497446
-0.0420882 -0.000551011 0.0311524
-0.11568 -0.0182137 -0.0161256
-0.0465683 0.00996426 -0.0546803
-0.0536502 0.00396646 -0.000500001
-0.0871981 -0.0096626 -0.0386697
-0.0364639 -0.00721491 -0.0583956
0.0015967 0.00787574 0.0193319
-0.00154535 -0.065963 -0.044885
-0.0275029 0.00852765 0.00372921
0.0348358 -0.0433941 -0.0935738
0.0569871 -0.113997 -0.0988022
-0.00332352 -0.00618868 -0.0360084
-0.0319942 -0.0163473 0.0654288
0.00499663 -0.0187439 0.0244342
0.0436992 -0.0492675 0.0592143
0.00306748 0.00279976 -0.044173
0.00623408 -0.0526212 0.0523163
-0.0286624 -0.00311311 -0.0250009
0.024134 -0.0697349 0.0510811
-0.00960659 0.017285 -0.0247481
0.00199237 -0.02859 0.0253429
-0.0152921 -0.0138715 -0.00961559
-0.0132135 0.00386969 -0.0056436
-0.0239861 -0.0215461 -0.0106746
-0.0311207 0.0294273 -0.0358978
-0.060836 -0.0444195 0.0458635
0.0185056 0.0315981 0.0887149
3.93355e-05 0.013077 -0.0251625
-0.0720302 -0.0205477 0.00611618
-0.0157085 0.00973752 -0.0444887
-0.0778742 0.00321013 0.0316771
-0.0373036 -0.0264934 -0.0121431
-0.0180604 0.00856732 0.00373616
0.0593997 -0.0394813 -0.0600681
-0.0349469 -0.21378 -0.0143118
0.0162088 -0.0089491 0.000366392
0.0922505 -0.111134 -0.0493743
0.0178513 -0.0741444 0.16141
-0.0313886 -0.128429 0.11555
0.0194382 -0.0144848 0.0401318
-0.0285939 -0.065209 0.035374
0.00738675 -0.0112724 -0.0249866
-0.0194894 -0.0192432 0.00412799
-0.0184354 0.00176849 -0.0330181
-0.0773989 -0.0463066 0.0684969
-0.0142312 0.019091 -0.0166566
-0.0896616 -0.0337182 0.0177191
-0.0846688 -0.023933 0.0153439
-0.0417798 -0.000826166 -0.0248185
0.00438947 -0.00620235 -0.0128626
0.00260923 -0.00234429 -0.0039105
-0.0395622 -0.00597448 -0.0126646
-0.00575877 0.00563231 -0.00196979
0.0206958 0.00181284 -0.0672417
-0.041093 -0.106496 0.0371265
-0.00468366 0.0063285 -0.026988
-0.0266977 0.00952696 0.0363141
0.00473515 -0.0113985 0.0551206
0.00620118 -0.0185444 0.0183886
0.0361549 -0.084604 0.0455817
-0.0329093 0.0237988 0.00162679
0.0295954 -0.00930945 0.0524788
-0.0111014 -0.0133372 0.0194423
0.000976162 0.016239 -0.0349465
-0.0581463 -0.0529472 0.029431
-0.0262537 -0.00916699 -0.00218864
-0.00689019 0.0194187 -0.033102
-0.062215 -0.00240823 0.0399068
-0.0369135 0.00187382 -0.00232533
-0.0387181 0.00038312 -0.0159687
0.0318466 0.00592694 -0.0034082
-0.0260235 0.0126291 0.00643512
-0.0221549 -0.0086371 -0.0339163
-0.0175579 -0.0498014 -0.00670213
-0.0803353 -0.0497426 0.115626
-0.0428298 0.0055584 -0.0561389
-0.0150304 0.0116517 -0.0299202
-0.00711686 0.0439938 0.0444142
-0.0691995 -0.0346853 -0.00759305
-0.042584 -0.0217779 0.00974403
0.0158559 -0.0213254 -0.00517606
-0.0611814 -0.0222805 0.0872402
-0.0082742 0.0182058 0.0698726
-0.00871316 -0.00506932 -0.0151768
-0.00770376 -0.0138088 -0.0049784
-0.000652244 0.0154435 -0.00245259
0.00134338 0.00937314 -0.0159717
-0.0163743 -0.00347346 -0.00815674
-0.00986073 0.0193034 -0.00471634
-0.00525115 0.00262038 -0.0199787
0.00368473 0.0192087 -0.0170154
-0.0839839 -0.0713949 0.00465092
-0.0465901 0.0200068 -0.00765608
0.00766921 -0.0647869 0.0648669
0.0326928 -0.0465335 -0.0104024
-0.0195102 -0.0135709 -0.0154308
-0.0194682 0.0432977 0.0345983
-0.00331998 0.00092689 0.00279375
-0.0275173 -0.0200882 -0.00412634
0.0230255 0.0475718 0.0370339
-0.0188873 -0.0076868 -0.00138776
-0.0129001 0.023777 0.0444044
-0.0134331 0.0512395 0.0011672
0.000313613 0.0129702 -0.00154418
0.0 0.0 0.0
0.00243027 0.00567304 0.00502024
SCALARS radius float 1
LOOKUP_TABLE default
0.00623715
0.00623715
0.00623715
0.00623715
0.00623715
0.00623715
0.00623715
0.00623715
0.00623715
0.00623715
0.00623715
0.00623715
0.00623715
0.00623715
0.00623715
0.00997944
0.00997944
0.00997944
0.00623715
0.00997944
0.00623715
0.00623715
0.00997944
0.00997944
0.00997944
0.00997944
0.00623715
0.00997944
0.00623715
0.00623715
0.00997944
0.00623715
0.00997944
0.00997944
0.00997944
0.00623715
0.00623715
0.00623715
0.00623715
0.00623715
0.00623715
0.00997944
0.00623715
0.00623715
0.00997944
0.00997944
0.00623715
0.00623715
0.00997944
0.00623715
0.00997944
0.00623715
0.00623715
0.00623715
0.00997944
0.00623715
0.00623715
0.00623715
0.00623715
0.00623715
0.00997944
0.00997944
0.00623715
0.00623715
0.00623715
0.00623715
0.00997944
0.00997944
0.00997944
0.00623715
0.00623715
0.00997944
0.00623715
0.00623715
0.00997944
0.00623715
0.00623715
0.00623715
0.00623715
0.00997944
0.00997944
0.00623715
0.00997944
0.00623715
0.00997944
0.00997944
0.00623715
0.00623715
0.00623715
0.00623715
0.00623715
0.00997944
0.00623715
0.00997944
0.00623715
0.00623715
0.00997944
0.00623715
0.00997944
0.00623715
0.00623715
0.00623715
0.00997944
0.00623715
0.00623715
0.00623715
0.00623715
0.00623715
0.00623715
0.00623715
0.00623715
0.00623715
0.00997944
0.00623715
0.00997944
0.00623715
0.00623715
0.00997944
0.00997944
0.00623715
0.00997944
0.00997944
0.00623715
0.00997944
0.00997944
0.00997944
0.00623715
0.00623715
0.00623715
0.00997944
0.00623715
0.00623715
0.00997944
0.00623715
0.00997944
0.00997944
0.00997944
0.00623715
0.00623715
0.00997944
0.00623715
0.00623715
0.00997944
0.00623715
0.00623715
0.00997944
0.00623715
0.00623715
0.00623715
0.00623715
0.00623715
0.00623715
0.00623715
0.00623715
0.00997944
0.00623715
0.00623715
0.00623715
0.00623715
0.00623715
0.00997944
0.00623715
0.00997944
0.00623715
0.00623715
0.00623715
0.00623715
0.00623715
0.00623715
0.00997944
0.00997944
0.00623715
0.00623715
0.00623715
0.00623715
0.00623715
0.00623715
0.00997944
0.00623715
0.00997944
0.00623715
0.00623715
0.00623715
0.00623715
0.00623715
0.00623715
0.00623715
0.00997944
0.00997944
0.00997944
0.00997944
0.00997944
0.00997944
0.00997944
0.00623715
0.00997944
0.00997944
0.00623715
0.00623715
0.00623715
0.00623715
0.00623715
0.00623715
0.00623715
0.00997944
0.00623715
0.00623715
0.00997944
0.00997944
0.00997944
0.00623715
0.00997944
0.00623715
0.00997944
0.00997944
0.00623715
0.00623715
0.00623715
0.00623715
0.00623715
0.00623715
0.00623715
0.00997944
0.00997944
0.00997944
0.00623715
0.00623715
0.00997944
0.00623715
0.00997944
0.00623715
0.00623715
0.00623715
0.00997944
0.00997944
0.00997944
0.00997944
0.00623715
0.00623715
0.00623715
0.00623715
0.00997944
0.00997944
0.00623715
0.00623715
0.00623715
0.00997944
0.00997944
0.00997944
0.00623715
0.00997944
0.00997944
0.00997944
0.00997944
0.00623715
0.00997944
0.00623715
0.00623715
0.00623715
0.00623715
0.00623715
0.00623715
0.00623715
0.00623715
0.00623715
0.00623715
0.00623715
0.00623715
0.00623715
0.00997944
0.00997944
0.00623715
0.00623715
0.00623715
0.00997944
0.00997944
0.00623715
0.00623715
0.00997944
0.00623715
0.00623715
0.00997944
0.00623715
0.00623715
0.00997944
0.00997944
0.00623715
0.00623715
0.00997944
0.00623715
0.00623715
0.00623715
0.00623715
0.00623715
0.00997944
0.00997944
0.00997944
0.00623715
0.00997944
0.00623715
0.00997944
0.00997944
0.00997944
0.00997944
0.00997944
0.00623715
0.00623715
0.00997944
0.00623715
0.00997944
0.00997944
0.00997944
0.00997944
0.00997944
0.00997944
0.00997944
0.00623715
0.00623715
0.00997944
0.00623715
0.00623715
0.00623715
0.00623715
0.00623715
0.00623715
0.00623715
0.00623715
0.00623715
0.00623715
0.00623715
0.00623715
0.00623715
0.00623715
0.00623715
0.00623715
0.00623715
0.00623715
SCALARS type float 1
LOOKUP_TABLE default
1.0
1.0
1.0
1.0
1.0
1.0
1.0
1.0
1.0
1.0
1.0
1.0
1.0
1.0
1.0
1.0
1.0
1.0
1.0
1.0
1.0
1.0
1.0
1.0
1.0
1.0
1.0
1.0
1.0
1.0
1.0
1.0
1.0
1.0
1.0
1.0
1.0
1.0
1.0
1.0
1.0
1.0
1.0
1.0
1.0
1.0
1.0
1.0
1.0
1.0
1.0
1.0
1.0
1.0
1.0
1.0
1.0
1.0
1.0
1.0
1.0
1.0
1.0
1.0
1.0
1.0
1.0
1.0
1.0
1.0
1.0
1.0
1.0
1.0
1.0
1.0
1.0
1.0
1.0
1.0
1.0
1.0
1.0
1.0
1.0
1.0
1.0
1.0
1.0
1.0
1.0
1.0
1.0
1.0
1.0
1.0
1.0
1.0
1.0
1.0
1.0
1.0
1.0
1.0
1.0
1.0
1.0
1.0
1.0
1.0
1.0
1.0
1.0
1.0
1.0
1.0
1.0
1.0
1.0
1.0
1.0
1.0
1.0
1.0
1.0
1.0
1.0
1.0
1.0
1.0
1.0
1.0
1.0
1.0
1.0
1.0
1.0
1.0
1.0
1.0
1.0
1.0
1.0
1.0
1.0
1.0
1.0
1.0
1.0
1.0
1.0
1.0
1.0
1.0
1.0
1.0
1.0
1.0
1.0
1.0
1.0
1.0
1.0
1.0
1.0
1.0
1.0
1.0
1.0
1.0
1.0
1.0
1.0
1.0
1.0
1.0
1.0
1.0
1.0
1.0
1.0
1.0
1.0
1.0
1.0
1.0
1.0
1.0
1.0
1.0
1.0
1.0
1.0
1.0
1.0
1.0
1.0
1.0
1.0
1.0
1.0
1.0
1.0
1.0
1.0
1.0
1.0
1.0
1.0
1.0
1.0
1.0
1.0
1.0
1.0
1.0
1.0
1.0
1.0
1.0
1.0
1.0
1.0
1.0
1.0
1.0
1.0
1.0
1.0
1.0
1.0
1.0
1.0
1.0
1.0
1.0
1.0
1.0
1.0
1.0
1.0
1.0
1.0
1.0
1.0
1.0
1.0
1.0
1.0
1.0
1.0
1.0
1.0
1.0
1.0
1.0
1.0
1.0
1.0
1.0
1.0
1.0
1.0
1.0
1.0
1.0
1.0
1.0
1.0
1.0
1.0
1.0
1.0
1.0
1.0
1.0
1.0
1.0
1.0
1.0
1.0
1.0
1.0
1.0
1.0
1.0
1.0
1.0
1.0
1.0
1.0
1.0
1.0
1.0
1.0
1.0
1.0
1.0
1.0
1.0
1.0
1.0
1.0
1.0
1.0
1.0
1.0
1.0
1.0
1.0
1.0
1.0
1.0
1.0
1.0
1.0
1.0
1.0
1.0
1.0
1.0
1.0
1.0
1.0
1.0
1.0
1.0
1.0
1.0
1.0
1.0
1.0
1.0
1.0
1.0
1.0
1.0
SCALARS id float 1
LOOKUP_TABLE default
138.0
141.0
297.0
304.0
293.0
325.0
285.0
241.0
126.0
171.0
207.0
240.0
140.0
197.0
258.0
50.0
92.0
60.0
154.0
98.0
188.0
298.0
88.0
80.0
106.0
10.0
183.0
41.0
180.0
213.0
23.0
327.0
58.0
32.0
6.0
291.0
174.0
158.0
128.0
264.0
234.0
89.0
263.0
331.0
48.0
37.0
328.0
329.0
121.0
172.0
84.0
164.0
200.0
277.0
9.0
305.0
274.0
186.0
149.0
135.0
40.0
102.0
229.0
198.0
173.0
246.0
119.0
122.0
38.0
321.0
260.0
64.0
193.0
288.0
47.0
184.0
257.0
205.0
232.0
34.0
94.0
143.0
61.0
137.0
70.0
85.0
227.0
225.0
199.0
195.0
130.0
62.0
259.0
79.0
127.0
169.0
81.0
265.0
12.0
275.0
273.0
192.0
72.0
142.0
230.0
247.0
163.0
295.0
278.0
292.0
159.0
314.0
73.0
153.0
100.0
322.0
216.0
2.0
35.0
239.0
30.0
99.0
301.0
103.0
66.0
13.0
252.0
160.0
222.0
17.0
238.0
203.0
44.0
212.0
75.0
49.0
22.0
228.0
249.0
55.0
319.0
156.0
107.0
245.0
308.0
105.0
201.0
217.0
253.0
276.0
248.0
144.0
296.0
233.0
8.0
250.0
294.0
133.0
152.0
333.0
31.0
175.0
33.0
208.0
147.0
269.0
317.0
267.0
204.0
19.0
97.0
157.0
236.0
324.0
155.0
306.0
151.0
93.0
165.0
18.0
290.0
145.0
220.0
280.0
261.0
146.0
182.0
77.0
45.0
82.0
4.0
118.0
69.0
26.0
237.0
24.0
117.0
336.0
326.0
132.0
210.0
181.0
310.0
206.0
5.0
286.0
189.0
65.0
101.0
108.0
161.0
111.0
242.0
95.0
115.0
166.0
221.0
224.0
302.0
231.0
307.0
185.0
39.0
29.0
46.0
167.0
282.0
68.0
272.0
28.0
179.0
134.0
337.0
3.0
74.0
20.0
42.0
177.0
303.0
202.0
124.0
51.0
114.0
300.0
148.0
311.0
14.0
112.0
91.0
194.0
116.0
83.0
104.0
53.0
309.0
25.0
136.0
279.0
235.0
176.0
281.0
196.0
330.0
215.0
218.0
335.0
251.0
131.0
271.0
21.0
27.0
191.0
315.0
255.0
7.0
52.0
223.0
190.0
56.0
123.0
316.0
76.0
139.0
332.0
96.0
71.0
318.0
170.0
63.0
270.0
268.0
262.0
168.0
214.0
78.0
59.0
113.0
334.0
86.0
162.0
120.0
109.0
87.0
43.0
67.0
125.0
219.0
54.0
209.0
57.0
16.0
110.0
90.0
11.0
36.0
1.0
312.0
226.0
15.0
256.0
284.0
211.0
323.0
320.0
178.0
254.0
289.0
243.0
266.0
187.0
299.0
129.0
150.0
283.0
287.0
313.0
244.0

