# vtk DataFile Version 2.0
Generated by lpp.py
ASCII
DATASET POLYDATA
POINTS 337 float
-0.0274516 -0.0407407 0.00895046
-0.0135145 -0.0389568 0.00547277
-0.0203622 -0.0270926 0.00699015
0.00456385 -0.0299108 0.0077095
0.0398506 -0.0305555 0.00586926
-0.0111819 -0.016755 0.0055275
0.032671 -0.0176624 0.00700249
0.0162128 -0.0106887 0.00706151
-0.0172624 -0.00148578 0.00888596
0.00500783 -0.00239838 0.00779664
-0.0326047 0.0126468 0.00663443
0.0430248 0.0182279 0.0091041
-0.00808455 0.0229045 0.00911745
0.0156194 0.030954 0.00898138
0.00889408 0.0395331 0.00812702
0.010386 -0.0423478 0.0159318
0.0268115 -0.0343639 0.0140414
-0.00553211 -0.0242887 0.0161707
0.0123186 -0.0261423 0.0144321
-0.0328701 -0.0225971 0.0157972
-0.0188955 -0.0195893 0.0150225
0.0384748 -0.0200207 0.0159627
-0.038719 -0.00627552 0.0135165
0.0279183 -0.00781543 0.0160817
0.0182096 0.00254159 0.0154041
-0.024443 0.00832696 0.0162434
-0.012725 0.0116047 0.0120536
0.0304585 0.0094461 0.0133379
-0.0438616 0.0185434 0.0125122
-0.0167201 0.0209284 0.0162069
0.0104491 0.0186039 0.0137469
0.0286533 0.0268343 0.0128737
-0.0310666 0.0406778 0.0128557
-0.0145861 0.0350151 0.0143235
0.00677289 0.0320439 0.0171166
0.0405807 0.0399096 0.0147474
-0.00343837 0.0434846 0.0167672
0.0166038 0.0422592 0.0153785
-0.000966505 -0.0440493 0.0205598
0.0310624 -0.0427423 0.0247061
-0.0423892 -0.0359633 0.0231362
-0.018748 -0.0391503 0.024035
0.00338347 -0.0340475 0.0216261
0.0387404 -0.0308995 0.0263516
-0.0439687 -0.0166915 0.0224254
0.00390714 -0.0212814 0.0266184
0.0181002 -0.020741 0.0271541
0.0318332 -0.017297 0.0259178
-0.0144643 -0.0107052 0.0234178
0.00176486 -0.00887191 0.0200265
0.0393062 -0.00945838 0.0244254
-0.0376089 0.0133334 0.0218201
-0.0101586 0.00577146 0.0265012
0.00362977 0.00562056 0.0221568
0.0427503 0.00503166 0.0256114
0.0156485 0.0210264 0.0273676
0.0404903 0.0208285 0.0218043
-0.0296314 0.0250228 0.0205088
0.0352202 0.0408314 0.0261713
0.0254861 0.0430101 0.0217024
-0.0372278 -0.0381058 0.0363184
-0.0158 -0.0230818 0.0302754
-0.000624979 -0.0310215 0.0359268
0.0279715 -0.0300605 0.0355881
-0.0410088 -0.0210408 0.0356293
-0.044214 -0.00496395 0.0312857
-0.0295239 -0.00862326 0.0282355
-4.74421e-05 -0.00791857 0.0373926
0.0165208 0.00173464 0.0294924
0.035527 0.00305069 0.0343188
-0.0356929 0.0088757 0.0359023
-0.0218474 0.011083 0.033171
-0.011343 0.0177424 0.0340626
0.00273125 0.0174951 0.0321285
0.0276205 0.0182763 0.0297583
-0.0433678 0.0284938 0.0286488
-0.0359175 0.0322949 0.0356892
-0.00948913 0.0345831 0.0374482
0.00369121 0.0352187 0.0321696
0.0194164 0.0321812 0.0284512
0.0408004 0.0321041 0.0359918
-0.0423548 0.0422544 0.028933
-0.023846 0.0412594 0.0287726
-0.00817251 0.0445346 0.0299486
0.00570758 -0.0421536 0.0457977
-0.0165192 -0.0386639 0.0389513
0.0170917 -0.0391063 0.0378559
0.0388242 -0.0403798 0.0459269
-0.0269951 -0.0244181 0.0389291
0.0373547 -0.027331 0.0404907
0.0113713 -0.0161434 0.0393789
0.0431087 -0.0146945 0.0425313
-0.0382484 -0.00967814 0.0437117
0.0260955 -0.00977271 0.0385329
-0.0180456 -0.00141125 0.042819
0.0445346 -0.00387856 0.0418147
0.0117876 0.00625096 0.0421919
0.0236872 0.010405 0.0392852
-0.0196453 0.0202389 0.0453155
0.0380864 0.018836 0.0408899
-0.0324725 0.0227427 0.0397377
-0.0439854 0.0378162 0.0409412
0.017539 0.0408168 0.0412655
-0.0269922 0.0417968 0.042714
0.0316704 0.0418529 0.0423698
0.0420232 0.0435514 0.0457967
-0.043669 -0.0445346 0.0503077
0.0015217 -0.0414495 0.0559057
-0.0436981 -0.0331715 0.0548493
0.0172738 -0.0399002 0.0553254
-0.0229303 -0.0278982 0.0520962
-0.00256619 -0.0299349 0.0511422
-0.0104413 -0.021867 0.0489934
0.00311648 -0.021272 0.047029
0.0204713 -0.0225712 0.0524021
-0.0300905 -0.00614345 0.0503188
0.00270288 -0.00972957 0.0513068
0.0423925 -0.00881857 0.0544295
0.0148783 -0.00382962 0.0556596
0.0337191 0.0018373 0.0491589
-0.00144817 0.0113836 0.0525253
0.0151327 0.00995635 0.0519134
0.0390901 0.0147119 0.0521254
0.0141723 0.0238766 0.0545743
0.0312721 0.0265805 0.0521074
0.00173117 0.0372018 0.0494336
0.0438184 0.0404915 0.0561383
-0.0439126 -0.0397636 0.064903
-0.0332742 -0.0401625 0.0580686
-0.0192106 -0.0408638 0.0614578
-0.00911861 -0.0395024 0.0574831
0.0317334 -0.0348995 0.0569574
0.0445216 -0.0379839 0.0587247
-0.011128 -0.0282328 0.0617098
0.0412591 -0.0236693 0.0590433
-0.0319713 -0.0169302 0.0622843
0.00702149 -0.018181 0.0626821
-0.0106367 -0.00969252 0.056323
-0.0291818 0.00459656 0.0595822
-0.000263363 -0.00185041 0.0620589
0.040037 0.00224856 0.0622716
-0.0412588 0.0175611 0.0568085
-0.0192592 0.0203306 0.0595152
-0.00988399 0.0158154 0.0630694
0.0444409 0.0182121 0.0613351
0.000230078 0.0251984 0.0569909
-0.0407863 0.0333939 0.0625897
-0.0244822 0.0334969 0.0583732
-0.00681066 0.0331703 0.0641183
0.0158965 0.0374455 0.0635528
-0.00227622 0.0435945 0.0651894
0.0290737 0.0419165 0.0609216
-0.0165968 -0.0423813 0.0720973
0.0290687 -0.0412587 0.072393
-0.0302873 -0.032037 0.0712086
-0.00273322 -0.037306 0.072277
0.0173902 -0.0323347 0.0695668
-0.0422817 -0.0286668 0.07142
-0.0218494 -0.0253926 0.068991
-0.0136746 -0.0182353 0.0701973
0.0149622 -0.00931688 0.0704513
0.0295051 -0.00787198 0.0684584
-0.0179915 -0.00448479 0.0713099
0.00874234 -0.000626673 0.0681379
0.00324942 0.00753247 0.0729136
-0.0307063 0.0182708 0.0663019
0.00237034 0.0193027 0.0718406
0.0276041 0.0180994 0.066955
-0.00775096 0.0239374 0.0713999
0.0390406 0.0328486 0.0671267
-0.0422298 0.0442849 0.0692929
-0.0182993 0.0432912 0.0678726
0.00819463 0.0428473 0.0691235
0.00918733 -0.0445346 0.0839338
0.0445371 -0.0445371 0.0799342
-0.0321921 -0.0394147 0.0832053
0.0137986 -0.0356057 0.0793613
-0.00799613 -0.0277146 0.0836862
0.0118746 -0.0240554 0.0771938
0.0423972 -0.0302254 0.0778629
-0.0433456 -0.016323 0.084286
-0.0189427 -0.0202214 0.0795701
-0.0091303 -0.0168099 0.0831592
-0.000414992 -0.0218692 0.0773966
-0.0375861 -0.00928174 0.0776728
0.00239404 -0.00862084 0.0817066
0.0191388 -0.0133396 0.0835042
0.0397208 -0.013286 0.077117
-0.036935 0.00155988 0.0750332
0.0165993 0.00377336 0.0809524
-0.0130177 0.0131811 0.0790514
0.039347 0.00963316 0.0811752
-0.0397233 0.0150184 0.0786479
0.00697987 0.0293252 0.0808008
0.0289596 0.0240201 0.0837968
-0.0343307 0.0323128 0.0752047
0.0445351 0.0331472 0.08023
-0.024338 0.0416386 0.079098
0.0229258 0.0412588 0.0753016
0.0374928 0.04184 0.0819333
-0.0426476 -0.0445327 0.0913599
-0.0191455 -0.0444741 0.0863976
-0.00019886 -0.0422318 0.0897616
0.0391072 -0.0410666 0.0887658
0.0130671 -0.0365803 0.0903532
0.0058866 -0.0238304 0.0905737
0.029126 -0.0251433 0.0916762
-0.0337722 -0.020381 0.0876651
-0.0231153 0.000339705 0.0891331
-0.00434948 -0.00171879 0.0934608
-0.0377121 0.00511373 0.08864
0.00218012 0.0112132 0.087476
-0.0393993 0.0192203 0.0922172
-0.0259656 0.0217891 0.087055
0.0437961 0.0158076 0.093178
-0.0420374 0.0303494 0.0930297
-0.0118397 0.0317374 0.0843529
-0.0445175 0.0371091 0.0848024
-0.0301945 0.0434045 0.0881597
0.00192245 0.0436737 0.0920913
0.0125091 0.0410014 0.091232
-0.0140015 -0.0342289 0.0947982
0.0073759 -0.033247 0.10168
0.0210227 -0.0407344 0.101373
-0.0389702 -0.029263 0.100237
-0.0295931 -0.0185198 0.0975953
-0.0104225 -0.0157245 0.0995662
0.0198799 -0.0160192 0.0974417
0.0190535 0.00275758 0.101491
0.0391147 -0.00442829 0.0935868
-0.0412587 0.00974705 0.102941
-0.0121891 0.00966803 0.102538
-0.0110837 0.0224195 0.0963603
0.0318672 0.0171596 0.100811
-0.0314915 0.0230867 0.102813
0.000539755 0.0233369 0.0984652
0.0144859 0.0255395 0.0968398
-0.0172499 0.0379223 0.0997898
0.0290377 0.0372473 0.0980004
-0.0430751 0.041022 0.0951627
-0.0425064 -0.0416235 0.106295
0.00580572 -0.0435919 0.112052
-0.0283996 -0.0395531 0.109237
-0.00497876 -0.0346193 0.109775
0.038322 -0.0367748 0.107829
-0.029929 -0.0255789 0.110565
-0.0218164 -0.0233289 0.10359
0.0223642 -0.0248157 0.109101
0.00533574 -0.0202592 0.104306
0.035474 -0.0187314 0.106657
-0.0395801 -0.00826409 0.108067
0.0109578 -0.00925167 0.111293
-0.0273249 -0.00185886 0.103483
0.0395213 0.00209542 0.109807
0.00648796 0.0155469 0.108757
0.0206552 0.0163765 0.109509
-0.0405467 0.0314702 0.104201
-0.00818273 0.027705 0.112123
0.0440014 0.0296778 0.112093
-0.0292713 0.0376047 0.107898
0.00428704 0.0374177 0.104633
-0.0399927 0.0430785 0.105534
0.0160838 0.0444206 0.108343
0.0276796 -0.0434804 0.114446
0.0363744 -0.0445351 0.120988
-0.0220182 -0.0337051 0.115916
0.00511785 -0.0366863 0.121142
0.0442485 -0.0369567 0.121291
-0.00799813 -0.0245832 0.120614
-0.0130019 -0.0164168 0.113524
0.00242981 -0.0226502 0.115121
-0.0240027 -0.00776246 0.115979
-0.0025036 -0.0129646 0.113944
0.0267139 -0.00628225 0.11826
-0.0348473 0.00131414 0.117453
-0.00569276 0.00144145 0.117202
0.0170211 0.00415577 0.117837
-0.0335065 0.0172669 0.117433
-0.0149334 0.0142221 0.121402
0.0436911 0.0168576 0.112701
-0.0244262 0.0281984 0.117251
0.0245882 0.024454 0.115739
0.0376164 0.0304058 0.121679
0.0358271 0.0368749 0.113049
-0.00161593 0.0409847 0.118737
0.0232295 0.0411623 0.120187
-0.0233321 -0.0417958 0.13089
-0.0350878 -0.0380917 0.123104
0.020045 -0.0362934 0.124041
0.00306919 -0.0257078 0.129932
-0.0375155 -0.0207909 0.123842
-0.00668562 -0.0143117 0.125686
0.0265483 -0.0199485 0.122667
-0.0376782 -0.00804715 0.130133
-0.0161818 -0.00753499 0.127833
0.0112684 -0.0127664 0.126523
0.0412519 -0.00994637 0.127264
0.00791144 2.349e-05 0.12789
0.0300966 0.0105193 0.124152
0.00219537 0.0198672 0.126799
0.0420254 0.0174255 0.130188
-0.0352508 0.0390452 0.123829
0.00757703 0.03619 0.130028
-0.00493645 -0.0411278 0.132887
0.0356837 -0.0412739 0.140527
-0.0200262 -0.0271054 0.134254
0.0226211 -0.0236945 0.135894
0.0392386 -0.0267987 0.131416
-0.0406748 -0.0210482 0.138434
-0.0299152 -0.0156005 0.134672
-0.00549562 -0.0158915 0.136439
-0.0216974 -0.00428056 0.140518
-0.00578164 0.00145519 0.131414
0.0196811 0.00286644 0.135932
0.039454 0.0033345 0.139293
-0.0317942 0.00930946 0.132911
-0.0412588 0.0236401 0.136208
-0.0171006 0.0253733 0.136804
0.021892 0.0270696 0.134238
0.0380452 0.0270622 0.133478
-0.0218595 0.0381807 0.132892
-0.00463059 0.0321645 0.137406
0.0364843 0.0378576 0.134223
0.004704 -0.0413733 0.143327
-0.0312498 -0.0326293 0.141
0.018716 -0.0407483 0.140783
-0.00114658 -0.0307645 0.142527
0.0223294 -0.00957069 0.143033
0.0418392 -0.00813087 0.141625
-0.000849836 0.0168053 0.144333
0.0187551 0.0164007 0.143662
0.0427928 0.0188044 0.142336
0.00824837 0.0303175 0.144275
-0.0408794 0.0355666 0.143924
-0.0287296 0.0419911 0.141284
0.0244268 0.0420447 0.142516
0.0415355 0.0427074 0.142619
VERTICES 337 674
1 0
1 1
1 2
1 3
1 4
1 5
1 6
1 7
1 8
1 9
1 10
1 11
1 12
1 13
1 14
1 15
1 16
1 17
1 18
1 19
1 20
1 21
1 22
1 23
1 24
1 25
1 26
1 27
1 28
1 29
1 30
1 31
1 32
1 33
1 34
1 35
1 36
1 37
1 38
1 39
1 40
1 41
1 42
1 43
1 44
1 45
1 46
1 47
1 48
1 49
1 50
1 51
1 52
1 53
1 54
1 55
1 56
1 57
1 58
1 59
1 60
1 61
1 62
1 63
1 64
1 65
1 66
1 67
1 68
1 69
1 70
1 71
1 72
1 73
1 74
1 75
1 76
1 77
1 78
1 79
1 80
1 81
1 82
1 83
1 84
1 85
1 86
1 87
1 88
1 89
1 90
1 91
1 92
1 93
1 94
1 95
1 96
1 97
1 98
1 99
1 100
1 101
1 102
1 103
1 104
1 105
1 106
1 107
1 108
1 109
1 110
1 111
1 112
1 113
1 114
1 115
1 116
1 117
1 118
1 119
1 120
1 121
1 122
1 123
1 124
1 125
1 126
1 127
1 128
1 129
1 130
1 131
1 132
1 133
1 134
1 135
1 136
1 137
1 138
1 139
1 140
1 141
1 142
1 143
1 144
1 145
1 146
1 147
1 148
1 149
1 150
1 151
1 152
1 153
1 154
1 155
1 156
1 157
1 158
1 159
1 160
1 161
1 162
1 163
1 164
1 165
1 166
1 167
1 168
1 169
1 170
1 171
1 172
1 173
1 174
1 175
1 176
1 177
1 178
1 179
1 180
1 181
1 182
1 183
1 184
1 185
1 186
1 187
1 188
1 189
1 190
1 191
1 192
1 193
1 194
1 195
1 196
1 197
1 198
1 199
1 200
1 201
1 202
1 203
1 204
1 205
1 206
1 207
1 208
1 209
1 210
1 211
1 212
1 213
1 214
1 215
1 216
1 217
1 218
1 219
1 220
1 221
1 222
1 223
1 224
1 225
1 226
1 227
1 228
1 229
1 230
1 231
1 232
1 233
1 234
1 235
1 236
1 237
1 238
1 239
1 240
1 241
1 242
1 243
1 244
1 245
1 246
1 247
1 248
1 249
1 250
1 251
1 252
1 253
1 254
1 255
1 256
1 257
1 258
1 259
1 260
1 261
1 262
1 263
1 264
1 265
1 266
1 267
1 268
1 269
1 270
1 271
1 272
1 273
1 274
1 275
1 276
1 277
1 278
1 279
1 280
1 281
1 282
1 283
1 284
1 285
1 286
1 287
1 288
1 289
1 290
1 291
1 292
1 293
1 294
1 295
1 296
1 297
1 298
1 299
1 300
1 301
1 302
1 303
1 304
1 305
1 306
1 307
1 308
1 309
1 310
1 311
1 312
1 313
1 314
1 315
1 316
1 317
1 318
1 319
1 320
1 321
1 322
1 323
1 324
1 325
1 326
1 327
1 328
1 329
1 330
1 331
1 332
1 333
1 334
1 335
1 336
POINT_DATA 337
VECTORS i float
0.0 0.0 0.0
0.0 0.0 0.0
0.0 0.0 0.0
0.0 0.0 0.0
0.0 0.0 0.0
0.0 0.0 0.0
0.0 0.0 0.0
0.0 0.0 0.0
0.0 0.0 0.0
0.0 0.0 0.0
0.0 0.0 0.0
0.0 0.0 0.0
0.0 0.0 0.0
0.0 0.0 0.0
0.0 0.0 0.0
0.0 0.0 0.0
0.0 0.0 0.0
0.0 0.0 0.0
0.0 0.0 0.0
0.0 0.0 0.0
0.0 0.0 0.0
0.0 0.0 0.0
0.0 0.0 0.0
0.0 0.0 0.0
0.0 0.0 0.0
0.0 0.0 0.0
0.0 0.0 0.0
0.0 0.0 0.0
0.0 0.0 0.0
0.0 0.0 0.0
0.0 0.0 0.0
0.0 0.0 0.0
0.0 0.0 0.0
0.0 0.0 0.0
0.0 0.0 0.0
0.0 0.0 0.0
0.0 0.0 0.0
0.0 0.0 0.0
0.0 0.0 0.0
0.0 0.0 0.0
0.0 0.0 0.0
0.0 0.0 0.0
0.0 0.0 0.0
0.0 0.0 0.0
0.0 0.0 0.0
0.0 0.0 0.0
0.0 0.0 0.0
0.0 0.0 0.0
0.0 0.0 0.0
0.0 0.0 0.0
0.0 0.0 0.0
0.0 0.0 0.0
0.0 0.0 0.0
0.0 0.0 0.0
0.0 0.0 0.0
0.0 0.0 0.0
0.0 0.0 0.0
0.0 0.0 0.0
0.0 0.0 0.0
0.0 0.0 0.0
0.0 0.0 0.0
0.0 0.0 0.0
0.0 0.0 0.0
0.0 0.0 0.0
0.0 0.0 0.0
0.0 0.0 0.0
0.0 0.0 0.0
0.0 0.0 0.0
0.0 0.0 0.0
0.0 0.0 0.0
0.0 0.0 0.0
0.0 0.0 0.0
0.0 0.0 0.0
0.0 0.0 0.0
0.0 0.0 0.0
0.0 0.0 0.0
0.0 0.0 0.0
0.0 0.0 0.0
0.0 0.0 0.0
0.0 0.0 0.0
0.0 0.0 0.0
0.0 0.0 0.0
0.0 0.0 0.0
0.0 0.0 0.0
0.0 0.0 0.0
0.0 0.0 0.0
0.0 0.0 0.0
0.0 0.0 0.0
0.0 0.0 0.0
0.0 0.0 0.0
0.0 0.0 0.0
0.0 0.0 0.0
0.0 0.0 0.0
0.0 0.0 0.0
0.0 0.0 0.0
0.0 0.0 0.0
0.0 0.0 0.0
0.0 0.0 0.0
0.0 0.0 0.0
0.0 0.0 0.0
0.0 0.0 0.0
0.0 0.0 0.0
0.0 0.0 0.0
0.0 0.0 0.0
0.0 0.0 0.0
0.0 0.0 0.0
0.0 0.0 0.0
0.0 0.0 0.0
0.0 0.0 0.0
0.0 0.0 0.0
0.0 0.0 0.0
0.0 0.0 0.0
0.0 0.0 0.0
0.0 0.0 0.0
0.0 0.0 0.0
0.0 0.0 0.0
0.0 0.0 0.0
0.0 0.0 0.0
0.0 0.0 0.0
0.0 0.0 0.0
0.0 0.0 0.0
0.0 0.0 0.0
0.0 0.0 0.0
0.0 0.0 0.0
0.0 0.0 0.0
0.0 0.0 0.0
0.0 0.0 0.0
0.0 0.0 0.0
0.0 0.0 0.0
0.0 0.0 0.0
0.0 0.0 0.0
0.0 0.0 0.0
0.0 0.0 0.0
0.0 0.0 0.0
0.0 0.0 0.0
0.0 0.0 0.0
0.0 0.0 0.0
0.0 0.0 0.0
0.0 0.0 0.0
0.0 0.0 0.0
0.0 0.0 0.0
0.0 0.0 0.0
0.0 0.0 0.0
0.0 0.0 0.0
0.0 0.0 0.0
0.0 0.0 0.0
0.0 0.0 0.0
0.0 0.0 0.0
0.0 0.0 0.0
0.0 0.0 0.0
0.0 0.0 0.0
0.0 0.0 0.0
0.0 0.0 0.0
0.0 0.0 0.0
0.0 0.0 0.0
0.0 0.0 0.0
0.0 0.0 0.0
0.0 0.0 0.0
0.0 0.0 0.0
0.0 0.0 0.0
0.0 0.0 0.0
0.0 0.0 0.0
0.0 0.0 0.0
0.0 0.0 0.0
0.0 0.0 0.0
0.0 0.0 0.0
0.0 0.0 0.0
0.0 0.0 0.0
0.0 0.0 0.0
0.0 0.0 0.0
0.0 0.0 0.0
0.0 0.0 0.0
0.0 0.0 0.0
0.0 0.0 0.0
0.0 0.0 0.0
0.0 0.0 0.0
0.0 0.0 0.0
0.0 0.0 0.0
0.0 0.0 0.0
0.0 0.0 0.0
0.0 0.0 0.0
0.0 0.0 0.0
0.0 0.0 0.0
0.0 0.0 0.0
0.0 0.0 0.0
0.0 0.0 0.0
0.0 0.0 0.0
0.0 0.0 0.0
0.0 0.0 0.0
0.0 0.0 0.0
0.0 0.0 0.0
0.0 0.0 0.0
0.0 0.0 0.0
0.0 0.0 0.0
0.0 0.0 0.0
0.0 0.0 0.0
0.0 0.0 0.0
0.0 0.0 0.0
0.0 0.0 0.0
0.0 0.0 0.0
0.0 0.0 0.0
0.0 0.0 0.0
0.0 0.0 0.0
0.0 0.0 0.0
0.0 0.0 0.0
0.0 0.0 0.0
0.0 0.0 0.0
0.0 0.0 0.0
0.0 0.0 0.0
0.0 0.0 0.0
0.0 0.0 0.0
0.0 0.0 0.0
0.0 0.0 0.0
0.0 0.0 0.0
0.0 0.0 0.0
0.0 0.0 0.0
0.0 0.0 0.0
0.0 0.0 0.0
0.0 0.0 0.0
0.0 0.0 0.0
0.0 0.0 0.0
0.0 0.0 0.0
0.0 0.0 0.0
0.0 0.0 0.0
0.0 0.0 0.0
0.0 0.0 0.0
0.0 0.0 0.0
0.0 0.0 0.0
0.0 0.0 0.0
0.0 0.0 0.0
0.0 0.0 0.0
0.0 0.0 0.0
0.0 0.0 0.0
0.0 0.0 0.0
0.0 0.0 0.0
0.0 0.0 0.0
0.0 0.0 0.0
0.0 0.0 0.0
0.0 0.0 0.0
0.0 0.0 0.0
0.0 0.0 0.0
0.0 0.0 0.0
0.0 0.0 0.0
0.0 0.0 0.0
0.0 0.0 0.0
0.0 0.0 0.0
0.0 0.0 0.0
0.0 0.0 0.0
0.0 0.0 0.0
0.0 0.0 0.0
0.0 0.0 0.0
0.0 0.0 0.0
0.0 0.0 0.0
0.0 0.0 0.0
0.0 0.0 0.0
0.0 0.0 0.0
0.0 0.0 0.0
0.0 0.0 0.0
0.0 0.0 0.0
0.0 0.0 0.0
0.0 0.0 0.0
0.0 0.0 0.0
0.0 0.0 0.0
0.0 0.0 0.0
0.0 0.0 0.0
0.0 0.0 0.0
0.0 0.0 0.0
0.0 0.0 0.0
0.0 0.0 0.0
0.0 0.0 0.0
0.0 0.0 0.0
0.0 0.0 0.0
0.0 0.0 0.0
0.0 0.0 0.0
0.0 0.0 0.0
0.0 0.0 0.0
0.0 0.0 0.0
0.0 0.0 0.0
0.0 0.0 0.0
0.0 0.0 0.0
0.0 0.0 0.0
0.0 0.0 0.0
0.0 0.0 0.0
0.0 0.0 0.0
0.0 0.0 0.0
0.0 0.0 0.0
0.0 0.0 0.0
0.0 0.0 0.0
0.0 0.0 0.0
0.0 0.0 0.0
0.0 0.0 0.0
0.0 0.0 0.0
0.0 0.0 0.0
0.0 0.0 0.0
0.0 0.0 0.0
0.0 0.0 0.0
0.0 0.0 0.0
0.0 0.0 0.0
0.0 0.0 0.0
0.0 0.0 0.0
0.0 0.0 0.0
0.0 0.0 0.0
0.0 0.0 0.0
0.0 0.0 0.0
0.0 0.0 0.0
0.0 0.0 0.0
0.0 0.0 0.0
0.0 0.0 0.0
0.0 0.0 0.0
0.0 0.0 0.0
0.0 0.0 0.0
0.0 0.0 0.0
0.0 0.0 0.0
0.0 0.0 0.0
0.0 0.0 0.0
0.0 0.0 0.0
0.0 0.0 0.0
0.0 0.0 0.0
0.0 0.0 0.0
0.0 0.0 0.0
0.0 0.0 0.0
0.0 0.0 0.0
0.0 0.0 0.0
0.0 0.0 0.0
0.0 0.0 0.0
0.0 0.0 0.0
0.0 0.0 0.0
0.0 0.0 0.0
0.0 0.0 0.0
0.0 0.0 0.0
0.0 0.0 0.0
0.0 0.0 0.0
0.0 0.0 0.0
0.0 0.0 0.0
0.0 0.0 0.0
0.0 0.0 0.0
0.0 0.0 0.0
VECTORS f float
-0.000500287 2.8069e-05 -0.000856778
0.0 0.0 0.0
0.0 0.0 0.0
-0.000340566 -0.000165501 -0.000295236
0.0 0.0 0.0
-0.000888955 0.000140698 -0.00139672
1.24868e-05 -0.000433776 -0.000896298
0.0 0.0 0.0
0.000152391 -0.00132659 -0.00061047
2.20016e-05 -0.00028436 -0.000587195
0.0 0.0 0.0
0.0 0.0 0.0
0.0 0.0 0.0
-0.00012423 0.000593265 -0.000771178
-0.000741585 -0.000787233 -0.00109672
0.0 0.0 0.0
-0.000169587 6.45485e-05 -0.000250717
-0.000367929 -0.00112985 -0.00741587
0.000340566 0.000165501 0.000295236
0.00140107 -0.00213316 -1.33608e-05
-0.000924616 -7.01874e-05 -0.000305731
0.000246809 -9.06935e-05 0.000392237
-0.000598449 0.00162157 -0.000126077
-0.000549984 0.000367747 -0.000235119
-0.00109428 0.000103668 -0.000745036
-0.000421184 0.000573565 0.000430543
0.000268793 0.00075303 0.000179927
0.000605934 -0.000661254 -0.000201803
0.0 0.0 0.0
0.000716227 -0.000610272 -0.000151563
-0.000516113 -0.00120662 0.000389698
5.32056e-05 0.00199268 5.67957e-05
-0.002468 0.00237997 -0.00275474
0.00034199 -0.000425624 -0.000446015
0.0 0.0 0.0
0.0 0.0 0.0
0.000849433 0.000561304 0.000188651
-0.000263384 0.000618544 0.00018342
0.0 0.0 0.0
-0.00150831 -0.00226759 -0.000356071
0.0 0.0 0.0
0.000511868 -0.000571703 0.000699592
0.0 0.0 0.0
0.00206806 0.00204426 8.0529e-05
-0.000629784 2.12028e-05 0.000956869
-0.000247742 0.000116506 0.000333517
-0.000756398 -0.000605859 0.00048172
0.000713295 -0.000786726 0.000522061
-2.55135e-05 0.000556076 -0.00017205
0.00229859 -0.00139062 0.00398003
0.00116482 0.0007618 0.000111384
0.00140549 0.001654 -4.13163e-05
0.0015578 -0.0038578 -0.00415627
0.0 0.0 0.0
0.0 0.0 0.0
0.00131291 0.000296982 -0.000374427
0.0 0.0 0.0
-0.00146899 -0.00510275 0.00199906
0.00135531 -0.00031034 0.000605903
0.000465135 0.000399651 0.000677972
-0.00113811 0.00595934 -0.00021837
-0.000210052 0.000988755 0.00211492
0.000155033 0.000697706 -0.00060041
-0.000904245 -2.94071e-05 0.00021008
0.00112853 -0.00383356 0.000253595
0.0 0.0 0.0
0.0 0.0 0.0
-0.000339668 0.00150922 0.00375953
-0.000897288 0.000905146 -8.23432e-06
0.0 0.0 0.0
0.0 0.0 0.0
0.0 0.0 0.0
-0.000218943 0.00107211 -0.00131182
0.00210056 -0.00043983 -0.000553823
0.0 0.0 0.0
-0.000678324 7.6456e-05 -0.000642923
-0.0004444 0.00123811 -0.000252241
-0.000508463 -1.69975e-05 0.000200029
0.000291348 -0.000436919 -0.00265657
0.0 0.0 0.0
0.0 0.0 0.0
0.0 0.0 0.0
8.58659e-05 -0.000936548 0.00020607
0.0 -0.000294408 0.0
-0.00117138 -0.000317305 0.000867967
0.0 0.0 0.0
0.00115515 0.00031161 -0.000833829
0.000156793 -0.00117584 -0.00107053
-0.000903196 9.21211e-05 -0.000341586
0.000427905 0.000910523 -3.20205e-06
0.000704938 -0.000454885 0.000297785
-6.4512e-05 -0.000475432 3.14999e-05
-0.000163266 -0.0016354 -0.000852657
0.000172084 -0.00200832 -0.000109168
-0.000238818 0.000561133 -0.000673221
-0.000218177 0.000468945 -3.10701e-05
-0.00115462 -0.00318239 -0.00402245
0.0 0.0 0.0
-0.00133568 0.000644748 0.00309359
0.0 0.0 0.0
-0.0018322 -0.000259192 -0.000163096
0.0 0.0 0.0
-0.000213907 0.000145223 0.000254965
0.0 0.0 0.0
0.000575043 2.47833e-05 9.97617e-06
-7.72861e-05 0.000121151 -0.00042078
0.0 0.000280374 0.0
0.00181071 -0.000237961 -0.000336378
0.0 0.0 0.0
1.62294e-05 5.69561e-06 -3.41381e-05
3.29813e-05 -0.00139382 -0.000134435
0.0 0.0 0.0
0.00075233 -0.000270029 -0.000532411
0.0 0.0 0.0
0.00174239 -0.000465627 -0.00125504
-4.99205e-05 -0.000628248 -0.000541173
-0.000470911 -0.000230297 -0.000171536
0.0 0.0 0.0
0.000470911 0.000230297 0.000171536
0.000671928 0.00099346 0.00093268
0.000494738 -0.000259917 -0.000618384
0.000936514 -0.00417794 0.000902307
0.000222622 -0.000638529 -1.96298e-05
-0.000897234 0.00410278 0.00237632
0.00231429 0.00308469 -0.000757805
-0.00014402 0.000283911 0.0021916
0.000358686 0.000307402 -0.000179658
0.0 0.0 0.0
0.0 0.0 0.0
-0.00171761 -0.000125841 0.000592831
-9.30983e-05 0.000363801 -0.000256453
-0.000407064 0.000312197 0.000631658
0.000336443 0.00014131 0.00075825
0.0 0.0 0.0
-0.00199508 0.0 0.0
-0.000669118 0.000853836 0.000455129
-0.00236985 0.000237163 0.000809726
0.000751819 -0.000345049 -8.10611e-05
4.99205e-05 0.000628248 0.000541173
0.000179679 0.00018073 0.000161081
0.0 0.0 0.0
0.000380496 -4.18509e-05 -0.000559817
0.000383875 -0.000961991 0.00341473
-0.000494738 0.000259917 0.000618384
0.0 0.0 0.0
-0.00124466 0.000796184 0.000426433
-0.000380401 6.23387e-05 -0.000740856
-0.000845593 0.00219041 0.000946272
0.0 0.0 0.0
1.06809e-05 -0.000465629 -0.000856515
0.0 0.0 0.0
0.0 0.0 0.0
0.0 0.0 0.0
0.0 0.000887491 0.0
1.55735e-05 0.000357865 -0.000529557
0.0 0.0 0.0
0.000158663 0.000141662 -0.000426882
0.0 0.0 0.0
-0.000658685 -0.000578704 -9.68738e-05
0.000672067 0.00056815 1.98475e-05
0.000463199 0.000509348 0.000479736
0.0 0.0 0.0
-0.000461554 0.000462382 0.00115104
2.41288e-05 -0.000261563 -0.000145154
-9.40704e-06 -0.000141178 -3.47364e-05
0.000650317 4.29574e-05 0.000574618
-0.000270336 -0.000587789 -0.000525493
-0.000176906 1.521e-05 0.00109483
0.000410341 0.000633048 -0.000498491
-0.000944282 -0.000455687 -0.000374373
0.0 0.0 0.0
0.0 0.0 0.0
-0.000358169 0.000259036 0.000284137
-0.000172446 -5.61813e-05 -0.000283796
0.00183201 -0.00155258 -0.000273312
7.44819e-05 -0.000968794 0.000460966
-0.000158663 -0.000141662 0.000426882
0.00104955 0.00108553 -0.00175418
0.0 0.0 0.0
0.0 0.0 0.0
-0.000447576 0.000202256 -0.000130799
-1.33829e-05 1.05532e-05 7.70264e-05
-0.00170148 -0.0013508 0.000233597
0.000145894 3.40879e-05 2.42413e-05
0.0 0.0 0.0
0.00238123 0.00105609 -2.95996e-05
0.000168603 -0.00137977 -0.000763302
0.0 0.0 0.0
0.000239297 -0.00125922 -0.000518927
0.000941871 0.000962402 -0.000836318
0.000391536 -0.00121794 -0.000953076
-0.000260924 -0.000362111 -0.000703928
-0.00236918 0.000108777 -0.00285852
0.000270336 0.000587789 0.000525493
0.0 0.0 0.0
-0.000203959 -0.000608878 0.000508209
3.87089e-05 2.06314e-05 0.00070765
0.000836534 0.000466291 -0.000163942
0.000355554 -0.00103756 0.000586024
0.0 0.0 0.0
-0.000565744 -0.000497935 0.000439948
-0.000248279 -0.0005706 -0.00027304
0.0 0.0 0.0
-0.000376324 0.0002483 0.000512914
-0.000291121 0.000597505 -0.000352234
-0.000505089 -0.00439938 -0.0100873
0.000111735 -0.0013535 -0.00128921
0.000243104 -0.000346038 -0.000465328
0.0 0.0 0.0
0.0 0.0 0.0
0.000206861 -0.000465011 0.000204552
0.00013906 0.000580362 0.00122302
-0.00170034 0.00116753 0.00384351
-0.000725645 2.0318e-05 2.0427e-05
0.000260924 0.000362111 0.000703928
0.000153034 -0.000758347 0.000265115
0.00210687 0.000671786 -0.00132224
-0.000108313 0.000292914 -0.000360944
-0.000252173 8.02484e-05 0.000396589
-0.000185846 -0.000323871 0.000184869
0.0 0.0 0.0
-0.000726342 -0.000476972 0.00188027
0.0 0.0 0.0
0.000466362 -0.000241115 0.000642676
-0.000521751 0.000499725 -0.00103137
-0.000246029 0.000419832 0.000330309
0.00102047 -0.000414823 -0.0020246
-0.000675587 0.000463005 0.00124624
6.47783e-05 4.71141e-05 -2.08629e-05
0.000502051 -0.000280236 -0.00174594
0.00088755 0.0 0.0
-6.47834e-05 -0.000747329 0.000362044
6.47834e-05 0.000747329 -0.000362044
0.00114579 4.4027e-05 -0.000750494
0.0 0.0 0.0
-0.00154316 0.000318144 -0.000523741
0.0014683 0.00100607 -0.00121187
-0.000310845 0.000710936 0.0014614
0.0 0.0 0.0
-4.47209e-05 0.000465433 9.5829e-05
-0.000255847 -0.000800966 0.000365319
0.000317719 -0.00032154 -3.94178e-05
-0.000280441 -0.000257 -0.000293527
-0.000392648 0.000283579 0.00018637
2.6252e-05 4.61578e-05 -2.00464e-05
0.000262247 0.000166449 0.000909079
0.000965854 -0.000141257 2.27943e-05
0.0 0.0 0.0
-0.00407898 -0.0033456 0.00232946
0.000239778 0.00061788 0.000812711
0.00384675 -0.00136545 -0.00115484
-0.0081327 -0.000826715 0.00436005
-0.000373554 9.34185e-05 -0.000679128
0.00788943 0.00540636 -0.00180052
-0.00194642 -0.00147437 0.00182359
7.83657e-06 -0.00032054 0.000376638
0.0 0.0 0.0
0.00263435 0.00178983 -0.00171364
0.000355431 -0.000311385 -4.43633e-05
0.0 0.0 0.0
-0.0026998 -0.00154964 0.000521722
0.0 0.0 0.0
-0.000458748 0.000306827 -0.000784609
-0.000710139 0.00015788 -0.000517173
4.2531e-05 -3.3635e-05 0.000263465
0.000280441 0.000257 0.000293527
0.000120875 -0.000643588 -0.000517779
0.000470129 0.000423628 5.52841e-05
0.0 0.0 0.0
-0.000518271 -3.58564e-05 0.000636289
0.000576377 -0.000202406 0.000113865
-0.00577763 -0.00507723 -0.00656127
-0.000809884 0.000219599 2.1525e-05
0.00751177 0.0213414 -0.000735398
-0.00628691 0.002529 -0.00143249
-5.04883e-05 -0.000195146 0.000506871
0.0 0.0 0.0
-0.00064432 -7.43523e-05 -0.00139335
0.0 0.0 0.0
0.0 0.0 0.0
0.000530718 0.000638307 -9.31685e-06
0.000259614 0.000436359 0.000371249
7.66699e-05 -0.000282975 0.000380235
-0.000432101 0.000594359 -0.000335871
0.0 0.0 0.0
0.00131808 -0.000232842 0.00170628
0.0 0.0 0.0
0.000350946 -0.00251269 -4.34721e-06
0.000735874 0.000554284 -0.000437683
0.000126878 0.000938736 -0.000222821
-0.000953935 0.0032338 -0.0002226
-5.22967e-05 6.94299e-05 -0.000472545
0.0 0.0 0.0
2.32389e-05 -0.00134206 -0.00068099
-0.000601763 -0.00129901 0.000149755
0.0 0.0 0.0
0.00157339 0.00352714 -0.000971619
0.00185453 0.000188284 -0.00043619
0.000903446 0.00066381 -0.00102183
-0.000467505 -0.0014047 -0.000279391
0.000176887 -0.00042974 -0.000145727
0.0 0.0 0.0
-0.00077099 0.00218993 -8.51564e-05
-0.000565387 1.43989e-05 -0.000612253
-0.000612419 0.000483779 0.00332856
0.000658236 0.000323959 -0.000395596
-0.00112664 -0.000217001 0.000532498
0.00344528 0.00914372 -0.00305907
0.0 0.0 0.0
0.000579749 0.000620948 0.000907937
5.22967e-05 -6.94299e-05 0.000472545
0.000410424 0.000898081 0.00454593
0.00647644 0.00467874 0.00644966
-0.000903446 -0.00066381 0.00102183
0.0 0.0 0.0
0.00105125 -0.00286102 0.00040175
-0.000603111 -0.00594155 -0.00339433
-0.000451057 -0.00114582 0.000193509
0.0012385 -0.000785222 0.000364548
-0.000108035 -5.2818e-05 0.000109196
-0.000280748 0.000749541 -0.000229359
0.000731805 0.000396275 3.58503e-05
-0.000290452 0.000266907 -0.000332516
0.000565387 -1.43989e-05 0.000612253
-0.000658236 -0.000323959 0.000395596
0.0 0.0 0.0
-0.000247753 -0.000295148 0.0007406
0.0 0.0 0.0
0.0 0.0 0.0
0.0 0.0 0.0
0.0 0.0 0.0
0.0 0.0 0.0
0.0 0.0 0.0
0.000946141 0.00988557 0.00517953
0.0 0.0 0.0
0.0 0.0 0.0
0.0002216 0.000215651 0.000369047
VECTORS omega float
0.108127 0.036093 -0.0682155
0.0 0.0 0.0
0.0 0.0 0.0
-4.13154e-15 1.49302e-15 3.92894e-15
0.0 0.0 0.0
0.461059 -0.843247 -1.07098
-0.416637 0.225962 -0.757397
0.0 0.0 0.0
-0.0534394 0.0593355 -0.188976
-0.340882 0.343986 0.0949347
0.0 0.0 0.0
0.0 0.0 0.0
0.0 0.0 0.0
-0.704725 -0.333404 0.867092
0.557418 0.203919 0.15331
0.0 0.0 0.0
-0.0612814 0.271211 -0.0561915
-0.232317 1.83909 0.772091
-4.13154e-15 1.49302e-15 3.92894e-15
-0.122108 -0.7969 -0.0267361
-0.98246 -3.25665 -1.75734
-1.05712 -1.13493 0.386502
0.58547 0.241508 0.228081
0.00688114 0.331009 1.07468
-1.07109 -0.8553 -0.61778
-0.112861 0.0491901 -0.176607
-0.369241 0.496861 -1.54866
0.322457 -0.650441 -0.666292
0.0 0.0 0.0
0.606602 -0.163135 1.98558
-0.100301 0.121947 0.207087
0.135619 -0.145877 0.292407
0.925252 -0.178803 -0.500612
-0.262078 -0.678297 0.202901
0.0 0.0 0.0
0.0 0.0 0.0
-0.0891109 0.0762326 0.177447
0.443793 0.0434962 -0.455808
0.0 0.0 0.0
-0.231087 -0.0934775 -0.114711
0.0 0.0 0.0
1.21262 -0.340538 0.362982
0.0 0.0 0.0
-0.0557344 -0.261584 -0.0374324
0.0283086 -1.43026 -0.986202
1.40702 -0.0588516 -2.15344
0.0364877 -0.318144 0.275938
-0.619713 0.456699 0.548191
-0.402528 1.10644 1.99535
-0.817886 -0.5125 0.949756
0.276597 0.278193 1.03807
1.01802 -0.793454 -0.878765
-0.385862 -0.183057 0.229322
0.0 0.0 0.0
0.0 0.0 0.0
0.052849 0.575199 0.569477
0.0 0.0 0.0
-1.39536 -0.0188806 0.864118
0.192927 0.229307 -0.308338
-0.0216614 0.0791381 0.0110331
-0.124798 -0.025731 0.0327543
-1.35454 -2.9737 -0.982318
-0.240169 0.553866 0.457743
-1.61627 -0.972903 1.55999
0.0330119 0.303648 0.997298
0.0 0.0 0.0
0.0 0.0 0.0
1.1653 0.0484112 0.0647228
0.528784 0.885578 -0.421516
0.0 0.0 0.0
0.0 0.0 0.0
0.0 0.0 0.0
-0.336635 -0.0760312 -0.0987914
-0.0511623 -0.47876 -0.284355
0.0 0.0 0.0
-1.40133 0.0134969 1.48533
0.224252 -0.492429 -1.1995
-0.222009 1.2229 -0.411015
-0.0385991 -0.0129385 0.119992
0.0 0.0 0.0
0.0 0.0 0.0
0.0 0.0 0.0
-0.0887081 0.35996 -0.0807085
0.0 0.0 0.0
0.614466 1.22444 0.0915014
0.0 0.0 0.0
0.113749 -0.398276 0.0645298
0.273021 -1.17816 -0.17868
3.08442 0.903264 1.00747
1.08704 2.02111 -0.858477
0.245833 0.263682 -0.309524
-2.02755e-14 0.0538548 0.812837
-0.236368 1.4777 -1.03108
0.228055 -0.0643699 0.0198768
0.227186 -0.357147 -0.343322
-2.02755e-14 -0.0285851 -0.431438
1.30823 0.204845 -0.528496
0.0 0.0 0.0
0.564358 0.726102 0.520309
0.0 0.0 0.0
0.268776 -1.64342 -0.0354118
0.0 0.0 0.0
0.130671 -0.493543 0.0875342
0.0 0.0 0.0
-0.451965 2.1135 -0.0896989
-0.43571 -0.838227 0.707212
0.0 0.0 0.0
-0.789924 0.809628 -0.675479
0.0 0.0 0.0
-0.021416 -0.0606701 -0.00241691
-0.701491 1.49294 -0.660446
0.0 0.0 0.0
0.425136 -0.69165 0.782115
0.0 0.0 0.0
0.0969504 -0.607989 0.385261
0.646854 0.0522937 -0.959151
-0.171988 0.635607 -0.455082
0.0 0.0 0.0
0.228508 -0.933074 0.625143
-0.202691 -0.0313053 -0.46321
-1.08794e-16 8.69749e-17 -1.23598e-16
-0.101255 -0.108007 0.600883
-0.829594 -0.263812 -0.557736
-0.271505 0.303568 0.198105
0.101397 -0.22419 0.764457
-0.139267 0.560879 -0.0800592
0.751263 -1.93046 -0.544274
0.0 0.0 0.0
0.0 0.0 0.0
0.0923698 0.828847 0.500448
-0.426781 -1.797 0.17194
-0.0332036 1.82459 -0.923325
-0.75586 1.22236 0.110507
0.0 0.0 0.0
0.0 0.0 0.0
-0.601496 -0.636366 0.112373
-0.849889 0.1569 0.445185
0.0474537 0.215148 0.133192
-0.419253 -0.708379 0.871215
-1.05278 0.384119 1.39723
0.0 0.0 0.0
-2.11508e-16 0.116691 -0.00872359
-0.0487456 0.063427 -0.00797506
-7.13059e-16 5.68934e-16 -8.09615e-16
0.0 0.0 0.0
-0.0272564 -0.26352 -0.0201069
0.221427 -0.204575 -0.130362
-0.385194 -0.151952 0.0098464
0.0 0.0 0.0
0.691198 -0.0475301 -0.613157
0.0 0.0 0.0
0.0 0.0 0.0
0.0 0.0 0.0
0.0 0.0 0.0
0.0553395 1.5701 0.747132
0.0 0.0 0.0
0.820262 -0.317807 0.167603
0.0 0.0 0.0
0.675051 -1.47318 -1.14172
0.746398 -1.51895 0.625159
-1.12589 0.760824 -2.60116
0.0 0.0 0.0
-0.315312 0.147334 -0.206846
2.04729 0.764496 0.809678
-0.227197 -0.76559 1.35566
-1.38597e-15 -0.723863 0.0541147
1.0793e-14 -4.51041e-15 -5.07257e-16
0.451336 -0.413521 -0.120656
0.629521 -0.459997 -0.212717
0.0600301 -0.93511 0.0101241
0.0 0.0 0.0
0.0 0.0 0.0
0.114042 0.685722 -0.508357
-0.439826 -0.846629 0.980051
-0.303297 -0.302602 -0.022432
-1.11836 0.455102 -0.915245
-1.74548 -0.716357 -0.0359491
-3.51459 0.10326 2.50019
0.0 0.0 0.0
0.0 0.0 0.0
0.390741 0.674964 -0.295289
1.89205 -2.49753 -0.656441
5.43064 1.6313 0.314357
-0.58039 -0.320273 1.34315
0.0 0.0 0.0
-0.250784 0.313795 -0.902802
0.264442 -0.281764 -1.03765
0.0 0.0 0.0
-0.417271 -0.174121 0.363548
-0.189733 1.15046 -0.1402
0.0217967 -0.317689 0.119862
-1.16089e-15 7.34877e-16 5.22731e-17
0.0761317 -0.956643 1.03934
1.64732e-15 -6.88409e-16 -7.74306e-17
0.0 0.0 0.0
-0.080968 0.120684 -0.0882575
-0.367352 1.42285 0.128408
-0.197988 0.132473 0.0776131
-0.128493 -0.111924 0.126043
0.0 0.0 0.0
1.23221 -0.851132 1.00112
0.243015 -1.16512 1.29714
0.0 0.0 0.0
0.654674 0.713896 0.122644
0.62397 0.524337 -0.662931
1.74051 -1.02181 0.331225
-0.318631 0.084878 0.320903
-0.261483 -0.20877 0.142357
0.0 0.0 0.0
0.0 0.0 0.0
-0.336101 1.18687 1.25548
0.115559 -0.575995 1.15642
-0.0431991 2.92825 -0.905903
0.253446 0.836649 -0.654819
-7.60473e-15 4.8135e-15 3.42697e-16
-4.2868e-05 -5.79866e-06 8.15819e-06
-0.123261 0.163659 -0.494433
0.304344 0.041168 -0.0579196
0.553843 -0.862693 0.525441
-0.281726 -0.765587 -0.332212
0.0 0.0 0.0
-0.0733409 -0.0813734 -1.59459
0.0 0.0 0.0
0.267439 0.270185 -0.094196
0.0349022 -0.0836305 0.00349223
-0.137896 -0.0838084 0.415367
1.0718 -0.069117 0.141546
-0.366941 0.33526 -0.680675
1.04623 -1.47672 -0.968724
-0.816768 0.662273 -0.229047
0.0 0.0 0.0
3.41777e-15 -4.97492e-16 -4.15353e-16
2.23914e-14 -3.25933e-15 -2.72123e-15
0.0477453 0.34161 0.0837452
0.0 0.0 0.0
0.121689 -0.0404107 -0.725149
-0.286249 -0.299596 -0.398538
0.517845 -0.500114 0.382867
0.0 0.0 0.0
-0.304387 -0.0411738 0.0579278
-0.220148 0.145133 0.167525
0.714493 0.739912 -0.463
-1.82937e-14 2.26326e-14 -2.33808e-15
-0.0452935 0.359548 0.0283259
0.459988 -0.8223 -0.0863538
0.107232 -0.647181 -0.525309
0.172806 0.845693 -0.402964
0.0 0.0 0.0
-0.964782 -1.07167 3.29496
-1.05259 -0.463173 0.639598
-0.482434 -0.634346 0.916445
-1.32348 0.98063 -1.18707
-0.377693 -0.223976 0.0107456
-1.08348 -1.45759 -2.74491
-0.27897 -0.330563 -0.258925
-0.0996503 0.191941 0.454235
0.0 0.0 0.0
0.17549 -0.063948 0.210292
-0.205702 -0.217633 -0.120488
0.0 0.0 0.0
-0.228779 0.311652 0.514947
0.0 0.0 0.0
0.170882 0.111747 -0.9322
-1.38002 0.122012 1.07743
0.233613 -0.418166 -0.163883
-1.82937e-14 2.26326e-14 -2.33808e-15
-0.212003 0.0130548 -0.0657187
-0.340621 0.363825 -0.130055
0.0 0.0 0.0
3.75354 -2.69898 -3.61956
0.486241 0.276675 0.4017
-0.163479 0.296967 -1.73999
-0.593767 2.535 3.70379
-1.38421 -0.830885 2.25479
-0.198754 0.0316772 1.38334
-0.364258 0.603369 -0.00251401
2.31056 2.02455 -2.27851
0.449581 0.544447 0.239952
0.0 0.0 0.0
0.0 0.0 0.0
0.532608 -0.449984 -0.211043
-0.552333 0.150091 0.163953
0.205741 0.217674 0.12051
3.87501e-05 4.09978e-05 2.26975e-05
0.0 0.0 0.0
0.422449 -0.514918 -0.394081
0.0 0.0 0.0
-0.15464 -0.0253162 0.0847471
0.829162 -0.179849 0.348102
-7.37662e-06 4.54239e-07 -2.28668e-06
-0.0116477 -0.0047618 0.00209146
-1.03706e-14 -8.86791e-15 -1.5522e-16
1.3725 -1.17499 -0.748912
0.460914 0.100148 -0.190974
-0.173627 0.481601 0.412994
0.0 0.0 0.0
2.93064 0.232253 -2.19485
-0.157271 0.628734 -0.869182
2.30007e-15 5.07006e-16 2.36297e-15
-0.12396 -0.0297581 0.357038
0.27848 0.0716993 0.111361
0.0 0.0 0.0
1.64441e-05 3.9476e-06 -4.73635e-05
-5.11666e-16 -6.62311e-15 3.16738e-16
1.62461 -1.10071 -0.463676
8.06349e-16 -4.73131e-16 9.54238e-16
-0.463082 0.00364915 0.324367
-2.58471 1.40822 1.90732
0.0 0.0 0.0
0.475896 0.0345182 -0.350536
-1.03706e-14 -8.86791e-15 -1.5522e-16
-0.538464 -0.402644 -0.136648
-0.0949991 -0.0269169 0.437248
2.30007e-15 5.07006e-16 2.36297e-15
0.0 0.0 0.0
-0.0412217 0.592229 -0.812777
-0.358678 -0.31145 0.353367
1.95881e-06 -2.6245e-06 -1.09745e-05
0.123977 0.029762 -0.357086
-0.384229 -0.0390434 0.304824
0.0375724 -0.0503413 -0.210505
-0.0375531 0.0503155 0.210397
-0.0537167 0.00707069 -0.237175
-3.35226e-15 -4.3392e-14 2.07517e-15
5.28204e-15 -3.09868e-15 6.25128e-15
0.0 0.0 0.0
0.211917 -0.0130494 0.0656919
0.0 0.0 0.0
0.0 0.0 0.0
0.0 0.0 0.0
0.0 0.0 0.0
0.0 0.0 0.0
0.0 0.0 0.0
0.333104 -0.110565 0.154391
0.0 0.0 0.0
0.0 0.0 0.0
0.608992 0.117813 -0.430638
VECTORS v float
-0.00341601 -0.00116641 -0.0061001
0.0 0.0 0.0
0.0 0.0 0.0
-0.00255297 -0.00124064 -0.00221317
0.0 0.0 0.0
-0.00158981 -0.00484241 0.0100252
0.00460886 -0.00717708 -0.00895612
0.0 0.0 0.0
-0.000223806 -0.00546576 -0.00194619
0.00449167 0.0081421 -0.0135017
0.0 0.0 0.0
0.0 0.0 0.0
0.0 0.0 0.0
-0.00433795 0.00547969 -0.00611452
-0.0140387 0.00713256 -0.00833307
0.0 0.0 0.0
-0.00382271 -0.000768474 -0.0055936
0.0110813 -0.0107887 0.0122721
0.00255297 0.00124064 0.00221317
0.00391973 -0.00569309 -0.00349439
0.0035543 -0.00526789 0.00772172
0.00393634 -0.00320817 0.00135496
-0.00104898 0.00530739 -0.00292766
0.000475314 -0.00102709 -0.00313896
-0.0104043 0.0013021 -0.00898035
-0.0027324 0.00288043 0.0025463
0.012799 0.000476086 -0.00318116
0.00369983 -0.00267591 -0.00286523
0.0 0.0 0.0
0.0106283 0.00595388 0.0010083
-0.00228986 -0.00343782 0.00091479
0.00573551 0.00926237 4.65248e-05
-0.00684446 0.00363376 -0.00894136
0.00256983 -0.00331766 -0.00258885
0.0 0.0 0.0
0.0 0.0 0.0
0.00732171 0.00495893 0.00168756
-0.00610573 0.00466151 -0.00171135
0.0 0.0 0.0
-0.00128459 -0.00619594 0.00130941
0.0 0.0 0.0
-0.000113816 -0.0087217 0.00638809
0.0 0.0 0.0
0.00456584 0.00211743 0.00231264
-0.007655 0.00277338 -0.0108907
-0.000573517 0.000403023 0.00180876
0.00775798 -0.00876483 0.00526361
0.0148871 -0.00184267 0.00412708
0.0051436 0.00323091 -0.000581609
0.00403923 0.00910913 -0.00214627
0.0124103 0.00899163 -0.00127827
-0.00895554 -0.0165232 0.00454148
-0.000303486 -0.00630353 -0.00563287
0.0 0.0 0.0
0.0 0.0 0.0
0.0160122 0.00300931 -0.00452559
0.0 0.0 0.0
-0.00389071 -0.0056352 0.000535714
0.0110149 -0.00170539 0.00562369
0.00225469 0.0019818 0.00342329
0.00215474 -0.0104327 -2.48967e-05
-0.00343076 0.00170409 0.0143927
-0.00534999 -0.00668883 0.00506014
-0.008046 0.00240984 0.00198482
-0.00938972 -0.000246588 -0.000808728
0.0 0.0 0.0
0.0 0.0 0.0
-0.0021349 0.00525359 0.0087441
-0.00888989 0.0028841 0.000700579
0.0 0.0 0.0
0.0 0.0 0.0
0.0 0.0 0.0
-0.00274202 0.00380956 -0.00585101
0.00834262 0.000391625 -0.00257538
0.0 0.0 0.0
-0.00669606 0.00140203 -0.00632911
-0.00427736 0.00962304 -0.00239373
-0.0121584 -0.00158269 0.00183031
-0.00577925 -0.00284144 -0.00785804
0.0 0.0 0.0
0.0 0.0 0.0
0.0 0.0 0.0
-0.000471045 -0.00555994 0.00121346
0.0 -0.00359693 0.0
-0.00163497 -0.00426506 -0.00110999
0.0 0.0 0.0
0.00417203 0.00111155 -0.00815633
-0.00480586 -0.00368946 -0.00470099
-0.0232661 0.000190273 0.00315906
-0.000290133 0.00873618 -0.000529546
0.00499955 -0.00273604 0.00170408
-0.00245761 -0.00502556 0.00033297
-0.00388503 0.00879533 0.00187661
-0.00121514 -0.0100075 -0.00167711
-0.00665567 0.00452582 -0.00911616
-0.00359442 0.00236948 -0.000156991
-0.00197194 -0.00596541 -0.00719233
0.0 0.0 0.0
-0.00498858 0.000159282 0.00634116
0.0 0.0 0.0
-0.0131472 0.000118752 0.00113204
0.0 0.0 0.0
0.000686886 0.00194917 0.00204835
0.0 0.0 0.0
0.0106342 0.00302537 -0.00448742
0.0253007 0.00848626 -0.00790254
0.0 0.00359417 0.0
0.00201912 -0.00187051 0.010857
0.0 0.0 0.0
0.000261891 -0.000236671 0.00363013
-0.00455336 -0.0120166 0.00397817
0.0 0.0 0.0
0.00237391 -0.0102071 -0.0079373
0.0 0.0 0.0
0.00368383 -0.00295991 -0.00559813
0.00983315 0.000751896 0.00247812
0.00684498 -0.00280107 -0.00683182
0.0 0.0 0.0
0.0119559 0.00320017 0.000406187
0.00584839 -0.00419835 0.00580456
0.00108943 -0.000572346 -0.0013617
0.000488818 -0.00916502 0.00114885
0.0135272 0.00508587 0.00262179
-0.00473218 0.00226978 0.000601687
0.00518286 0.010848 -0.002332
-0.00238334 -9.18453e-05 0.00350598
0.0124028 0.00502078 0.000802412
0.0 0.0 0.0
0.0 0.0 0.0
-0.0132297 -0.000539593 0.00334902
-0.00531578 0.00309168 0.00544332
-0.00718227 0.00150517 0.00323914
-0.00415181 -0.000920382 0.00490057
0.0 0.0 0.0
-0.00552029 0.0 0.0
-0.00306027 0.00420807 0.00747445
-0.00837262 -0.00203298 -0.0041928
-0.00347426 -0.00357559 -0.000700379
0.00478096 0.008057 0.00885138
0.000169481 0.00999939 -0.00273492
0.0 0.0 0.0
0.00570888 -7.67184e-05 -0.00102622
0.00237829 -0.00492667 0.0205416
-0.0044623 0.00234433 0.00557753
0.0 0.0 0.0
-0.0137286 0.00126159 0.00290848
-0.00447295 9.02654e-05 -0.00774178
-0.000982154 0.00257001 0.00123861
0.0 0.0 0.0
-0.00313034 -0.00483754 -0.00798182
0.0 0.0 0.0
0.0 0.0 0.0
0.0 0.0 0.0
0.0 0.0057426 0.0
-0.00456663 0.000691548 -0.0140982
0.0 0.0 0.0
0.0038176 0.00280677 -0.013329
0.0 0.0 0.0
0.00389332 0.00664499 -0.01542
0.00984818 0.00885059 0.00277135
0.00608178 0.00562854 -0.0107295
0.0 0.0 0.0
-0.0055325 0.00216337 0.00997205
0.00814035 0.0178921 -0.00328198
-0.00411355 0.0129716 0.00719414
0.0106709 0.000553036 0.00739766
-0.0024383 -0.00530158 -0.0047397
0.000734235 -0.000318639 0.00383503
0.00216175 0.00575114 -0.00602202
-0.00673293 -0.00256427 -0.0008256
0.0 0.0 0.0
0.0 0.0 0.0
-0.00339662 0.000796054 0.000312327
-0.00536313 0.00359482 -0.00241368
-0.00363302 0.00363924 -0.00176256
0.00262767 0.0041288 0.000824473
-0.0033966 0.00494763 -0.00722368
-0.000463596 -0.00466627 -0.0127424
0.0 0.0 0.0
0.0 0.0 0.0
-0.00604474 0.00182321 -0.00383096
-0.0124352 -0.00478877 -0.00454101
-0.00838028 0.011394 -0.00819257
-0.00261069 0.0025114 -0.000529741
0.0 0.0 0.0
0.000407183 0.0136012 -0.00259899
0.00679655 -0.00576736 -0.0016418
0.0 0.0 0.0
0.000582327 -0.00814825 -0.00318449
0.0143288 0.00700929 -0.00159464
-0.00416977 -0.00326695 -0.00572394
-0.000574563 -0.000797381 -0.00155007
-0.0141085 -0.00116023 -0.00435873
0.000595289 0.00129433 0.00115715
0.0 0.0 0.0
-0.000395358 -0.00174385 0.000549969
-0.00367767 -0.000694782 0.00808046
0.00690106 0.00463965 0.000675117
0.00110041 -0.00563111 0.00112056
0.0 0.0 0.0
-0.00529356 0.00358077 0.00659689
-0.00799964 0.00382638 -0.00602895
0.0 0.0 0.0
-0.00557142 0.00410565 0.00588129
-0.00511034 0.00886273 0.00316224
-0.00303776 -0.0109577 -0.017833
0.00864392 -0.0169297 0.00513538
0.000552381 -0.001714 -0.00414969
0.0 0.0 0.0
0.0 0.0 0.0
-0.00305892 -0.00459288 0.0035291
0.0031153 0.00466674 0.00655479
-0.00658807 0.00148743 0.00512254
-0.00780828 0.00486395 0.00422197
0.00235341 0.00326607 0.0063491
0.000882138 -0.00437116 0.00152835
0.00570899 0.00329306 -0.004236
-0.000725489 0.00141371 -0.00280731
-0.000808726 0.00241289 0.00481399
-0.00425053 0.00691295 -0.0122849
0.0 0.0 0.0
-0.00397066 0.00738365 0.00250713
0.0 0.0 0.0
0.00287786 -0.000825538 0.00580339
-0.000973835 0.000943313 -0.00189964
0.00116304 0.00253013 0.00210826
0.000422084 -0.00381293 -0.00543881
0.00426637 -0.00845403 0.00749153
-0.000590595 0.00680557 -0.010996
0.00229181 -0.000725535 -0.0102028
0.0057425 0.0 0.0
-0.000142746 -0.00164669 0.00079774
0.000584687 0.00674484 -0.00326754
0.00681686 -2.86902e-05 -0.00360308
0.0 0.0 0.0
-0.00524847 0.00265355 -0.00608999
0.00492622 -0.0034528 -0.00471096
-0.000194973 0.0045368 0.00619328
0.0 0.0 0.0
-0.000156648 0.00295744 0.00127896
-0.00242429 -0.00699095 0.00287056
0.0102076 -0.00707589 0.00445502
-0.00210092 -0.00192531 -0.00219895
0.00349856 0.000994949 0.0105602
0.00358646 0.00263069 -0.0060735
0.00258412 0.000913035 0.00801562
0.00815832 -0.000425231 0.00276712
0.0 0.0 0.0
-0.0219089 -0.015498 -0.000665738
0.00703291 0.000557791 0.0119791
-0.018961 0.00239918 -0.00768629
-0.0205795 0.00865721 -0.00419193
-0.0023812 0.00345471 -0.00526215
0.00612316 0.01856 -0.00571093
-0.00709481 -0.00388924 0.00313479
0.00217981 -0.00303185 0.00536377
0.0 0.0 0.0
-0.00740204 -0.00470435 0.00474026
0.00253121 -0.00187499 -0.000934642
0.0 0.0 0.0
-0.00311984 0.00608923 -0.00231476
0.0 0.0 0.0
0.00594733 0.0110117 -0.00378342
-0.00424998 -0.00360499 -0.00488234
0.00112764 0.00369708 0.00148434
0.00210092 0.00192531 0.00219895
0.00130161 -0.00595146 -0.00538111
0.00747956 0.00764947 0.00143696
0.0 0.0 0.0
-0.0164712 -0.0308167 -0.000846968
0.00317504 -0.00932646 0.00239983
-0.00599304 -0.00020089 0.00203167
-0.0210867 -0.0129402 0.00813893
-0.0131294 0.0271824 -0.0047784
-0.0107821 0.00799018 -0.000683604
0.00135031 0.000796352 -0.0063868
-0.032496 0.0281331 -0.00792383
0.000449504 -0.000381749 -0.00536386
0.0 0.0 0.0
0.0 0.0 0.0
0.00567073 0.00750631 -0.0016886
0.00331751 0.00560102 0.00616287
-7.85977e-06 -0.00158588 0.00287796
-0.00252335 0.00346088 -0.00194331
0.0 0.0 0.0
0.0053986 0.000334636 0.00534937
0.0 0.0 0.0
0.000869697 -0.0083763 -0.000912465
-0.0144336 -0.00385421 0.00100387
0.000276241 0.0020439 -0.000485119
-0.00165365 0.00410728 -0.00179559
-0.00039178 0.000520133 -0.00354006
-0.00173985 0.00812844 0.0032355
-0.000638624 0.0133181 0.00544305
0.00298402 -0.00621127 0.00521337
0.0 0.0 0.0
-0.00368526 0.0301577 -0.0021245
0.0118124 0.000740762 -0.00159069
0.00342361 0.00251551 -0.00387221
-0.00299562 -0.00498951 -0.00145591
0.00276402 -0.00765632 -0.00197578
0.0 0.0 0.0
-0.00242464 0.00690484 -0.000266311
-0.001245 3.17068e-05 -0.0013482
0.00417088 0.00673935 0.0140033
0.00144946 0.000713369 -0.000871116
-0.0175104 0.00317403 0.0106952
-0.00536046 0.0162297 -6.74598e-05
0.0 0.0 0.0
0.00384968 0.00416784 0.00564913
0.00039178 -0.000520133 0.00354006
-0.00288695 0.000401489 0.0100354
0.00428371 0.00334054 0.00353763
-0.00342361 -0.00251551 0.00387221
0.0 0.0 0.0
0.00811641 -0.00933963 0.00216827
0.0056278 0.00240517 0.00239383
-0.000927197 -0.00235617 0.000397975
0.00542025 -0.00191533 0.00172222
-0.00180772 -0.00197433 -0.000254783
-0.00294239 0.006516 -0.00208345
0.00674019 0.00313488 0.000453343
-0.00321389 0.00523232 -0.00216448
0.00509952 -0.000129871 0.00552222
-0.00593698 -0.00292196 0.00356809
0.0 0.0 0.0
-0.00243309 -0.00242035 0.00736816
0.0 0.0 0.0
0.0 0.0 0.0
0.0 0.0 0.0
0.0 0.0 0.0
0.0 0.0 0.0
0.0 0.0 0.0
0.000508623 0.00331442 0.00127588
0.0 0.0 0.0
0.0 0.0 0.0
0.00225759 0.00439833 0.00439504
SCALARS radius float 1
LOOKUP_TABLE default
0.00875258
0.00547036
0.00547036
0.00547036
0.00547036
0.00547036
0.00547036
0.00547036
0.00875258
0.00547036
0.00547036
0.00547036
0.00547036
0.00547036
0.00547036
0.00547036
0.00875258
0.00875258
0.00547036
0.00875258
0.00547036
0.00547036
0.00875258
0.00875258
0.00547036
0.00547036
0.00547036
0.00875258
0.00547036
0.00547036
0.00875258
0.00875258
0.00875258
0.00875258
0.00547036
0.00547036
0.00547036
0.00547036
0.00547036
0.00547036
0.00547036
0.00875258
0.00547036
0.00875258
0.00547036
0.00547036
0.00875258
0.00547036
0.00547036
0.00875258
0.00547036
0.00547036
0.00875258
0.00547036
0.00547036
0.00547036
0.00547036
0.00875258
0.00547036
0.00547036
0.00875258
0.00875258
0.00875258
0.00547036
0.00875258
0.00547036
0.00875258
0.00875258
0.00875258
0.00547036
0.00875258
0.00547036
0.00547036
0.00875258
0.00547036
0.00547036
0.00547036
0.00547036
0.00875258
0.00547036
0.00875258
0.00547036
0.00875258
0.00547036
0.00547036
0.00547036
0.00875258
0.00875258
0.00547036
0.00547036
0.00547036
0.00547036
0.00547036
0.00875258
0.00875258
0.00547036
0.00547036
0.00547036
0.00875258
0.00547036
0.00547036
0.00547036
0.00875258
0.00547036
0.00547036
0.00547036
0.00547036
0.00547036
0.00547036
0.00875258
0.00875258
0.00547036
0.00547036
0.00547036
0.00875258
0.00547036
0.00547036
0.00547036
0.00875258
0.00875258
0.00875258
0.00547036
0.00547036
0.00875258
0.00875258
0.00875258
0.00547036
0.00547036
0.00547036
0.00547036
0.00547036
0.00547036
0.00547036
0.00547036
0.00875258
0.00875258
0.00875258
0.00875258
0.00875258
0.00547036
0.00547036
0.00875258
0.00547036
0.00547036
0.00547036
0.00547036
0.00547036
0.00875258
0.00547036
0.00547036
0.00547036
0.00547036
0.00547036
0.00875258
0.00547036
0.00875258
0.00547036
0.00547036
0.00547036
0.00547036
0.00547036
0.00875258
0.00875258
0.00547036
0.00547036
0.00547036
0.00547036
0.00875258
0.00547036
0.00875258
0.00547036
0.00547036
0.00547036
0.00547036
0.00547036
0.00875258
0.00547036
0.00547036
0.00547036
0.00547036
0.00547036
0.00547036
0.00547036
0.00547036
0.00547036
0.00875258
0.00875258
0.00547036
0.00547036
0.00875258
0.00875258
0.00875258
0.00875258
0.00875258
0.00875258
0.00875258
0.00547036
0.00547036
0.00875258
0.00547036
0.00547036
0.00547036
0.00547036
0.00547036
0.00547036
0.00875258
0.00875258
0.00547036
0.00875258
0.00547036
0.00547036
0.00875258
0.00547036
0.00875258
0.00547036
0.00547036
0.00875258
0.00547036
0.00547036
0.00547036
0.00547036
0.00875258
0.00547036
0.00875258
0.00875258
0.00547036
0.00875258
0.00547036
0.00875258
0.00875258
0.00875258
0.00875258
0.00547036
0.00875258
0.00547036
0.00547036
0.00875258
0.00875258
0.00875258
0.00547036
0.00547036
0.00547036
0.00547036
0.00875258
0.00875258
0.00547036
0.00547036
0.00547036
0.00547036
0.00875258
0.00875258
0.00875258
0.00547036
0.00875258
0.00875258
0.00547036
0.00547036
0.00875258
0.00547036
0.00547036
0.00875258
0.00547036
0.00547036
0.00547036
0.00547036
0.00547036
0.00547036
0.00547036
0.00547036
0.00547036
0.00547036
0.00875258
0.00547036
0.00875258
0.00547036
0.00547036
0.00547036
0.00875258
0.00875258
0.00547036
0.00547036
0.00547036
0.00547036
0.00547036
0.00547036
0.00875258
0.00547036
0.00875258
0.00875258
0.00875258
0.00875258
0.00547036
0.00547036
0.00547036
0.00547036
0.00547036
0.00875258
0.00547036
0.00875258
0.00875258
0.00547036
0.00875258
0.00875258
0.00875258
0.00875258
0.00875258
0.00875258
0.00875258
0.00547036
0.00547036
0.00547036
0.00875258
0.00875258
0.00875258
0.00547036
0.00875258
0.00875258
0.00875258
0.00875258
0.00547036
0.00547036
0.00547036
0.00547036
0.00547036
0.00547036
0.00547036
0.00547036
0.00547036
0.00547036
0.00547036
0.00547036
0.00547036
0.00547036
0.00547036
0.00547036
0.00547036
0.00547036
SCALARS type float 1
LOOKUP_TABLE default
1.0
1.0
1.0
1.0
1.0
1.0
1.0
1.0
1.0
1.0
1.0
1.0
1.0
1.0
1.0
1.0
1.0
1.0
1.0
1.0
1.0
1.0
1.0
1.0
1.0
1.0
1.0
1.0
1.0
1.0
1.0
1.0
1.0
1.0
1.0
1.0
1.0
1.0
1.0
1.0
1.0
1.0
1.0
1.0
1.0
1.0
1.0
1.0
1.0
1.0
1.0
1.0
1.0
1.0
1.0
1.0
1.0
1.0
1.0
1.0
1.0
1.0
1.0
1.0
1.0
1.0
1.0
1.0
1.0
1.0
1.0
1.0
1.0
1.0
1.0
1.0
1.0
1.0
1.0
1.0
1.0
1.0
1.0
1.0
1.0
1.0
1.0
1.0
1.0
1.0
1.0
1.0
1.0
1.0
1.0
1.0
1.0
1.0
1.0
1.0
1.0
1.0
1.0
1.0
1.0
1.0
1.0
1.0
1.0
1.0
1.0
1.0
1.0
1.0
1.0
1.0
1.0
1.0
1.0
1.0
1.0
1.0
1.0
1.0
1.0
1.0
1.0
1.0
1.0
1.0
1.0
1.0
1.0
1.0
1.0
1.0
1.0
1.0
1.0
1.0
1.0
1.0
1.0
1.0
1.0
1.0
1.0
1.0
1.0
1.0
1.0
1.0
1.0
1.0
1.0
1.0
1.0
1.0
1.0
1.0
1.0
1.0
1.0
1.0
1.0
1.0
1.0
1.0
1.0
1.0
1.0
1.0
1.0
1.0
1.0
1.0
1.0
1.0
1.0
1.0
1.0
1.0
1.0
1.0
1.0
1.0
1.0
1.0
1.0
1.0
1.0
1.0
1.0
1.0
1.0
1.0
1.0
1.0
1.0
1.0
1.0
1.0
1.0
1.0
1.0
1.0
1.0
1.0
1.0
1.0
1.0
1.0
1.0
1.0
1.0
1.0
1.0
1.0
1.0
1.0
1.0
1.0
1.0
1.0
1.0
1.0
1.0
1.0
1.0
1.0
1.0
1.0
1.0
1.0
1.0
1.0
1.0
1.0
1.0
1.0
1.0
1.0
1.0
1.0
1.0
1.0
1.0
1.0
1.0
1.0
1.0
1.0
1.0
1.0
1.0
1.0
1.0
1.0
1.0
1.0
1.0
1.0
1.0
1.0
1.0
1.0
1.0
1.0
1.0
1.0
1.0
1.0
1.0
1.0
1.0
1.0
1.0
1.0
1.0
1.0
1.0
1.0
1.0
1.0
1.0
1.0
1.0
1.0
1.0
1.0
1.0
1.0
1.0
1.0
1.0
1.0
1.0
1.0
1.0
1.0
1.0
1.0
1.0
1.0
1.0
1.0
1.0
1.0
1.0
1.0
1.0
1.0
1.0
1.0
1.0
1.0
1.0
1.0
1.0
1.0
1.0
1.0
1.0
1.0
1.0
1.0
1.0
1.0
1.0
1.0
1.0
1.0
1.0
1.0
1.0
1.0
1.0
SCALARS id float 1
LOOKUP_TABLE default
50.0
138.0
304.0
141.0
297.0
293.0
325.0
285.0
10.0
241.0
126.0
240.0
207.0
140.0
197.0
258.0
92.0
60.0
154.0
98.0
188.0
298.0
106.0
80.0
183.0
277.0
171.0
41.0
180.0
213.0
23.0
58.0
32.0
6.0
327.0
291.0
174.0
158.0
128.0
264.0
234.0
89.0
263.0
37.0
328.0
331.0
48.0
329.0
172.0
88.0
164.0
200.0
9.0
305.0
274.0
186.0
135.0
40.0
246.0
173.0
61.0
38.0
119.0
225.0
122.0
260.0
121.0
64.0
84.0
288.0
81.0
193.0
205.0
47.0
149.0
257.0
192.0
232.0
34.0
229.0
94.0
143.0
102.0
198.0
278.0
137.0
70.0
85.0
227.0
199.0
321.0
259.0
130.0
62.0
79.0
169.0
127.0
265.0
12.0
184.0
273.0
142.0
72.0
230.0
247.0
163.0
295.0
222.0
292.0
17.0
44.0
159.0
314.0
195.0
73.0
153.0
322.0
216.0
2.0
30.0
35.0
239.0
275.0
103.0
66.0
13.0
253.0
296.0
252.0
144.0
160.0
238.0
203.0
212.0
22.0
75.0
49.0
100.0
55.0
228.0
249.0
99.0
319.0
156.0
245.0
301.0
308.0
105.0
201.0
217.0
276.0
248.0
155.0
18.0
294.0
8.0
133.0
250.0
233.0
152.0
175.0
33.0
31.0
147.0
269.0
317.0
267.0
107.0
204.0
19.0
157.0
236.0
324.0
306.0
151.0
93.0
165.0
290.0
261.0
145.0
286.0
220.0
280.0
333.0
182.0
77.0
101.0
146.0
208.0
4.0
82.0
118.0
45.0
69.0
26.0
24.0
237.0
336.0
97.0
326.0
307.0
132.0
210.0
181.0
310.0
65.0
5.0
206.0
111.0
272.0
161.0
115.0
242.0
95.0
166.0
179.0
117.0
221.0
224.0
302.0
231.0
46.0
185.0
39.0
29.0
189.0
68.0
282.0
28.0
108.0
83.0
104.0
134.0
25.0
279.0
337.0
3.0
74.0
42.0
177.0
303.0
202.0
124.0
51.0
114.0
311.0
167.0
148.0
300.0
14.0
112.0
91.0
194.0
116.0
53.0
309.0
136.0
56.0
235.0
176.0
20.0
196.0
330.0
215.0
332.0
218.0
335.0
318.0
170.0
251.0
131.0
21.0
271.0
27.0
191.0
315.0
255.0
52.0
59.0
223.0
190.0
123.0
316.0
281.0
139.0
76.0
162.0
96.0
71.0
43.0
63.0
262.0
270.0
209.0
268.0
168.0
78.0
214.0
7.0
113.0
334.0
86.0
15.0
120.0
109.0
87.0
67.0
54.0
178.0
125.0
219.0
57.0
16.0
110.0
243.0
90.0
11.0
36.0
1.0
312.0
226.0
150.0
256.0
284.0
323.0
211.0
320.0
254.0
289.0
266.0
187.0
299.0
129.0
283.0
287.0
313.0
244.0

