# vtk DataFile Version 2.0
Generated by lpp.py
ASCII
DATASET POLYDATA
POINTS 337 float
-0.0120631 -0.0397834 0.00612995
0.0052679 -0.0353128 0.00608307
-0.0186663 -0.0273964 0.00614537
0.0405418 -0.0316063 0.00614538
-0.00816494 -0.019593 0.00606583
0.0364214 -0.0197646 0.0059723
0.0154041 -0.0115736 0.00613034
0.0063111 2.3768e-05 0.00603308
-0.0326047 0.0126468 0.00663443
-0.00798779 0.0105581 0.00836614
-0.00359301 0.0224499 0.00651031
0.043895 0.0201522 0.0087002
0.00536584 0.0407324 0.00625393
0.0156719 0.0330037 0.00608635
0.0121125 -0.0431242 0.0154838
-0.0277721 -0.0402427 0.00976839
0.0260305 -0.0364448 0.0112541
-0.00512033 -0.0305573 0.0171672
0.011776 -0.0276728 0.0131923
-0.0326708 -0.021395 0.0121008
-0.0171508 -0.0191548 0.0151419
0.044 -0.0207375 0.0153578
0.00268037 -0.00941313 0.0182443
0.0296846 -0.00769832 0.0136569
-0.0401838 -0.00331643 0.0105429
-0.018127 -0.00231891 0.00970451
0.017633 0.0022926 0.0100637
-0.0259121 0.0084176 0.0185768
0.0305549 0.0115892 0.0103294
-0.0439345 0.0181642 0.0122958
-0.0154502 0.0201307 0.0141737
0.0114654 0.0169964 0.00973144
0.00678003 0.0315148 0.0143437
0.0298879 0.0309529 0.0130377
-0.0334848 0.0401707 0.00985559
-0.0143573 0.0355921 0.0101656
0.0427025 0.0405417 0.0113444
-0.00192414 0.0438063 0.0159522
0.0129375 0.0436532 0.0154855
0.00291173 -0.0438838 0.0238311
0.030343 -0.0439414 0.0249642
-0.042427 -0.0358223 0.0232565
-0.0193733 -0.0397005 0.0275202
0.010609 -0.034047 0.0238761
0.00596862 -0.0228683 0.0261456
0.0218941 -0.022803 0.0251347
0.0402333 -0.0315795 0.0262367
-0.0437886 -0.0148196 0.021619
0.0373947 -0.0158402 0.0252765
-0.0288352 -0.0084872 0.0263983
-0.0132359 -0.00695969 0.0240045
0.0430517 -0.00504302 0.0233185
0.0176613 0.00154111 0.0260016
-0.0403262 0.0100898 0.0221571
-0.0111543 0.00871761 0.0246328
0.0037288 0.00673629 0.0191912
0.0438498 0.0072097 0.0242853
0.0178024 0.0218155 0.0253474
0.0404903 0.0208285 0.0218043
-0.0313504 0.0232828 0.0205308
-0.024117 0.0402605 0.0271491
-0.00866534 0.0439492 0.026486
0.0245063 0.0439657 0.0203109
0.0367014 0.0439183 0.0215207
-0.0363458 -0.040109 0.0374002
-0.000256561 -0.0338944 0.0358577
0.0182501 -0.0402259 0.036984
-0.0403151 -0.0208677 0.0363496
-0.0139527 -0.0204902 0.0321606
-0.0439046 -0.00578102 0.0307968
-0.002456 -0.00547319 0.0367111
0.0293906 -0.00920359 0.0374884
-0.0250615 0.0131496 0.0310603
0.0348082 0.00553155 0.0330133
-0.00922963 0.0222562 0.0327647
0.00533067 0.0149785 0.0330633
0.0292857 0.0179894 0.0283349
0.0377171 0.0179442 0.0372602
-0.0439255 0.030036 0.0300641
-0.0350595 0.0345619 0.0371268
-0.0124082 0.0336621 0.0356979
0.0033976 0.034115 0.0296621
0.0200828 0.0335513 0.0282099
0.0402314 0.0330723 0.0326312
-0.0423548 0.0422544 0.028933
0.00536101 -0.0439998 0.0466333
-0.0162616 -0.0386268 0.0430877
0.0385484 -0.0401689 0.0455149
-0.0258371 -0.0235351 0.0421301
0.029698 -0.0292876 0.0378205
0.0399036 -0.0245163 0.0425888
0.0038378 -0.0211012 0.0446594
0.0122908 -0.0150779 0.0376293
-0.0428551 -0.00683697 0.0435562
0.0439018 -0.0129508 0.0429459
-0.0202319 0.00167151 0.041271
0.0123548 0.0030747 0.0414706
0.043668 -0.0008892 0.0387254
-0.0386833 0.00750531 0.0378943
0.0220459 0.011003 0.0383738
-0.0206942 0.0211889 0.0440688
-0.0369157 0.023087 0.040816
-0.0437281 0.040355 0.0437168
0.0159792 0.0402773 0.0433026
-0.0276178 0.0422116 0.0432199
0.0315463 0.0438866 0.0434172
0.0438974 0.0438121 0.0439771
-0.0438579 -0.0438219 0.0509983
-0.0437165 -0.0322741 0.0552084
-0.022044 -0.0308364 0.0557096
-0.00934286 -0.0251042 0.047845
1.14917e-05 -0.0318218 0.0522411
0.0232647 -0.0225263 0.0506229
-0.0320534 -0.00533264 0.0498113
-0.0127866 -0.0110025 0.0544901
0.00261282 -0.00819503 0.0515195
0.0438338 -0.00610346 0.0531112
0.0176991 -0.0041951 0.0546211
-0.000441041 0.00824018 0.050565
0.0152659 0.01098 0.050542
0.0338376 0.00577968 0.0494219
-0.040231 0.0193388 0.0558975
0.0437196 0.0184022 0.0479393
-0.00619671 0.0239264 0.0552383
0.0097082 0.025375 0.054389
0.031419 0.0291916 0.0496843
-0.00330566 0.0388694 0.0476606
-0.0325619 -0.0434335 0.0589378
-0.0210423 -0.0439027 0.0647548
0.00155096 -0.0438928 0.0584913
-0.043288 -0.0405978 0.0656108
-0.0102667 -0.0409067 0.0597491
0.0169847 -0.0402666 0.056795
0.0297063 -0.0321799 0.0615156
0.0429103 -0.0367399 0.0605008
-0.00780037 -0.0281594 0.0622403
-0.0333714 -0.0160488 0.0629401
0.00683532 -0.0202608 0.0610714
0.040316 -0.0205814 0.0605905
-0.0018212 -0.00248491 0.0625022
0.0431795 0.00416001 0.062647
-0.0258889 0.00646939 0.0593835
-0.0185834 0.0208613 0.0598772
-0.00857692 0.0144299 0.0627631
0.0249629 0.0167375 0.0633515
0.0439056 0.0160647 0.0599748
-0.042277 0.0346377 0.0600466
-0.025484 0.03502 0.0573272
-0.0100635 0.0341956 0.0613583
0.0146389 0.0390563 0.0612488
0.0438474 0.0399949 0.056977
-0.00314481 0.043878 0.0643288
0.0282099 0.0432587 0.0590965
-0.0331963 -0.0319598 0.0670329
-3.84988e-06 -0.0370194 0.0728858
-0.043875 -0.0269219 0.070353
-0.0217845 -0.0309934 0.07172
0.0197054 -0.0280575 0.0672126
-0.0140701 -0.0213363 0.0703208
-0.0024229 -0.020026 0.0740428
-0.0189861 -0.00627915 0.0724812
0.0154788 -0.00844348 0.0707987
0.0315158 -0.0049658 0.0684774
-0.0348675 -0.000775059 0.0739016
0.00937603 0.00227563 0.0666047
0.00226857 0.009948 0.0730309
-0.0285913 0.0202418 0.0669096
0.00108499 0.0206089 0.0670418
-0.0100373 0.0251251 0.0696485
0.0395032 0.0291798 0.0678873
0.0239472 0.0402593 0.0745048
-0.0434365 0.043883 0.0695706
-0.0176514 0.0438522 0.0681041
0.00743205 0.0439269 0.0705279
-0.0144428 -0.0434373 0.0751944
0.0101635 -0.0439492 0.0829757
0.0438807 -0.0438934 0.0792575
-0.0357405 -0.0383162 0.081449
0.014704 -0.0328507 0.0772888
0.0286606 -0.0402105 0.0752041
-0.00997725 -0.0271093 0.0805842
0.0423972 -0.0302254 0.0778629
-0.0439598 -0.0194141 0.0835811
-0.020572 -0.0211614 0.082021
-0.0101781 -0.0148085 0.0825431
0.0126869 -0.0207831 0.0761678
0.0423252 -0.0150871 0.0766336
-0.0351384 -0.0120894 0.0786983
0.0036432 -0.00405445 0.0806131
-0.012987 0.0117407 0.0778593
0.0196484 0.00727254 0.0796465
0.0402389 0.00851083 0.0796249
-0.0401746 0.0141477 0.0760179
0.00764167 0.0299738 0.0781317
0.0297445 0.0243365 0.0842554
0.0439056 0.0315396 0.0830032
-0.0332951 0.0329644 0.0752526
-0.0110242 0.0323498 0.0838578
-0.0214796 0.0438568 0.0798926
0.0384485 0.0434573 0.082124
-0.0212848 -0.0439338 0.0854073
-0.000873252 -0.0419242 0.0901129
0.0126867 -0.0338226 0.089277
0.0384944 -0.0404143 0.0896825
0.033323 -0.0256174 0.0925107
-0.0323247 -0.0227649 0.0847312
0.00253428 -0.0216579 0.0891398
0.0221043 -0.0114058 0.0850335
0.0402162 -0.00720989 0.0913378
-0.0399631 0.00337219 0.0883414
-0.0242318 0.000988758 0.0899128
-0.0423328 0.0198467 0.0908708
-0.0261951 0.0209589 0.0891047
0.0034136 0.0138719 0.0884661
0.0440109 0.0163209 0.0929857
-0.0438769 0.0384549 0.0858474
-0.0303474 0.0435001 0.088398
0.000694693 0.0438551 0.0870226
0.0129003 0.0413526 0.0900773
-0.0438563 -0.0438805 0.094016
0.0073759 -0.033247 0.10168
0.0221089 -0.0395238 0.100669
-0.0401904 -0.0290853 0.0987385
-0.0176052 -0.0311203 0.0940548
-0.0346354 -0.0147807 0.0938823
-0.0258758 -0.0196834 0.101464
0.0224986 -0.0170531 0.100707
-0.0121698 -0.0122351 0.0981639
-0.00359958 0.000754374 0.0942647
0.0193001 0.00329429 0.0988539
-0.0402036 0.00971075 0.103056
0.0323304 0.019677 0.103105
-0.0436956 0.0311388 0.0966814
-0.0141765 0.0251511 0.0986664
-0.00206807 0.0260749 0.0970578
0.0151209 0.0269041 0.0972225
-0.0192481 0.0402085 0.0998881
0.00200959 0.0402508 0.103025
0.0300942 0.040136 0.0960611
-0.0438091 0.0436889 0.0969413
-0.042751 -0.0427141 0.106672
0.00828651 -0.0437602 0.110763
-0.0290195 -0.0405304 0.107922
-0.00689309 -0.0373945 0.109243
0.0402798 -0.0364611 0.107306
-0.0319556 -0.0237011 0.111298
-0.0158849 -0.0245475 0.112446
-0.00197935 -0.0229829 0.104377
0.0225998 -0.025694 0.110247
0.0377499 -0.017144 0.109791
-0.0398558 -0.00893049 0.109206
0.00598594 -0.00860168 0.107009
-0.0273546 0.000590617 0.105715
0.0402216 0.00231171 0.108514
-0.0142626 0.0101643 0.104111
0.00313641 0.0174059 0.109613
0.0188099 0.0147424 0.109916
-0.041948 0.0304977 0.108833
-0.0314254 0.0229686 0.104131
0.0439015 0.0286832 0.109566
-0.0317655 0.0375344 0.10944
0.0353724 0.037355 0.11084
-0.0422963 0.0438584 0.109122
0.0173535 0.0438171 0.105718
0.0283654 -0.0439586 0.114617
-0.0218931 -0.0345216 0.116497
0.00365541 -0.0384525 0.121125
0.00330771 -0.0259379 0.115061
-0.0070876 -0.015795 0.112913
-0.0215522 -0.0099509 0.116338
0.000642001 -0.0118787 0.121667
0.0236704 -0.00479686 0.11623
-0.0346255 0.00219149 0.119712
-0.00600612 0.00197801 0.11834
0.0124034 0.00648231 0.116622
0.0303384 0.0131829 0.121519
-0.0347657 0.0191562 0.119401
0.0438561 0.0169239 0.113848
-0.010421 0.0306414 0.114785
0.0230597 0.0254712 0.114617
0.0382203 0.0294505 0.121736
-0.0257464 0.0322885 0.118853
0.022922 0.0402771 0.120318
-0.00214938 0.0438373 0.118484
0.0359427 -0.0437784 0.124839
-0.0355051 -0.0401608 0.122902
0.0187992 -0.0385234 0.126078
0.0438314 -0.034554 0.122906
-0.00936359 -0.0257882 0.122979
0.00442195 -0.0244481 0.130971
-0.0402275 -0.0211776 0.124679
0.0263631 -0.0190103 0.123526
-0.0381409 -0.00654661 0.13083
-0.00989971 -0.00915432 0.127299
0.0136958 -0.0125879 0.125853
0.00954254 -0.00107103 0.125825
0.0402212 -0.00250913 0.128058
-0.0163035 0.0136444 0.123343
0.000875275 0.0216663 0.128646
0.043878 0.0165118 0.129262
-0.0383348 0.0402076 0.124581
0.00668411 0.0401968 0.131285
-0.0224564 -0.0438578 0.13133
-0.00702843 -0.0402315 0.132819
0.038409 -0.0400151 0.140172
-0.0225154 -0.0293534 0.138088
0.0221433 -0.025358 0.14021
-0.0435192 -0.0222842 0.140676
-0.0311634 -0.0158819 0.136608
-0.00534067 -0.0146667 0.139902
0.0402312 -0.0216349 0.13278
-0.0189562 -0.00637499 0.140267
-0.00304255 0.00338994 0.134431
0.021845 0.00227097 0.135329
-0.0308454 0.00860278 0.135625
-0.0401816 0.0260353 0.138066
-0.0190339 0.0255056 0.139819
0.0196743 0.0253549 0.132662
0.0383386 0.0272123 0.133823
-0.0224138 0.0393713 0.132629
0.0356185 0.0392005 0.133887
0.00619344 -0.0409652 0.143254
0.0183052 -0.0430288 0.143788
-0.0356759 -0.0364029 0.143798
-0.00423584 -0.0288875 0.143758
0.0259335 -0.0103629 0.143954
0.0416761 -0.00561962 0.143668
0.0389857 0.00705242 0.141119
-0.000466751 0.0171043 0.143876
0.0160472 0.0145087 0.143843
0.0427928 0.0188044 0.142336
0.00824837 0.0303175 0.143855
-0.0414764 0.0408652 0.143861
-0.00547408 0.0343838 0.141326
-0.0295436 0.0431049 0.141923
0.0244268 0.0420447 0.142516
0.0419675 0.0435622 0.143467
VERTICES 337 674
1 0
1 1
1 2
1 3
1 4
1 5
1 6
1 7
1 8
1 9
1 10
1 11
1 12
1 13
1 14
1 15
1 16
1 17
1 18
1 19
1 20
1 21
1 22
1 23
1 24
1 25
1 26
1 27
1 28
1 29
1 30
1 31
1 32
1 33
1 34
1 35
1 36
1 37
1 38
1 39
1 40
1 41
1 42
1 43
1 44
1 45
1 46
1 47
1 48
1 49
1 50
1 51
1 52
1 53
1 54
1 55
1 56
1 57
1 58
1 59
1 60
1 61
1 62
1 63
1 64
1 65
1 66
1 67
1 68
1 69
1 70
1 71
1 72
1 73
1 74
1 75
1 76
1 77
1 78
1 79
1 80
1 81
1 82
1 83
1 84
1 85
1 86
1 87
1 88
1 89
1 90
1 91
1 92
1 93
1 94
1 95
1 96
1 97
1 98
1 99
1 100
1 101
1 102
1 103
1 104
1 105
1 106
1 107
1 108
1 109
1 110
1 111
1 112
1 113
1 114
1 115
1 116
1 117
1 118
1 119
1 120
1 121
1 122
1 123
1 124
1 125
1 126
1 127
1 128
1 129
1 130
1 131
1 132
1 133
1 134
1 135
1 136
1 137
1 138
1 139
1 140
1 141
1 142
1 143
1 144
1 145
1 146
1 147
1 148
1 149
1 150
1 151
1 152
1 153
1 154
1 155
1 156
1 157
1 158
1 159
1 160
1 161
1 162
1 163
1 164
1 165
1 166
1 167
1 168
1 169
1 170
1 171
1 172
1 173
1 174
1 175
1 176
1 177
1 178
1 179
1 180
1 181
1 182
1 183
1 184
1 185
1 186
1 187
1 188
1 189
1 190
1 191
1 192
1 193
1 194
1 195
1 196
1 197
1 198
1 199
1 200
1 201
1 202
1 203
1 204
1 205
1 206
1 207
1 208
1 209
1 210
1 211
1 212
1 213
1 214
1 215
1 216
1 217
1 218
1 219
1 220
1 221
1 222
1 223
1 224
1 225
1 226
1 227
1 228
1 229
1 230
1 231
1 232
1 233
1 234
1 235
1 236
1 237
1 238
1 239
1 240
1 241
1 242
1 243
1 244
1 245
1 246
1 247
1 248
1 249
1 250
1 251
1 252
1 253
1 254
1 255
1 256
1 257
1 258
1 259
1 260
1 261
1 262
1 263
1 264
1 265
1 266
1 267
1 268
1 269
1 270
1 271
1 272
1 273
1 274
1 275
1 276
1 277
1 278
1 279
1 280
1 281
1 282
1 283
1 284
1 285
1 286
1 287
1 288
1 289
1 290
1 291
1 292
1 293
1 294
1 295
1 296
1 297
1 298
1 299
1 300
1 301
1 302
1 303
1 304
1 305
1 306
1 307
1 308
1 309
1 310
1 311
1 312
1 313
1 314
1 315
1 316
1 317
1 318
1 319
1 320
1 321
1 322
1 323
1 324
1 325
1 326
1 327
1 328
1 329
1 330
1 331
1 332
1 333
1 334
1 335
1 336
POINT_DATA 337
VECTORS i float
0.0 0.0 0.0
0.0 0.0 0.0
0.0 0.0 0.0
0.0 0.0 0.0
0.0 0.0 0.0
0.0 0.0 0.0
0.0 0.0 0.0
0.0 0.0 0.0
0.0 0.0 0.0
0.0 0.0 0.0
0.0 0.0 0.0
0.0 0.0 0.0
0.0 0.0 0.0
0.0 0.0 0.0
0.0 0.0 0.0
0.0 0.0 0.0
0.0 0.0 0.0
0.0 0.0 0.0
0.0 0.0 0.0
0.0 0.0 0.0
0.0 0.0 0.0
0.0 0.0 0.0
0.0 0.0 0.0
0.0 0.0 0.0
0.0 0.0 0.0
0.0 0.0 0.0
0.0 0.0 0.0
0.0 0.0 0.0
0.0 0.0 0.0
0.0 0.0 0.0
0.0 0.0 0.0
0.0 0.0 0.0
0.0 0.0 0.0
0.0 0.0 0.0
0.0 0.0 0.0
0.0 0.0 0.0
0.0 0.0 0.0
0.0 0.0 0.0
0.0 0.0 0.0
0.0 0.0 0.0
0.0 0.0 0.0
0.0 0.0 0.0
0.0 0.0 0.0
0.0 0.0 0.0
0.0 0.0 0.0
0.0 0.0 0.0
0.0 0.0 0.0
0.0 0.0 0.0
0.0 0.0 0.0
0.0 0.0 0.0
0.0 0.0 0.0
0.0 0.0 0.0
0.0 0.0 0.0
0.0 0.0 0.0
0.0 0.0 0.0
0.0 0.0 0.0
0.0 0.0 0.0
0.0 0.0 0.0
0.0 0.0 0.0
0.0 0.0 0.0
0.0 0.0 0.0
0.0 0.0 0.0
0.0 0.0 0.0
0.0 0.0 0.0
0.0 0.0 0.0
0.0 0.0 0.0
0.0 0.0 0.0
0.0 0.0 0.0
0.0 0.0 0.0
0.0 0.0 0.0
0.0 0.0 0.0
0.0 0.0 0.0
0.0 0.0 0.0
0.0 0.0 0.0
0.0 0.0 0.0
0.0 0.0 0.0
0.0 0.0 0.0
0.0 0.0 0.0
0.0 0.0 0.0
0.0 0.0 0.0
0.0 0.0 0.0
0.0 0.0 0.0
0.0 0.0 0.0
0.0 0.0 0.0
0.0 0.0 0.0
0.0 0.0 0.0
0.0 0.0 0.0
0.0 0.0 0.0
0.0 0.0 0.0
0.0 0.0 0.0
0.0 0.0 0.0
0.0 0.0 0.0
0.0 0.0 0.0
0.0 0.0 0.0
0.0 0.0 0.0
0.0 0.0 0.0
0.0 0.0 0.0
0.0 0.0 0.0
0.0 0.0 0.0
0.0 0.0 0.0
0.0 0.0 0.0
0.0 0.0 0.0
0.0 0.0 0.0
0.0 0.0 0.0
0.0 0.0 0.0
0.0 0.0 0.0
0.0 0.0 0.0
0.0 0.0 0.0
0.0 0.0 0.0
0.0 0.0 0.0
0.0 0.0 0.0
0.0 0.0 0.0
0.0 0.0 0.0
0.0 0.0 0.0
0.0 0.0 0.0
0.0 0.0 0.0
0.0 0.0 0.0
0.0 0.0 0.0
0.0 0.0 0.0
0.0 0.0 0.0
0.0 0.0 0.0
0.0 0.0 0.0
0.0 0.0 0.0
0.0 0.0 0.0
0.0 0.0 0.0
0.0 0.0 0.0
0.0 0.0 0.0
0.0 0.0 0.0
0.0 0.0 0.0
0.0 0.0 0.0
0.0 0.0 0.0
0.0 0.0 0.0
0.0 0.0 0.0
0.0 0.0 0.0
0.0 0.0 0.0
0.0 0.0 0.0
0.0 0.0 0.0
0.0 0.0 0.0
0.0 0.0 0.0
0.0 0.0 0.0
0.0 0.0 0.0
0.0 0.0 0.0
0.0 0.0 0.0
0.0 0.0 0.0
0.0 0.0 0.0
0.0 0.0 0.0
0.0 0.0 0.0
0.0 0.0 0.0
0.0 0.0 0.0
0.0 0.0 0.0
0.0 0.0 0.0
0.0 0.0 0.0
0.0 0.0 0.0
0.0 0.0 0.0
0.0 0.0 0.0
0.0 0.0 0.0
0.0 0.0 0.0
0.0 0.0 0.0
0.0 0.0 0.0
0.0 0.0 0.0
0.0 0.0 0.0
0.0 0.0 0.0
0.0 0.0 0.0
0.0 0.0 0.0
0.0 0.0 0.0
0.0 0.0 0.0
0.0 0.0 0.0
0.0 0.0 0.0
0.0 0.0 0.0
0.0 0.0 0.0
0.0 0.0 0.0
0.0 0.0 0.0
0.0 0.0 0.0
0.0 0.0 0.0
0.0 0.0 0.0
0.0 0.0 0.0
0.0 0.0 0.0
0.0 0.0 0.0
0.0 0.0 0.0
0.0 0.0 0.0
0.0 0.0 0.0
0.0 0.0 0.0
0.0 0.0 0.0
0.0 0.0 0.0
0.0 0.0 0.0
0.0 0.0 0.0
0.0 0.0 0.0
0.0 0.0 0.0
0.0 0.0 0.0
0.0 0.0 0.0
0.0 0.0 0.0
0.0 0.0 0.0
0.0 0.0 0.0
0.0 0.0 0.0
0.0 0.0 0.0
0.0 0.0 0.0
0.0 0.0 0.0
0.0 0.0 0.0
0.0 0.0 0.0
0.0 0.0 0.0
0.0 0.0 0.0
0.0 0.0 0.0
0.0 0.0 0.0
0.0 0.0 0.0
0.0 0.0 0.0
0.0 0.0 0.0
0.0 0.0 0.0
0.0 0.0 0.0
0.0 0.0 0.0
0.0 0.0 0.0
0.0 0.0 0.0
0.0 0.0 0.0
0.0 0.0 0.0
0.0 0.0 0.0
0.0 0.0 0.0
0.0 0.0 0.0
0.0 0.0 0.0
0.0 0.0 0.0
0.0 0.0 0.0
0.0 0.0 0.0
0.0 0.0 0.0
0.0 0.0 0.0
0.0 0.0 0.0
0.0 0.0 0.0
0.0 0.0 0.0
0.0 0.0 0.0
0.0 0.0 0.0
0.0 0.0 0.0
0.0 0.0 0.0
0.0 0.0 0.0
0.0 0.0 0.0
0.0 0.0 0.0
0.0 0.0 0.0
0.0 0.0 0.0
0.0 0.0 0.0
0.0 0.0 0.0
0.0 0.0 0.0
0.0 0.0 0.0
0.0 0.0 0.0
0.0 0.0 0.0
0.0 0.0 0.0
0.0 0.0 0.0
0.0 0.0 0.0
0.0 0.0 0.0
0.0 0.0 0.0
0.0 0.0 0.0
0.0 0.0 0.0
0.0 0.0 0.0
0.0 0.0 0.0
0.0 0.0 0.0
0.0 0.0 0.0
0.0 0.0 0.0
0.0 0.0 0.0
0.0 0.0 0.0
0.0 0.0 0.0
0.0 0.0 0.0
0.0 0.0 0.0
0.0 0.0 0.0
0.0 0.0 0.0
0.0 0.0 0.0
0.0 0.0 0.0
0.0 0.0 0.0
0.0 0.0 0.0
0.0 0.0 0.0
0.0 0.0 0.0
0.0 0.0 0.0
0.0 0.0 0.0
0.0 0.0 0.0
0.0 0.0 0.0
0.0 0.0 0.0
0.0 0.0 0.0
0.0 0.0 0.0
0.0 0.0 0.0
0.0 0.0 0.0
0.0 0.0 0.0
0.0 0.0 0.0
0.0 0.0 0.0
0.0 0.0 0.0
0.0 0.0 0.0
0.0 0.0 0.0
0.0 0.0 0.0
0.0 0.0 0.0
0.0 0.0 0.0
0.0 0.0 0.0
0.0 0.0 0.0
0.0 0.0 0.0
0.0 0.0 0.0
0.0 0.0 0.0
0.0 0.0 0.0
0.0 0.0 0.0
0.0 0.0 0.0
0.0 0.0 0.0
0.0 0.0 0.0
0.0 0.0 0.0
0.0 0.0 0.0
0.0 0.0 0.0
0.0 0.0 0.0
0.0 0.0 0.0
0.0 0.0 0.0
0.0 0.0 0.0
0.0 0.0 0.0
0.0 0.0 0.0
0.0 0.0 0.0
0.0 0.0 0.0
0.0 0.0 0.0
0.0 0.0 0.0
0.0 0.0 0.0
0.0 0.0 0.0
0.0 0.0 0.0
0.0 0.0 0.0
0.0 0.0 0.0
0.0 0.0 0.0
0.0 0.0 0.0
0.0 0.0 0.0
0.0 0.0 0.0
0.0 0.0 0.0
0.0 0.0 0.0
0.0 0.0 0.0
0.0 0.0 0.0
0.0 0.0 0.0
0.0 0.0 0.0
0.0 0.0 0.0
0.0 0.0 0.0
0.0 0.0 0.0
0.0 0.0 0.0
0.0 0.0 0.0
0.0 0.0 0.0
0.0 0.0 0.0
0.0 0.0 0.0
0.0 0.0 0.0
0.0 0.0 0.0
0.0 0.0 0.0
0.0 0.0 0.0
0.0 0.0 0.0
0.0 0.0 0.0
0.0 0.0 0.0
0.0 0.0 0.0
VECTORS f float
-0.00294824 0.00859586 0.0137795
0.000107511 0.00567927 0.0183514
0.00156297 0.000747974 0.00173395
-2.45876e-05 6.34002e-05 0.000136002
-0.0096354 0.0147096 0.0198807
-0.0253671 -0.0386136 -0.00156695
-0.00400167 -0.000315553 0.018637
-0.0143086 -0.0175593 0.00370742
0.0 0.0 0.0
0.0 0.0 0.0
0.0 0.0 0.0
0.00640419 -0.0163809 -0.0151647
-0.000882203 -0.000324526 -0.00110621
0.00120737 -0.0118004 0.0101101
0.0 0.0 0.0
0.00846225 0.00914666 -0.0213874
0.0 0.0 0.0
-0.0626836 -0.0508993 0.194495
0.00215535 0.000828144 0.00108369
0.00583743 0.0314761 0.0236166
0.00772287 0.00254765 0.001202
-0.0144292 -0.0102384 0.0023033
0.0415486 -0.0730642 0.0753245
-0.0830585 -0.109579 0.0706581
-0.00601096 0.0390812 -6.84283e-05
0.0388783 -0.0322313 -0.0255798
-0.00884557 -0.0304143 0.00144433
-0.00037847 0.0213272 0.041356
0.0758695 -0.0796167 -0.0552925
0.00669109 9.17292e-06 -0.0340011
0.0 0.0 0.0
0.0161254 -0.00830591 0.3821
-0.00422313 0.00555728 0.0161273
-0.00690282 -0.0468175 -0.0366736
0.0124911 0.00792917 0.0115565
-0.0066895 -0.000280514 0.00303296
0.000498585 -0.000756943 -0.00588118
-0.00326456 -0.00167914 -0.00135844
0.000882203 0.000324526 0.00110621
-0.00309469 0.012673 0.00589517
0.00400099 0.00405108 -0.0031645
-0.00390196 -0.00115478 0.00451412
0.0763806 0.0611538 -0.128075
0.0021258 0.00216044 0.00182673
0.00576679 -0.0147369 0.00239538
0.0345005 -0.018047 0.00416266
0.0222138 0.0149703 0.0677339
0.0 0.0 0.0
0.0 0.0 0.0
-0.200164 0.0937299 -0.0286243
0.0486695 -0.0583897 0.0557408
0.0 0.0 0.0
-0.0194709 0.0319826 0.0897964
0.0 0.0 0.0
0.00526468 -0.14416 -0.0276644
-0.00858315 -0.0150837 0.0577337
0.00334187 -0.00166821 -9.53708e-05
-9.8177e-06 0.000128974 4.65441e-05
0.0 0.0 0.0
0.034949 -0.0134262 -0.0927173
-0.0215297 -0.0311715 0.0139389
-0.0102424 -0.00478037 0.00764833
-0.0271333 0.00181876 0.0183043
-0.00875405 -0.054536 -0.0224596
-0.076002 -0.0352518 0.0286457
-0.0732144 0.011655 0.0328154
-0.0183591 -0.0112586 -0.00576335
-0.0599613 -0.0249414 0.100146
-0.334619 -0.610354 -0.241633
-0.0127036 -0.00752704 0.0163581
0.518582 0.420695 0.100557
0.0220704 -0.00404034 0.0358082
-0.0141979 -0.00335396 -0.0335556
0.0 0.0 0.0
0.00166108 -0.0296806 -0.0138549
-0.00755643 0.0891875 0.0924631
-0.0210891 -0.000388971 -0.0257443
-0.00698696 0.0036022 -0.0313641
0.00329049 -0.00791186 -7.01249e-05
-0.055866 0.00657819 -0.0538842
0.00432033 0.00832408 -0.00772259
-0.0145852 0.0804536 0.0751228
9.8177e-06 -0.000128974 -4.65441e-05
-0.0292357 -0.0551181 -0.0439053
0.0 0.0 0.0
-0.00230396 0.017995 0.0216199
0.0256927 -0.00318124 0.045588
0.00844839 -0.0155561 0.00679357
-0.064205 -0.105324 -0.0100588
0.00708297 -0.0087115 0.0164195
0.0154337 0.00591904 0.0302025
0.0 0.0 0.0
0.0 0.0 0.0
-0.00119156 -0.0129696 0.0207242
-0.0109737 -0.00345148 0.0288844
0.0560578 -0.0380349 -0.231549
0.0220652 0.0517294 -0.154705
-0.00300893 0.0031499 0.00662165
0.0105011 0.0269999 -0.0145979
0.0 0.0 0.0
0.0386703 -0.0126743 0.157125
0.000751609 0.00347269 -0.00311069
0.0 0.0 0.0
-0.0258774 0.0129048 0.0251366
0.0757663 -0.00957673 0.0745274
-0.0349022 -0.0917585 -0.0330546
-0.137428 0.0148509 -0.00273787
-0.006305 0.00255932 0.00506492
-0.00123794 0.000975944 0.00259691
-0.133995 0.0803062 0.122384
-0.00752991 -0.0328831 -0.00933387
0.0 0.0 0.0
-0.0780104 -0.0371949 0.0743818
0.0 0.0 0.0
0.0724593 0.0199867 -0.0752221
0.0438421 0.0465214 0.0286038
-0.00588974 -0.00524012 0.0187122
-0.00512668 -0.0258879 0.178521
-0.0140569 0.117201 0.102485
-0.0105187 0.000691014 0.0302897
-0.02814 0.0152897 -0.000856859
-0.00671643 0.046429 -0.0497046
0.0227938 0.00406127 0.0059428
0.0 0.0 0.0
-0.020201 0.0371509 0.054323
-0.0501421 0.0357341 -0.00248034
0.0568897 0.127143 0.114426
0.0 0.0 0.0
0.00820827 -0.00116105 0.0136169
-0.113093 0.279183 -0.118503
0.0 0.0 0.0
-0.00477456 0.045129 0.00472139
-0.0494768 0.01435 0.0548305
-0.0134608 -0.00139866 0.00658882
0.00024353 -0.000159418 0.000611632
-0.012825 0.0306015 0.0034261
0.0 0.0 0.0
-0.116258 0.0262816 0.0223992
0.0291332 -0.00193595 -0.0480923
0.0 0.0 0.0
-0.0115074 0.00118481 -0.00996278
-0.119804 0.0109427 -0.0535054
0.0126618 0.00759933 0.0373756
-0.00394174 -0.0146078 0.018664
0.000518812 0.0153069 -0.0180126
0.00765207 0.0189447 -0.015365
0.00010882 -0.000496012 -0.000445947
-0.026091 0.0314332 0.00366135
-0.0112277 -0.0132448 0.00429602
0.0 0.0 0.0
0.000411572 0.0110514 -0.0218017
-0.00305595 -0.00375522 -0.00392411
0.0 0.0 0.0
-0.014164 0.0149715 0.0262212
-0.0370587 0.0239307 -0.00671577
-0.00846406 -0.00575031 0.0217072
0.0 0.0 0.0
-0.0168956 0.00801402 0.00343902
0.0117059 -0.00160072 0.0217076
0.0255545 -0.000367211 4.21074e-05
0.00102526 -0.0643773 -0.0195106
0.00778739 -0.00475936 -0.00897725
-0.0346706 -0.051878 -0.00863235
-0.000131335 -0.00032946 0.000814182
0.0115605 0.00233665 0.0183032
-0.0154843 -0.0185692 -0.015053
-0.00360368 0.00350482 0.0149297
-0.00557403 -0.0265334 -0.00223845
0.00200897 0.00467053 -0.00646756
-0.0907011 0.013148 -0.0359837
-0.0364504 0.0264209 0.00576059
-0.0019443 0.006125 0.00422524
-0.00155038 0.00120367 -0.00166906
-0.00020947 -0.0011079 -0.00191025
-0.00817378 -0.00177229 -0.00233143
-0.00224995 0.00592902 -0.0090601
-0.00272624 -0.00448007 -0.00734486
-0.0169863 0.003002 -0.00960949
-0.00723997 0.0187501 -8.32144e-05
0.0271438 -0.00594157 0.0284913
0.0548936 -0.0234463 0.0394821
0.0 0.0 0.0
-0.00305203 -0.0220921 0.034095
0.0306699 -0.00185822 -0.0168227
0.0191428 -0.0277644 -0.0240157
-0.0141078 0.0116005 -0.00118293
0.0 0.0 0.0
0.000480857 -0.00175665 -0.000166716
-0.0163008 -0.0734553 -0.031847
-0.0467627 0.0200374 0.0216362
-0.0203899 0.0111933 -0.0372498
-0.0291146 -0.0364977 0.0277501
-0.0220267 -0.0247449 0.0904965
-0.0704611 -0.046425 -0.0262905
-0.0602553 0.00997479 -0.000875223
-0.0042012 0.00949942 0.0102144
-0.0285438 0.05003 -0.00276871
0.00314265 -0.005964 -0.0201683
-0.000444395 0.00797938 0.000658012
0.0 0.0 0.0
0.009425 -0.00235847 0.0169508
0.0 0.0 0.0
0.00249598 -0.0110789 0.0196459
-0.00131088 -0.0167201 0.00182895
-0.0358502 -0.0548506 0.0473123
0.012769 -0.003341 0.0138426
0.0180303 0.00508377 0.0419774
0.00293163 0.00183729 -0.0471584
-0.0125044 -0.0618463 0.0592583
0.0124912 -0.00364532 -0.00469378
0.0438924 0.0756746 0.0956173
0.0 0.0 0.0
-0.215715 -0.000999746 -0.0725082
-0.0666475 -0.0490912 -0.0153082
-0.0118483 -0.0161108 -0.000225957
1.81935e-05 0.00592911 0.00679725
-0.000730915 -0.000542001 0.000696557
1.4232e-05 -0.000255209 0.000126808
0.0 0.0 0.0
0.00118315 -0.0010199 -0.00610532
0.0 0.0 0.0
-0.0147008 -0.0562547 0.0951354
0.0105647 0.00576215 0.0139046
-0.0123128 0.0387285 0.0270935
0.0 0.0 0.0
0.00929261 0.0207075 0.00665849
0.0 0.0 0.0
0.00253386 0.0497889 0.0522155
-0.0163672 -0.0312253 0.0031101
0.0269711 -0.0364303 0.010621
0.0150206 -0.0131227 0.0195119
-0.0458892 0.0232449 0.0504043
2.09235e-05 1.32568e-06 0.000135994
0.102401 0.027079 0.0487796
0.0459067 -0.0112849 0.0605876
-0.0808686 0.00567438 0.110227
-0.0105764 -0.0552346 -0.0119388
-0.0023288 0.0254873 0.0248844
-0.0185811 0.0198386 -0.0773787
-0.000392304 0.0104279 0.0134014
-0.0018732 -0.00143252 0.00267781
0.0 0.0 0.0
0.0 0.0 0.0
0.0054309 -0.00808921 -0.00710224
0.00648142 0.0198275 0.0583863
0.000786871 0.00692312 0.00219914
0.0 0.0 0.0
-0.00463153 0.014886 0.0156246
0.0 0.0 0.0
0.0160886 0.0136553 -0.0278064
0.0470103 -0.0643252 0.0228127
0.0150784 -0.0533919 0.0232516
0.0168254 -0.018525 -0.00622712
0.0274858 0.0249153 -0.0333376
-0.0225244 -0.0296056 0.0628413
-0.0850876 0.0841761 -0.0356942
0.00984852 0.0391232 2.69972e-05
-2.09235e-05 -1.32568e-06 -0.000135994
0.0421414 0.0567061 -0.000990255
-0.0120752 -0.0124649 -0.00502778
-0.00586894 0.00220279 0.00373353
-0.0161835 -0.012854 -0.0101606
-0.00698515 0.00298208 0.0212446
0.0019406 0.000541246 0.00147284
-0.00044469 0.00158718 0.0217137
0.0 0.0 0.0
0.0105651 0.00114635 0.0040455
0.0020529 -0.000818311 0.0266276
-0.0116784 0.0017677 0.0319742
-0.0295148 -0.00879918 0.00481764
0.00757852 -0.0180682 -0.0333491
0.0619287 -0.0239685 -0.0776494
0.0 0.0 0.0
0.0 0.0 0.0
-0.0347767 0.0182728 -0.000917398
0.0616307 0.0386302 0.00828828
-0.0283834 -0.0461578 -0.00470855
0.0106106 0.0066167 -0.00373687
-0.070838 0.0350489 0.0141528
-0.00996024 0.0149432 0.00479542
9.20812e-06 -3.31504e-05 0.000101509
-0.00253975 -0.00285637 0.00518533
-0.0319043 0.00385742 -0.0188366
-0.00520371 0.00668413 -0.00627167
-0.000123247 0.00013678 0.000884014
-0.0510908 -0.0337492 0.000175208
-0.0522213 -0.0335485 0.0943352
0.00117009 0.00138378 -0.00070609
0.00497683 0.00319813 0.00564154
0.0366006 0.0552694 0.0771227
0.0410711 -0.0458682 0.0299554
0.0 0.0 0.0
0.0 0.0 0.0
-0.074909 -0.013182 0.0477678
0.0122965 -0.0018698 -0.00464784
-0.0109384 -0.0163526 -0.0200718
-0.118756 0.00591401 0.0482813
0.0236566 -0.00183637 0.0341525
-0.138698 0.00669963 0.0542651
0.0142828 0.00180809 -0.0124669
0.010145 -0.0123856 -0.011766
-0.0879789 0.0504079 0.000819416
-0.157514 -0.120612 -0.0561268
0.13632 0.0926278 0.0536526
-0.00232982 -0.0044722 0.00237038
-0.00523543 -0.000269368 0.000794329
-0.000869733 0.0117029 0.0223568
0.0 0.0 0.0
0.00161842 0.00374794 0.015745
0.136009 -0.0484509 0.0304215
-0.192353 -0.00909421 -0.0042733
-0.0527881 0.0715743 -0.0886347
-0.11074 -0.0139666 -0.156899
0.0262794 0.00430172 0.00372502
0.0033629 -0.0123604 7.54221e-05
0.0114179 -0.00457634 0.00951432
-0.000478315 0.000958415 -0.000100183
0.123976 -0.0102428 0.139503
-3.15295e-05 0.000121946 -0.000118409
-0.000481562 -0.000445104 0.000836551
7.20292e-05 -6.25158e-05 8.89367e-05
0.00155852 -0.00038989 -7.01856e-06
-0.00155852 0.00038989 7.01856e-06
0.000991382 0.000876096 5.14872e-05
0.0 0.0 0.0
0.012828 -0.00277147 0.00209725
-0.0155069 0.00323195 -0.017473
0.0 0.0 0.0
-0.0192515 0.000479337 0.00526853
0.0 0.0 0.0
0.0 0.0 0.0
0.0 0.0 3.93088e-05
0.00106271 0.0014508 -0.00151949
0.0 0.0 0.0
-0.000311066 -0.00117043 0.00014215
0.0 0.0 0.0
-4.97078e-05 -2.62797e-05 -7.20374e-05
VECTORS omega float
8.5157 -1.73728 -9.42292
5.21329 2.56601 4.44916
0.533237 3.38643 -3.52561
-0.813821 1.21854 -4.99108
7.60693 6.79587 -15.8546
4.16979 -1.52846 0.199643
2.15807 -1.35127 -3.73974
-8.20454 -6.57304 -12.3574
0.0 0.0 0.0
-8.59142 -3.5895 -15.6399
5.98786 -1.77748 11.8476
2.0414 -3.60729 -2.26813
-9.19051 -1.60129 14.1963
-3.49678 3.94754 4.11886
-7.65162 8.67227 -6.00419
0.600929 -1.74826 1.8433
0.783816 -3.82323 0.25987
-9.99858 0.645348 1.97479
-10.6122 11.9408 0.886335
-4.70817 -1.64138 -5.78772
-2.29564 -6.10021 2.64126
-13.8596 1.34054 -2.13855
12.6425 2.50437 9.74308
-10.311 5.82581 -0.430834
5.303 2.93123 4.87757
0.899277 -1.24131 7.42213
-2.68075 14.3429 -0.91675
-2.82015 7.09543 3.40979
4.90542 -1.66317 1.69257
-1.59758 10.5433 -5.16016
-20.2176 -5.78904 5.3431
-1.3193 -1.25899 3.10925
10.0598 -10.5526 -8.66707
4.29558 -2.84517 -4.84129
3.03702 0.764805 -0.755206
13.6918 -0.557755 -3.06048
-14.361 1.75878 4.0151
2.53413 -4.67976 0.742719
11.7608 -2.56127 -10.0094
-7.89575 -0.200411 -4.84019
-2.87985 0.602208 0.375692
-5.28692 -0.664252 2.07929
0.548967 1.7201 0.444821
3.07913 -5.4936 -0.971884
-21.8538 -2.62257 -2.0405
-9.96386 -0.829873 -1.59776
9.16376 2.42896 0.0184106
7.53927 4.579 5.35126
-0.958337 -1.21355 -11.4058
5.70811 -3.64969 -3.82393
-3.55038 0.732303 2.59539
-4.99952 -0.633819 16.046
7.97909 -0.531165 2.63684
5.78157 -1.67899 -1.70218
-0.598016 0.0675157 -1.18011
-4.15079 -0.926386 -1.43158
3.96985 -3.80641 -7.46523
-0.0607389 11.6903 -2.23738
0.0 0.0 0.0
-2.77876 -10.3651 1.85823
5.06076 17.9735 0.169011
8.89589 -23.5036 0.935864
-3.97673 8.51056 5.53745
8.2877 2.87193 7.25189
1.79795 1.8243 -3.3916
6.99714 -3.03769 1.07586
4.95675 -4.45188 -1.33322
-6.38248 0.182806 2.49885
-1.8417 1.79665 -1.38386
25.3064 -0.425323 0.662374
-2.79873 -3.40223 -2.94943
-1.64078 -10.213 2.46856
4.73318 5.7517 2.74631
-4.79487 14.7852 3.97398
7.82914 -5.13804 -12.5466
1.20588 -2.58212 -2.52985
0.266918 -5.58018 -4.4258
1.54476 9.81014 6.46706
-16.6621 -2.4056 15.8564
-6.52102 -11.9096 -31.0532
-12.9313 -21.3078 6.62708
-5.71886 9.52908 1.42884
4.97507 -1.35898 2.50201
-1.16871 -8.12825 -2.68131
0.0 0.0 0.0
-3.31271 3.48688 0.223745
3.75755 2.69165 1.51154
0.364811 -1.40757 1.43301
12.3027 -2.59221 -2.87766
-7.80938 3.97448 -2.53908
4.99526 -8.37824 4.82044
-3.7402 3.87094 4.91999
5.61464 -11.984 -2.92914
7.46439 -5.48767 5.84829
-4.63257 11.6476 -2.61199
2.88335 1.2251 -4.43212
9.48776 1.64951 2.37006
7.83859 -9.80009 -3.09313
-14.4687 -3.03929 6.50796
-1.01798 -7.50606 -3.15788
-5.53315 2.09203 9.76236
16.6053 25.989 7.71127
-2.30716 -7.39233 5.44083
-3.12452 -12.1986 2.80427
-4.97676 -5.25862 -1.68658
1.84201 10.7386 1.60745
2.24818 -4.69208 0.205036
0.137646 -2.80076 1.18786
-1.67223 0.351627 -0.874056
-4.42167 1.71528 2.76695
-1.14549 -1.50307 6.04125
-0.426181 3.08519 2.08745
2.47586 -4.93473 5.13032
2.97775 2.43995 -9.47006
5.3079 -6.62151 -4.32323
-6.44539 8.11886 8.06557
-3.65906 -11.4312 4.04718
-9.97752 -4.82077 -6.76185
4.0072 -4.11795 3.77726
13.5177 22.0683 9.46901
-1.12421 7.89886 -2.03717
-2.41705 -1.92937 0.338165
-9.16619 3.54833 -6.55558
11.9503 -7.5932 4.17598
-2.53249 -2.53636 -1.4914
2.62681 6.68135 -0.027311
1.11242 1.80235 -1.33107
4.53341 2.49676 -3.38903
9.16358 -13.2691 8.10109
-10.5149 3.04694 15.4642
-3.80513 -2.84272 -3.16614
-19.5852 12.8619 -23.2359
5.59925 -9.32521 4.06596
-12.5222 9.94029 -9.4779
-0.494362 2.45545 3.39728
-5.02869 11.5856 2.14689
-3.91699 0.542114 3.33218
6.77846 0.585036 -8.70323
-2.9948 -3.01193 2.1488
-5.42934 -2.59429 -6.26135
-18.9728 -5.98331 4.69567
4.26505 -0.254707 1.29298
3.9852 -1.91565 -3.49194
-14.83 4.87758 -6.4619
1.43151 1.22847 0.074903
14.4321 -21.7365 3.37413
-0.0599278 0.919909 0.112995
1.98763 1.24777 2.13001
5.68193 -0.104249 -5.36929
-1.99305 8.19351 -4.54448
3.81794 12.4722 14.0475
1.35011 6.10259 2.12093
-2.96656 3.69239 -0.749754
36.1179 -2.33005 -52.2773
0.549082 -6.88571 -8.77514
4.35416 -9.07435 25.2746
-0.482257 4.16333 16.396
-1.42069 -4.50183 4.55917
11.9555 -0.506205 2.56397
-3.27237 -4.36612 5.08601
-0.416042 -1.8389 -2.14202
-5.13781 -8.11744 -3.14747
0.7444 3.84039 -2.16218
-10.2378 2.38437 6.41352
11.956 14.1062 8.53217
-13.0624 -3.2146 4.6868
-5.59029 15.1249 7.56551
8.17831 -0.243781 3.42531
-5.33794 5.2693 -1.04159
3.85067 1.14526 -15.2
5.15202 -5.08126 0.0525322
-1.16045 -3.15883 -2.25973
0.997627 3.86348 -0.866387
8.58345 1.72808 5.62956
-4.37562 19.8073 13.1362
-4.3886 9.48871 2.38092
1.30733 -3.00165 0.417981
-7.55819 12.6124 2.60664
-0.728001 -0.315372 19.0508
7.86875 3.85416 -1.75808
-3.41978 6.35063 5.59783
0.0 0.0 0.0
20.8881 -4.83817 -11.9596
-8.87852 -12.7687 -0.191449
-0.483276 -5.95746 6.43747
0.489389 -8.8878 -2.63817
9.03388 -5.70098 -2.87093
8.48864 10.3165 -8.78948
-0.89481 2.8718 -1.59749
8.33283 0.112093 -0.906989
-4.28927 -0.694027 -2.56316
3.98734 -0.289076 1.6516
3.6143 -2.33372 -2.74895
-6.42796 -2.72685 -7.45101
-6.15724 0.867475 -0.030962
-15.2854 -5.8197 0.390168
-5.13093 6.05408 4.11649
0.120771 4.54008 7.56329
-4.43371 -2.21757 5.60192
-4.74933 -6.06506 -4.07283
3.45201 -19.9773 -0.651947
0.619822 0.530088 0.721279
10.9552 -5.42803 2.64815
1.8474 3.82069 -1.89646
-3.61555 -1.70051 4.13885
-18.5327 12.5776 10.7962
-5.67415 7.76364 -4.33259
3.69754 2.95601 -3.01034
-5.00105 -3.15758 0.511746
-9.16404 6.27076 0.566801
-1.07678 -4.00084 -3.06108
-13.4358 0.240243 8.47074
0.847385 -3.74711 -8.39426
3.61914 4.54503 5.77414
-7.84544 2.36495 -2.35987
3.95437 -6.55942 1.97467
0.389712 -3.55868 0.126392
-0.201493 -0.865526 0.343264
-9.34498 -5.54327 -0.318597
5.73681 -8.46381 -3.38174
0.0 0.0 0.0
-2.77236 -0.0886494 3.10211
-6.84914 -1.18275 2.10197
-4.0601 0.263485 -0.0602969
10.0826 -3.08894 -3.21015
-10.1028 -6.41399 -2.60099
5.08708 -2.12868 1.33565
3.51337 -4.06062 0.464069
-3.56744 9.54765 -11.4394
5.16015 -1.78145 1.96926
7.77234 -2.15963 0.917976
2.63992 -2.05064 2.54981
7.02153 2.15844 -1.25372
-3.19323 4.01596 6.3101
-1.47141 -9.25339 -2.73898
3.90992 0.425867 2.20018
-0.0703476 -5.09906 -4.80936
-2.34974 -0.687605 -3.38158
-0.892791 4.31154 4.5434
1.74263 -1.06183 -4.04753
9.68443 -2.38119 -1.20088
-6.27154 -4.42623 -4.86925
0.343004 0.335305 -5.54079
8.08663 3.72398 -1.23193
-1.38764 1.01784 -1.46384
-2.74985 14.7705 13.4538
-4.92614 1.0904 6.35078
14.1748 -12.5374 -8.23305
0.335401 -0.706355 -0.610114
-1.14337 0.690181 2.12173
-7.22898 -4.80672 1.85706
-1.66019 -0.709581 -2.07958
1.76686 0.480064 2.36833
2.83239 -1.25691 -2.87207
2.86668 2.53899 -1.685
-2.95831 -0.0669795 1.75672
-6.70184 -1.76487 0.0392077
-3.47607 -2.81849 0.773244
3.26016 5.31697 -3.13074
2.2375 6.62946 -1.35187
14.7085 9.12783 1.76726
4.44298 -19.5265 5.26585
-4.32424 -1.27646 -6.55526
-2.42025 -4.00358 2.76313
3.42849 -0.00131511 2.35651
0.377469 -5.03503 -3.53668
-18.6204 -4.68463 -9.92762
-8.85459 7.91378 4.15452
-3.95516 6.57788 -0.198186
-1.17716 0.0394893 -3.01239
-5.69191 17.7054 -3.42904
-1.95408 0.31634 7.86342
5.53649 -0.555169 -7.56993
-1.17432 -1.25053 -0.0464869
2.80346 2.00619 -5.59743
-3.78378 4.01099 4.9774
-2.44917 -7.5592 -6.84316
1.19225 1.65784 4.30458
3.18266 4.59353 0.988825
1.64371 1.5627 5.02649
-1.61464 -0.947298 -0.544707
-21.3508 -6.28257 6.75478
-1.46331 10.2658 -3.52385
-2.39045 3.04786 1.02301
-2.61409 9.1021 2.74707
-0.0142926 4.41923 -1.36042
-2.38307 1.0394 4.64084
4.57902 -4.26952 -3.5273
-10.9558 2.82036 12.1681
2.0499 -7.16614 -9.52721
5.67442 -5.43391 2.49717
2.30471 -1.5879 -1.9086
-9.43604 3.70916 -4.94638
23.5671 10.4691 13.3783
-14.8187 -0.139151 3.36066
0.327554 9.56126 2.13054
-6.25124 6.22178 -3.81763
-5.19149 -1.04481 -2.28566
5.05833 4.07812 2.169
7.7604 -0.980352 -5.07197
0.242578 7.84575 -3.46686
3.46578 -7.66397 -1.3695
-5.34535 -1.91869 -5.48946
-0.247931 -2.54129 7.86545
1.67145 -2.50208 -3.27403
13.2341 0.469923 1.44992
-1.53058 -1.96072 -12.7232
0.701498 1.74884 -1.59469
-33.7726 -12.3238 -35.8286
3.95371 4.21092 -0.373453
3.41504 0.871611 -5.65216
-5.87662 -3.71653 4.32134
-7.58322 -0.672055 3.61636
3.55316 -10.215 2.88224
7.14281 13.1412 2.65349
-6.4857 -3.60826 1.05181
-3.49207 -1.54771 -0.55585
2.81475 -7.77642 0.0278896
-0.162015 -0.0733459 1.85894
-1.86313 0.27825 -2.79428
-0.69782 -0.0602712 -1.01343
-0.291955 -7.20689 -3.3736
-11.3317 1.64621 -2.03196
-8.33247 8.06065 -8.74912
5.81047 14.8791 -5.49714
0.74047 -4.33765 16.8479
11.2859 -4.74538 -2.1248
4.94421 -4.46431 3.27498
-5.07798 -0.661816 -1.13688
-5.56953 8.85091 1.76554
0.0 0.0 0.0
0.0 0.0 0.0
3.7395 1.15637 -1.44635
3.05849 0.192003 2.60736
1.86161 -1.32932 -2.16366
0.0 0.0 0.0
0.805237 0.184713 -0.58822
VECTORS v float
-0.00739998 -0.0491422 0.0123668
0.0163688 -0.0328666 0.00254316
0.0205982 -0.00247142 0.00428418
0.0285778 -0.0493681 0.00370968
0.0435022 -0.052001 -0.012662
-0.00854582 -0.0273565 -5.48143e-05
-0.00177342 -0.0127422 0.0078053
-0.0348732 0.0548747 0.00150418
0.0 0.0 0.0
0.0536674 -0.00376334 -0.0441554
0.0697887 0.016554 -0.0407393
0.00171004 0.0157236 -0.0221749
-0.00645741 0.0562342 0.0192506
0.0209043 0.021666 0.00283832
-0.000276161 -0.0499205 -0.0379149
-0.0202943 0.0059647 0.0042842
-0.0224163 0.00356877 -0.0735731
0.0177987 -0.0169332 0.00127116
0.0065324 0.027032 -0.0568894
0.00866852 0.0402175 -0.038222
0.0140514 0.0115449 0.0066544
-0.00602401 0.011625 0.0102802
-0.0335394 -0.0100239 -0.0452789
0.0146016 0.0140963 -0.0357423
0.00937146 0.0543985 -0.0293224
-0.0111103 -0.0124604 0.001351
-0.00036362 0.00265941 -0.0408742
-0.0536033 -0.0656114 0.00859995
-0.00188513 0.00376694 -0.0872449
-1.15727e-05 -0.0303961 -0.0648729
-0.0230084 0.0314718 -0.135122
-0.0160341 0.0142819 -0.0144098
-0.0173146 0.014477 -0.0238426
0.0221705 -0.00940221 0.00212331
-0.041358 -0.00680837 -0.0410159
-0.0128318 0.054321 -0.126946
0.0546604 0.0161399 -0.0486687
-0.00524745 -0.0150868 -0.0198026
-0.0268449 0.0621177 0.0447757
0.0286141 0.0269953 -0.0425654
-0.00278767 0.000962507 -0.017443
0.00197738 0.0120528 0.00878891
-0.0167611 -0.00225538 -0.00439503
0.0306255 0.00100938 -0.0331409
0.0389137 -0.00331641 -0.0311216
0.050479 -0.000133945 -0.033496
0.00157012 0.00234456 0.0211025
0.00138617 0.0323633 -0.0120387
0.0617058 0.0374429 0.00841244
0.03771 0.0231192 5.19255e-06
0.00759443 0.0295301 0.0145948
0.0490642 0.0722733 -0.0177462
0.0328785 0.0168106 -0.0150828
-0.0217678 -0.0429405 0.0025273
-0.00879733 0.0651372 -0.0285734
-0.0102449 0.0298406 -0.0166429
-0.0055227 0.0930672 -0.0207139
-0.00333139 0.0235669 -0.0272493
0.0 0.0 0.0
-0.00847356 -0.0218123 -0.0421116
0.00137192 -0.00965593 -0.0472459
0.00738227 -0.000401383 -0.0548294
0.0316591 -0.00911725 0.0246458
0.0273164 0.0227516 -0.0558139
0.00854826 0.0137192 0.0197555
-0.00217756 0.019857 0.00915347
0.0101233 0.00238481 0.0489434
0.00679201 0.0252406 -0.00565129
-0.0269124 0.0298467 0.0374859
0.0169049 0.00864449 0.00284384
0.0252522 -0.0468953 -0.00493813
0.0105393 -0.0038102 0.0242541
-0.0300499 -0.0300549 -0.00714949
-0.027409 0.0513837 -0.0348362
0.0530956 0.0219307 0.00665623
0.0159797 -0.00778667 0.0263181
0.00810388 -0.00886507 -0.0605016
0.02229 -0.0108599 -0.0835923
0.000309253 0.0968267 0.0136507
-0.0143991 0.105976 0.0275711
0.0502262 0.0355693 -0.0637726
0.0176716 0.0105807 -0.0120394
0.0113549 0.0245757 -0.00828174
-0.00708645 0.0219175 -0.0711432
0.0 0.0 0.0
0.00143389 -0.00579068 -0.0162795
0.00746014 -0.0237046 -0.00227776
-0.0148713 0.00425548 0.0033362
-0.0116208 0.0210655 0.0227163
0.0362458 -0.0180721 0.0613872
0.0283253 0.00661163 0.0777557
-0.00881055 -0.000899054 -0.0700765
0.0234676 0.0210898 -0.0606029
-0.0607193 0.0311664 -0.0221012
0.0124714 0.0211562 0.076474
-0.00285172 0.0652776 -0.0326278
0.0509501 -0.0224958 -0.0356582
-0.0216852 0.0387349 -0.042812
-0.0454788 0.0472885 0.0346166
-0.0567066 0.0211031 -0.031863
-0.0305199 0.0254195 -0.0322644
-0.129756 0.0898837 -0.0130006
0.00922993 0.0286015 0.0462895
0.029216 -0.0183848 0.0286806
-0.0268285 0.0362706 -0.0369247
0.00719141 0.0259152 -0.0155765
0.0144174 0.0101443 -0.0309089
0.00296206 0.00636394 0.0202741
-0.00234943 0.0169199 0.0114944
0.00796815 -0.00949062 0.0135927
0.0102735 -0.014612 -0.0409472
0.00836563 -0.0313346 -0.0375194
-0.0016717 -0.0154396 0.0434179
-0.041539 0.018279 -0.00755899
-0.033857 -0.0334682 -0.0132038
0.0041512 0.00384951 0.013098
0.0180847 0.0767394 0.0725714
-0.0107661 0.0118764 -0.0481087
-0.0359314 -0.0648168 0.00505565
-0.0310817 0.0233709 -0.0634646
-0.00105296 0.0437658 -0.00697494
0.010157 0.00272206 0.0163482
0.0961468 0.0379739 -0.125613
-0.0607976 -0.00384453 -0.0586644
-0.0451973 0.000671979 0.0329926
-0.035044 0.0172204 -0.0666264
-0.00546423 0.0560709 -0.0080924
0.0367062 -0.052729 0.00632264
-0.0498304 0.00405657 0.0558721
-0.0408931 -0.127396 -0.0186797
0.0192503 -0.0191321 0.0158434
-0.0177449 -0.104662 0.0359313
-0.042658 0.00451473 0.0526362
-0.0281748 0.00201414 0.0691903
-0.0188382 0.0165602 0.0121045
0.0476824 0.0578737 -0.0734498
-0.0460085 -0.000508236 -0.017504
-0.0246005 -0.0327635 0.0217704
-0.00303589 -0.0167522 -0.0293269
-0.0248717 -0.0611751 0.0553011
-0.017382 -0.0168641 -0.104462
0.0216042 0.00876493 0.0228261
-0.0282964 0.0254003 -0.0305168
-0.0498607 -0.0157467 -0.00895971
0.014254 -0.0175916 -0.0582037
-0.021552 0.000968839 -0.124541
0.0013816 0.0144582 -0.00109052
-0.0452895 0.0344086 -0.0201369
-0.0251693 0.0018465 -0.0266171
-0.0214078 0.029023 -0.0606829
-0.00841755 0.0235821 -0.0343062
0.0068192 -0.00942356 -0.0132883
0.0227846 0.0241823 -0.0753436
-0.020471 0.0699939 0.0114268
0.0139554 0.0340894 -0.0548399
0.0129364 0.154428 0.0539464
0.0277117 -0.148105 0.00553061
-0.0178119 0.119666 0.0113418
-0.0497049 -0.0488246 -0.0440193
-0.046046 -0.0347643 0.021459
0.00325614 -0.0248331 0.0134945
-0.0129666 0.0156062 -0.0378537
-0.0245384 0.0025306 -0.0334131
0.0208704 -0.0327517 0.0209867
0.0128419 0.0460123 -0.0393359
-0.00733562 0.00853351 -0.00326593
0.0162113 0.00459508 0.0412494
-0.023489 -0.00442197 -0.0475824
-0.037049 -0.00628832 -0.00851198
0.00841088 -0.0100704 -0.0445992
0.00154991 -0.0091797 -0.0498787
-0.0138886 -0.00597791 0.00695971
-0.00538971 -0.0034199 -0.00622278
0.0366342 -0.00403405 -0.0508925
0.00507679 0.033437 0.0061548
-0.0162414 -0.000913844 -0.0288129
-0.00105097 -0.000889798 -0.0179357
-0.0365002 -0.0234922 -0.0177046
0.00967518 0.0650701 0.00662447
0.0171613 0.0045474 0.079136
0.00432109 -0.0602421 0.0496008
0.0 0.0 0.0
-0.000504292 -0.0716591 0.0291169
-0.00520629 -0.0557206 -0.0423645
-0.0209014 -0.0174593 0.0405806
-0.0521893 0.0405397 -0.0643576
0.0174547 -0.044727 -0.0657846
0.0370832 -0.0343434 0.0363476
-0.00279588 -0.0128346 -0.0327873
-0.0346851 -0.00156502 0.0165999
0.0044621 0.00671743 -0.0343493
0.000246103 -0.0155794 -0.0139844
0.00318911 -0.0259724 -0.000332734
-0.00544213 -0.0108783 -0.0354251
-0.0171719 -0.0142953 -0.026129
-0.00177863 -0.00130469 -0.0289822
0.0254009 0.0244038 0.0250224
-0.00175668 0.00857839 0.00609308
0.0352197 -0.0120875 0.0264527
0.0522613 0.03511 -0.0563003
0.00464099 -0.00557851 0.0202876
-0.00821445 0.00380538 0.00425263
-0.0228676 -0.0154118 0.00446788
0.00475128 -0.0165638 -0.00668555
-0.0223692 -0.0172517 -0.0282069
0.00269312 -0.081161 -0.0190019
-0.00871515 0.0048782 0.0408678
-0.035761 -0.00891117 -0.0236648
-0.00983837 -0.0206774 -0.00930555
-0.103012 0.0110586 -0.00797431
-0.0877841 -0.0160718 -0.0187673
-0.0178655 0.0190832 -0.0129294
-0.0246016 0.0121762 0.0474305
-0.012089 -0.00992702 -0.00300575
-0.0134726 0.0106414 0.00720294
0.00902475 0.0111849 0.0387168
0.00601122 0.0010911 0.00718712
-0.00233032 -0.00404083 -0.0383278
-0.00978951 0.0490875 -0.0117109
0.0149433 0.00324575 0.0372034
0.0 0.0 0.0
-0.0231636 -0.0175593 0.0170281
0.00725338 0.020262 0.0132062
-0.0595437 0.00519499 0.0324202
-0.112757 0.0418522 -0.117048
-0.070701 0.0706795 -0.0531988
0.0194406 0.00695755 0.0104679
-0.0190035 0.0325037 0.0206394
0.0141188 -0.0125436 0.0285303
-0.0179797 -0.00840769 -0.0305537
0.00184093 0.0179759 0.00387615
-0.0278652 0.0189174 0.0080767
-0.0246771 -0.010357 0.0640073
-0.0430255 -0.0274188 0.0232266
-0.0556156 -0.0187898 0.0271197
-0.0437713 0.0004312 0.0178657
-0.0486855 -0.00359792 0.000168029
-0.0399611 -0.00166199 0.0236833
0.0374501 -0.0160727 -0.0216604
-0.0273939 -0.0160578 0.0640457
0.00473669 0.0111474 0.0208777
0.0295893 0.00757546 -0.0385672
-0.00766957 -0.0199192 -0.0297386
-0.0289403 -0.0350917 0.00280432
-0.00864779 0.0154202 0.00853116
-0.0126639 0.098965 0.00778551
0.0270819 0.0338366 -0.0237497
-0.011973 -0.00838706 0.0413715
0.00499663 -0.0187439 0.0244342
-0.0170624 0.0285829 -0.00974326
0.00630164 0.00716608 -0.000958901
-0.0386272 -0.0233149 -0.0654656
0.0159541 0.0672772 0.0411317
-0.00575014 0.0282551 -0.0105204
-0.0614705 -0.0440575 0.00297435
-0.0385038 -0.0260312 -0.0201724
-0.029462 -0.00566633 0.00110183
-0.027686 -0.0327279 0.071466
0.0167189 0.0292051 0.0883766
0.00685101 0.00956862 0.0401665
-0.05114 -0.0375632 0.00243076
-0.0214658 -0.00732677 0.0174094
-0.0402446 -0.00664668 0.0758387
-0.0243059 -0.0117947 -0.0123382
-0.0103048 0.00346948 0.019467
0.0471459 0.00756318 -0.0222075
-0.0290018 -0.0586958 0.00984283
-0.0425745 -0.0440619 0.0437155
-0.00090318 -0.003665 0.0382232
0.00597221 0.0300496 0.0518568
0.0568285 0.035833 7.87382e-05
-0.00464639 -0.0265791 -0.0179419
0.0105294 0.0434713 0.0293436
-0.00208143 0.0030392 0.0171424
-0.0321637 -0.0325845 -0.0267171
0.00226087 0.0184734 0.0221587
-0.0733459 -0.0511794 0.0898826
-0.00742338 0.0302631 0.0217694
-0.0326722 -0.0372427 0.032618
-0.0864404 -0.0220462 0.0103713
0.0058614 -0.00789651 -0.00551972
-0.0452557 -0.0596288 0.0298458
-0.0403498 -0.00819115 0.0148738
-0.00375282 -0.0137876 -0.00132581
-0.0113362 0.0160926 -0.0129728
0.014317 0.00702573 -0.00395485
-0.0281602 -0.0304829 0.0246452
-0.0067927 0.0214826 -0.0243774
-0.0372394 0.00556677 0.0143712
-0.0531103 0.0188897 0.0668278
-0.00577669 0.0124693 0.0463589
0.00620118 -0.0185444 0.0183886
-0.00711686 0.0439938 0.0444142
0.0785723 -0.0446941 0.0216066
0.0357799 -0.0351537 0.0494211
0.0171489 -0.0349487 -0.0314987
-0.0102642 0.0234493 0.0497096
-0.0478718 -0.0170081 0.0129261
-0.0381015 -0.00122681 -0.0401306
0.00968956 0.0337804 -0.000776265
-0.0469434 -0.0107658 0.00335321
-0.0454229 0.00832484 0.0458898
0.000159491 -0.0111557 -0.0194392
-0.0750382 0.0149902 0.000147775
0.0250357 0.0174231 -0.00742387
-0.0904842 0.00535811 0.0722263
0.0199759 -0.0138314 0.000948438
-0.0361718 -0.0152384 0.0301986
-0.0323413 0.0185784 0.0803302
0.0322743 -0.000676512 0.0370005
-0.0135778 0.037163 -7.04405e-05
0.0466285 -0.0520784 0.00726343
0.0236424 -0.0258583 -0.0115632
-0.00398558 -0.0216867 0.00588035
0.00808138 -0.0403643 0.101152
0.00654452 -1.38627e-05 0.0436704
-0.0176027 0.00533069 0.0429852
-0.0249741 0.00102726 0.00644629
0.00124591 0.00142344 0.00450381
0.00559698 -0.00115044 -0.00404969
-0.0056312 0.00820841 -0.00082273
0.0047029 -0.00215587 -0.00718633
0.00313182 -0.0327093 0.0387449
-0.0984251 -0.0757573 -0.0255812
-0.0921949 0.0336679 -0.0208455
0.0318631 -0.0107397 0.00450934
0.0204064 0.00634398 0.0704261
-0.00426336 0.117882 0.0531215
0.00413652 -0.0289813 -0.0184347
-0.0552898 -0.0168983 -0.00356712
0.0 0.0 0.0
0.0 0.0 -0.00404641
-0.00699726 0.0332725 -0.0072171
-0.0129001 0.023777 0.0444044
0.0049963 0.0191471 -0.00203885
0.0 0.0 0.0
0.00265132 0.00546917 0.00533799
SCALARS radius float 1
LOOKUP_TABLE default
0.00615085
0.00615085
0.00615085
0.00615085
0.00615085
0.00615085
0.00615085
0.00615085
0.00615085
0.00615085
0.00615085
0.00615085
0.00615085
0.00615085
0.00615085
0.00984137
0.00984137
0.00984137
0.00615085
0.00984137
0.00615085
0.00615085
0.00984137
0.00984137
0.00984137
0.00984137
0.00615085
0.00615085
0.00984137
0.00615085
0.00615085
0.00984137
0.00615085
0.00984137
0.00984137
0.00984137
0.00615085
0.00615085
0.00615085
0.00615085
0.00615085
0.00615085
0.00984137
0.00615085
0.00615085
0.00984137
0.00984137
0.00615085
0.00615085
0.00984137
0.00615085
0.00615085
0.00984137
0.00615085
0.00984137
0.00615085
0.00615085
0.00615085
0.00615085
0.00984137
0.00984137
0.00615085
0.00615085
0.00615085
0.00984137
0.00984137
0.00984137
0.00984137
0.00984137
0.00615085
0.00984137
0.00984137
0.00615085
0.00615085
0.00615085
0.00984137
0.00615085
0.00615085
0.00615085
0.00615085
0.00615085
0.00984137
0.00615085
0.00984137
0.00615085
0.00615085
0.00615085
0.00984137
0.00615085
0.00615085
0.00615085
0.00615085
0.00615085
0.00615085
0.00615085
0.00984137
0.00615085
0.00615085
0.00984137
0.00615085
0.00984137
0.00615085
0.00615085
0.00984137
0.00615085
0.00615085
0.00615085
0.00615085
0.00615085
0.00984137
0.00615085
0.00615085
0.00984137
0.00615085
0.00984137
0.00615085
0.00615085
0.00984137
0.00984137
0.00615085
0.00984137
0.00984137
0.00615085
0.00615085
0.00984137
0.00984137
0.00984137
0.00615085
0.00615085
0.00615085
0.00615085
0.00615085
0.00984137
0.00615085
0.00615085
0.00615085
0.00984137
0.00984137
0.00984137
0.00615085
0.00615085
0.00984137
0.00615085
0.00615085
0.00984137
0.00615085
0.00615085
0.00984137
0.00615085
0.00615085
0.00615085
0.00615085
0.00615085
0.00615085
0.00984137
0.00615085
0.00615085
0.00615085
0.00615085
0.00615085
0.00984137
0.00615085
0.00984137
0.00615085
0.00615085
0.00615085
0.00615085
0.00615085
0.00615085
0.00984137
0.00984137
0.00615085
0.00615085
0.00615085
0.00615085
0.00615085
0.00615085
0.00984137
0.00615085
0.00984137
0.00615085
0.00615085
0.00615085
0.00615085
0.00615085
0.00615085
0.00615085
0.00615085
0.00984137
0.00984137
0.00984137
0.00984137
0.00984137
0.00984137
0.00984137
0.00615085
0.00984137
0.00984137
0.00615085
0.00615085
0.00615085
0.00615085
0.00615085
0.00615085
0.00984137
0.00615085
0.00984137
0.00984137
0.00984137
0.00615085
0.00984137
0.00615085
0.00984137
0.00984137
0.00615085
0.00615085
0.00615085
0.00615085
0.00615085
0.00615085
0.00615085
0.00984137
0.00984137
0.00984137
0.00615085
0.00615085
0.00615085
0.00984137
0.00615085
0.00984137
0.00984137
0.00984137
0.00615085
0.00615085
0.00615085
0.00984137
0.00984137
0.00984137
0.00984137
0.00615085
0.00615085
0.00615085
0.00615085
0.00984137
0.00984137
0.00615085
0.00615085
0.00615085
0.00615085
0.00984137
0.00984137
0.00984137
0.00615085
0.00984137
0.00984137
0.00984137
0.00615085
0.00615085
0.00615085
0.00615085
0.00615085
0.00615085
0.00615085
0.00615085
0.00615085
0.00615085
0.00615085
0.00615085
0.00615085
0.00984137
0.00615085
0.00984137
0.00615085
0.00615085
0.00615085
0.00984137
0.00984137
0.00615085
0.00984137
0.00615085
0.00615085
0.00615085
0.00984137
0.00615085
0.00615085
0.00984137
0.00984137
0.00615085
0.00615085
0.00984137
0.00984137
0.00615085
0.00615085
0.00615085
0.00615085
0.00615085
0.00984137
0.00984137
0.00984137
0.00615085
0.00984137
0.00984137
0.00615085
0.00984137
0.00984137
0.00984137
0.00984137
0.00615085
0.00615085
0.00615085
0.00984137
0.00984137
0.00984137
0.00984137
0.00984137
0.00984137
0.00984137
0.00984137
0.00615085
0.00615085
0.00615085
0.00615085
0.00615085
0.00615085
0.00615085
0.00615085
0.00615085
0.00615085
0.00615085
0.00615085
0.00615085
0.00615085
0.00615085
0.00615085
0.00615085
0.00615085
0.00615085
SCALARS type float 1
LOOKUP_TABLE default
1.0
1.0
1.0
1.0
1.0
1.0
1.0
1.0
1.0
1.0
1.0
1.0
1.0
1.0
1.0
1.0
1.0
1.0
1.0
1.0
1.0
1.0
1.0
1.0
1.0
1.0
1.0
1.0
1.0
1.0
1.0
1.0
1.0
1.0
1.0
1.0
1.0
1.0
1.0
1.0
1.0
1.0
1.0
1.0
1.0
1.0
1.0
1.0
1.0
1.0
1.0
1.0
1.0
1.0
1.0
1.0
1.0
1.0
1.0
1.0
1.0
1.0
1.0
1.0
1.0
1.0
1.0
1.0
1.0
1.0
1.0
1.0
1.0
1.0
1.0
1.0
1.0
1.0
1.0
1.0
1.0
1.0
1.0
1.0
1.0
1.0
1.0
1.0
1.0
1.0
1.0
1.0
1.0
1.0
1.0
1.0
1.0
1.0
1.0
1.0
1.0
1.0
1.0
1.0
1.0
1.0
1.0
1.0
1.0
1.0
1.0
1.0
1.0
1.0
1.0
1.0
1.0
1.0
1.0
1.0
1.0
1.0
1.0
1.0
1.0
1.0
1.0
1.0
1.0
1.0
1.0
1.0
1.0
1.0
1.0
1.0
1.0
1.0
1.0
1.0
1.0
1.0
1.0
1.0
1.0
1.0
1.0
1.0
1.0
1.0
1.0
1.0
1.0
1.0
1.0
1.0
1.0
1.0
1.0
1.0
1.0
1.0
1.0
1.0
1.0
1.0
1.0
1.0
1.0
1.0
1.0
1.0
1.0
1.0
1.0
1.0
1.0
1.0
1.0
1.0
1.0
1.0
1.0
1.0
1.0
1.0
1.0
1.0
1.0
1.0
1.0
1.0
1.0
1.0
1.0
1.0
1.0
1.0
1.0
1.0
1.0
1.0
1.0
1.0
1.0
1.0
1.0
1.0
1.0
1.0
1.0
1.0
1.0
1.0
1.0
1.0
1.0
1.0
1.0
1.0
1.0
1.0
1.0
1.0
1.0
1.0
1.0
1.0
1.0
1.0
1.0
1.0
1.0
1.0
1.0
1.0
1.0
1.0
1.0
1.0
1.0
1.0
1.0
1.0
1.0
1.0
1.0
1.0
1.0
1.0
1.0
1.0
1.0
1.0
1.0
1.0
1.0
1.0
1.0
1.0
1.0
1.0
1.0
1.0
1.0
1.0
1.0
1.0
1.0
1.0
1.0
1.0
1.0
1.0
1.0
1.0
1.0
1.0
1.0
1.0
1.0
1.0
1.0
1.0
1.0
1.0
1.0
1.0
1.0
1.0
1.0
1.0
1.0
1.0
1.0
1.0
1.0
1.0
1.0
1.0
1.0
1.0
1.0
1.0
1.0
1.0
1.0
1.0
1.0
1.0
1.0
1.0
1.0
1.0
1.0
1.0
1.0
1.0
1.0
1.0
1.0
1.0
1.0
1.0
1.0
1.0
1.0
1.0
1.0
1.0
1.0
1.0
1.0
1.0
1.0
1.0
1.0
SCALARS id float 1
LOOKUP_TABLE default
138.0
141.0
304.0
297.0
293.0
325.0
285.0
241.0
126.0
171.0
207.0
240.0
197.0
140.0
258.0
50.0
92.0
60.0
154.0
98.0
188.0
298.0
88.0
80.0
106.0
10.0
183.0
277.0
41.0
180.0
213.0
23.0
327.0
58.0
32.0
6.0
291.0
174.0
158.0
128.0
264.0
234.0
89.0
263.0
331.0
48.0
37.0
328.0
329.0
121.0
172.0
164.0
84.0
200.0
9.0
305.0
274.0
186.0
135.0
40.0
102.0
198.0
173.0
246.0
61.0
119.0
70.0
122.0
38.0
260.0
64.0
62.0
193.0
288.0
205.0
47.0
149.0
184.0
257.0
192.0
232.0
34.0
229.0
94.0
143.0
278.0
137.0
85.0
227.0
225.0
199.0
195.0
321.0
130.0
259.0
79.0
127.0
169.0
81.0
265.0
12.0
273.0
142.0
72.0
230.0
247.0
163.0
295.0
292.0
44.0
314.0
159.0
73.0
153.0
100.0
322.0
216.0
2.0
35.0
239.0
30.0
99.0
275.0
301.0
103.0
66.0
13.0
252.0
144.0
222.0
296.0
160.0
17.0
238.0
203.0
212.0
75.0
49.0
22.0
228.0
249.0
55.0
319.0
156.0
107.0
245.0
308.0
105.0
201.0
217.0
253.0
276.0
248.0
294.0
8.0
250.0
233.0
133.0
152.0
333.0
31.0
175.0
33.0
208.0
147.0
269.0
317.0
267.0
204.0
19.0
97.0
157.0
236.0
324.0
155.0
306.0
151.0
93.0
165.0
18.0
290.0
145.0
286.0
220.0
280.0
261.0
146.0
182.0
77.0
82.0
4.0
118.0
45.0
69.0
26.0
237.0
24.0
117.0
336.0
326.0
132.0
210.0
310.0
181.0
5.0
206.0
65.0
101.0
108.0
161.0
111.0
242.0
95.0
115.0
166.0
221.0
224.0
302.0
231.0
307.0
185.0
39.0
29.0
46.0
189.0
167.0
282.0
68.0
272.0
28.0
83.0
25.0
179.0
134.0
337.0
3.0
74.0
20.0
42.0
177.0
303.0
202.0
124.0
51.0
114.0
311.0
251.0
300.0
148.0
14.0
112.0
91.0
194.0
116.0
104.0
53.0
309.0
136.0
279.0
235.0
176.0
281.0
196.0
330.0
215.0
218.0
335.0
131.0
271.0
21.0
262.0
27.0
191.0
315.0
255.0
7.0
52.0
223.0
56.0
123.0
316.0
190.0
76.0
139.0
332.0
96.0
71.0
318.0
170.0
43.0
63.0
270.0
209.0
268.0
168.0
214.0
78.0
59.0
113.0
334.0
86.0
15.0
162.0
120.0
109.0
87.0
67.0
178.0
125.0
219.0
54.0
57.0
16.0
110.0
90.0
11.0
36.0
1.0
312.0
226.0
256.0
284.0
211.0
323.0
320.0
254.0
289.0
243.0
266.0
187.0
299.0
129.0
283.0
150.0
287.0
313.0
244.0

