# vtk DataFile Version 2.0
Generated by lpp.py
ASCII
DATASET POLYDATA
POINTS 337 float
-0.0292955 -0.0405009 0.00986003
-0.0126991 -0.0405619 0.00561191
0.0115779 -0.0445034 0.0121473
-0.0182387 -0.0272518 0.00577054
0.00477145 -0.035696 0.00559493
0.0126441 -0.0252882 0.00994198
0.0264553 -0.0368889 0.00967584
0.0435635 -0.0369018 0.0066067
-0.0337372 -0.0209798 0.0103247
-0.00625922 -0.0183994 0.00555557
0.0366738 -0.0230596 0.00515125
-0.0403313 -0.00163195 0.00949556
-0.0174399 -0.00232817 0.00880302
0.0151977 -0.0123911 0.0058158
-0.0308722 0.0122017 0.00569421
-0.00562886 0.0108907 0.0066021
0.00530646 0.00153513 0.00533253
0.0180421 0.000682191 0.00688291
0.032025 0.0103776 0.00924117
-0.0441225 0.0147106 0.00667874
-0.0192563 0.0196338 0.00691897
-0.00448927 0.0246384 0.00685197
0.0120676 0.0172199 0.00943792
0.0441386 0.0214529 0.00605891
-0.0168835 0.0372609 0.00976197
0.0152913 0.0342407 0.00570839
0.0301634 0.0307963 0.0121655
-0.0383567 0.040378 0.00965617
0.00470626 0.0418844 0.00542895
0.0430945 0.0429971 0.00683474
0.00226776 -0.044353 0.0214369
0.0303615 -0.0446036 0.024556
-0.0423116 -0.0340676 0.023014
-0.00621808 -0.030593 0.0168409
0.0107314 -0.0350029 0.0207132
-0.0443513 -0.0135011 0.0212146
-0.0175505 -0.0178446 0.0157509
0.0223553 -0.0239425 0.0249828
0.0442614 -0.0211288 0.0148556
-0.0122007 -0.00561666 0.0243393
0.00271744 -0.00963678 0.0170072
0.03087 -0.0097915 0.0126754
0.04407 -0.00457164 0.0223739
-0.0419867 0.00802782 0.0226516
-0.0281392 0.00748664 0.0175614
-0.0121618 0.0115101 0.0230493
0.00316198 0.0072188 0.0189566
0.0188626 0.00326074 0.0239765
0.0442346 0.00846582 0.0221039
-0.0350543 0.0225671 0.0184158
0.0184363 0.0226314 0.0245242
0.0422035 0.0203169 0.018608
0.00514645 0.0319787 0.0133157
-0.00268408 0.0444808 0.0153491
-0.0119198 0.044274 0.024665
0.0115784 0.0435863 0.0167259
0.0241929 0.0441299 0.0210725
0.0375584 0.04453 0.0193186
-0.0200833 -0.040242 0.0284838
-0.000228593 -0.0344191 0.0357578
0.0410421 -0.032307 0.0269344
-0.0406076 -0.0208006 0.0369033
-0.0144589 -0.0200013 0.0326561
0.00623743 -0.0234783 0.0250256
0.0129377 -0.0146329 0.0355144
0.0390803 -0.0159783 0.0259185
-0.0443771 -0.0054416 0.0313876
-0.0289443 -0.00737438 0.0255812
-0.000899233 -0.00518487 0.0367171
0.0290018 -0.00922925 0.0372527
0.0442 -0.000541446 0.0362234
0.0345877 0.00472065 0.0294718
-0.0275366 0.0132115 0.0295622
-0.00989822 0.0246353 0.0327868
0.00519467 0.0164019 0.0334694
0.0228501 0.0178065 0.0370002
0.0306598 0.0171548 0.0254905
0.0413944 0.0151687 0.0334105
-0.0441202 0.0315096 0.0290675
-0.0142207 0.0364057 0.0354576
0.00153074 0.0357523 0.0286437
0.0237011 0.0334883 0.0285122
0.0406691 0.0320114 0.030204
-0.0439206 0.0440719 0.0265094
-0.0279325 0.0398215 0.0275159
-0.0367407 -0.040513 0.0403749
-0.0127478 -0.0435245 0.0441341
0.00524013 -0.0447135 0.0468091
0.0190863 -0.0406037 0.03785
0.0398412 -0.040014 0.0475692
-0.0262769 -0.0271798 0.040966
-0.0100102 -0.0272223 0.0471816
0.0305095 -0.0292615 0.0389139
0.0044863 -0.0200205 0.0447034
0.0416145 -0.0237514 0.0423938
-0.0441973 -0.00671762 0.0447218
-0.0323595 -0.00530894 0.0485034
0.0443549 -0.0114876 0.0434683
-0.0401374 0.00855878 0.0392641
-0.0196611 0.00277451 0.0405217
0.0133307 0.00344341 0.0396228
0.0337234 0.00771072 0.04739
-0.0240362 0.0238331 0.041814
0.0158631 0.0126473 0.048625
0.0447052 0.0199841 0.0455893
-0.0437837 0.0254322 0.0402544
0.0315386 0.0296445 0.0481163
-0.0390987 0.0375284 0.0403672
-0.0283186 0.0445581 0.0433278
-0.00454192 0.0408597 0.0480669
0.0155306 0.0408949 0.0417431
0.0315958 0.0442635 0.0398865
0.0440806 0.0439409 0.0414808
-0.0443264 -0.0439651 0.0544363
-0.0336692 -0.0443624 0.0621881
-0.000578661 -0.0445421 0.0581913
0.0158375 -0.0404736 0.0589549
-0.0436438 -0.031095 0.0560537
-0.0229194 -0.0345093 0.0552867
-0.00885493 -0.0284747 0.0605642
4.48028e-05 -0.0333385 0.0525973
-0.0381196 -0.0156023 0.0605472
-0.0162267 -0.0134038 0.0535757
0.00487228 -0.0197966 0.0620967
0.0219909 -0.0226999 0.0511721
0.0410427 -0.0219788 0.0593716
0.000420652 -0.00759195 0.0527926
0.0169486 -0.00350368 0.0536868
0.0434617 -0.00555414 0.0551178
-0.0262072 0.00561382 0.0596369
-0.00137132 0.00861306 0.0516778
-0.0401566 0.0203777 0.0559823
-0.0204589 0.0215937 0.0581035
-0.00898432 0.0242139 0.0507517
0.043766 0.0162824 0.0581033
-0.0442293 0.0357624 0.0609553
-0.0276724 0.0371331 0.0575868
-0.01169 0.034388 0.0613087
0.008157 0.0263804 0.0544533
-0.0436606 0.0437209 0.0507012
0.0145972 0.0416071 0.0583789
0.0291081 0.0442102 0.0562594
0.0430869 0.0431068 0.0551971
-0.0446417 -0.0419524 0.0672446
-0.0126232 -0.0442598 0.0641505
-0.0239486 -0.0441711 0.0708589
0.0424899 -0.0426812 0.0652743
-0.0439332 -0.0250767 0.0741822
-0.0354233 -0.0318532 0.0666679
-0.000460371 -0.0370338 0.0729156
0.0296938 -0.0329272 0.0626357
-0.0164925 -0.024189 0.0695978
0.0232467 -0.0227301 0.0700107
-0.0373579 -0.00300236 0.0723147
-0.020641 -0.00830362 0.0731045
-0.00652375 -0.00289303 0.0639068
0.0144351 -0.00829318 0.0697941
0.0311708 -0.00633044 0.0681796
-0.000846301 0.00945199 0.0721487
0.00811482 0.00451702 0.0652117
0.0438313 0.00455543 0.0630319
-0.027662 0.0199689 0.0683061
-0.0140707 0.0248583 0.068602
-0.011909 0.0134476 0.0628286
-0.00194685 0.0205772 0.0661821
0.0246303 0.0177782 0.0631
0.040923 0.0300407 0.0672976
-0.0440054 0.0441611 0.070163
-0.0170023 0.0437831 0.0690492
-0.00404221 0.0438583 0.0649866
0.00777405 0.0441963 0.0691513
0.0239853 0.0408251 0.0724216
-0.0376563 -0.0395611 0.0818692
-0.0138491 -0.0439155 0.0797537
0.0113174 -0.0445313 0.0816451
0.0287469 -0.04056 0.0769114
0.0443057 -0.0441417 0.0799984
-0.023621 -0.0326865 0.0757447
-0.0106735 -0.0295399 0.0835103
0.0147691 -0.0320343 0.0773495
0.0434994 -0.0309752 0.0767348
-0.0445257 -0.0202099 0.0868497
-0.0360515 -0.0150183 0.077878
-0.0324324 -0.0241375 0.0866029
-0.0210856 -0.0221328 0.0821301
-0.00524038 -0.0207676 0.0757343
-0.0117903 -0.0143298 0.0858821
0.00949061 -0.0207682 0.0775391
0.0432611 -0.0173776 0.0762523
0.00102128 -0.00553504 0.0794544
0.020925 -0.0123737 0.0855275
-0.016071 0.0114598 0.0786973
0.0183068 0.00674486 0.0786158
0.0404488 0.00823265 0.0792357
-0.0401805 0.0129298 0.0771971
0.0287294 0.0240567 0.0828184
-0.0332294 0.0330487 0.0765893
-0.0120091 0.032059 0.0835093
0.00751866 0.0291351 0.0767408
0.0440855 0.031514 0.0842216
-0.0446297 0.0387469 0.0865826
-0.0223006 0.0447031 0.0809268
0.000927844 0.0437499 0.0837717
0.0401604 0.0436398 0.080376
-0.0440847 -0.04437 0.0959173
-0.0228649 -0.0443734 0.08878
-0.0029291 -0.0409301 0.0910256
0.0381286 -0.0437317 0.0914628
-0.0202476 -0.0303096 0.0969881
0.0114682 -0.0350303 0.0896637
0.0336657 -0.0269837 0.0910751
-0.0381089 -0.0126886 0.0946121
0.00150997 -0.0221854 0.0921732
-0.0274366 -0.000627953 0.0908097
-0.00192581 -0.000497377 0.0969499
0.0405056 -0.0081146 0.0910374
-0.0441644 0.00101006 0.089247
0.0210984 0.00340736 0.0989214
-0.0445017 0.0201177 0.0921641
-0.0280915 0.0208489 0.0923234
0.00194661 0.0129986 0.088742
0.0444566 0.0174293 0.0929458
-0.0435168 0.0311985 0.098314
-0.00386406 0.0258113 0.0967922
0.0141589 0.0277251 0.0966433
-0.0435637 0.044092 0.09783
-0.0331635 0.0441448 0.0890241
0.013241 0.0436729 0.0899062
0.0303547 0.0408574 0.0946015
-0.0444397 -0.0433508 0.10857
-0.0280777 -0.0437938 0.104229
-0.00704736 -0.0404766 0.108652
0.00930054 -0.0441294 0.110639
0.0221293 -0.0407783 0.100425
0.0411374 -0.0376541 0.107228
-0.0403712 -0.0289345 0.100961
0.00738848 -0.0333968 0.102696
0.0235978 -0.0274849 0.112006
-0.028367 -0.017343 0.103543
-0.00238047 -0.0243435 0.108667
0.022167 -0.0175676 0.102594
0.0385968 -0.0175205 0.10985
-0.0408894 -0.0102222 0.111299
-0.0267781 -0.00220505 0.107543
-0.0128978 -0.0116136 0.102795
0.00717281 -0.00945816 0.108109
-0.0404356 0.00897403 0.10423
-0.0146442 0.00883855 0.104186
0.0406285 0.00336734 0.108111
-0.0294781 0.0237337 0.109237
0.00255001 0.0175836 0.1099
0.018636 0.0146112 0.110768
0.0323032 0.0217768 0.103141
-0.0438828 0.0290658 0.1114
-0.0334621 0.0367196 0.110314
-0.0151759 0.02507 0.101211
0.0447966 0.0308265 0.109979
-0.0438325 0.0438704 0.110396
-0.0211922 0.0404714 0.100116
-0.000125248 0.0407682 0.101922
0.0165453 0.0436907 0.104759
0.0357919 0.039543 0.11041
-0.0368391 -0.0402179 0.122677
0.00288464 -0.0431582 0.12153
0.0284593 -0.0445621 0.114919
0.0360314 -0.0441803 0.124694
-0.0221786 -0.0364294 0.115497
-0.0151508 -0.0255865 0.113113
0.00782292 -0.0304609 0.115576
0.0440358 -0.0344687 0.123142
-0.0314494 -0.0246386 0.114501
-0.0065538 -0.0170027 0.118286
0.0248045 -0.0212956 0.123929
-0.0226577 -0.011619 0.121271
0.00251086 -0.0102175 0.124043
0.0243757 -0.00474944 0.118044
-0.0367206 0.000899226 0.123464
-0.0186393 0.0108672 0.12426
-0.00348602 0.00202569 0.117741
0.0115166 0.00610197 0.11756
-0.0389686 0.0176651 0.122712
0.0304785 0.0148935 0.122685
0.0445806 0.0185775 0.114162
-0.0283379 0.0304731 0.120666
-0.0127568 0.0307036 0.116756
0.0210801 0.0263055 0.11519
0.0398397 0.0345724 0.122344
-0.00324587 0.0443215 0.118123
0.0228165 0.0410567 0.120722
-0.0239562 -0.0446154 0.13131
-0.00833375 -0.0404429 0.133069
0.0179832 -0.0401592 0.126935
-0.013975 -0.0254133 0.126842
-0.0406291 -0.0210925 0.128487
0.00417917 -0.0246389 0.13158
0.0152447 -0.0129154 0.128972
0.0402584 -0.0209679 0.132633
-0.04065 -0.00554931 0.134619
-0.00818287 -0.0123311 0.130161
0.0101932 -0.0011599 0.127668
0.041269 -0.00148702 0.128553
-0.00309939 0.00230908 0.136804
-2.92167e-05 0.0215658 0.129864
0.0446843 0.0172712 0.129982
0.019813 0.0263056 0.135046
0.0374231 0.0295999 0.1347
-0.0399384 0.0403719 0.126154
-0.0210603 0.042977 0.127436
0.0053378 0.0411229 0.131849
0.0351529 0.042944 0.132949
-0.0401827 -0.041082 0.141996
0.00626853 -0.0401408 0.142801
0.019155 -0.0434804 0.143751
0.0392227 -0.040043 0.140273
-0.0251871 -0.0302679 0.140058
-0.00634023 -0.0279401 0.144358
0.0222511 -0.0259429 0.140706
-0.0442028 -0.0240728 0.144267
-0.0342562 -0.0164107 0.143749
-0.00400383 -0.0147754 0.143338
-0.0199644 -0.00858206 0.141303
0.0276267 -0.0106438 0.144831
0.0422332 -0.00603713 0.144383
-0.0321776 0.00788049 0.139974
0.0225853 0.00273651 0.137573
0.0392988 0.00805617 0.143346
-0.000551373 0.0172105 0.145078
0.0146149 0.0144948 0.145154
0.0432548 0.0210862 0.14335
-0.0400576 0.0266599 0.140975
-0.0188293 0.0255338 0.139699
-0.00673572 0.0373873 0.143549
0.00667567 0.0303409 0.144673
-0.0433634 0.0434892 0.143422
-0.0285649 0.0427888 0.140081
0.0228079 0.0427298 0.142869
0.0433595 0.0432755 0.143359
VERTICES 337 674
1 0
1 1
1 2
1 3
1 4
1 5
1 6
1 7
1 8
1 9
1 10
1 11
1 12
1 13
1 14
1 15
1 16
1 17
1 18
1 19
1 20
1 21
1 22
1 23
1 24
1 25
1 26
1 27
1 28
1 29
1 30
1 31
1 32
1 33
1 34
1 35
1 36
1 37
1 38
1 39
1 40
1 41
1 42
1 43
1 44
1 45
1 46
1 47
1 48
1 49
1 50
1 51
1 52
1 53
1 54
1 55
1 56
1 57
1 58
1 59
1 60
1 61
1 62
1 63
1 64
1 65
1 66
1 67
1 68
1 69
1 70
1 71
1 72
1 73
1 74
1 75
1 76
1 77
1 78
1 79
1 80
1 81
1 82
1 83
1 84
1 85
1 86
1 87
1 88
1 89
1 90
1 91
1 92
1 93
1 94
1 95
1 96
1 97
1 98
1 99
1 100
1 101
1 102
1 103
1 104
1 105
1 106
1 107
1 108
1 109
1 110
1 111
1 112
1 113
1 114
1 115
1 116
1 117
1 118
1 119
1 120
1 121
1 122
1 123
1 124
1 125
1 126
1 127
1 128
1 129
1 130
1 131
1 132
1 133
1 134
1 135
1 136
1 137
1 138
1 139
1 140
1 141
1 142
1 143
1 144
1 145
1 146
1 147
1 148
1 149
1 150
1 151
1 152
1 153
1 154
1 155
1 156
1 157
1 158
1 159
1 160
1 161
1 162
1 163
1 164
1 165
1 166
1 167
1 168
1 169
1 170
1 171
1 172
1 173
1 174
1 175
1 176
1 177
1 178
1 179
1 180
1 181
1 182
1 183
1 184
1 185
1 186
1 187
1 188
1 189
1 190
1 191
1 192
1 193
1 194
1 195
1 196
1 197
1 198
1 199
1 200
1 201
1 202
1 203
1 204
1 205
1 206
1 207
1 208
1 209
1 210
1 211
1 212
1 213
1 214
1 215
1 216
1 217
1 218
1 219
1 220
1 221
1 222
1 223
1 224
1 225
1 226
1 227
1 228
1 229
1 230
1 231
1 232
1 233
1 234
1 235
1 236
1 237
1 238
1 239
1 240
1 241
1 242
1 243
1 244
1 245
1 246
1 247
1 248
1 249
1 250
1 251
1 252
1 253
1 254
1 255
1 256
1 257
1 258
1 259
1 260
1 261
1 262
1 263
1 264
1 265
1 266
1 267
1 268
1 269
1 270
1 271
1 272
1 273
1 274
1 275
1 276
1 277
1 278
1 279
1 280
1 281
1 282
1 283
1 284
1 285
1 286
1 287
1 288
1 289
1 290
1 291
1 292
1 293
1 294
1 295
1 296
1 297
1 298
1 299
1 300
1 301
1 302
1 303
1 304
1 305
1 306
1 307
1 308
1 309
1 310
1 311
1 312
1 313
1 314
1 315
1 316
1 317
1 318
1 319
1 320
1 321
1 322
1 323
1 324
1 325
1 326
1 327
1 328
1 329
1 330
1 331
1 332
1 333
1 334
1 335
1 336
POINT_DATA 337
VECTORS i float
0.0 0.0 0.0
0.0 0.0 0.0
0.0 0.0 0.0
0.0 0.0 0.0
0.0 0.0 0.0
0.0 0.0 0.0
0.0 0.0 0.0
0.0 0.0 0.0
0.0 0.0 0.0
0.0 0.0 0.0
0.0 0.0 0.0
0.0 0.0 0.0
0.0 0.0 0.0
0.0 0.0 0.0
0.0 0.0 0.0
0.0 0.0 0.0
0.0 0.0 0.0
0.0 0.0 0.0
0.0 0.0 0.0
0.0 0.0 0.0
0.0 0.0 0.0
0.0 0.0 0.0
0.0 0.0 0.0
0.0 0.0 0.0
0.0 0.0 0.0
0.0 0.0 0.0
0.0 0.0 0.0
0.0 0.0 0.0
0.0 0.0 0.0
0.0 0.0 0.0
0.0 0.0 0.0
0.0 0.0 0.0
0.0 0.0 0.0
0.0 0.0 0.0
0.0 0.0 0.0
0.0 0.0 0.0
0.0 0.0 0.0
0.0 0.0 0.0
0.0 0.0 0.0
0.0 0.0 0.0
0.0 0.0 0.0
0.0 0.0 0.0
0.0 0.0 0.0
0.0 0.0 0.0
0.0 0.0 0.0
0.0 0.0 0.0
0.0 0.0 0.0
0.0 0.0 0.0
0.0 0.0 0.0
0.0 0.0 0.0
0.0 0.0 0.0
0.0 0.0 0.0
0.0 0.0 0.0
0.0 0.0 0.0
0.0 0.0 0.0
0.0 0.0 0.0
0.0 0.0 0.0
0.0 0.0 0.0
0.0 0.0 0.0
0.0 0.0 0.0
0.0 0.0 0.0
0.0 0.0 0.0
0.0 0.0 0.0
0.0 0.0 0.0
0.0 0.0 0.0
0.0 0.0 0.0
0.0 0.0 0.0
0.0 0.0 0.0
0.0 0.0 0.0
0.0 0.0 0.0
0.0 0.0 0.0
0.0 0.0 0.0
0.0 0.0 0.0
0.0 0.0 0.0
0.0 0.0 0.0
0.0 0.0 0.0
0.0 0.0 0.0
0.0 0.0 0.0
0.0 0.0 0.0
0.0 0.0 0.0
0.0 0.0 0.0
0.0 0.0 0.0
0.0 0.0 0.0
0.0 0.0 0.0
0.0 0.0 0.0
0.0 0.0 0.0
0.0 0.0 0.0
0.0 0.0 0.0
0.0 0.0 0.0
0.0 0.0 0.0
0.0 0.0 0.0
0.0 0.0 0.0
0.0 0.0 0.0
0.0 0.0 0.0
0.0 0.0 0.0
0.0 0.0 0.0
0.0 0.0 0.0
0.0 0.0 0.0
0.0 0.0 0.0
0.0 0.0 0.0
0.0 0.0 0.0
0.0 0.0 0.0
0.0 0.0 0.0
0.0 0.0 0.0
0.0 0.0 0.0
0.0 0.0 0.0
0.0 0.0 0.0
0.0 0.0 0.0
0.0 0.0 0.0
0.0 0.0 0.0
0.0 0.0 0.0
0.0 0.0 0.0
0.0 0.0 0.0
0.0 0.0 0.0
0.0 0.0 0.0
0.0 0.0 0.0
0.0 0.0 0.0
0.0 0.0 0.0
0.0 0.0 0.0
0.0 0.0 0.0
0.0 0.0 0.0
0.0 0.0 0.0
0.0 0.0 0.0
0.0 0.0 0.0
0.0 0.0 0.0
0.0 0.0 0.0
0.0 0.0 0.0
0.0 0.0 0.0
0.0 0.0 0.0
0.0 0.0 0.0
0.0 0.0 0.0
0.0 0.0 0.0
0.0 0.0 0.0
0.0 0.0 0.0
0.0 0.0 0.0
0.0 0.0 0.0
0.0 0.0 0.0
0.0 0.0 0.0
0.0 0.0 0.0
0.0 0.0 0.0
0.0 0.0 0.0
0.0 0.0 0.0
0.0 0.0 0.0
0.0 0.0 0.0
0.0 0.0 0.0
0.0 0.0 0.0
0.0 0.0 0.0
0.0 0.0 0.0
0.0 0.0 0.0
0.0 0.0 0.0
0.0 0.0 0.0
0.0 0.0 0.0
0.0 0.0 0.0
0.0 0.0 0.0
0.0 0.0 0.0
0.0 0.0 0.0
0.0 0.0 0.0
0.0 0.0 0.0
0.0 0.0 0.0
0.0 0.0 0.0
0.0 0.0 0.0
0.0 0.0 0.0
0.0 0.0 0.0
0.0 0.0 0.0
0.0 0.0 0.0
0.0 0.0 0.0
0.0 0.0 0.0
0.0 0.0 0.0
0.0 0.0 0.0
0.0 0.0 0.0
0.0 0.0 0.0
0.0 0.0 0.0
0.0 0.0 0.0
0.0 0.0 0.0
0.0 0.0 0.0
0.0 0.0 0.0
0.0 0.0 0.0
0.0 0.0 0.0
0.0 0.0 0.0
0.0 0.0 0.0
0.0 0.0 0.0
0.0 0.0 0.0
0.0 0.0 0.0
0.0 0.0 0.0
0.0 0.0 0.0
0.0 0.0 0.0
0.0 0.0 0.0
0.0 0.0 0.0
0.0 0.0 0.0
0.0 0.0 0.0
0.0 0.0 0.0
0.0 0.0 0.0
0.0 0.0 0.0
0.0 0.0 0.0
0.0 0.0 0.0
0.0 0.0 0.0
0.0 0.0 0.0
0.0 0.0 0.0
0.0 0.0 0.0
0.0 0.0 0.0
0.0 0.0 0.0
0.0 0.0 0.0
0.0 0.0 0.0
0.0 0.0 0.0
0.0 0.0 0.0
0.0 0.0 0.0
0.0 0.0 0.0
0.0 0.0 0.0
0.0 0.0 0.0
0.0 0.0 0.0
0.0 0.0 0.0
0.0 0.0 0.0
0.0 0.0 0.0
0.0 0.0 0.0
0.0 0.0 0.0
0.0 0.0 0.0
0.0 0.0 0.0
0.0 0.0 0.0
0.0 0.0 0.0
0.0 0.0 0.0
0.0 0.0 0.0
0.0 0.0 0.0
0.0 0.0 0.0
0.0 0.0 0.0
0.0 0.0 0.0
0.0 0.0 0.0
0.0 0.0 0.0
0.0 0.0 0.0
0.0 0.0 0.0
0.0 0.0 0.0
0.0 0.0 0.0
0.0 0.0 0.0
0.0 0.0 0.0
0.0 0.0 0.0
0.0 0.0 0.0
0.0 0.0 0.0
0.0 0.0 0.0
0.0 0.0 0.0
0.0 0.0 0.0
0.0 0.0 0.0
0.0 0.0 0.0
0.0 0.0 0.0
0.0 0.0 0.0
0.0 0.0 0.0
0.0 0.0 0.0
0.0 0.0 0.0
0.0 0.0 0.0
0.0 0.0 0.0
0.0 0.0 0.0
0.0 0.0 0.0
0.0 0.0 0.0
0.0 0.0 0.0
0.0 0.0 0.0
0.0 0.0 0.0
0.0 0.0 0.0
0.0 0.0 0.0
0.0 0.0 0.0
0.0 0.0 0.0
0.0 0.0 0.0
0.0 0.0 0.0
0.0 0.0 0.0
0.0 0.0 0.0
0.0 0.0 0.0
0.0 0.0 0.0
0.0 0.0 0.0
0.0 0.0 0.0
0.0 0.0 0.0
0.0 0.0 0.0
0.0 0.0 0.0
0.0 0.0 0.0
0.0 0.0 0.0
0.0 0.0 0.0
0.0 0.0 0.0
0.0 0.0 0.0
0.0 0.0 0.0
0.0 0.0 0.0
0.0 0.0 0.0
0.0 0.0 0.0
0.0 0.0 0.0
0.0 0.0 0.0
0.0 0.0 0.0
0.0 0.0 0.0
0.0 0.0 0.0
0.0 0.0 0.0
0.0 0.0 0.0
0.0 0.0 0.0
0.0 0.0 0.0
0.0 0.0 0.0
0.0 0.0 0.0
0.0 0.0 0.0
0.0 0.0 0.0
0.0 0.0 0.0
0.0 0.0 0.0
0.0 0.0 0.0
0.0 0.0 0.0
0.0 0.0 0.0
0.0 0.0 0.0
0.0 0.0 0.0
0.0 0.0 0.0
0.0 0.0 0.0
0.0 0.0 0.0
0.0 0.0 0.0
0.0 0.0 0.0
0.0 0.0 0.0
0.0 0.0 0.0
0.0 0.0 0.0
0.0 0.0 0.0
0.0 0.0 0.0
0.0 0.0 0.0
0.0 0.0 0.0
0.0 0.0 0.0
0.0 0.0 0.0
0.0 0.0 0.0
0.0 0.0 0.0
0.0 0.0 0.0
0.0 0.0 0.0
0.0 0.0 0.0
0.0 0.0 0.0
0.0 0.0 0.0
0.0 0.0 0.0
0.0 0.0 0.0
0.0 0.0 0.0
0.0 0.0 0.0
0.0 0.0 0.0
0.0 0.0 0.0
0.0 0.0 0.0
0.0 0.0 0.0
0.0 0.0 0.0
0.0 0.0 0.0
0.0 0.0 0.0
0.0 0.0 0.0
0.0 0.0 0.0
0.0 0.0 0.0
0.0 0.0 0.0
0.0 0.0 0.0
0.0 0.0 0.0
0.0 0.0 0.0
VECTORS f float
7.47739e-05 -3.97505e-06 9.06661e-05
1.23463e-05 -2.63943e-05 4.23121e-05
6.07695e-05 8.40589e-06 6.09674e-05
2.23314e-05 -2.11282e-05 5.17793e-05
4.2666e-05 1.41421e-05 5.86184e-05
7.06449e-06 2.11942e-05 7.41967e-05
0.000169053 0.000153799 0.000258164
1.33025e-05 9.01387e-05 1.30924e-06
9.44513e-05 -5.93395e-05 0.000197763
-1.81996e-05 -5.28828e-05 7.31454e-05
-3.49583e-05 1.09756e-05 4.70501e-05
7.22859e-05 -7.02174e-05 0.00021577
3.00354e-05 -0.00015362 0.000386665
-6.32259e-06 -2.46579e-05 5.37828e-05
2.9919e-05 -3.09261e-05 6.66699e-05
-2.19435e-05 -1.81497e-05 8.48341e-05
-3.88496e-05 -4.62044e-05 4.81921e-05
-3.4592e-05 -1.34387e-05 0.000105151
-8.45224e-05 -2.84634e-05 0.000301514
2.20657e-05 -1.41185e-05 4.24368e-05
5.65266e-05 -2.85679e-05 -8.48891e-06
-1.88244e-05 -2.88826e-05 3.81438e-05
-0.000176269 -0.000100118 0.000394517
-1.44211e-05 5.76836e-06 4.09901e-05
7.187e-05 -0.000196764 0.000200199
-2.69108e-05 -2.44835e-05 4.0802e-05
-0.000221392 -7.69983e-05 0.000458797
9.13627e-05 -0.000121962 0.000156715
2.02249e-07 -2.59473e-05 4.34116e-05
-2.1634e-05 -6.5257e-05 2.91344e-05
2.98126e-05 -6.15616e-06 8.03349e-05
1.75622e-05 2.09122e-05 5.78819e-05
0.0 0.0 0.0
0.0001027 -0.00014051 0.000510427
3.58517e-05 -1.73105e-05 0.00013286
1.84398e-05 -2.78784e-05 5.0856e-05
3.13216e-05 -3.65232e-05 0.000100942
-1.25379e-05 4.59112e-06 0.000598204
-2.66716e-05 -4.57357e-06 6.02596e-05
1.39839e-05 -7.02407e-05 0.0001637
-8.37363e-05 -0.000221822 0.00058993
-9.05123e-05 1.34654e-05 0.000450575
-4.00131e-06 3.62861e-06 6.39954e-05
4.68855e-05 -4.39249e-05 0.000109736
9.67251e-06 -6.04786e-05 0.000134775
7.60377e-05 -0.000505587 0.000735263
4.07951e-05 -2.04421e-05 0.000217609
4.48187e-05 7.71612e-05 0.000861766
-2.38612e-05 -1.42972e-05 6.72682e-05
0.000110234 -0.00018552 0.000430386
-5.34846e-05 6.87446e-05 0.000293383
-4.43769e-05 -1.19623e-05 8.56296e-05
-3.86757e-05 -4.74845e-05 6.14867e-05
2.81414e-05 -2.84252e-05 6.77752e-05
1.56356e-05 -1.64429e-05 7.4038e-05
-1.23439e-06 -5.32704e-05 7.23893e-05
-4.30092e-05 -1.67323e-05 0.000100811
-5.56654e-05 -4.50651e-05 8.25313e-05
1.26934e-05 -9.6143e-07 0.000329462
7.48783e-05 1.17032e-05 0.00072968
-2.39789e-06 5.08284e-05 0.000381679
1.85324e-05 -2.54552e-05 0.000550729
7.28723e-06 -0.000158546 0.000718381
6.14653e-06 -2.00216e-05 0.000149736
2.57885e-06 -7.0902e-05 0.000239439
-2.9562e-06 5.77595e-06 0.000118737
1.44148e-05 -2.69238e-05 6.26339e-05
5.78024e-05 -0.000251097 0.000547445
-1.50626e-05 -0.000263411 0.00110239
-6.2135e-05 -0.000125384 0.000821041
-3.63677e-05 -1.61986e-06 0.000101877
-1.851e-05 -3.67705e-05 0.000133523
2.6316e-05 -9.62096e-05 0.000200137
-7.63974e-05 -9.54711e-05 0.000119686
-0.000250855 8.45563e-06 0.00129871
0.00229278 0.00105344 0.00146561
-5.09826e-05 -2.47796e-05 9.49353e-05
-4.43034e-05 -3.66251e-05 0.00012503
1.0246e-05 -1.29547e-05 5.60183e-05
-1.67774e-05 -6.48191e-05 0.000138681
-0.000209441 -0.000339671 0.000529323
-1.75178e-06 -5.27012e-05 0.000142534
-0.000143651 -0.000150575 0.000440182
1.0538e-05 -1.15018e-05 2.69772e-05
6.33615e-05 -0.000171187 0.000353756
9.28884e-05 1.74694e-05 0.000476074
3.52238e-05 -3.2112e-05 0.000128792
2.24084e-05 1.48253e-05 0.00011304
6.81818e-05 1.38276e-05 0.000403603
4.64157e-05 -7.56214e-06 0.000255898
2.91458e-05 -2.47175e-05 0.000168176
1.9437e-05 -2.08652e-05 0.000232757
1.81968e-06 9.07342e-06 0.000129236
1.8664e-05 -5.96098e-05 0.000284828
-7.86484e-06 1.56945e-05 0.000125142
-4.88948e-05 7.32897e-06 8.03022e-05
-5.60124e-05 -2.86683e-05 0.000283985
-4.40111e-06 -1.13005e-06 0.000101555
8.31363e-05 -0.000218701 0.000549012
4.68474e-05 -0.000435111 0.00111298
2.90932e-05 1.20213e-05 0.000351023
-7.05135e-05 -0.000151446 0.00082641
0.000131288 -0.000374793 0.000884558
2.36386e-05 -7.49885e-05 0.000312517
-3.29918e-05 -2.53013e-05 9.72421e-05
4.10753e-05 -3.52937e-05 7.55341e-05
-1.17185e-05 -0.000166457 0.000763303
2.91286e-05 -3.66816e-05 9.97813e-05
2.95607e-05 -2.96241e-05 9.55551e-05
2.74839e-05 -0.000234593 0.000543689
-2.27944e-05 -0.00028913 0.000613449
-2.28644e-06 -3.86619e-05 0.000103209
1.96655e-06 -5.1308e-06 4.31103e-05
3.43774e-05 -1.41571e-06 6.47462e-05
3.38391e-06 2.89637e-06 9.23204e-05
1.14225e-05 4.77005e-06 0.000135902
5.4389e-05 -0.000108843 0.000591017
-2.45692e-05 6.00096e-05 0.000179026
0.000124384 -4.0031e-05 0.000749525
2.69186e-05 -4.27119e-07 0.000303024
3.15468e-05 7.64036e-06 0.000238266
-6.3137e-05 0.000126491 0.0013569
0.00018193 -0.000307453 0.00140838
0.000166249 -0.000144468 0.0014519
2.89621e-05 -0.000144285 0.000976075
8.19653e-05 -0.000135837 0.000514498
2.12735e-05 -6.49763e-05 0.000314426
8.75529e-05 -0.000227129 0.00122664
-2.00258e-05 -2.17999e-05 0.000116093
0.000162332 -0.000305433 0.00138213
-0.000151741 -0.000278179 0.00136923
-1.0701e-05 -0.000192925 0.000630711
4.93381e-05 -6.57711e-05 0.000274015
-9.61473e-07 -5.76749e-05 0.000278325
4.97602e-06 -1.89175e-05 0.000106145
9.02864e-06 -2.75113e-05 8.82174e-05
0.000165736 -0.000288038 0.000783831
4.80681e-05 -2.90911e-05 0.000213078
3.80966e-05 -0.00015944 0.00104786
2.70293e-05 -7.27736e-06 6.97372e-05
-4.42477e-05 -4.83018e-05 0.000219195
-1.17127e-05 -4.11205e-05 0.000103429
-1.54459e-05 -4.62797e-06 3.45588e-05
8.89102e-06 1.44858e-05 8.71831e-05
1.76759e-05 1.30328e-05 0.000177542
1.10996e-05 7.64047e-06 0.00011676
0.0 0.0 0.0
8.30826e-05 6.23251e-06 0.000188686
1.02113e-05 6.11209e-06 0.000156903
0.000185055 -0.000190413 0.00107701
3.56166e-06 -1.44399e-05 0.00020618
0.000125288 -3.5019e-05 0.000420841
0.0 0.0 0.0
0.000186954 -4.0827e-05 0.000325657
0.000603362 -0.000225747 0.00171339
8.73076e-05 -7.5308e-05 0.000398117
3.43023e-05 -2.88825e-05 0.000360666
7.41078e-05 -0.000158878 0.00107428
8.24545e-05 -3.4595e-05 0.000403835
3.67522e-05 -5.00566e-05 0.000325365
-1.87269e-05 -2.11862e-05 0.000108808
5.87966e-05 -5.46036e-05 0.000260762
9.07238e-05 -3.53689e-05 0.000323954
5.84623e-05 -6.88135e-05 0.000364746
6.44484e-05 -3.17815e-05 0.000347776
2.41038e-05 -0.000154199 0.00102442
-1.05786e-05 -7.25242e-05 0.000457472
4.62169e-06 -3.50334e-05 8.29897e-05
3.91824e-05 -1.7935e-05 0.000129106
-9.62369e-06 1.70975e-05 0.0001154
-2.68596e-05 -1.02334e-05 0.000211499
1.11126e-05 2.12723e-05 0.00065425
0.000174509 7.80582e-05 0.000573618
4.62456e-05 -2.28899e-05 0.000182963
-1.35868e-05 -2.58349e-05 0.000215369
-6.3341e-05 6.07897e-05 0.000724266
1.6955e-06 1.30869e-05 4.54473e-05
0.000103191 -3.24874e-05 0.000303333
0.000115251 -5.11669e-05 0.000428564
-6.35476e-06 -2.61664e-05 0.000346974
-1.70381e-05 1.8436e-05 0.000125098
5.66692e-05 1.63287e-05 0.000160286
0.000153281 -2.35908e-05 0.000332992
9.67172e-05 -9.70593e-06 0.000296088
0.000145374 -5.24463e-05 0.000421171
8.79359e-05 -3.4229e-05 0.000417045
0.000119431 -2.09069e-05 0.000454788
4.06035e-05 -1.69438e-05 0.000403219
4.42695e-06 -2.38352e-05 0.000123542
0.000313458 -7.95305e-05 0.00182386
0.000198233 -2.27783e-05 0.00142016
0.000480858 -0.000120876 0.00156014
0.000193674 -8.31463e-05 0.00136313
4.16666e-05 -5.42921e-05 0.00058073
0.000366398 -0.000166207 0.000780958
0.000220118 2.55937e-05 0.00086214
0.000216648 -0.000233544 0.000821218
0.000276413 -0.000148284 0.00143399
0.000160504 2.1388e-05 0.00156572
5.43619e-05 5.176e-06 8.06447e-05
1.77221e-05 -2.51588e-05 8.46729e-05
4.08814e-05 -1.14464e-05 0.00014025
1.15032e-05 -1.80216e-06 0.000253872
1.4424e-05 -2.07378e-05 5.70899e-05
1.3697e-05 4.70014e-06 6.56473e-05
4.12947e-05 -1.66222e-05 0.00019104
0.0 0.0 0.0
2.13241e-05 -1.28778e-05 8.95864e-05
0.000226426 1.46174e-05 0.00165188
-5.31931e-06 -5.31646e-06 0.000344613
7.86636e-05 -3.39538e-05 0.000962225
8.61978e-05 3.16847e-05 0.000262046
0.00043644 7.56159e-05 0.00191038
0.000495594 -5.94231e-05 0.00150848
9.51101e-05 6.20821e-06 0.000456406
9.08873e-05 -5.51494e-05 0.00075022
5.82439e-05 -3.61512e-05 0.000150563
0.000209471 6.68887e-05 0.00137608
2.36616e-05 -2.5445e-05 9.91085e-05
0.000200654 -7.91965e-05 0.00110155
0.000430187 -4.78095e-05 0.00170298
3.37346e-05 2.77376e-06 8.1292e-05
1.31814e-05 -7.59101e-06 4.97852e-05
8.06289e-05 -1.48935e-05 0.000381556
0.000432155 5.66682e-05 0.00123493
-2.54975e-06 2.34507e-06 3.18941e-05
2.32433e-05 -1.91083e-05 0.000106251
5.00177e-06 -8.02663e-06 0.000154942
0.000205157 0.000127471 0.000384101
-1.67565e-05 -1.28328e-05 4.2018e-05
-2.07664e-05 -2.95321e-05 0.000195558
0.000168495 -1.54115e-05 0.00107139
3.96557e-05 -7.49891e-05 0.000129416
0.000145861 -7.01948e-05 0.000670891
0.000158926 -0.000181165 0.000399484
4.92298e-05 8.66463e-05 0.000708097
8.09501e-05 -6.31134e-06 0.000354027
0.000177399 2.7092e-05 0.000204804
5.52635e-05 3.92501e-05 0.000325614
8.74035e-05 1.72115e-05 0.000453166
5.1224e-05 1.61543e-05 0.00033257
0.000175979 -2.829e-05 0.00101929
-3.52076e-06 9.47272e-05 0.00103518
3.64274e-05 4.8385e-05 0.000386413
0.00028742 6.82902e-05 0.00176124
0.000311107 0.000286112 0.00196514
-6.27827e-05 0.000105962 0.000749458
0.000390488 0.000141689 0.0015352
0.000205214 6.48609e-05 0.000600346
3.76107e-05 3.06173e-05 0.000175187
0.000642118 0.000276628 0.00160303
0.000126431 5.47286e-05 0.00031108
0.000395887 9.6633e-05 0.000644898
2.2464e-05 4.21503e-05 5.7203e-05
4.51185e-05 4.59762e-05 0.000125472
5.30384e-05 5.90973e-06 0.000341648
7.95136e-05 2.30364e-05 -2.10864e-05
2.73038e-06 -5.2039e-06 3.08889e-05
0.000102896 2.02789e-05 0.000789457
0.000187368 -1.20908e-05 0.000860021
7.69481e-05 7.19338e-05 1.96377e-05
0.00015361 0.00012687 4.68748e-05
-0.00011249 -0.000100496 0.000117367
5.55931e-05 -5.56505e-05 0.000119869
3.94196e-05 -4.7346e-05 5.24866e-05
-1.68797e-06 -2.77093e-06 4.51657e-05
4.71497e-05 -1.10874e-05 0.000267162
7.98005e-05 1.37349e-05 0.000431357
1.82975e-05 -7.1658e-05 0.000333525
2.386e-06 8.48578e-06 4.11697e-05
-2.52823e-05 3.61437e-06 0.000226354
6.36255e-05 9.14432e-05 0.000381747
0.000107954 0.00011436 0.000143883
3.63994e-06 3.71225e-05 0.00126318
0.000111297 5.56915e-05 0.000472009
0.000370837 0.000445123 0.00141508
-0.00301706 -0.000108997 0.00174578
0.000385393 0.00018124 0.000802999
0.0 0.0 0.0
9.68377e-05 6.82774e-05 0.000417367
4.87288e-05 0.000414247 0.000329683
0.000827472 0.000567228 0.000588185
9.30599e-05 2.53714e-05 5.72525e-05
4.28994e-05 2.62835e-05 0.000184002
0.000385772 0.000297006 0.00123299
0.000158929 0.000100162 9.33711e-06
0.00101909 9.82092e-05 -0.00017509
-5.4246e-05 4.63862e-05 0.000170742
6.52708e-05 0.000395414 -0.000472082
4.87168e-06 -1.41701e-05 3.42629e-05
0.000111664 -0.000100721 0.000341881
0.000170158 2.76408e-05 0.000184945
4.03714e-05 2.68886e-05 0.000267029
-0.000137457 -0.000360259 0.000485138
0.000116776 -3.8134e-05 0.000734946
0.000137991 1.96549e-05 0.000362007
0.000101459 0.000231678 0.000280004
-2.19008e-05 -0.00109712 0.00248304
3.52507e-05 3.92211e-05 0.000302688
0.000150622 0.000101942 0.000521915
0.000536983 0.000309653 0.000478309
-0.00011125 0.000213423 0.00144372
0.000674755 0.000228593 0.0014946
0.000121515 5.52894e-05 2.8057e-05
0.00202808 0.00195439 0.000142376
0.00078196 0.000505137 -0.000157496
-6.82454e-06 8.35746e-05 0.000172924
0.0 0.0 0.0
0.000405021 0.000222425 0.000410932
-0.00035549 0.000322107 0.000260819
0.0 0.0 0.0
5.25127e-05 -2.19842e-05 4.98292e-05
4.97865e-05 -6.88387e-06 1.37435e-05
1.337e-05 4.97296e-05 4.54116e-05
-2.66553e-05 -0.000286184 0.000275007
1.70864e-05 -4.335e-05 9.407e-05
0.000118763 0.000151251 0.000198377
-3.08299e-05 -9.18124e-05 5.24018e-05
-2.6927e-05 -9.88743e-05 5.15558e-05
6.37629e-06 -2.07631e-05 0.000124937
-9.36178e-05 -7.54915e-06 0.000514701
5.79451e-05 0.000151748 0.000110146
0.000103125 5.08176e-05 5.15067e-05
8.28993e-07 7.20362e-05 1.19735e-05
0.00129848 0.00155784 0.00108361
1.81102e-05 9.56911e-05 1.80987e-05
-1.81919e-05 2.11524e-05 0.000187285
0.000531249 0.000540584 0.000113629
-0.000122219 0.000296258 0.000151898
7.44846e-05 0.000122637 0.000134416
0.000262506 0.000159666 0.000393244
0.000177854 4.05424e-05 0.000169011
0.000440231 0.000123154 4.26195e-05
-6.64953e-06 1.01073e-05 1.79373e-05
0.0 0.0 0.0
0.0 0.0 0.0
-0.000120781 0.000111209 5.53403e-05
VECTORS omega float
-0.000242164 -0.000740296 0.000923165
0.000444895 -0.000370206 -0.0016167
-0.0034032 0.00212299 0.00344268
0.00159562 -0.000387773 -0.000861871
0.00291803 -0.00365387 -0.00211918
-0.00263902 0.00336076 -0.00170872
0.00125833 -0.0013705 -0.00317994
0.00484912 -0.00105873 0.0041317
-0.000109505 -0.00140917 -8.85519e-05
0.00206624 0.00273625 -0.00982622
-8.30305e-05 0.00241105 0.0012117
0.00038001 0.000605703 -0.000745567
0.000229221 -0.00221363 0.000552329
0.00252685 0.00209195 0.00155644
-0.000422411 -0.00251404 0.000989263
0.0003277 -0.00672799 0.00293363
0.00495119 0.00153526 0.00264337
-0.000970792 0.000761725 0.000530335
0.0011781 -0.000991248 0.000715816
-0.00105061 0.00180873 0.000496876
-0.00200164 -0.00473188 -0.0040361
-0.000259869 0.00107452 -0.00574438
0.00229882 -0.000204931 -0.000836852
0.000250066 -0.00170227 0.000660025
-0.0024946 -0.000469594 0.00258872
0.00128955 0.000926418 -0.000447516
-0.00208031 0.00110216 -0.0005818
0.000913668 -0.000194534 -0.000954474
-0.000718858 -0.00108702 0.00100524
-0.00312297 -0.000128083 -0.00374707
-0.00414537 -0.0010275 0.00203039
-0.00402365 0.0052561 -0.000126452
0.0509868 0.612746 0.679115
-0.000523504 0.000648195 0.000284184
-0.00141815 0.00027621 -0.00152617
-0.000427241 0.00216798 -0.000773624
-0.000346156 0.00199963 -0.000286688
-0.00136003 -0.000906431 -0.000278099
0.000313809 -0.00298866 0.00132286
0.00179133 0.00362488 -0.00145578
-0.00262477 -0.00363837 0.00129173
-0.000582141 -0.00120687 0.000240998
0.00136123 -0.00452908 0.00164587
-0.00220011 -0.00513803 0.000102093
0.000256601 0.00134695 -0.000433641
-0.00337375 0.00257041 0.00106819
-0.000435032 -0.00313978 -0.00182061
0.000784052 -0.00339729 0.00223478
-0.00196369 -0.00537833 -0.000711218
0.000329614 0.000865578 -0.000129837
-0.00068537 -0.00321766 0.00181715
-0.000498551 0.00232084 -0.000691009
-0.000865857 -0.00276739 0.00100679
0.00442988 -1.25985e-05 -0.00428992
0.00660284 0.00107376 -0.00240572
0.00346443 -0.000266734 -0.000719906
0.00643996 -0.000403694 0.000560411
0.00513376 -0.000840699 0.00219039
-0.00119351 0.0022568 -8.61524e-05
-0.000294282 -0.000369292 -0.000715134
0.000285787 -0.00263799 0.00112229
0.00133727 0.00340667 -0.000951597
-0.00110716 0.00104005 0.000785128
0.00108847 0.000888228 0.000293164
-0.00193639 -0.00353318 0.00269461
-0.000901311 -0.00228722 -0.000383884
-0.000690063 0.00238236 0.000690586
-0.00142316 0.0020793 -0.000497205
-0.00152124 -0.000273761 -0.00110097
-0.00191869 -0.00102055 0.000672578
-0.000981579 -0.0066485 0.00152865
0.00560302 0.00209039 0.000945888
-0.00141864 0.000949429 -0.00113812
0.00790664 0.00120572 -0.00386422
0.0035321 -0.00292894 -0.00254564
-1.47466 0.0251167 -0.0503054
-0.0023988 -0.00168451 -0.000427452
0.00158563 0.00550934 -0.000477852
0.000510589 0.00330546 -0.000936397
-0.0027355 -0.000442989 0.000832307
-0.000689436 0.000248403 0.000796696
-0.00384646 -0.00222493 -0.00179297
-9.01778e-05 -0.00274003 2.98023e-05
0.00313405 0.00333484 -0.000170882
0.00150723 0.000619228 0.000184357
-0.00335542 -0.00251293 0.00161648
-0.00572664 -0.00467581 0.00316551
-0.00410891 -7.44302e-05 0.00235496
-0.00262832 -0.00227936 0.00156086
-0.0027708 -0.00185083 0.000173976
-0.00433475 -0.00224766 -0.0018691
0.000151134 -0.00196924 -0.000984043
-0.001035 0.00119354 -0.00191278
-0.00237882 -0.000896996 0.00280126
-0.000223935 0.00158826 0.00087847
0.000171955 0.00602164 -0.0015202
-0.00660671 0.00185374 0.00405367
-0.000545316 -0.00478223 -0.000107187
-0.000448486 0.00388573 0.00205996
0.00205099 0.000223872 -0.000728371
-0.00249721 0.00124244 0.00437775
0.000951501 -0.00405331 -0.00339925
0.000407273 -0.00245803 -0.000595099
-0.00183813 0.00249054 -0.00258687
0.000264808 -0.00643038 0.00098169
-0.000459466 -0.000313507 -0.00226746
-0.000434929 -0.00144421 0.00115053
-0.00638564 -0.00326439 0.00372917
0.00452297 -0.00460753 -0.00590888
0.00389201 9.28126e-05 -0.00173049
0.0051649 0.000507848 -0.000863658
0.00852422 -0.00292481 -0.000325171
0.00271238 -0.00235842 -0.000796433
-0.000197389 0.00267027 0.00135729
-0.0026246 0.000313808 -0.000219506
-0.00504087 -0.00117394 0.00306333
-0.00247354 0.000719496 2.17203e-05
-0.00785063 0.00820866 -0.00623013
0.00124434 0.00470686 -0.00214082
-0.00294621 -0.00024359 0.0030147
-0.00295414 0.000312481 0.00102664
-0.00289063 -0.0128311 0.00903506
-0.00249139 -0.00463518 0.00177703
-0.00150909 0.000461743 0.000988277
-0.00277193 -0.00392025 0.00154845
-0.00147717 -0.00370824 -0.00113308
-0.000436169 0.0011138 -0.00116492
-0.00146305 -0.00125551 0.00190867
0.000846282 -0.00214783 -0.00215599
0.00091874 -0.00202606 -0.00183481
-0.00286394 -0.000924341 7.36828e-05
0.00266065 0.00538438 0.00108811
0.00214694 0.00345569 -0.00273378
0.00853421 0.00768485 -0.000330659
-0.0013997 -0.00236893 0.00134859
-0.0073379 0.00497393 0.00153335
-0.00141804 0.00294573 0.00193949
0.00737955 -0.00404019 -0.00702613
0.00543072 -0.00317061 0.000238555
0.00850762 0.00514333 -0.0030299
-0.0105991 0.0015716 -0.00703383
0.00391486 0.00937219 -0.00172765
0.000719346 0.00116899 0.000827175
0.000851693 0.00131617 -0.000194985
-0.0092163 0.000655917 0.00147692
-0.00183576 0.0013048 0.000867194
-0.72064 -0.54179 1.71321
-0.00302625 0.00601485 0.0031554
-0.000712749 -0.00603057 0.00101787
-0.00213502 -0.00148 -4.69155e-05
0.00820893 0.00545942 0.00205174
-0.00348754 -0.00523306 0.00068898
-2.39135 -4.28649 2.11174
0.00390317 0.0151225 -0.0034007
0.000287708 -0.000861908 0.000916117
0.0021319 0.00299295 -0.00409556
0.00109748 -0.00175884 0.00158855
0.00132464 -0.00387528 -0.000996684
0.000697017 -0.00197367 0.00339134
-0.000884414 -0.000343084 -0.000180978
-2.78576e-05 -0.00395714 -0.000588417
0.00165405 -0.00137674 -0.00169977
0.000433665 -0.00227377 0.00305731
5.30305e-05 0.000588364 0.00178013
-0.00140086 0.00161442 -0.00522595
0.00147107 -0.00218685 0.00128875
0.00173883 -0.00338105 -0.00138311
0.00785811 0.0062592 0.00209109
0.0056217 -0.0101535 -0.00837201
0.00496403 0.00646874 0.00323391
0.0196223 -0.000652391 0.00221679
0.00707378 -0.00768009 -0.000268247
-0.00173635 0.00037935 0.000866898
-0.00693293 0.00142665 0.00488398
-0.0105383 0.00791278 -0.00185037
-0.00518012 -0.00368616 -0.000889813
-0.00199423 -0.00263761 0.000637781
-0.0103035 0.00427541 0.00763851
-0.00153224 -0.00324737 0.00121802
-0.00555849 0.0047175 0.000235411
-0.00325677 -0.00748388 0.0018081
0.00264007 0.00295859 0.00104119
-0.00142332 0.0108301 -0.000633285
-0.00322723 0.00546157 -0.00114361
-0.000477231 0.00358333 0.00135235
-0.00340049 -0.00199114 0.00134459
0.000138999 0.00113185 0.00073676
0.00139793 -0.00340695 0.00230513
0.000687617 -0.0010923 -0.00261684
-0.00200082 -0.00203125 0.000427647
-0.00116252 -0.00152358 0.000758037
-0.000389626 0.00107295 -0.0019688
0.000134045 -0.00347994 -0.000681385
0.000283956 -0.00283702 -0.000134076
-0.00426467 0.00500439 0.000508654
-0.000472124 -0.00266106 0.00146079
0.0010881 -0.00187236 -0.00226543
-0.00162322 0.00442238 -0.000421717
-0.00285291 -0.00355487 -0.00207185
0.0008197 -0.00500363 -0.000415446
0.00617707 0.00940102 0.00347812
0.0116297 0.00865866 -0.00464955
0.022846 0.00106834 -0.00291208
0.0042903 -0.0101778 -0.0019592
-0.00224524 0.00223312 0.0015241
-0.00850826 0.00107628 0.00341498
0.403421 0.894685 0.657396
-0.00279601 -0.000488788 0.000716108
-0.000927393 0.00329056 0.00122836
0.00319375 -0.00798373 0.00452765
-0.00143926 -1.63118e-05 0.00117022
-0.00647798 0.0061423 0.0028947
-0.0018753 0.000546968 5.00472e-05
0.000409577 0.00505453 -0.000644262
-0.000326224 0.00247256 0.00107947
3.02253e-05 -0.00430505 -0.000696835
0.0092505 0.00548855 -0.000538641
-0.0024763 -0.0019388 -0.00117204
0.00997934 0.00665216 0.000341384
0.00153032 0.00366675 -0.000403154
-0.000482041 -0.000739576 -0.000353941
0.0011454 -0.00362443 -0.00291999
-0.00216861 -0.00152816 -0.00184823
0.000860036 -0.0029855 -0.0029566
0.001006 -0.00555719 -0.00214872
0.00040901 0.000728733 0.000545321
0.00537548 0.000482793 -0.00136377
0.0119831 -0.0158176 0.003328
0.00655352 0.00399467 -0.00380652
0.00150485 0.00359163 -0.00175457
0.373989 1.52238 -0.354028
-0.00807883 -0.00231824 0.000879724
-0.00742629 0.000968852 0.00320153
-0.00493171 -0.00327778 0.00137524
-0.0025836 -0.00168099 -0.00176725
-0.000479739 0.00421777 0.000659936
-0.00628091 0.000582591 0.00214144
0.00787064 -0.0397225 0.00147831
0.00146478 0.00978941 -0.00190515
-0.00108085 0.000560912 0.00187009
-0.00686233 0.00198359 -0.00644843
-0.00158909 -0.0058711 0.00353563
0.00783321 -0.000294754 0.00250121
-0.0090584 0.0119811 -0.00315622
-0.00187471 0.00339278 0.00140772
-0.00145032 -0.00426436 0.00239661
-0.00870477 0.00347054 0.00116033
-0.00216676 0.000702572 -0.000324183
0.00327033 -0.00297669 -0.00104238
-0.00515037 -1.65646e-05 0.0112332
0.00386879 -0.0053792 0.00241691
0.0143104 -0.00887514 -0.00101737
-0.000896548 -0.00392815 0.00196843
-0.00603618 0.00427705 0.00816728
0.00314019 0.00284366 -0.0121804
0.000145428 0.00238411 -0.000407994
0.0199184 0.00501741 0.000655817
0.00114301 0.00148999 0.00338078
0.00711608 0.00339521 0.000404787
0.00957733 -9.78079e-05 -0.00241937
0.00753068 -0.0227027 -0.0081864
0.00387579 -0.0286238 0.0182956
-0.00306391 -0.00229097 9.99893e-05
0.00464685 -0.00288645 -0.00242641
0.00231027 0.00369031 0.0025265
-0.0013297 0.000634638 -0.00259936
-0.00821153 0.0116533 0.00845618
0.00255864 -0.00063912 -0.000851589
-0.00180479 0.00740929 0.0107869
0.0104386 0.00319568 0.000364378
0.00148157 0.000103692 0.00232119
0.00587931 -0.000178385 -0.00419409
-0.00989117 0.0318026 -0.0248767
0.00422222 0.00374605 7.06216e-05
-0.0171505 0.00612993 0.0250169
0.0050541 0.000673541 -0.00532869
-0.105104 -0.694674 -0.280346
0.0012007 0.0027628 0.00294806
1.99653 0.347124 4.05913
-0.034673 0.0219005 0.00143536
0.00473296 0.000651162 -0.0065309
0.00450236 -0.0059121 0.0092452
-0.00175589 -0.00226492 -0.00215229
-0.00089829 0.0200819 0.007255
0.00206328 -0.00572557 -0.0104383
0.0254127 0.000170066 0.00481402
-0.0849425 -0.115381 0.0246355
0.0050503 0.0175972 0.00778569
-0.0106727 0.02528 -0.0054481
0.0010009 -0.00291351 -0.00141195
-0.00562247 0.00644676 0.00518857
-0.00186248 -0.00373941 0.00101331
-0.00458885 0.001777 -0.00770192
0.00581836 0.000795021 -0.0013828
0.00249317 -0.00600398 -0.00369275
-0.0349115 -0.0124798 0.0247116
-0.00902073 -0.00543167 0.00333725
0.252823 0.992346 0.400893
-0.00277456 0.004668 0.00586532
0.0403588 -0.00604026 -0.0319769
0.00549485 -0.00659224 0.00338864
-0.00362132 -0.00364329 0.00729186
-0.00838887 0.00906315 -0.000363286
0.649413 0.0536926 0.152605
0.0516316 -0.047675 -0.0252111
0.157802 0.0853113 0.110315
0.00188929 0.0016279 -0.000204685
3.78208 0.356473 0.761041
0.0101557 -0.0331448 -0.0084621
-0.293727 -0.0203752 -0.314288
-0.622423 -1.2613 -1.11371
-0.306223 0.0266975 -0.116576
0.00164427 0.00525083 0.00354604
0.000203948 -0.000874449 0.0015494
-0.00230411 0.00156297 0.00277119
0.00519958 0.00752247 0.00429432
0.00346947 0.00276322 -0.00434173
-0.00732838 3.50381e-05 -0.00436898
-0.00544079 -0.00056632 -0.000237238
0.00439226 0.00202234 -0.00422567
-0.00402444 0.000428929 0.00608806
-0.024456 -0.015297 -0.0147509
-0.0322695 0.120069 -0.792053
0.00203735 0.0015706 -0.00192086
0.0144165 0.0129874 0.0132972
0.000617157 -0.0076982 -0.0629902
0.00701614 0.0138109 -0.0152544
-0.0833564 0.0562988 0.104933
-0.0388778 -0.0251343 0.0410788
0.00177967 0.00028045 -0.00195983
0.00581961 0.00626719 0.00440067
0.000238887 0.0292917 0.00561366
-0.0183593 0.0617357 -0.0681414
0.000115211 -0.000358879 0.000203691
2.04535 2.79711 1.72142
0.0595632 0.966557 -0.793519
0.0100957 -0.0204012 0.00344364
VECTORS v float
-1.64799e-05 -8.9127e-06 -1.79231e-05
-1.76494e-05 -1.40269e-05 -2.31099e-05
-1.67652e-05 -1.5782e-05 -3.08724e-05
-2.02112e-05 -1.44137e-05 -2.55357e-05
-1.81698e-05 -2.24485e-05 -2.80943e-05
4.98331e-06 -3.1633e-05 -4.63909e-05
-9.74451e-06 -2.59233e-05 -3.16501e-05
-4.02286e-06 -3.05564e-05 -4.91311e-06
-2.81244e-05 -1.22069e-05 -3.51868e-05
4.9818e-06 -2.56323e-05 -4.25589e-05
1.92304e-05 -1.51797e-05 -2.41592e-05
-1.90737e-05 -6.51825e-06 -3.25115e-05
-3.09356e-05 -1.49792e-05 -6.16859e-05
1.78489e-05 -2.49626e-05 -4.35374e-05
-2.08856e-05 -6.16868e-07 -3.28827e-05
-4.12982e-05 -5.32034e-06 -4.44977e-05
8.29284e-06 -3.14208e-05 -4.8088e-05
9.20492e-06 -1.95724e-05 -6.94558e-05
2.7423e-06 -1.01448e-05 -4.26132e-05
-1.4454e-05 -3.24342e-06 -2.56815e-05
-2.17829e-05 8.42211e-06 2.09686e-06
-1.21162e-05 6.31969e-06 -2.52951e-05
1.05164e-06 -1.78217e-05 -5.7182e-05
-7.55972e-07 -4.98969e-06 -1.98499e-05
-1.13054e-05 2.29366e-05 -3.39901e-05
5.16717e-06 -4.54171e-06 -2.35843e-05
7.87336e-06 -7.68751e-06 -5.41748e-05
-1.28575e-05 7.90407e-06 -2.77417e-05
-2.50074e-06 3.22648e-06 -2.7903e-05
6.75898e-06 2.35599e-05 -1.52743e-05
-1.02477e-05 -1.3041e-05 -3.79828e-05
1.49004e-06 -1.44532e-05 -2.78006e-05
-0.00195927 0.00548724 -0.0152554
-2.114e-05 -2.71881e-05 -6.05455e-05
-1.28253e-05 -1.48752e-05 -6.43033e-05
-2.38087e-05 -4.05375e-06 -3.12241e-05
-3.05517e-05 -2.28986e-05 -6.04818e-05
6.46516e-07 -2.4291e-05 -7.21392e-05
1.55989e-05 -9.26064e-06 -2.83253e-05
-3.31076e-05 -2.45442e-05 -0.000108642
-7.3423e-07 -4.80627e-05 -9.46935e-05
1.67654e-05 -1.91025e-05 -6.20895e-05
-2.12716e-06 -8.40892e-06 -3.28998e-05
-3.50014e-05 2.67455e-06 -5.94639e-05
-3.56114e-05 -9.44908e-06 -6.93515e-05
-4.99248e-05 -9.38893e-08 -0.000126264
-3.23905e-05 -2.79375e-05 -0.000133624
-2.60317e-05 -3.25588e-05 -0.00010599
-4.18021e-06 -1.14699e-06 -3.99965e-05
-2.69977e-05 3.98178e-06 -6.11208e-05
-1.35457e-05 -2.07817e-05 -7.90881e-05
6.45992e-06 -6.10907e-06 -4.4793e-05
1.17683e-06 -6.75055e-06 -5.00449e-05
-1.63976e-05 1.49031e-05 -4.28165e-05
-1.47931e-05 9.30884e-06 -4.73465e-05
-5.36873e-06 6.902e-06 -4.2841e-05
5.75404e-06 -5.54127e-06 -4.82254e-05
1.03836e-05 5.14027e-06 -3.60343e-05
-1.09342e-05 -1.75987e-05 -3.94495e-05
-1.50295e-05 -2.8839e-05 -8.44854e-05
4.03658e-06 -1.39348e-05 -4.34888e-05
-1.47376e-05 -8.16059e-06 -5.76847e-05
-2.08376e-05 -2.53829e-05 -9.83376e-05
-6.73514e-06 -2.59509e-05 -7.37246e-05
-2.26435e-05 -2.33103e-05 -0.000119464
-2.984e-06 -1.62845e-05 -5.77421e-05
-1.59296e-05 -2.38022e-06 -3.6712e-05
-2.83382e-05 -1.01381e-05 -7.66738e-05
-3.81074e-05 -3.16091e-05 -0.000149572
-1.21613e-05 -7.49193e-06 -0.000107125
2.79657e-07 -7.33583e-06 -6.19829e-05
-1.81262e-05 -3.47506e-06 -7.82114e-05
-3.56232e-05 9.69181e-06 -0.000102609
-2.91284e-05 7.55227e-06 -0.000117408
-6.35893e-05 -2.50315e-05 -0.000149115
-4.0695e-05 -0.00428654 -0.00792156
-1.10221e-05 -1.85405e-06 -5.01316e-05
4.88197e-06 -1.57993e-06 -6.88357e-05
-9.2818e-06 -1.55807e-06 -4.05668e-05
-1.41535e-05 1.23539e-05 -8.41798e-05
-1.77458e-05 7.49672e-06 -8.33145e-05
-1.04177e-05 1.18213e-06 -8.36101e-05
5.43269e-06 8.84012e-07 -5.35423e-05
-7.45483e-06 2.90961e-06 -1.98555e-05
-1.51739e-05 9.18268e-06 -5.71875e-05
-2.02621e-05 -1.13786e-05 -4.34281e-05
-2.25824e-05 -4.0073e-06 -5.80482e-05
-1.19352e-05 -1.60549e-05 -5.10023e-05
-8.36454e-06 -1.1567e-05 -4.64762e-05
-4.33169e-06 -1.5813e-06 -3.0456e-05
-2.4535e-05 -1.36376e-05 -7.83506e-05
-2.45231e-05 -2.50873e-05 -0.000113229
-1.58741e-06 -1.52825e-05 -6.2897e-05
-3.5607e-05 -2.3196e-05 -0.000138219
-3.44077e-07 -9.00901e-06 -6.09192e-05
5.59701e-06 -1.04014e-05 -4.84046e-05
-1.85628e-05 -1.05274e-05 -0.000133215
-9.0907e-06 1.17344e-06 -5.15682e-05
-2.5525e-05 1.00672e-05 -7.13865e-05
-3.17787e-05 1.85453e-06 -0.000145517
-6.1377e-05 -3.16738e-05 -0.000162031
-1.26687e-05 2.40704e-06 -0.000116753
-4.07692e-05 1.49045e-05 -0.000127582
-4.38089e-05 -4.77824e-06 -0.000198411
9.35842e-06 -3.96289e-06 -5.0056e-05
-2.39806e-05 8.39695e-06 -4.5663e-05
-1.20526e-05 2.23449e-06 -0.000102054
-3.02793e-05 1.52007e-05 -7.68687e-05
-3.62613e-05 6.04535e-06 -6.64987e-05
-1.57311e-05 1.25915e-05 -8.2815e-05
-1.01982e-05 8.38924e-06 -8.80267e-05
-4.81635e-06 1.22176e-05 -5.57829e-05
-7.37581e-06 -2.18943e-06 -2.21354e-05
-1.53145e-05 -5.37962e-06 -2.24976e-05
-7.97441e-06 -6.01403e-06 -3.32376e-05
-9.77124e-06 -9.79567e-06 -6.106e-05
-1.11706e-05 9.37291e-06 -6.52118e-05
9.42398e-06 -3.2313e-05 -7.04822e-05
-2.36974e-05 -1.46743e-05 -7.90364e-05
-2.61907e-05 -2.28552e-05 -0.000135533
-2.67223e-05 -2.45637e-05 -0.00010904
-4.77673e-05 -1.31802e-05 -0.000128151
-6.20861e-05 -1.02268e-05 -0.000182387
-4.01265e-05 -3.33459e-06 -0.000167999
-1.28098e-05 2.99781e-06 -0.000112502
-1.62537e-05 1.23664e-05 -6.05615e-05
-4.83712e-05 -1.12051e-05 -0.000166059
-3.98491e-05 6.14068e-06 -0.000170433
4.29141e-07 8.26016e-06 -5.42204e-05
-6.15667e-05 4.30091e-06 -0.000183617
-5.32469e-05 -1.12046e-05 -0.000205765
-1.79277e-05 5.90865e-06 -8.74902e-05
-6.38179e-05 1.95783e-06 -0.000165417
-3.74451e-05 -4.45081e-06 -0.000170367
-1.25176e-05 -4.54367e-06 -5.65782e-05
-1.23334e-05 6.38769e-06 -5.65666e-05
-4.47926e-05 1.86744e-05 -0.000126143
-4.90982e-05 3.07815e-06 -0.000137025
-3.50528e-05 -1.60825e-05 -0.000170557
-2.22756e-05 -2.91309e-06 -5.55314e-05
9.10826e-06 6.11066e-06 -0.000131771
1.37986e-07 1.34926e-05 -5.95622e-05
1.46618e-06 -1.28551e-06 -2.48455e-05
-9.11138e-06 -8.77823e-06 -3.06387e-05
-1.57115e-05 -1.42792e-05 -7.36947e-05
-1.23298e-05 -1.20639e-05 -4.21814e-05
0.00615096 0.0048964 0.00138649
-4.59344e-05 -5.75737e-06 -6.58333e-05
-1.25441e-05 -4.17912e-06 -5.85647e-05
-3.19714e-05 9.47293e-06 -0.000114578
-6.4615e-06 1.84052e-06 -9.53969e-05
-8.03916e-05 -1.21584e-05 -0.000189554
0.00423797 -0.0161467 0.00345007
-0.000136328 5.38504e-06 -0.000115829
-0.000119161 -1.79588e-06 -0.000208039
-8.89563e-05 -8.67594e-07 -0.00021087
-4.97189e-05 6.56158e-06 -0.000186052
-3.55184e-05 1.54417e-05 -0.000131631
-9.10563e-05 -8.73788e-06 -0.000237446
-5.91045e-05 1.00766e-05 -0.000205669
2.00119e-07 4.7568e-06 -5.11951e-05
-6.0093e-05 2.78294e-06 -0.000154518
-8.58848e-05 -1.14315e-05 -0.000209727
-7.19481e-05 -5.14851e-06 -0.000210445
-7.2332e-05 -1.89556e-05 -0.000227792
-2.91218e-05 -5.0902e-06 -0.000149956
-1.60452e-05 1.37939e-07 -6.43135e-05
-5.41081e-06 2.03386e-05 -6.08564e-05
-4.19081e-05 5.15191e-06 -9.07278e-05
-6.19126e-06 -1.78109e-05 -7.16953e-05
3.05937e-06 5.44586e-07 -0.00013488
-2.05852e-05 -1.33318e-05 -9.83621e-05
-2.86497e-05 -8.16695e-06 -5.14645e-05
-2.32713e-05 5.15775e-06 -7.16015e-05
-3.1205e-06 1.23173e-05 -9.14138e-05
-1.41306e-06 -7.91046e-06 -8.16589e-05
-4.97871e-06 -1.69884e-06 -1.62669e-05
-6.09906e-05 -1.56379e-06 -0.000125158
-7.33413e-05 1.25754e-05 -0.000182318
-1.35328e-05 7.66958e-06 -0.000158312
-1.57301e-06 -4.73107e-06 -5.54875e-05
-3.7108e-05 4.86353e-06 -4.04452e-05
-9.59276e-05 7.03419e-06 -0.000130253
-6.00375e-05 5.89242e-06 -0.000118159
-9.35569e-05 6.81533e-06 -0.000191727
-6.7008e-05 3.71496e-07 -0.000188941
-9.46187e-05 3.52674e-06 -0.000213965
-4.56237e-05 2.12959e-06 -0.000185218
-1.26352e-05 1.10664e-05 -5.96796e-05
-8.1261e-05 -1.98952e-06 -0.000230303
-6.26078e-05 7.4564e-06 -0.000163902
-0.000102995 -3.42512e-06 -0.000221925
-6.31072e-05 -7.54568e-07 -0.000188347
-2.19438e-05 8.40706e-06 -7.08783e-05
-6.90284e-05 1.70352e-05 -9.49117e-05
-5.77253e-05 -9.22877e-06 -0.000119069
-4.79273e-05 2.88355e-05 -0.000134021
-7.08465e-05 1.36163e-05 -0.000240304
-5.06372e-05 -1.73942e-05 -0.000247882
-4.40535e-05 -6.32741e-06 -4.25624e-05
-1.88059e-05 1.8228e-05 -6.13604e-05
-3.9819e-05 2.68988e-06 -9.88995e-05
-2.39855e-05 -6.53322e-06 -0.000173247
-1.05244e-05 1.03256e-05 -2.93213e-05
-9.12445e-06 4.52011e-06 -2.43653e-05
-2.39345e-05 5.07458e-06 -6.86213e-05
-0.00521294 0.00417056 -0.00384795
-1.95297e-05 1.41085e-05 -3.7239e-05
-5.13596e-05 1.23097e-05 -0.000167854
-1.04392e-05 1.57324e-05 -0.000146661
-3.19114e-05 1.55786e-05 -0.000105113
-5.28655e-05 2.33404e-05 -6.33532e-05
-7.18578e-05 8.43763e-06 -0.000203759
-9.92582e-05 -4.47675e-06 -0.000171309
-0.000100191 1.2168e-05 -0.000252319
-3.30487e-05 1.78866e-05 -8.87655e-05
-4.70363e-05 7.43047e-06 -5.87315e-05
-7.37009e-05 3.38292e-05 -0.000182262
-3.29144e-05 7.80582e-06 -6.73518e-05
-6.01021e-05 9.68674e-06 -0.000175324
-9.7025e-05 7.47072e-06 -0.000250326
-2.77397e-05 1.00171e-05 -3.17125e-05
-1.27669e-05 -8.94083e-06 -2.36777e-05
-7.43516e-05 2.21967e-05 -0.000257257
-9.30407e-05 -3.11833e-06 -0.000183738
2.2343e-06 -1.09008e-06 -2.81239e-05
-2.64818e-05 1.58308e-05 -7.83325e-05
-1.54766e-05 5.02263e-06 -9.67197e-05
-4.44071e-05 -2.02602e-05 -5.08745e-05
1.15413e-05 -3.76358e-06 -2.89695e-05
0.00238708 1.64549e-05 0.002516
-2.6563e-05 2.01531e-05 -0.000116401
-2.56868e-05 3.75666e-05 -6.72149e-05
-2.70683e-05 1.63272e-05 -6.98102e-05
-2.88659e-05 3.19549e-05 -4.01215e-05
-1.10615e-05 1.44091e-05 -5.6474e-05
-4.74696e-05 1.97666e-05 -0.000153885
-0.000270862 1.39508e-05 -7.12534e-05
-3.44133e-05 2.82094e-05 -0.000105719
-5.43873e-05 2.88157e-05 -0.000197515
-8.1213e-05 2.86449e-05 -0.000151188
-8.51198e-05 2.92158e-05 -0.000116658
-1.19127e-05 1.94598e-05 5.80921e-06
-4.44189e-05 2.80266e-05 -0.000112163
-7.16175e-05 1.48124e-05 -0.000198647
-9.79574e-05 5.10197e-05 -0.000219191
-2.24536e-05 2.72447e-05 -7.48979e-05
-9.13648e-05 1.57078e-06 -0.000238744
-5.06418e-05 2.07714e-05 -7.30957e-05
-4.86951e-05 2.71412e-05 -0.000139025
-0.000150268 -2.68831e-05 -0.000243835
-0.000117756 -9.69114e-06 -0.00018428
-8.27735e-05 1.42351e-05 -6.86941e-05
-2.1624e-05 5.70761e-05 -4.43339e-05
-3.83781e-05 2.12846e-05 -0.000100777
-5.85162e-05 1.28563e-05 -0.000246419
-6.10689e-05 1.38621e-05 8.00947e-05
-7.78721e-07 2.07329e-05 -2.27904e-05
-2.92952e-05 1.32701e-05 -0.000144778
-4.58943e-05 1.264e-05 -0.000154024
-7.67826e-05 -5.03993e-05 6.47302e-06
-0.000159402 -9.97622e-05 9.32255e-06
1.10074e-05 -1.30725e-05 -4.46864e-05
-4.09903e-05 3.7714e-05 -7.78811e-05
-2.51485e-05 2.58024e-05 -1.98195e-05
1.45147e-06 -1.78199e-06 -2.20973e-05
-1.83183e-05 7.58423e-06 -0.000113353
-4.97598e-05 2.27828e-05 -0.000186221
-5.52087e-06 9.65216e-05 -0.00015069
1.68759e-06 -1.75493e-05 -1.62269e-05
4.63531e-06 1.6148e-05 -8.28552e-05
-3.866e-05 -4.88241e-06 -0.000161512
-0.000198267 -1.96716e-05 -5.45027e-05
-1.11402e-05 -4.51011e-06 -9.04067e-05
-9.98321e-05 9.90258e-05 -0.000209058
-9.45394e-05 5.98786e-06 -0.000159136
-0.00217548 -6.32725e-05 0.00108297
-0.000101718 1.12648e-05 -0.000183483
0.0241889 0.0198124 -0.0117321
-7.1004e-05 6.80923e-05 -0.000122441
-2.8023e-05 6.20984e-05 -9.59855e-05
-0.000145542 -5.53302e-05 -6.18375e-05
-6.6406e-05 1.33967e-05 -1.48313e-05
-2.72705e-05 4.53685e-05 -0.000157249
-9.4861e-05 -5.31709e-06 -0.0002318
-0.000178214 -8.01189e-05 3.74499e-05
-0.000970847 0.000447661 0.000439161
3.98108e-05 -1.52647e-05 -0.000130988
-5.46076e-05 -8.90624e-05 0.000105588
-5.92103e-06 -1.54558e-05 2.96e-07
-2.16509e-05 2.51207e-05 -5.80627e-05
-4.28941e-05 1.26381e-05 -2.58656e-05
-4.80613e-05 -2.52775e-05 -0.000131017
-1.56257e-06 -4.9346e-05 -3.52101e-05
-2.84325e-05 6.61254e-05 -9.06191e-05
-0.000110615 8.61786e-05 -0.000127967
-3.09207e-05 -3.56104e-05 -6.88159e-05
-4.26378e-05 -0.000802328 0.00162862
-1.20044e-05 1.29258e-05 -0.000115606
-7.78786e-05 6.95569e-05 -0.000116049
-5.76132e-05 -4.0398e-05 -8.80025e-05
-0.000109185 6.99561e-05 -0.00013292
-0.000220083 8.27511e-06 -0.000245354
-8.40307e-05 -0.000987887 0.000329989
-0.000469317 -0.000395432 2.37397e-06
-0.000821666 -0.000150942 0.00040818
2.5186e-06 4.06529e-06 -2.7686e-05
0.00529047 -0.00691513 -0.0263069
-0.000108427 -2.50083e-05 -6.14145e-05
0.00033874 -0.000143832 -0.000284855
-0.016805 -0.00231207 -0.00170342
0.000136135 0.000617335 -0.000316535
-3.72361e-05 1.21568e-05 -5.28773e-06
-6.87342e-06 -3.83242e-06 -5.73308e-06
-1.14258e-05 -2.67596e-05 -2.08098e-05
-3.04532e-05 3.85888e-05 -6.13122e-05
-3.47989e-05 -1.65314e-05 -2.0498e-05
-2.87823e-06 -3.84044e-05 -7.83125e-06
1.02179e-06 -5.10172e-05 -3.28385e-05
-1.20246e-05 3.78477e-05 -4.57518e-05
-1.4546e-05 -1.64331e-05 -6.83273e-05
9.18426e-05 -0.00014508 -3.58355e-05
-0.000784197 -0.000204322 -4.19199e-05
-4.81172e-05 -1.90337e-05 -0.000114395
6.2227e-06 -0.000252728 -6.59968e-05
2.55453e-05 -8.96914e-05 -1.08786e-05
-7.17404e-05 5.79794e-05 -0.00010765
-0.000336312 -0.000512716 -3.93221e-05
0.00010595 -0.000234046 -0.000148812
-1.30378e-05 -7.98357e-06 -2.93941e-05
-9.73857e-05 -5.58634e-06 -6.62209e-05
-0.000179839 -7.37937e-07 -0.000123142
-0.000399137 -8.68679e-05 -1.64679e-05
4.84396e-06 -3.06349e-06 -5.29633e-06
0.0150052 -0.00341519 -0.00757424
-0.00589551 -0.0043882 -0.00258115
8.1498e-05 2.49878e-05 -9.0012e-05
SCALARS radius float 1
LOOKUP_TABLE default
0.0111152
0.00694698
0.00694698
0.00694698
0.00694698
0.00694698
0.0111152
0.00694698
0.0111152
0.00694698
0.00694698
0.0111152
0.0111152
0.00694698
0.00694698
0.00694698
0.00694698
0.00694698
0.0111152
0.00694698
0.00694698
0.00694698
0.0111152
0.00694698
0.0111152
0.00694698
0.0111152
0.0111152
0.00694698
0.00694698
0.00694698
0.00694698
0.00694698
0.0111152
0.00694698
0.00694698
0.00694698
0.0111152
0.00694698
0.00694698
0.0111152
0.0111152
0.00694698
0.00694698
0.00694698
0.0111152
0.00694698
0.0111152
0.00694698
0.0111152
0.00694698
0.00694698
0.00694698
0.00694698
0.00694698
0.00694698
0.00694698
0.00694698
0.0111152
0.0111152
0.0111152
0.0111152
0.0111152
0.00694698
0.00694698
0.00694698
0.00694698
0.0111152
0.0111152
0.0111152
0.00694698
0.00694698
0.00694698
0.00694698
0.0111152
0.00694698
0.00694698
0.00694698
0.00694698
0.00694698
0.0111152
0.00694698
0.0111152
0.00694698
0.0111152
0.0111152
0.00694698
0.00694698
0.0111152
0.0111152
0.00694698
0.00694698
0.00694698
0.00694698
0.00694698
0.00694698
0.00694698
0.00694698
0.0111152
0.0111152
0.00694698
0.0111152
0.0111152
0.00694698
0.00694698
0.00694698
0.0111152
0.00694698
0.00694698
0.0111152
0.0111152
0.00694698
0.00694698
0.00694698
0.00694698
0.00694698
0.0111152
0.00694698
0.0111152
0.00694698
0.00694698
0.0111152
0.0111152
0.0111152
0.0111152
0.0111152
0.00694698
0.0111152
0.00694698
0.0111152
0.0111152
0.0111152
0.00694698
0.00694698
0.00694698
0.00694698
0.0111152
0.00694698
0.0111152
0.00694698
0.00694698
0.00694698
0.00694698
0.00694698
0.00694698
0.00694698
0.00694698
0.00694698
0.00694698
0.0111152
0.00694698
0.00694698
0.00694698
0.00694698
0.0111152
0.00694698
0.00694698
0.0111152
0.00694698
0.00694698
0.00694698
0.00694698
0.00694698
0.00694698
0.00694698
0.0111152
0.0111152
0.00694698
0.00694698
0.00694698
0.00694698
0.0111152
0.0111152
0.00694698
0.00694698
0.0111152
0.00694698
0.00694698
0.00694698
0.00694698
0.00694698
0.00694698
0.00694698
0.00694698
0.00694698
0.00694698
0.00694698
0.00694698
0.00694698
0.0111152
0.0111152
0.0111152
0.0111152
0.0111152
0.0111152
0.0111152
0.0111152
0.0111152
0.0111152
0.00694698
0.00694698
0.00694698
0.00694698
0.00694698
0.00694698
0.00694698
0.00694698
0.00694698
0.0111152
0.00694698
0.0111152
0.00694698
0.0111152
0.0111152
0.00694698
0.0111152
0.00694698
0.0111152
0.00694698
0.0111152
0.0111152
0.00694698
0.00694698
0.00694698
0.0111152
0.00694698
0.00694698
0.00694698
0.0111152
0.00694698
0.00694698
0.0111152
0.00694698
0.0111152
0.0111152
0.0111152
0.00694698
0.00694698
0.00694698
0.00694698
0.00694698
0.0111152
0.0111152
0.00694698
0.0111152
0.0111152
0.0111152
0.0111152
0.0111152
0.00694698
0.0111152
0.00694698
0.0111152
0.00694698
0.00694698
0.00694698
0.00694698
0.00694698
0.0111152
0.0111152
0.00694698
0.00694698
0.0111152
0.00694698
0.00694698
0.00694698
0.00694698
0.00694698
0.00694698
0.00694698
0.00694698
0.00694698
0.00694698
0.0111152
0.00694698
0.0111152
0.00694698
0.0111152
0.00694698
0.00694698
0.0111152
0.0111152
0.00694698
0.00694698
0.0111152
0.00694698
0.00694698
0.00694698
0.0111152
0.00694698
0.0111152
0.0111152
0.00694698
0.0111152
0.0111152
0.00694698
0.0111152
0.00694698
0.00694698
0.00694698
0.0111152
0.0111152
0.0111152
0.00694698
0.0111152
0.00694698
0.0111152
0.00694698
0.0111152
0.00694698
0.00694698
0.00694698
0.00694698
0.0111152
0.0111152
0.00694698
0.0111152
0.00694698
0.00694698
0.00694698
0.0111152
0.00694698
0.00694698
0.0111152
0.0111152
0.00694698
0.00694698
0.00694698
0.00694698
0.0111152
0.0111152
0.00694698
0.00694698
0.00694698
0.00694698
0.00694698
0.00694698
SCALARS type float 1
LOOKUP_TABLE default
1.0
1.0
1.0
1.0
1.0
1.0
1.0
1.0
1.0
1.0
1.0
1.0
1.0
1.0
1.0
1.0
1.0
1.0
1.0
1.0
1.0
1.0
1.0
1.0
1.0
1.0
1.0
1.0
1.0
1.0
1.0
1.0
1.0
1.0
1.0
1.0
1.0
1.0
1.0
1.0
1.0
1.0
1.0
1.0
1.0
1.0
1.0
1.0
1.0
1.0
1.0
1.0
1.0
1.0
1.0
1.0
1.0
1.0
1.0
1.0
1.0
1.0
1.0
1.0
1.0
1.0
1.0
1.0
1.0
1.0
1.0
1.0
1.0
1.0
1.0
1.0
1.0
1.0
1.0
1.0
1.0
1.0
1.0
1.0
1.0
1.0
1.0
1.0
1.0
1.0
1.0
1.0
1.0
1.0
1.0
1.0
1.0
1.0
1.0
1.0
1.0
1.0
1.0
1.0
1.0
1.0
1.0
1.0
1.0
1.0
1.0
1.0
1.0
1.0
1.0
1.0
1.0
1.0
1.0
1.0
1.0
1.0
1.0
1.0
1.0
1.0
1.0
1.0
1.0
1.0
1.0
1.0
1.0
1.0
1.0
1.0
1.0
1.0
1.0
1.0
1.0
1.0
1.0
1.0
1.0
1.0
1.0
1.0
1.0
1.0
1.0
1.0
1.0
1.0
1.0
1.0
1.0
1.0
1.0
1.0
1.0
1.0
1.0
1.0
1.0
1.0
1.0
1.0
1.0
1.0
1.0
1.0
1.0
1.0
1.0
1.0
1.0
1.0
1.0
1.0
1.0
1.0
1.0
1.0
1.0
1.0
1.0
1.0
1.0
1.0
1.0
1.0
1.0
1.0
1.0
1.0
1.0
1.0
1.0
1.0
1.0
1.0
1.0
1.0
1.0
1.0
1.0
1.0
1.0
1.0
1.0
1.0
1.0
1.0
1.0
1.0
1.0
1.0
1.0
1.0
1.0
1.0
1.0
1.0
1.0
1.0
1.0
1.0
1.0
1.0
1.0
1.0
1.0
1.0
1.0
1.0
1.0
1.0
1.0
1.0
1.0
1.0
1.0
1.0
1.0
1.0
1.0
1.0
1.0
1.0
1.0
1.0
1.0
1.0
1.0
1.0
1.0
1.0
1.0
1.0
1.0
1.0
1.0
1.0
1.0
1.0
1.0
1.0
1.0
1.0
1.0
1.0
1.0
1.0
1.0
1.0
1.0
1.0
1.0
1.0
1.0
1.0
1.0
1.0
1.0
1.0
1.0
1.0
1.0
1.0
1.0
1.0
1.0
1.0
1.0
1.0
1.0
1.0
1.0
1.0
1.0
1.0
1.0
1.0
1.0
1.0
1.0
1.0
1.0
1.0
1.0
1.0
1.0
1.0
1.0
1.0
1.0
1.0
1.0
1.0
1.0
1.0
1.0
1.0
1.0
1.0
1.0
1.0
1.0
1.0
1.0
1.0
1.0
1.0
1.0
1.0
1.0
SCALARS id float 1
LOOKUP_TABLE default
50.0
138.0
258.0
304.0
141.0
154.0
92.0
297.0
98.0
293.0
325.0
106.0
10.0
285.0
126.0
171.0
241.0
183.0
41.0
180.0
213.0
207.0
23.0
240.0
6.0
140.0
58.0
32.0
197.0
291.0
128.0
264.0
234.0
60.0
263.0
328.0
188.0
48.0
298.0
172.0
88.0
80.0
164.0
200.0
277.0
9.0
305.0
84.0
274.0
40.0
186.0
135.0
327.0
174.0
198.0
158.0
173.0
246.0
89.0
119.0
37.0
122.0
38.0
331.0
321.0
329.0
260.0
121.0
64.0
62.0
169.0
288.0
193.0
205.0
47.0
265.0
149.0
184.0
257.0
232.0
34.0
229.0
94.0
143.0
102.0
61.0
137.0
278.0
70.0
85.0
227.0
314.0
225.0
195.0
199.0
130.0
153.0
259.0
81.0
79.0
127.0
30.0
12.0
239.0
275.0
273.0
66.0
192.0
230.0
13.0
72.0
247.0
163.0
295.0
252.0
222.0
17.0
292.0
44.0
212.0
159.0
75.0
100.0
49.0
73.0
22.0
322.0
2.0
216.0
55.0
35.0
99.0
319.0
301.0
245.0
308.0
105.0
201.0
103.0
142.0
217.0
248.0
253.0
296.0
160.0
144.0
203.0
250.0
294.0
8.0
238.0
152.0
133.0
208.0
31.0
228.0
175.0
33.0
269.0
147.0
249.0
317.0
204.0
156.0
267.0
107.0
19.0
157.0
236.0
276.0
324.0
97.0
93.0
155.0
306.0
18.0
151.0
233.0
290.0
165.0
145.0
286.0
182.0
206.0
220.0
333.0
280.0
261.0
146.0
77.0
101.0
82.0
4.0
118.0
45.0
26.0
24.0
117.0
69.0
237.0
221.0
336.0
302.0
326.0
307.0
132.0
210.0
181.0
46.0
310.0
5.0
189.0
65.0
111.0
272.0
108.0
161.0
28.0
242.0
95.0
115.0
166.0
179.0
337.0
3.0
177.0
224.0
231.0
42.0
303.0
124.0
51.0
202.0
39.0
114.0
29.0
185.0
148.0
167.0
300.0
282.0
14.0
112.0
194.0
68.0
91.0
83.0
104.0
116.0
279.0
53.0
309.0
25.0
136.0
176.0
134.0
235.0
196.0
74.0
20.0
330.0
281.0
96.0
335.0
215.0
332.0
218.0
251.0
131.0
318.0
311.0
271.0
270.0
21.0
262.0
27.0
191.0
59.0
315.0
255.0
52.0
7.0
223.0
190.0
56.0
123.0
316.0
139.0
76.0
162.0
120.0
71.0
170.0
63.0
43.0
168.0
54.0
209.0
268.0
214.0
78.0
16.0
113.0
334.0
1.0
312.0
86.0
226.0
15.0
256.0
323.0
284.0
211.0
109.0
87.0
320.0
67.0
178.0
125.0
219.0
57.0
254.0
289.0
90.0
110.0
243.0
266.0
187.0
299.0
11.0
36.0
150.0
129.0
283.0
287.0
313.0
244.0

