# vtk DataFile Version 2.0
Generated by lpp.py
ASCII
DATASET POLYDATA
POINTS 337 float
-0.0127012 -0.0388004 0.00589373
-0.0198698 -0.0277518 0.00591063
0.00627848 -0.0316684 0.00593257
0.0398506 -0.0305555 0.00589697
-0.0107427 -0.0181544 0.00588438
0.0340343 -0.0190543 0.00599877
0.015925 -0.0109664 0.0068107
0.00641785 -0.00242489 0.00585349
-0.0326047 0.0126468 0.00663443
-0.00737437 0.0218462 0.00867972
0.0434879 0.0185577 0.0090126
0.0149342 0.0314157 0.00796643
0.00674538 0.0399646 0.00676096
0.0112758 -0.0423405 0.0159261
-0.0275151 -0.0405649 0.00942888
0.0264621 -0.034301 0.0136824
-0.0331136 -0.0230105 0.0135012
-0.00416411 -0.027298 0.016273
0.0132385 -0.026537 0.0139517
-0.018102 -0.0202569 0.0148383
0.04044 -0.0207166 0.0159075
-0.0395591 -0.00524898 0.0123537
0.0284069 -0.00822802 0.0152824
-0.0173544 -0.00328994 0.00941796
0.0175355 0.0024117 0.0133621
-0.0242719 0.0081848 0.0168612
-0.0111253 0.0106272 0.0109066
0.0310619 0.0102182 0.0123481
-0.0438616 0.0185434 0.0125122
-0.0157622 0.0197906 0.0167104
0.0105635 0.0176981 0.0132385
0.0292623 0.0289918 0.0128561
-0.03178 0.0405703 0.0117822
-0.0139448 0.0347328 0.0137571
0.00669286 0.0321645 0.0165287
0.0407533 0.0399521 0.0143305
-0.00218477 0.0441066 0.0167375
0.0148732 0.0426065 0.014896
0.00168067 -0.0435961 0.0229107
0.0309387 -0.0437875 0.0252328
-0.0424499 -0.0360659 0.0228185
-0.0184807 -0.0399648 0.0261907
0.00857693 -0.0338636 0.0241249
0.0405968 -0.0319047 0.0263728
-0.0441077 -0.0163735 0.0218741
0.00499402 -0.0217874 0.0279289
0.0202715 -0.022539 0.0270518
0.0346964 -0.017532 0.0257133
-0.0291989 -0.00849377 0.0277815
-0.0136377 -0.010065 0.0225955
0.00275753 -0.00985126 0.0186968
0.041033 -0.0075206 0.0239527
-0.0389859 0.0114532 0.0219239
-0.0105622 0.00495219 0.0251293
0.00408569 0.00584191 0.0206837
0.0428476 0.00505832 0.0254942
0.0169682 0.021002 0.0267705
0.0404903 0.0208285 0.0218043
-0.0441375 0.0289056 0.0278161
-0.0300946 0.0238452 0.0203449
0.0248145 0.0440993 0.0210929
0.0358726 0.0423123 0.0248056
-0.0367485 -0.0395314 0.0366242
0.000423011 -0.0330894 0.0370954
0.0178405 -0.0403312 0.0365874
0.0293783 -0.0302758 0.036648
-0.0405828 -0.0210733 0.0360321
-0.0140669 -0.0224194 0.0315801
-0.0441039 -0.00496395 0.0312857
-0.000708187 -0.00604913 0.0368518
0.0162812 0.000918732 0.0285698
0.0354298 0.00302402 0.034436
-0.0370082 0.00808009 0.0367504
-0.022607 0.0110635 0.0324018
-0.0114311 0.0177677 0.0334503
0.00372059 0.0157249 0.0324026
0.0280501 0.0182358 0.0297107
-0.0358936 0.0335757 0.0347719
-0.0236789 0.0405758 0.0288175
0.00293554 0.0345387 0.0313882
0.0194759 0.0323989 0.0284834
0.0405593 0.0324985 0.0356211
-0.0423548 0.0422544 0.028933
-0.00884772 0.0441326 0.0297067
0.00540926 -0.0442191 0.0461849
-0.0161458 -0.0389962 0.0413136
0.0388831 -0.0405404 0.0454727
-0.0263261 -0.0244326 0.0405496
0.0395698 -0.0258232 0.0412292
0.0117861 -0.0157693 0.0389402
0.0438111 -0.0146612 0.0423522
-0.0393749 -0.00837144 0.0444992
0.0278024 -0.00991284 0.0388607
-0.0186185 -0.000744099 0.0413414
0.0441622 -0.00280963 0.0418843
0.0103532 0.00545822 0.0419608
0.0236872 0.010405 0.0392852
-0.0206548 0.0201092 0.0454343
0.0377381 0.01822 0.0412515
-0.0345398 0.0229316 0.0396111
-0.0441258 0.0390217 0.0411786
-0.0110441 0.0341462 0.0377
0.0167154 0.0405717 0.0427448
-0.0270619 0.0416551 0.0437331
0.031864 0.0428946 0.0429996
0.044116 0.0441189 0.0449589
-0.043669 -0.0441039 0.0503077
-0.0436981 -0.0331715 0.0548493
0.0169822 -0.0405756 0.0554379
-0.0227011 -0.0300787 0.0543368
-0.00998551 -0.0237188 0.048591
-0.00136013 -0.0309234 0.0521608
0.022002 -0.022771 0.0514012
0.00379351 -0.0213214 0.0469986
-0.0298241 -0.00562881 0.0508139
-0.0113895 -0.0103194 0.0559049
0.00319798 -0.00919995 0.0513329
0.0429899 -0.0084211 0.0543467
0.0170834 -0.00450757 0.0557758
0.0335726 0.00322883 0.0510734
-0.000903803 0.0107886 0.0513343
0.0155624 0.0102497 0.0519425
0.0395082 0.0171174 0.0533643
0.0122671 0.0249086 0.0549573
0.0302644 0.0291068 0.051114
-0.000610898 0.0376945 0.0496485
-0.020644 -0.0427758 0.0626887
0.00183985 -0.0418028 0.0577819
-0.0439126 -0.0397636 0.064903
-0.0334236 -0.0403408 0.0581719
-0.00968783 -0.0393372 0.0581717
0.0306364 -0.0341243 0.0577472
0.0439466 -0.0378433 0.0596913
-0.0100162 -0.0284207 0.0628255
0.0406018 -0.0226705 0.0594699
-0.0322721 -0.0164361 0.0631908
0.00714959 -0.0190524 0.0624265
-0.000658035 -0.000893632 0.0614837
0.0415672 0.0026916 0.0642943
-0.0272918 0.00591436 0.0605538
-0.04042 0.0187943 0.0563394
-0.0195483 0.0199972 0.0607302
-0.00911377 0.0152459 0.0634888
0.0441487 0.0195451 0.0638819
-0.00285198 0.0247198 0.0575115
-0.0420048 0.0335175 0.0603138
-0.024307 0.0341897 0.0574153
-0.00827066 0.0338711 0.0626344
0.0152928 0.0376218 0.062955
-0.00276658 0.044098 0.0648141
0.0281922 0.0424778 0.0606934
0.0440879 0.0413183 0.0564004
-0.0160961 -0.0434104 0.0740786
-0.00204668 -0.0375788 0.0722025
0.0291546 -0.0405703 0.0721806
-0.0429873 -0.028446 0.0711541
-0.0317589 -0.0313429 0.0689948
-0.0210725 -0.0263605 0.0691045
0.0181611 -0.0309507 0.0672959
-0.0120501 -0.0190532 0.0710713
-0.0179839 -0.00503005 0.0727742
0.0156276 -0.00893511 0.0703868
0.0310379 -0.00780266 0.0680462
-0.0362579 0.000920881 0.073899
0.00918196 0.000665133 0.0678315
0.00270504 0.00856446 0.0737094
-0.0294546 0.019586 0.0671272
0.00172343 0.0198746 0.0705267
0.0270899 0.0178318 0.0659232
-0.00912637 0.0250304 0.0703933
-0.0341114 0.0327509 0.0734437
0.0381237 0.0330191 0.0678088
-0.0430301 0.0441491 0.0685408
-0.0181695 0.0436341 0.0680365
0.00784104 0.04353 0.0699377
0.00925597 -0.044114 0.082948
0.0441062 -0.0441062 0.0797256
-0.0342314 -0.0384486 0.082343
0.0144578 -0.0349118 0.0777649
-0.00874523 -0.0265798 0.0815139
0.0120601 -0.0234885 0.0762371
0.0423972 -0.0302254 0.0778629
-0.0440917 -0.0169443 0.0838992
-0.0200679 -0.0211871 0.0799392
-0.00966246 -0.0148203 0.0818632
-0.00110481 -0.019939 0.0753426
0.0410282 -0.0137841 0.0780202
-0.0370722 -0.0104228 0.0770206
0.00292434 -0.00614223 0.0806557
0.0204847 -0.0135231 0.0842613
-0.0124053 0.0122365 0.0782461
0.0191743 0.0051397 0.0812045
0.0388655 0.00917153 0.079938
-0.040616 0.0153904 0.0767618
0.00777962 0.0302756 0.0800208
0.0282958 0.0243234 0.0836562
-0.0439961 0.0381072 0.0838677
-0.0105774 0.032413 0.083752
0.0229397 0.0406237 0.0758856
0.0441096 0.0331309 0.0819132
-0.0233231 0.0427618 0.0786162
0.0369331 0.0424677 0.0825305
-0.0441389 -0.0440814 0.092543
-0.0202052 -0.0441119 0.085092
-0.000355742 -0.0421639 0.089845
0.0134923 -0.0352824 0.0895182
0.0384512 -0.0405873 0.0894598
0.00416844 -0.0231179 0.0893711
0.0308452 -0.0268065 0.0926859
-0.0333009 -0.0208672 0.0866247
0.0396297 -0.00505042 0.0922971
-0.0234513 0.00183945 0.0894581
-0.00434948 -0.00171879 0.0934608
-0.0382821 0.00516803 0.0878736
0.00330977 0.0120306 0.088659
-0.0406424 0.0197877 0.0914523
-0.0261606 0.0221181 0.0868282
0.0441242 0.0166295 0.0922681
-0.0424265 0.0315091 0.0935959
-0.0303393 0.0434298 0.0880817
0.0012866 0.0441035 0.0897031
0.0128783 0.0409581 0.0906502
-0.0152506 -0.0326744 0.0939903
0.0073759 -0.033247 0.10168
0.0214991 -0.0405811 0.10148
-0.03949 -0.0293435 0.0997466
-0.0300774 -0.0174515 0.0974519
-0.010073 -0.0152039 0.0988739
0.0207742 -0.017152 0.0991802
0.0197291 0.00368522 0.100066
-0.0405342 0.00914219 0.102493
-0.0127966 0.00980362 0.102802
0.0319035 0.0183329 0.101338
-0.0314161 0.0234036 0.102597
-0.0124724 0.0235977 0.0961413
-0.000742511 0.0243066 0.097151
0.0147391 0.0246597 0.0967321
-0.0177045 0.0393255 0.0998005
0.0289792 0.0372774 0.0979391
-0.0430723 0.0431573 0.0953332
-0.0427558 -0.0426241 0.106672
0.00634205 -0.0438349 0.112406
-0.0286511 -0.0397835 0.108974
-0.00610989 -0.0349093 0.110383
0.0393769 -0.0367364 0.107623
-0.0309043 -0.0255775 0.11186
-0.022363 -0.0235211 0.104008
0.0223642 -0.0248157 0.109101
0.00284685 -0.0212232 0.104524
0.0366894 -0.0180793 0.108358
-0.0405909 -0.00892606 0.10799
0.00852865 -0.00801171 0.10981
-0.0285415 -0.000526351 0.103693
0.0405021 0.00344223 0.10912
0.00384443 0.0158022 0.109283
0.0193873 0.0159056 0.11158
0.0441148 0.0294275 0.110452
-0.0407647 0.0318509 0.105268
-0.0304004 0.0378049 0.108257
0.00336867 0.0380311 0.103626
0.0353673 0.0371915 0.111864
-0.0402454 0.0441138 0.106742
0.0172656 0.0439877 0.107783
0.027475 -0.0438681 0.11519
-0.0217668 -0.0334746 0.116179
0.00515594 -0.0240021 0.115863
-0.0144813 -0.0217254 0.112607
-0.00436868 -0.0154829 0.113394
-0.0230503 -0.00924515 0.115003
-0.0351878 0.00130755 0.118047
-0.00587432 0.00174602 0.117365
0.0249079 -0.00292625 0.117635
0.0133144 0.00700515 0.11741
-0.0333856 0.0187405 0.117072
0.0441101 0.0178026 0.113077
-0.0240709 0.0308743 0.117681
-0.00986897 0.0281745 0.112842
0.02422 0.0260618 0.116592
0.0237637 0.0406382 0.121256
-0.00198408 0.0411649 0.118591
-0.0230039 -0.0420653 0.131076
0.0358562 -0.0440746 0.123596
-0.0356339 -0.0395935 0.122742
0.00397755 -0.0372457 0.122267
0.0188697 -0.0371716 0.125947
0.0440978 -0.0355882 0.122429
-0.00836993 -0.0257766 0.122482
0.00423187 -0.0247517 0.131141
0.0385355 -0.0243574 0.131253
-0.0399849 -0.0212479 0.123425
0.0263474 -0.0190097 0.123041
-0.0379287 -0.00718041 0.130414
-0.0143608 -0.00831353 0.127588
-0.00403601 -0.013401 0.124998
0.0122392 -0.0122291 0.12662
0.0406286 -0.00604609 0.127456
0.00943197 -0.000262509 0.126855
-0.0161911 0.0134221 0.122757
0.00123259 0.0198331 0.127514
0.0306232 0.0140905 0.123723
0.04406 0.0174197 0.130316
0.0378918 0.0299242 0.121917
-0.0353222 0.0391026 0.123867
0.00740931 0.0374584 0.13014
-0.00576951 -0.0405974 0.133627
0.0367486 -0.0406173 0.140546
-0.019807 -0.0273686 0.134042
0.0213505 -0.0237687 0.138973
-0.0412057 -0.02131 0.138711
-0.0309002 -0.0168241 0.134957
-0.0055235 -0.0151037 0.138332
-0.0220602 -0.00562724 0.140575
-0.00453905 0.0023239 0.132625
0.0209789 0.00339221 0.136258
0.0394151 0.00374757 0.139518
-0.0313148 0.00901225 0.13311
-0.0405795 0.0251554 0.136117
-0.0178736 0.0251156 0.137482
0.0228096 0.0273912 0.134548
0.0382222 0.0271127 0.133644
-0.0222554 0.0389923 0.13265
-0.00466137 0.0328858 0.138529
0.0359596 0.0386837 0.133974
0.00552335 -0.0412321 0.144004
-0.0319407 -0.0331811 0.141395
0.0187124 -0.040781 0.140809
-0.00147389 -0.0303823 0.144157
0.023449 -0.00951126 0.144119
0.0418615 -0.00734566 0.142686
-0.000849836 0.0168053 0.144104
0.0186679 0.0162977 0.144165
0.0427928 0.0188044 0.142336
0.00824837 0.0303175 0.144104
-0.0410059 0.0383441 0.143925
-0.0291375 0.0424333 0.14159
0.0244268 0.0420447 0.142516
0.0418069 0.0432392 0.143149
VERTICES 337 674
1 0
1 1
1 2
1 3
1 4
1 5
1 6
1 7
1 8
1 9
1 10
1 11
1 12
1 13
1 14
1 15
1 16
1 17
1 18
1 19
1 20
1 21
1 22
1 23
1 24
1 25
1 26
1 27
1 28
1 29
1 30
1 31
1 32
1 33
1 34
1 35
1 36
1 37
1 38
1 39
1 40
1 41
1 42
1 43
1 44
1 45
1 46
1 47
1 48
1 49
1 50
1 51
1 52
1 53
1 54
1 55
1 56
1 57
1 58
1 59
1 60
1 61
1 62
1 63
1 64
1 65
1 66
1 67
1 68
1 69
1 70
1 71
1 72
1 73
1 74
1 75
1 76
1 77
1 78
1 79
1 80
1 81
1 82
1 83
1 84
1 85
1 86
1 87
1 88
1 89
1 90
1 91
1 92
1 93
1 94
1 95
1 96
1 97
1 98
1 99
1 100
1 101
1 102
1 103
1 104
1 105
1 106
1 107
1 108
1 109
1 110
1 111
1 112
1 113
1 114
1 115
1 116
1 117
1 118
1 119
1 120
1 121
1 122
1 123
1 124
1 125
1 126
1 127
1 128
1 129
1 130
1 131
1 132
1 133
1 134
1 135
1 136
1 137
1 138
1 139
1 140
1 141
1 142
1 143
1 144
1 145
1 146
1 147
1 148
1 149
1 150
1 151
1 152
1 153
1 154
1 155
1 156
1 157
1 158
1 159
1 160
1 161
1 162
1 163
1 164
1 165
1 166
1 167
1 168
1 169
1 170
1 171
1 172
1 173
1 174
1 175
1 176
1 177
1 178
1 179
1 180
1 181
1 182
1 183
1 184
1 185
1 186
1 187
1 188
1 189
1 190
1 191
1 192
1 193
1 194
1 195
1 196
1 197
1 198
1 199
1 200
1 201
1 202
1 203
1 204
1 205
1 206
1 207
1 208
1 209
1 210
1 211
1 212
1 213
1 214
1 215
1 216
1 217
1 218
1 219
1 220
1 221
1 222
1 223
1 224
1 225
1 226
1 227
1 228
1 229
1 230
1 231
1 232
1 233
1 234
1 235
1 236
1 237
1 238
1 239
1 240
1 241
1 242
1 243
1 244
1 245
1 246
1 247
1 248
1 249
1 250
1 251
1 252
1 253
1 254
1 255
1 256
1 257
1 258
1 259
1 260
1 261
1 262
1 263
1 264
1 265
1 266
1 267
1 268
1 269
1 270
1 271
1 272
1 273
1 274
1 275
1 276
1 277
1 278
1 279
1 280
1 281
1 282
1 283
1 284
1 285
1 286
1 287
1 288
1 289
1 290
1 291
1 292
1 293
1 294
1 295
1 296
1 297
1 298
1 299
1 300
1 301
1 302
1 303
1 304
1 305
1 306
1 307
1 308
1 309
1 310
1 311
1 312
1 313
1 314
1 315
1 316
1 317
1 318
1 319
1 320
1 321
1 322
1 323
1 324
1 325
1 326
1 327
1 328
1 329
1 330
1 331
1 332
1 333
1 334
1 335
1 336
POINT_DATA 337
VECTORS i float
0.0 0.0 0.0
0.0 0.0 0.0
0.0 0.0 0.0
0.0 0.0 0.0
0.0 0.0 0.0
0.0 0.0 0.0
0.0 0.0 0.0
0.0 0.0 0.0
0.0 0.0 0.0
0.0 0.0 0.0
0.0 0.0 0.0
0.0 0.0 0.0
0.0 0.0 0.0
0.0 0.0 0.0
0.0 0.0 0.0
0.0 0.0 0.0
0.0 0.0 0.0
0.0 0.0 0.0
0.0 0.0 0.0
0.0 0.0 0.0
0.0 0.0 0.0
0.0 0.0 0.0
0.0 0.0 0.0
0.0 0.0 0.0
0.0 0.0 0.0
0.0 0.0 0.0
0.0 0.0 0.0
0.0 0.0 0.0
0.0 0.0 0.0
0.0 0.0 0.0
0.0 0.0 0.0
0.0 0.0 0.0
0.0 0.0 0.0
0.0 0.0 0.0
0.0 0.0 0.0
0.0 0.0 0.0
0.0 0.0 0.0
0.0 0.0 0.0
0.0 0.0 0.0
0.0 0.0 0.0
0.0 0.0 0.0
0.0 0.0 0.0
0.0 0.0 0.0
0.0 0.0 0.0
0.0 0.0 0.0
0.0 0.0 0.0
0.0 0.0 0.0
0.0 0.0 0.0
0.0 0.0 0.0
0.0 0.0 0.0
0.0 0.0 0.0
0.0 0.0 0.0
0.0 0.0 0.0
0.0 0.0 0.0
0.0 0.0 0.0
0.0 0.0 0.0
0.0 0.0 0.0
0.0 0.0 0.0
0.0 0.0 0.0
0.0 0.0 0.0
0.0 0.0 0.0
0.0 0.0 0.0
0.0 0.0 0.0
0.0 0.0 0.0
0.0 0.0 0.0
0.0 0.0 0.0
0.0 0.0 0.0
0.0 0.0 0.0
0.0 0.0 0.0
0.0 0.0 0.0
0.0 0.0 0.0
0.0 0.0 0.0
0.0 0.0 0.0
0.0 0.0 0.0
0.0 0.0 0.0
0.0 0.0 0.0
0.0 0.0 0.0
0.0 0.0 0.0
0.0 0.0 0.0
0.0 0.0 0.0
0.0 0.0 0.0
0.0 0.0 0.0
0.0 0.0 0.0
0.0 0.0 0.0
0.0 0.0 0.0
0.0 0.0 0.0
0.0 0.0 0.0
0.0 0.0 0.0
0.0 0.0 0.0
0.0 0.0 0.0
0.0 0.0 0.0
0.0 0.0 0.0
0.0 0.0 0.0
0.0 0.0 0.0
0.0 0.0 0.0
0.0 0.0 0.0
0.0 0.0 0.0
0.0 0.0 0.0
0.0 0.0 0.0
0.0 0.0 0.0
0.0 0.0 0.0
0.0 0.0 0.0
0.0 0.0 0.0
0.0 0.0 0.0
0.0 0.0 0.0
0.0 0.0 0.0
0.0 0.0 0.0
0.0 0.0 0.0
0.0 0.0 0.0
0.0 0.0 0.0
0.0 0.0 0.0
0.0 0.0 0.0
0.0 0.0 0.0
0.0 0.0 0.0
0.0 0.0 0.0
0.0 0.0 0.0
0.0 0.0 0.0
0.0 0.0 0.0
0.0 0.0 0.0
0.0 0.0 0.0
0.0 0.0 0.0
0.0 0.0 0.0
0.0 0.0 0.0
0.0 0.0 0.0
0.0 0.0 0.0
0.0 0.0 0.0
0.0 0.0 0.0
0.0 0.0 0.0
0.0 0.0 0.0
0.0 0.0 0.0
0.0 0.0 0.0
0.0 0.0 0.0
0.0 0.0 0.0
0.0 0.0 0.0
0.0 0.0 0.0
0.0 0.0 0.0
0.0 0.0 0.0
0.0 0.0 0.0
0.0 0.0 0.0
0.0 0.0 0.0
0.0 0.0 0.0
0.0 0.0 0.0
0.0 0.0 0.0
0.0 0.0 0.0
0.0 0.0 0.0
0.0 0.0 0.0
0.0 0.0 0.0
0.0 0.0 0.0
0.0 0.0 0.0
0.0 0.0 0.0
0.0 0.0 0.0
0.0 0.0 0.0
0.0 0.0 0.0
0.0 0.0 0.0
0.0 0.0 0.0
0.0 0.0 0.0
0.0 0.0 0.0
0.0 0.0 0.0
0.0 0.0 0.0
0.0 0.0 0.0
0.0 0.0 0.0
0.0 0.0 0.0
0.0 0.0 0.0
0.0 0.0 0.0
0.0 0.0 0.0
0.0 0.0 0.0
0.0 0.0 0.0
0.0 0.0 0.0
0.0 0.0 0.0
0.0 0.0 0.0
0.0 0.0 0.0
0.0 0.0 0.0
0.0 0.0 0.0
0.0 0.0 0.0
0.0 0.0 0.0
0.0 0.0 0.0
0.0 0.0 0.0
0.0 0.0 0.0
0.0 0.0 0.0
0.0 0.0 0.0
0.0 0.0 0.0
0.0 0.0 0.0
0.0 0.0 0.0
0.0 0.0 0.0
0.0 0.0 0.0
0.0 0.0 0.0
0.0 0.0 0.0
0.0 0.0 0.0
0.0 0.0 0.0
0.0 0.0 0.0
0.0 0.0 0.0
0.0 0.0 0.0
0.0 0.0 0.0
0.0 0.0 0.0
0.0 0.0 0.0
0.0 0.0 0.0
0.0 0.0 0.0
0.0 0.0 0.0
0.0 0.0 0.0
0.0 0.0 0.0
0.0 0.0 0.0
0.0 0.0 0.0
0.0 0.0 0.0
0.0 0.0 0.0
0.0 0.0 0.0
0.0 0.0 0.0
0.0 0.0 0.0
0.0 0.0 0.0
0.0 0.0 0.0
0.0 0.0 0.0
0.0 0.0 0.0
0.0 0.0 0.0
0.0 0.0 0.0
0.0 0.0 0.0
0.0 0.0 0.0
0.0 0.0 0.0
0.0 0.0 0.0
0.0 0.0 0.0
0.0 0.0 0.0
0.0 0.0 0.0
0.0 0.0 0.0
0.0 0.0 0.0
0.0 0.0 0.0
0.0 0.0 0.0
0.0 0.0 0.0
0.0 0.0 0.0
0.0 0.0 0.0
0.0 0.0 0.0
0.0 0.0 0.0
0.0 0.0 0.0
0.0 0.0 0.0
0.0 0.0 0.0
0.0 0.0 0.0
0.0 0.0 0.0
0.0 0.0 0.0
0.0 0.0 0.0
0.0 0.0 0.0
0.0 0.0 0.0
0.0 0.0 0.0
0.0 0.0 0.0
0.0 0.0 0.0
0.0 0.0 0.0
0.0 0.0 0.0
0.0 0.0 0.0
0.0 0.0 0.0
0.0 0.0 0.0
0.0 0.0 0.0
0.0 0.0 0.0
0.0 0.0 0.0
0.0 0.0 0.0
0.0 0.0 0.0
0.0 0.0 0.0
0.0 0.0 0.0
0.0 0.0 0.0
0.0 0.0 0.0
0.0 0.0 0.0
0.0 0.0 0.0
0.0 0.0 0.0
0.0 0.0 0.0
0.0 0.0 0.0
0.0 0.0 0.0
0.0 0.0 0.0
0.0 0.0 0.0
0.0 0.0 0.0
0.0 0.0 0.0
0.0 0.0 0.0
0.0 0.0 0.0
0.0 0.0 0.0
0.0 0.0 0.0
0.0 0.0 0.0
0.0 0.0 0.0
0.0 0.0 0.0
0.0 0.0 0.0
0.0 0.0 0.0
0.0 0.0 0.0
0.0 0.0 0.0
0.0 0.0 0.0
0.0 0.0 0.0
0.0 0.0 0.0
0.0 0.0 0.0
0.0 0.0 0.0
0.0 0.0 0.0
0.0 0.0 0.0
0.0 0.0 0.0
0.0 0.0 0.0
0.0 0.0 0.0
0.0 0.0 0.0
0.0 0.0 0.0
0.0 0.0 0.0
0.0 0.0 0.0
0.0 0.0 0.0
0.0 0.0 0.0
0.0 0.0 0.0
0.0 0.0 0.0
0.0 0.0 0.0
0.0 0.0 0.0
0.0 0.0 0.0
0.0 0.0 0.0
0.0 0.0 0.0
0.0 0.0 0.0
0.0 0.0 0.0
0.0 0.0 0.0
0.0 0.0 0.0
0.0 0.0 0.0
0.0 0.0 0.0
0.0 0.0 0.0
0.0 0.0 0.0
0.0 0.0 0.0
0.0 0.0 0.0
0.0 0.0 0.0
0.0 0.0 0.0
0.0 0.0 0.0
0.0 0.0 0.0
0.0 0.0 0.0
0.0 0.0 0.0
0.0 0.0 0.0
0.0 0.0 0.0
0.0 0.0 0.0
0.0 0.0 0.0
0.0 0.0 0.0
0.0 0.0 0.0
0.0 0.0 0.0
0.0 0.0 0.0
0.0 0.0 0.0
0.0 0.0 0.0
0.0 0.0 0.0
0.0 0.0 0.0
0.0 0.0 0.0
0.0 0.0 0.0
0.0 0.0 0.0
0.0 0.0 0.0
0.0 0.0 0.0
0.0 0.0 0.0
0.0 0.0 0.0
0.0 0.0 0.0
0.0 0.0 0.0
0.0 0.0 0.0
VECTORS f float
-0.00352388 -0.000407724 0.00312365
-0.00198896 0.000828966 0.00075236
-0.0180766 0.0161175 -0.00269427
0.0 0.0 -7.56133e-05
0.0161005 0.00599964 0.0138434
0.0010016 -0.00109294 -0.002377
-0.00223837 -0.000481581 -0.00155374
-0.000410824 0.0254141 -0.00290588
0.0 0.0 0.0
-0.000667022 0.00488621 -0.00185229
0.00180375 0.00126272 -0.000474443
-0.00138677 0.00245119 -0.0015583
0.000822726 0.000218941 0.000775732
0.0 0.0 0.0
-0.09413 -0.0117788 0.0276559
0.0144897 -0.0384163 -0.0312726
-0.0182806 -0.00670938 0.00355329
0.00666573 0.00482259 0.0199538
0.0204026 -0.0174348 0.00210191
-0.00876678 0.00312755 -0.007017
-0.000761013 0.0188697 -0.0104782
-8.5776e-05 0.0008056 -0.00117684
0.010133 -0.00304171 -0.00959407
0.0027402 0.0681735 -0.0927043
0.00808645 -0.00670204 -0.00267652
-0.00708885 0.0177542 -0.00930455
-0.00284827 0.00218623 0.0176645
-0.00120624 0.000729298 -0.00135165
0.0 0.0 0.0
0.00171212 -0.00655595 0.00191271
-0.000886738 -0.00486843 -0.0017742
0.00182694 0.00526178 0.000897347
-0.021891 -0.00267244 -0.00217557
-0.00722052 -0.00060908 -0.0152385
-0.000549356 0.00212223 0.000472976
0.00192435 -0.00387027 0.000135988
-0.000434982 0.000416399 -0.000321698
-0.000822726 -0.000218941 -0.000775732
0.0 0.0 0.0
0.0 0.0 0.0
-0.000255679 -1.32097e-05 -0.000728111
8.7207e-05 0.0110274 -0.00216344
-0.00913471 -0.00286949 0.00693489
-0.0363742 0.00632472 0.0171995
-0.00440698 -0.00180607 0.0122312
-0.00369113 0.0101211 -0.00902085
-0.00469046 0.00833003 0.0248525
-0.00644323 0.00103878 -0.00681034
0.00872887 0.00244624 -0.00280794
-0.00326104 0.0181377 0.0087242
-0.0175224 0.111426 0.00822587
0.00202487 0.000248769 -0.000157386
-0.000884392 -0.00170466 -0.00170491
0.00328553 -6.48305e-05 -0.0174969
0.000523458 6.11401e-06 -0.000494826
0.000832235 0.000228239 -0.00100323
0.00140424 -0.000403901 0.000645437
0.0 0.0 0.0
0.00184606 -0.00510931 0.00157841
0.000882863 -0.00102409 -0.000974679
0.00278174 0.00209972 0.00205675
-0.00221674 0.00284634 -0.000410756
0.00361612 -0.0134152 0.00312294
-0.0112797 0.0451209 0.0160714
-0.0402062 -0.0122707 0.0342986
-0.00359924 -0.00132485 0.00151423
-0.00263611 0.00880098 0.0224818
-0.0440908 -0.0207899 0.0267276
0.000746541 0.0 0.0
-0.0129119 -0.026994 -0.000881715
-0.0276039 -0.000563303 -0.00400008
-0.000832235 -0.000228239 0.00100323
0.00366704 -0.0147174 -0.000818607
0.00124177 -0.000492194 -0.00315929
0.00145409 0.000345178 -0.000686313
0.00787318 -0.0209871 0.00186267
0.00113521 -0.000245689 0.000277259
0.00252226 -0.00177673 0.00809626
0.0312771 -0.00650337 0.0124343
0.037266 -0.0190841 -0.0117344
3.52977e-05 0.00106768 0.000310895
0.00770485 0.00416611 -0.00538928
0.0 0.0 0.0
-0.0432967 0.00203793 -0.0100707
-0.00487376 0.00926278 0.0125476
0.000123083 0.000486732 0.000827682
-0.000796107 -0.00281737 -0.00124992
0.00168443 -0.00311386 -0.00530389
0.000124943 0.00244964 -0.000682979
0.0 0.0 0.0
0.0 0.0 0.0
-0.00183528 0.00507297 0.000781182
-0.0967064 0.00948872 0.0242784
0.0011905 -0.00151499 0.00163316
0.00206121 -0.00532909 -0.010033
-0.00116423 0.000420571 0.00206997
0.0 0.0 0.0
0.024687 0.00102258 -0.00412337
0.0 0.0 0.0
0.00358025 0.00561326 0.00448456
-0.000160826 0.00127824 0.00431427
0.00740786 0.000167235 -0.00504586
0.0330469 -0.0042055 0.023054
0.000601609 0.00101607 0.00208588
0.0104882 0.00364007 0.00318933
-0.00218673 0.0146033 0.00423411
0.0 0.000748627 0.0
0.0 0.0 0.0
0.0238752 -0.00960419 0.0528411
-0.0047937 -0.00280098 -0.00995229
-0.00282471 0.0066784 -0.0159345
-0.00496462 0.0234967 -0.000762356
-0.00677905 -0.00409515 0.00598673
0.0 0.0 0.0
0.00235834 -0.00167272 -0.000181815
-0.0221238 0.00449698 0.0259133
0.0068623 0.00831085 -0.0111034
-0.00368324 0.00225749 -0.00207221
-0.0290212 -0.000393163 0.00109194
0.0727806 0.0121971 -0.0346272
0.0013696 -0.000738709 -0.00155758
-0.00361639 0.00218456 0.0057398
-0.00061266 -7.68632e-05 -0.0162122
0.000178545 0.00938875 -0.00794437
-0.0102434 0.0515825 0.00907001
0.00629254 0.00170629 -0.00850389
-0.000935288 0.00175192 -0.00295838
0.0012661 -0.000263464 -3.3987e-05
0.0 0.0 0.0
-0.00557959 -0.00531966 -0.000354628
-0.0012661 0.000263464 3.3987e-05
0.00984529 -0.00578155 0.00716469
0.000671163 0.00036773 0.0019329
0.00244083 -0.000306158 0.000553411
0.00518632 0.028654 0.00980432
0.000409046 -0.00403464 -0.0032589
-0.0549561 -0.0594082 0.0147131
0.00259474 0.00345353 0.000706751
0.00022424 0.000542512 -0.000348488
0.0175041 -0.00304895 -0.0178106
0.00752271 -0.0056572 -0.0038268
-0.0336981 -0.0102351 0.0294497
-4.41443e-05 0.000546615 0.00198721
0.00757252 -0.00831725 -0.00697567
-0.00155195 -0.00173793 0.000362286
0.00345333 0.000108594 0.00463258
0.0458223 -0.0700337 -0.0267934
-8.41695e-05 0.00160184 -0.00330198
7.49906e-05 0.00791817 -0.00719613
0.00212796 0.00166281 4.39301e-05
0.0 0.0 0.0
0.0100474 0.000317902 -0.00607517
-0.00592651 -0.00151968 -0.00302601
0.0110146 0.00505674 -0.0115379
2.37059e-06 0.00327408 -1.5509e-05
-0.000952231 0.000385669 -0.000273974
-0.000343509 0.00594739 -0.0104757
-0.00648482 -0.00144332 0.0052314
0.0029557 -0.0403605 -0.00594822
-0.0114311 -0.0164609 -0.0171528
0.0294193 0.00686017 0.000372123
-0.000253857 0.000183466 -0.00063143
-0.0182035 0.00223854 -0.00408267
5.27891e-05 0.00160715 -0.000462824
-0.0112688 -0.00183797 0.01015
-0.00974943 0.0078797 0.0118054
0.0176011 -0.0118338 -0.0200314
-0.00844905 -0.00214633 -0.00110757
0.00632867 0.0148802 -0.010999
-0.000359133 -0.00191752 0.00105575
-0.0415157 0.070352 0.0562905
0.0573812 -0.00754697 -0.00396582
-0.0103801 0.00254091 0.00250141
-0.00116047 -6.87404e-05 0.00201104
0.00397222 -0.000502074 -0.00114955
0.00293887 -0.00702281 0.00419955
0.00200923 -0.00175281 -0.00115132
0.0629476 0.00938346 -0.0183345
0.022462 0.0626942 0.035787
-0.000904314 0.00210546 0.00486013
0.00953514 0.0197814 0.0145769
0.0 0.0 0.0
0.0004128 -0.00109786 0.00234669
0.0 0.0 0.0
0.00224116 -0.00179544 -0.0018044
-0.0134754 0.0138149 -0.0201295
0.000715615 -0.000500857 -6.29697e-05
0.00136595 -0.000797811 -6.97565e-05
0.0133837 0.0026896 0.00543836
0.011817 0.0130687 -0.0167892
-0.0221458 0.0246686 0.012088
0.0264819 -0.0149442 -0.0118538
0.0175212 -0.016523 -0.00576593
-0.0366826 -0.0137099 0.0144296
-0.0931207 -0.0528162 0.0478005
0.0274643 -0.00323357 -0.02606
-0.0105963 -0.000986798 0.00567303
-0.0587378 -0.0136199 -0.004493
0.025267 0.0182432 -0.00215161
0.0040686 -0.00178132 -0.00697385
-0.00035089 0.000120147 0.000334326
-0.000443362 0.00316659 0.00339904
0.0077488 -0.00483437 0.00891233
0.00108291 -0.00556709 -0.0161283
0.0 0.0 0.0
0.0092654 -0.00474286 0.00844712
-0.000672875 0.000431413 0.0010998
0.00313214 -0.0493673 0.0196785
-0.0206571 0.12882 -0.0793493
-0.000812585 0.00032822 0.00191349
0.0068529 -0.0239525 0.0103443
0.0100981 -0.0734193 -0.0114278
0.0 0.0 0.0
0.0481454 0.00123152 -0.011157
0.081934 -0.0726867 -0.0277489
-0.00101879 -0.00575429 0.00104755
0.0672244 -0.0181497 0.0512236
-0.00194114 -0.00193934 -0.00417116
-0.000470911 -0.00215188 -0.00311501
0.00151136 -5.1407e-05 -0.00234536
0.00520286 0.0163133 0.0442299
0.0 0.0 0.0
0.00505515 0.00472213 0.00141913
0.0 0.0 0.0
0.0231618 -0.0133118 0.0305683
-0.0307459 -0.0109044 0.010283
-0.0028581 -0.00355259 0.00216904
-0.008226 -0.010284 -0.0139134
0.0 0.0 0.0
0.0 0.0 0.0
-0.0158668 -0.0205555 0.0371396
0.00865537 0.00727972 -0.0177749
0.00995087 -0.0275326 -0.0524236
-8.02272e-06 -0.000744077 0.00078213
-0.00910617 0.00525025 0.000659353
-0.00146656 0.000196238 0.000518519
-0.0387141 0.0747932 0.0744541
0.00765865 -0.00450649 0.00834794
-0.0111284 0.00633 -0.0240752
-0.00107473 -0.0136051 -0.00536987
-0.00394078 -0.00470892 -0.000510517
0.0 0.0 0.0
-0.000772384 -0.000707825 -0.000808425
-0.00362322 -0.00521258 -0.00985344
0.00146234 -0.00531204 0.00114582
0.0252666 0.0140291 -0.0172838
0.00197974 -0.00894532 0.0121167
0.0 0.0 0.0
-0.010556 0.0251182 -0.0138597
0.0166419 -0.0283982 0.0176748
-0.00779962 0.0114475 -0.0269851
0.004644 -0.0539009 0.0211279
0.0159218 -0.00249432 -0.000923868
-0.0296462 0.00179391 0.00434653
0.0294017 -0.00964248 -0.0102169
0.0 0.0 0.0
0.0130786 0.00227211 0.0198457
0.000135233 0.00018122 0.00124316
0.0022407 -0.00415408 0.00133873
-0.000560977 -0.00435726 0.00755754
-0.00541732 -0.0103705 -0.0165049
-0.00222602 -0.0203625 -0.0201461
-0.00392193 0.00630752 -0.00835903
0.000166102 -0.00522492 0.00370749
0.000772384 0.000707825 0.000808425
0.0015333 0.00162129 -0.0130172
-0.00943747 0.00648616 -0.0474593
-0.0188263 0.00422309 -0.00137535
0.0371014 0.00105185 0.0807553
0.000732089 0.00176264 0.00050527
-9.39141e-05 -0.000131469 -0.00532277
-0.0253366 0.0365157 -0.0176141
-0.0014836 0.00219751 0.00149556
0.0157323 -0.0369445 -0.0118349
0.00133792 -0.0136835 -0.00428303
-0.0355548 0.0253905 0.016025
0.0943079 -0.00777087 -0.0231792
0.0252401 -0.0638399 0.0276287
-0.022774 0.0325591 -0.0265281
0.00471735 -0.000810337 0.00224397
0.000708093 -0.00358275 0.000301939
0.0 0.0 0.0
-0.00219746 -0.00337772 9.95958e-05
0.00134742 -0.0026797 -0.00168627
0.000222074 -0.0138366 -0.0303667
0.00393 -0.00192948 -0.000690606
-0.000190802 0.00458589 -0.00607848
0.00504776 0.0312132 -0.0157704
0.00704055 -0.0018129 -0.00134006
-0.00205762 0.00433653 0.00138716
0.0 0.0 0.0
0.0 0.0 0.0
0.00756041 -0.0196335 0.0125844
0.0100823 9.78317e-05 -0.00646137
0.0 0.0 0.0
-0.0126709 0.0114992 -0.00703973
-0.00240584 0.000302914 -0.000140309
-0.0444064 0.0245494 -0.0120602
0.00296473 0.0204943 0.00990998
0.005164 -0.132225 -0.00283849
0.00286046 -0.00204709 2.80051e-05
0.0 0.0 0.0
-0.173483 0.106313 0.0862753
0.00957192 0.0141434 0.0143186
-0.0192901 0.0157053 -0.0430409
0.0055217 0.0113951 0.0108261
-0.00255808 -0.00464201 -0.00392699
0.000354941 0.0302519 -0.0250658
1.90898e-06 -0.000248159 0.000549761
0.00465266 0.00798637 0.0058185
0.0 0.0 0.0
-0.000283301 -0.00236541 0.0236322
-0.0127503 0.0228908 -0.00867208
-0.0132063 -0.0300953 0.0153995
-0.001169 0.00270924 -0.000530467
0.020299 -0.00204732 -0.00777256
0.00153757 -0.00476118 -0.00384611
-0.00180679 -0.00891882 -0.00844099
-0.00137283 0.0081955 -0.0968355
-0.00108399 -0.000347742 0.000344421
0.00021061 0.000608751 -0.000991267
0.0 0.0 0.0
-0.00104626 0.00146908 -0.000983351
0.0 0.0 0.0
-0.0013468 -0.000720868 0.00088357
-0.00304313 -0.0205169 0.076265
-0.00214175 0.00968632 2.2041e-05
0.000485516 -0.0101975 0.00608204
0.000153832 -0.00204572 -0.00133332
0.0 0.0 -0.000748628
0.005781 0.0143422 -0.0312105
0.0 0.0 0.0
0.0 0.0 -0.000748607
-0.000181079 0.0007656 0.000568109
-0.000283289 -0.000366962 0.000739444
0.0 0.0 0.0
0.000671779 0.000589373 0.00107245
VECTORS omega float
-0.0983718 3.16999 0.864562
1.61143 2.92953 -0.235007
5.17462 2.07232 7.35001
0.0 0.0 0.0
3.86446 4.61588 -6.66451
-0.466746 4.6319 9.38136
0.943109 -0.563477 -1.15764
-0.422555 3.98411 3.05917
0.0 0.0 0.0
1.29276 -2.95132 -0.660858
-0.489686 0.600415 -0.277034
3.17473 -2.00633 4.30755
-0.896804 -0.284934 -1.37226
-0.0273546 4.50792 1.32402
-0.547838 -2.49668 -1.02114
1.82871 -1.31295 -0.327945
-1.62897 0.762774 -0.00977559
-2.72155 -0.50208 -1.40949
0.326339 0.0497069 -0.385147
-1.84425 -7.93181 -3.50932
-1.06222 -3.2885 -12.1
1.18071 0.834243 -3.35756
-3.08096 -0.441546 0.253293
0.474226 0.269878 -1.67976
-3.28612 0.232201 -0.695356
-1.43973 -1.64082 0.664718
-7.65176 -2.35609 2.5542
1.30472 -0.979644 -0.686462
0.0 0.0 0.0
2.28008 3.28461 -1.19924
-2.03329 -0.525319 -0.224108
-0.022569 -0.142193 0.772656
0.948816 0.211366 0.0121831
-1.59812 1.03416 -0.806759
2.75729 -0.257751 0.428988
-3.8756 0.21332 -1.82737
1.73923 -3.87043 2.41331
-0.230893 -1.90738 0.362342
5.71823 1.76695 -7.30846
1.66534 -0.826546 0.0126099
0.813577 0.345974 -0.255124
1.424 0.167028 1.46823
-2.00976 -6.60286 4.98092
1.27959 2.00781 0.562143
5.03265 -0.157251 1.80566
-1.38378 -3.27185 5.92763
-1.9647 2.47908 -2.98251
5.54118 -4.3883 6.66882
-1.14816 0.685019 1.78242
0.139822 -0.151215 2.1897
0.307655 -6.07006 1.80498
-1.11972 2.48487 -1.35265
0.298086 -2.03283 -0.805893
0.775776 -0.430733 -3.20413
4.56111 -2.41294 0.44428
-7.40954e-16 5.70763e-15 6.83843e-16
1.81821 1.11738 1.84815
0.0 0.0 0.0
-1.90028 -1.4055 2.43214
-1.23103 -0.845031 -0.262741
2.11913 4.63028 -1.44718
2.03212 -1.47165 4.3672
0.537076 0.132014 -0.487793
0.648533 -1.10073 -3.49873
0.412625 -2.98183 4.93878
-2.03744 -3.79467 -2.7406
-1.48448 0.0483173 0.080328
-3.37849 2.65221 -1.57565
0.0 0.0 0.0
-6.30734 2.07883 -0.0255491
1.29183 -0.37339 3.33594
-7.40954e-16 5.70763e-15 6.83843e-16
0.358879 0.366145 2.57489
-1.36126 4.41647 4.11333
4.11908 -6.64235 -6.64049
0.204431 0.834638 0.768736
-0.254795 -2.15092 -1.12649
1.32826 0.196399 -6.67237
-0.259371 1.95737 2.73648
-0.966892 -3.13635 -0.763096
-0.279224 0.0559582 0.0532964
0.885056 -2.46139 -1.59071
0.0 0.0 0.0
3.35092 0.244256 -2.06965
-1.26743 1.47162 3.86734
-1.56648 0.024555 0.218045
-0.783993 -2.70074 -0.622149
8.73556 -1.51808 4.2256
1.9377 2.06586 -0.0310937
-1.39021 -2.60554 -3.27154
-1.76699 -0.984998 -3.11371
1.09728 -4.16657 3.04224
0.0842205 0.966719 2.90484
2.0372 -0.268052 0.362976
-4.23496 -5.75101 -5.35474
-0.875081 -0.00187515 -0.591036
0.0 0.0 0.0
1.19786 2.34636 1.72891
0.987276 0.540306 2.07772
-0.305362 1.29861 -1.70006
0.358662 -2.54276 2.68569
-0.411748 2.8199 -0.757563
-2.82635 -2.93833 -1.37566
-1.03157 -3.50944 0.00461776
1.30422 8.03611 4.52426
0.206784 -0.28168 -0.0787462
0.0 0.0 0.0
0.0 0.0 0.0
0.324502 -2.2851 -0.71608
-1.79691 -2.03876 -0.446956
-2.7784 2.7927 1.45672
-2.26351 2.11018 -0.960429
1.61682 0.620496 -5.55734
0.2289 1.45266 3.38743
-3.18226 4.43537 -5.2235
2.54916 -2.55577 1.1953
7.92121 4.14694 1.60576
-5.05694 -2.39025 -0.628241
0.269081 -2.19134 -1.18263
2.30821 5.3886 3.77227
-0.636211 -0.712157 2.59285
-0.465495 4.78994 3.45527
-2.72662 0.540527 -4.53348
-2.07966 -0.634763 1.59367
3.6424 2.31847 3.09374
-1.19252 -2.31331 1.4628
3.30333 -1.14032 0.16492
-3.38407 -1.77571 -1.49052
0.0 0.0 0.0
0.0845812 -0.425122 -0.962135
-0.0954654 -0.366641 1.14291
7.68352 1.40647 10.0479
0.458101 0.425653 3.5145
-0.594645 3.82398 2.24836
-2.58318 3.83575 -7.09286
-0.181374 1.30337 -0.378758
-1.40839 -1.47598 3.36986
-2.84423 6.09845 1.79121
0.750629 -1.15229 1.74749
0.565567 -3.43052 -2.08807
-0.543211 1.58354 3.84116
-5.89184 2.10574 -4.11405
-3.16547 5.69483 -1.69803
7.20125 -2.36581 -2.17796
5.56128 -4.21057 3.66376
0.855526 1.49214 -1.8623
-1.99055 0.269957 -0.392612
-4.97115 -4.23976 -9.10138
2.09701 -1.68781 -5.65623
2.28494 -12.2602 -0.773201
-0.695144 -1.36229 -0.90629
-2.86998 2.133 0.329068
-2.74383 -5.18973 5.49381
-0.05365 -0.218534 -2.4724
-1.3307 -2.25796 -0.209566
1.71813 6.60808 -0.388679
2.08205 -5.45507 0.527211
5.6522 -0.457714 -11.0741
-4.28757 6.42205 -4.36435
-4.94117 7.28477 10.1677
0.898433 1.559 -3.98011
0.00666148 -1.2951 -1.6965
-0.1061 0.294131 0.157098
1.04435 -0.0585465 3.60621
-2.65433 -0.942651 -0.86946
3.113 4.80507 3.86956
1.85013 -1.49058 2.88476
-5.46128 -4.51214 -4.80253
0.48609 -1.17086 -1.97548
0.212618 11.0803 6.0683
0.409886 0.0873725 0.962839
0.268277 -2.53685 0.688696
1.24829 1.09258 -0.110572
-1.39398 2.09004 -1.26474
2.04931 5.65983 6.38984
-1.55618 -0.106335 -2.65292
-0.325921 -0.325888 8.15092e-05
-1.17582 6.10405 -1.18488
-0.641404 -3.43987 4.15497
-1.9587 -1.56403 -0.203793
2.89434 -2.4197 -0.691463
0.0 0.0 0.0
3.82001 3.25413 -2.69385
-4.32733 -6.1588 -1.30039
0.960945 3.14306 -1.32899
-2.79903 -6.02003 -2.04332
0.249291 -1.86133 -1.41781
-0.859524 -1.48453 -1.48114
-0.316193 -2.17261 -0.583934
-0.597995 3.76135 -0.496007
1.1 -2.76757 -1.7299
-0.0602342 2.44606 0.913208
1.24992 1.11791 0.268895
-0.902801 0.400418 -1.62563
2.7308 -1.01143 -0.700874
-0.731425 2.40521 -0.421519
-4.03874 1.51435 0.598476
0.323427 0.553764 0.0511165
-0.380322 0.944122 -0.545159
0.709293 2.45314 -0.436599
3.1612 -2.34916 -1.48277
-3.12065 -2.41829 -0.216393
2.39457 -2.78847 1.08881
-3.73499 -2.57772 2.23008
0.619822 0.530088 0.721279
-1.51193 0.140178 4.4927
0.657912 0.732572 0.117356
1.88632 -0.30494 -1.31599
-1.10162 -0.303005 -1.33507
-4.28356 -1.7941 3.40741
-1.35257 1.48939 -1.31358
-4.90731 -2.13436 2.88328
0.0 0.0 0.0
0.985567 2.06649 -0.239121
2.13758 -0.411127 7.89416
2.9359 -1.63312 -1.47408
-1.67459 -1.64881 -0.437651
-5.99229 -3.38815 -1.35785
0.190166 -2.43149 -4.30517
-0.324612 1.47024 -0.473836
-1.72207 -7.99632 -2.12313
-1.05143 -3.5779 0.9117
0.566627 -0.353721 -0.389009
0.0 0.0 0.0
1.68479 -0.377195 -2.9217
-0.1168 1.23455 1.30942
-0.764175 -5.90418 3.13965
-0.211315 -0.684014 -2.23681
2.54164 -5.6765 3.49249
0.901834 0.6567 1.39205
-1.91042 3.40103 1.19505
4.44572 1.18859 0.814608
2.32176 6.53958 0.573213
-2.77202 0.149738 -0.207311
-6.4023 -8.09462 0.335142
-3.41496 10.041 -1.88949
-1.98271 -2.24716 -2.67157
-3.98437 -2.82243 1.4185
-1.40072 -1.36133 0.622541
-0.971073 -1.28793 2.61469
-1.54285 0.265391 -0.291415
0.836637 0.821873 -1.72991
3.06422e-16 1.15527e-14 -1.04078e-14
2.01975 -0.655966 3.88153
2.91909 0.0777321 -2.81113
0.889922 -2.63199 3.40557
2.45383 0.280261 -1.17837
0.0 0.0 0.0
-1.53994 -0.975806 -0.508439
-0.237787 -2.97648 2.0826
0.936418 -2.76746 -1.48387
-3.8455 -7.63377 -5.51606
4.62745 8.41369 2.73028
0.300865 -4.35488 -2.27981
-1.08068 -0.705813 1.42936
0.380053 -3.26214 -0.955014
-3.39585 -3.79994 -0.345979
1.30798 2.44869 -0.39708
3.21239 5.73927 5.37748
-2.28262 2.66837 4.09588
1.45752 4.14853 0.496579
-1.18946 -4.7312 -5.34649
1.66094 -1.39632 1.08451
-2.14665 -2.59055 2.66229
3.06422e-16 1.15527e-14 -1.04078e-14
-0.712373 1.77584 -4.58934
1.58006 4.78022 -8.1313
-4.71828 4.26289 18.0207
-0.768507 1.55387 -5.60827
-6.54685 -0.0754232 -1.61431
-3.06373 -0.626479 0.110642
-5.04342 1.82151 2.99902
4.07635 3.22663 -6.22014
-0.444765 -2.53023 2.88066
-0.720015 0.935033 2.51854
1.01477 -0.342354 2.58321
1.59985 -0.0848034 -1.39262
-0.952727 7.0222 1.0687
0.780805 -1.68496 0.298838
-1.88537 -3.48621 0.297101
1.84652 1.49822 -5.40879
5.38782 0.455984 4.67378
1.62078 0.335953 4.75634
0.0696469 -7.75713 -2.94115
4.7089 0.65631 -1.08778
-11.5644 4.92653 -6.868
-4.80529 12.7171 6.69218
-2.71403 -5.35357 -8.11323
4.7724 0.795885 6.32948
0.418937 0.552784 0.00537692
1.3725 -1.17499 -0.748912
0.553323 0.709151 -1.39336
-0.762258 -3.70305 12.6285
-5.4209 12.4145 -3.83604
-1.64538 2.82308 5.48356
-5.25376 0.61082 -4.37622
-0.254212 2.2401 -3.69724
1.66697 -1.06933 1.40847
3.27773 2.39272 1.41705
4.44439 1.74519 -1.98456
3.53889 -3.87116 -1.05854
-2.41954 -1.54422 -0.655385
0.104877 0.276838 -0.178038
-3.84414 2.73793 -2.22619
-0.605768 3.10258 4.19913
-1.45354 -3.03947 -3.1585
-1.31577 -1.0273 3.01041
-6.93419 1.04849 0.299831
0.0659564 3.46574 -1.62663
2.54103 6.32706 -1.25435
1.31656 -0.272666 3.21057
-1.79884 0.446269 0.855289
-0.439091 2.5713 -1.15723
-0.349014 -0.592633 5.38497
-9.98163 -1.82836 1.1814
1.98348 3.02005 -3.45727
-6.09586 0.213336 2.61181
0.537538 -0.552549 -0.768853
-2.00629 -1.03918 3.01496
-0.500837 -1.13082 2.77299
-3.14823 -1.41351 -0.996589
3.05849 0.192003 2.60736
-0.105934 0.0525124 -1.12636
1.90274 0.0554408 -2.48363
-1.94211 0.22046 -3.04625
-11.8579 1.60969 0.257461
3.77688 5.90979 4.25841
0.313617 -4.06307 -4.72808
11.273 0.285838 -0.237418
0.0 0.0 0.0
1.47606 0.345304 -6.69249
0.0 0.0 0.0
0.0 0.0 0.0
7.69712 1.02674 -1.86505
3.28592 1.65429 1.88935
0.0 0.0 0.0
0.621576 0.126412 -0.441977
VECTORS v float
0.0221946 0.00101105 0.00337401
0.0257183 0.00663757 -0.00286208
0.0150127 -0.0311338 -0.0200926
0.0 0.0 0.00385122
0.0280458 -0.0221825 0.000228336
0.0284431 0.000516541 0.0128483
-0.00671129 -0.00465957 -0.00306966
0.0244089 0.00527122 -0.00988744
0.0 0.0 0.0
0.0106227 -0.0316167 -0.0157568
0.0196242 0.0142514 -0.0039587
-0.00660008 0.000851296 -0.0127921
-0.0286926 -0.00276474 -0.0204793
0.0211214 0.000164808 -0.000108575
0.00818088 0.00560862 -0.00297859
-0.0140377 -0.00955184 -0.00917053
0.00978959 0.0238581 -0.0261671
0.00755803 -0.0523522 -0.00301358
-0.0169886 0.00147388 -0.00817152
0.017168 0.00725848 0.00879065
0.0444578 0.00884549 0.0148667
-0.0206156 0.0165216 -0.03507
-0.0019758 0.00649647 0.00427595
-0.00128523 -0.00499985 -0.00554696
-0.00739413 0.00880029 -0.0334879
0.00235846 0.000348345 0.00461157
0.00425639 0.00316549 -0.0653672
0.00598135 0.0134526 -0.0115673
0.0 0.0 0.0
0.000699197 -0.025005 -0.0129369
0.00553178 -0.014657 -0.013691
0.0036779 0.0239033 -0.000261096
0.000276831 -0.00672525 -0.00895851
0.0109617 -0.0166525 -0.0200012
0.00125092 -0.00487167 -0.0159847
0.0162969 0.00275535 -0.0343686
0.0143671 -0.00513961 -0.0102238
-0.0320289 -0.000616354 -0.00858184
0.0263785 0.0114529 0.0308739
-0.00992846 -0.0158945 0.00730441
-0.000289116 -0.00147775 -0.00290441
0.00199109 0.00326734 0.0199011
0.049613 -0.00190095 0.0111828
-0.00176821 -0.000267997 0.0187579
0.00325733 0.0127875 -0.0108927
0.00770681 0.00112234 -0.00399372
0.0108292 0.00660028 -0.00718853
0.0194475 0.0143227 0.0131066
-0.00351016 0.00528002 -0.0309032
-0.00443114 -0.0164245 -0.0208904
0.0133377 -0.00423267 -0.0236185
0.0118847 0.022384 0.000596916
-0.0176748 -0.0191919 -0.000371201
-0.0248363 0.0129062 -0.0506534
-0.00694262 -0.000915674 -0.0295628
0.00241388 0.000662 -0.00290985
0.0098228 -0.00125806 -0.00658592
0.0 0.0 0.0
0.00124776 0.0138457 0.00757017
-0.00413484 -0.0163719 0.00147262
-0.00960787 -0.00435658 -0.0131
0.00556888 0.00255101 -0.031064
0.00509567 -0.0150753 0.00280289
-0.0109679 -0.00404394 -0.00660974
-0.00522572 -0.0277347 -0.00645965
-0.0129962 0.00530208 0.0258525
0.00629649 -0.00345874 -0.00567678
0.00869858 0.021988 -0.00542545
0.00384932 0.0 0.0
-0.0258495 0.0218438 -0.0213046
0.00287573 0.00367151 -0.0241791
-0.00241388 -0.000662 0.00290985
-0.0203387 -0.0247307 0.00913011
-0.0248063 0.0210259 -0.0233145
0.00748115 0.00781086 -0.0214514
0.0123071 -0.026035 0.00530018
0.0173468 -0.00159707 -0.000831237
0.00925716 0.000481451 0.0143719
0.0145737 -0.00486914 -0.00403777
0.0127047 -0.0173533 -0.0026367
0.00200346 0.00772975 0.00171351
-0.0060751 -0.0136142 -0.0278447
0.0 0.0 0.0
0.0194398 0.00344267 -0.0182023
-0.0193705 -0.00316783 -0.00302489
0.0044988 -0.00162997 0.0307575
0.00649327 0.00771859 -0.00534308
0.0127687 0.0042218 0.00839636
0.0164181 0.0179668 -0.00361378
0.00263956 0.00749489 -0.00682914
0.0380794 0.032834 -0.00828202
-0.0231197 0.0131476 -0.00349286
0.0372332 0.0198755 -0.030543
-3.89382e-06 0.0169897 -0.0185128
-0.00410138 0.0309319 -0.0343253
-0.0122282 -0.00999399 -0.0145087
0.0 0.0 0.0
-0.0078302 -0.00452696 -0.0183365
-0.00498141 0.000918204 0.00218114
-0.031502 -0.0141146 0.0101806
0.00533339 0.0152548 0.0144225
-0.00552255 -0.0022357 -0.00531019
-0.0115961 -0.00556035 0.0292662
0.0074178 -0.00235202 0.00435565
-0.00593046 0.00882328 0.0063591
-0.00516733 -0.00981319 -0.00703148
0.0 0.00385178 0.0
0.0 0.0 0.0
-0.022638 0.0154795 0.0118589
0.00173511 -0.0245245 0.00843595
0.00599972 -0.0264853 -0.00689011
0.0098137 -0.0148846 0.00549794
0.0332166 0.0160276 -0.0273903
0.00878146 -0.00166555 0.0001175
-0.0105445 0.0117119 -0.00203015
-0.00756437 -0.0187678 -0.0174956
-0.000186483 0.0218187 -0.0160122
0.0477563 0.0523008 -0.0237323
0.0110852 0.00751101 7.4829e-05
-0.001168 0.034094 -0.0179957
0.0188425 -0.0208891 -0.0440759
0.00120582 0.0124175 -0.00291102
0.00117535 0.0465044 -0.0324037
-0.0296729 0.0144166 -0.0175333
-0.0240955 0.0452429 -0.00656178
-0.0430688 0.00617132 -0.00433929
-0.013902 -0.0354319 0.0161894
0.00361778 -0.00568638 0.0237441
0.0 0.0 0.0
-0.016165 -0.019043 0.00734875
-0.00387376 -0.00139828 0.00736209
-0.0328158 0.0635506 0.0470111
-0.014138 0.0187195 0.0106106
0.0161966 -0.00538269 0.0151664
-0.0100913 0.0671373 0.0353498
-0.00126141 -0.00228791 -0.00210088
0.0209963 -0.0087654 -0.00702412
-0.0122067 -0.00351905 -0.0182404
0.0306665 0.0146755 0.00931505
0.0257574 0.0204423 -0.0028487
0.00638931 0.0196686 -0.0170135
0.0229462 0.0172821 -0.00963103
0.0291399 -0.00539143 -0.0264177
0.00215731 0.0089879 -0.0154058
-0.0386386 -0.015571 -0.0261832
-0.0128263 0.0263821 -0.01269
0.00519651 0.0158085 -0.0225658
-0.0453548 0.00251048 -0.0455182
-0.0197067 0.0259303 -0.0119581
-0.011314 -0.00433385 -0.0161454
-0.010532 0.0067229 -0.00203907
0.00632587 0.00316016 0.0032156
0.0223614 -0.0199374 -0.0166829
0.0273306 -0.0114618 0.0102676
0.00197698 0.0059688 -0.0125532
-0.0348064 0.00838911 -0.00989143
-0.0292641 0.0131183 -0.0280316
0.00196889 -0.0423954 0.028795
0.00975307 0.0376125 0.00367855
0.017704 -0.0365542 0.00472153
-0.0140421 -0.0342173 0.00263155
-0.0021231 0.00498285 0.00677895
0.0286531 -0.00170921 0.00609381
0.0115027 -0.00782117 -0.0211132
-0.00871288 0.029047 -0.0113539
-0.0081072 0.0162103 -0.000602083
0.0188124 0.0209573 -0.00260959
-0.00386558 0.0206609 -0.0188612
-0.0130517 0.00109639 -0.0175238
-0.0330946 0.0163727 -0.0187018
0.0119812 -0.00504389 -0.0169497
0.000837532 0.00507672 0.0110479
-0.000912534 -0.00153421 -0.00793001
0.00881346 0.00776513 -0.00822335
-0.0172045 0.0137103 0.0211793
0.0131391 -0.00886932 -0.00520013
-0.0039385 0.00393205 -0.00189808
-0.0111313 0.0101528 -0.0178709
0.0107295 -0.0118197 -0.00844259
-0.0169981 0.0248983 -0.0104838
-0.000633231 0.00213971 0.00355509
0.0 0.0 0.0
0.00926262 -0.0171847 -0.0191102
0.000682734 -0.00236371 0.0406632
-0.00223361 0.0369089 -0.00690841
0.0261455 0.0161373 -0.005154
0.0282061 -0.0109748 0.0194908
0.0204724 -0.0175274 -0.0204549
0.0148819 0.0337772 -0.00474261
0.028975 0.0062798 0.0151136
-0.000238211 -0.0112869 -0.013183
0.0371907 0.0827861 -0.0199664
0.00136777 -0.0172557 -0.0174196
0.00620776 -0.0166557 -0.00993669
-0.00273805 0.0141482 -0.00257278
0.000409118 -0.0074026 0.0102613
0.0148551 0.00429723 -0.0148324
0.00235872 0.0211477 -0.00526154
-0.00347778 0.00367356 0.00161659
-0.00500497 0.00241108 0.0262218
0.00303099 0.00495422 -0.00311277
-0.00943459 0.0111981 0.0104816
0.00561438 0.00665902 0.0155283
-0.021992 0.00291792 -0.0102331
-0.00821445 0.00380538 0.00425263
0.00909328 0.00309189 0.000425831
-0.00579528 0.0042236 0.00617036
-0.0130779 0.00797328 0.00465108
0.0598123 -0.0235033 0.0207963
0.0185879 -0.0150598 -0.0233726
0.00971329 -0.0236063 -0.0100579
-0.0189476 0.00614879 0.00132208
0.0 0.0 0.0
-0.0348983 -0.0284197 -0.00302498
-0.0111103 0.0198795 0.0152577
-0.0164805 -0.00564652 -0.00166685
0.00825362 -0.00588652 -0.00365875
-0.0130233 0.00833136 -0.0179864
-0.00510812 0.0172462 0.0113465
-0.00496699 -0.00120674 0.000941768
-0.0194073 -0.00162181 -0.0344565
0.00198374 -0.00279403 -0.00879622
-0.0352475 0.0264755 -0.00158789
0.0 0.0 0.0
0.0201595 -0.0102906 0.0170354
-0.0183941 -0.00443113 -0.0182427
-0.0317283 0.023012 -0.0103243
-0.0142606 0.0314195 0.00984072
0.0328246 -0.012862 0.0440864
0.0134692 0.00793477 -0.0111147
0.000664049 -0.0136671 0.00725188
-0.0369808 0.0338335 0.0151619
-0.00375629 0.0193715 0.0233479
0.00082665 0.00867982 -0.00511613
-0.0266678 0.0443458 0.0174015
-0.0130301 0.0393801 0.00112655
-0.00849709 0.0307578 0.0220468
-0.0244692 0.0480754 -0.0203893
-0.0106297 0.00589232 -0.011047
0.00044076 0.0252434 0.00415359
-0.00217097 -0.0104567 0.00105899
0.00184667 0.0148461 0.00359334
-0.0022403 -0.00205305 -0.00234484
-0.0286223 0.00553331 0.000246386
0.020262 0.00269749 0.00279829
-0.0445118 0.00219567 0.0198766
-0.0351541 0.0260226 0.0183099
0.0 0.0 0.0
-0.0265758 -0.00741181 0.0100108
0.0244897 0.0158384 0.0251887
0.00797722 -0.0149059 0.0274306
-0.0173912 0.00330865 -0.0247114
0.00995871 0.00776672 0.023722
-0.00209232 -0.00879836 -0.000813765
-0.0306067 0.0466668 0.0230348
-0.0200308 -0.000774049 0.0243865
-0.00372804 0.000433908 -0.0229097
-0.00305782 0.00460521 0.0193497
-0.0217026 0.0112869 0.0023848
-0.0281879 0.0465009 -0.00170081
0.00497323 0.012317 -0.0130205
-0.0314126 0.0148771 0.0138674
0.0212362 0.00736522 -0.0171972
0.00510343 -0.0232112 0.0291936
0.0022403 0.00205305 0.00234484
0.0509059 -0.0272745 -0.0215441
-0.0165348 -0.0814252 0.0129171
-0.00622683 -0.0303777 -0.0320121
0.0465925 -0.0256239 -0.00185685
0.00909722 -0.00168435 0.029618
-0.00169498 0.00699199 0.00598649
-0.0257796 0.0046423 0.00201162
-0.0303004 0.0179059 0.013185
-0.0135143 0.0179477 0.00683624
-0.00634309 0.00220776 0.0101262
-0.0373916 0.0448487 0.0190744
-0.0285775 0.0507559 0.0143592
0.000610126 0.0278877 -0.00217698
0.00396549 -0.00265384 -0.00349648
-0.0107045 0.00601248 0.000357767
-0.0021229 -0.0202526 -0.00534445
-0.00602086 0.00627506 0.0476173
-0.0188313 -0.0140482 0.00353184
-0.0154859 -0.0149522 -0.000361681
-0.0153162 -0.0392938 0.0333103
0.0105615 0.0151246 0.0070738
-0.0239039 0.00793215 0.0116236
0.005588 0.00859839 -0.0123375
0.0147275 0.0327842 0.013063
-0.065461 -0.013253 0.02535
-0.00173985 0.00812844 0.0032355
-0.00362775 0.00383504 0.000427236
0.0436853 -0.00395521 0.00904542
0.0609481 0.0449623 -0.0411039
0.0212996 0.00875882 0.00215076
-0.00575258 0.042469 0.00527176
0.0115009 -0.00497294 -0.0229494
-0.000942611 0.0126022 -0.0014493
-0.025894 0.0173795 0.041848
0.0215331 0.0307044 -0.027745
0.024642 0.00812246 0.000292439
0.004519 -0.00712836 9.09543e-05
-0.0510256 0.0365011 0.0266379
-0.00561677 0.0273643 0.0155631
-0.0407533 0.00585136 -0.00388845
0.0301746 0.00569392 -0.0139368
0.00298229 -0.0108987 -0.00481545
0.00482712 -0.0235629 0.0367615
-0.0406289 -0.0167907 0.0360372
-0.024314 -0.028533 0.0131744
0.00276706 0.00696644 0.0248558
-0.00258367 -0.0201505 -0.00731341
0.0203816 0.0285412 0.013554
0.0193529 0.0212076 -0.0244108
-0.00327957 0.0287266 0.0167328
-0.00903684 0.00341051 0.0131165
0.00281659 0.0260696 -0.0016243
-0.018569 0.00430799 0.0189366
0.0094108 -0.0021689 0.0136924
0.00520112 0.00379993 0.00262039
-0.00561111 0.0137265 0.000602428
-0.0129001 0.023777 0.0444044
-0.00582117 0.00864703 -0.00195911
-0.00506716 0.00993494 -0.0153947
-0.00548442 -0.0116712 0.00264893
-0.00438629 -0.0391335 0.0422637
-0.0342088 0.0229832 -0.00568023
0.0254371 0.0118908 -0.0114195
0.00028658 0.0207315 0.0137894
0.0 0.0 -0.00385178
-0.00367432 0.00499609 0.0112252
0.0 0.0 0.0
0.0 0.0 -0.00385185
-0.00498233 0.0412194 -0.00642069
-0.0108966 0.0130921 0.00746643
0.0 0.0 0.0
0.00232779 0.00452965 0.00455794
SCALARS radius float 1
LOOKUP_TABLE default
0.00590216
0.00590216
0.00590216
0.00590216
0.00590216
0.00590216
0.00590216
0.00590216
0.00590216
0.00590216
0.00590216
0.00590216
0.00590216
0.00590216
0.00944345
0.00944345
0.00944345
0.00944345
0.00590216
0.00590216
0.00590216
0.00944345
0.00944345
0.00944345
0.00590216
0.00590216
0.00590216
0.00944345
0.00590216
0.00590216
0.00944345
0.00944345
0.00944345
0.00944345
0.00590216
0.00590216
0.00590216
0.00590216
0.00590216
0.00590216
0.00590216
0.00944345
0.00590216
0.00944345
0.00590216
0.00590216
0.00944345
0.00590216
0.00944345
0.00590216
0.00944345
0.00590216
0.00590216
0.00944345
0.00590216
0.00590216
0.00590216
0.00590216
0.00590216
0.00944345
0.00590216
0.00590216
0.00944345
0.00944345
0.00944345
0.00590216
0.00944345
0.00944345
0.00590216
0.00944345
0.00944345
0.00590216
0.00944345
0.00590216
0.00590216
0.00944345
0.00590216
0.00590216
0.00944345
0.00944345
0.00590216
0.00944345
0.00590216
0.00590216
0.00590216
0.00590216
0.00944345
0.00590216
0.00590216
0.00590216
0.00590216
0.00590216
0.00944345
0.00944345
0.00590216
0.00590216
0.00590216
0.00944345
0.00590216
0.00590216
0.00590216
0.00590216
0.00944345
0.00590216
0.00590216
0.00590216
0.00590216
0.00590216
0.00944345
0.00944345
0.00590216
0.00590216
0.00944345
0.00590216
0.00590216
0.00944345
0.00590216
0.00590216
0.00944345
0.00944345
0.00944345
0.00590216
0.00590216
0.00944345
0.00944345
0.00944345
0.00590216
0.00590216
0.00590216
0.00590216
0.00590216
0.00590216
0.00590216
0.00590216
0.00944345
0.00944345
0.00944345
0.00590216
0.00590216
0.00944345
0.00944345
0.00590216
0.00590216
0.00590216
0.00590216
0.00590216
0.00944345
0.00590216
0.00590216
0.00590216
0.00590216
0.00590216
0.00590216
0.00944345
0.00944345
0.00590216
0.00590216
0.00590216
0.00590216
0.00590216
0.00944345
0.00590216
0.00944345
0.00590216
0.00590216
0.00590216
0.00590216
0.00590216
0.00944345
0.00590216
0.00944345
0.00944345
0.00590216
0.00590216
0.00590216
0.00590216
0.00590216
0.00944345
0.00590216
0.00590216
0.00590216
0.00590216
0.00590216
0.00590216
0.00590216
0.00590216
0.00590216
0.00590216
0.00944345
0.00944345
0.00944345
0.00944345
0.00944345
0.00944345
0.00944345
0.00944345
0.00590216
0.00944345
0.00944345
0.00590216
0.00590216
0.00590216
0.00590216
0.00590216
0.00590216
0.00590216
0.00590216
0.00944345
0.00944345
0.00590216
0.00944345
0.00944345
0.00590216
0.00590216
0.00944345
0.00590216
0.00944345
0.00590216
0.00590216
0.00590216
0.00590216
0.00590216
0.00944345
0.00590216
0.00944345
0.00944345
0.00590216
0.00944345
0.00590216
0.00944345
0.00944345
0.00944345
0.00944345
0.00590216
0.00590216
0.00590216
0.00944345
0.00944345
0.00944345
0.00590216
0.00590216
0.00590216
0.00590216
0.00944345
0.00944345
0.00590216
0.00590216
0.00590216
0.00590216
0.00944345
0.00944345
0.00944345
0.00590216
0.00944345
0.00944345
0.00590216
0.00590216
0.00590216
0.00590216
0.00944345
0.00590216
0.00590216
0.00590216
0.00590216
0.00590216
0.00590216
0.00590216
0.00590216
0.00944345
0.00590216
0.00590216
0.00944345
0.00590216
0.00944345
0.00590216
0.00590216
0.00944345
0.00590216
0.00944345
0.00590216
0.00590216
0.00590216
0.00944345
0.00590216
0.00944345
0.00590216
0.00590216
0.00944345
0.00944345
0.00944345
0.00590216
0.00590216
0.00590216
0.00590216
0.00590216
0.00944345
0.00590216
0.00944345
0.00944345
0.00944345
0.00590216
0.00590216
0.00944345
0.00944345
0.00944345
0.00944345
0.00944345
0.00944345
0.00590216
0.00590216
0.00590216
0.00944345
0.00944345
0.00944345
0.00590216
0.00944345
0.00944345
0.00944345
0.00944345
0.00590216
0.00590216
0.00590216
0.00590216
0.00590216
0.00590216
0.00590216
0.00590216
0.00590216
0.00590216
0.00590216
0.00590216
0.00590216
0.00590216
0.00590216
0.00590216
0.00590216
0.00590216
SCALARS type float 1
LOOKUP_TABLE default
1.0
1.0
1.0
1.0
1.0
1.0
1.0
1.0
1.0
1.0
1.0
1.0
1.0
1.0
1.0
1.0
1.0
1.0
1.0
1.0
1.0
1.0
1.0
1.0
1.0
1.0
1.0
1.0
1.0
1.0
1.0
1.0
1.0
1.0
1.0
1.0
1.0
1.0
1.0
1.0
1.0
1.0
1.0
1.0
1.0
1.0
1.0
1.0
1.0
1.0
1.0
1.0
1.0
1.0
1.0
1.0
1.0
1.0
1.0
1.0
1.0
1.0
1.0
1.0
1.0
1.0
1.0
1.0
1.0
1.0
1.0
1.0
1.0
1.0
1.0
1.0
1.0
1.0
1.0
1.0
1.0
1.0
1.0
1.0
1.0
1.0
1.0
1.0
1.0
1.0
1.0
1.0
1.0
1.0
1.0
1.0
1.0
1.0
1.0
1.0
1.0
1.0
1.0
1.0
1.0
1.0
1.0
1.0
1.0
1.0
1.0
1.0
1.0
1.0
1.0
1.0
1.0
1.0
1.0
1.0
1.0
1.0
1.0
1.0
1.0
1.0
1.0
1.0
1.0
1.0
1.0
1.0
1.0
1.0
1.0
1.0
1.0
1.0
1.0
1.0
1.0
1.0
1.0
1.0
1.0
1.0
1.0
1.0
1.0
1.0
1.0
1.0
1.0
1.0
1.0
1.0
1.0
1.0
1.0
1.0
1.0
1.0
1.0
1.0
1.0
1.0
1.0
1.0
1.0
1.0
1.0
1.0
1.0
1.0
1.0
1.0
1.0
1.0
1.0
1.0
1.0
1.0
1.0
1.0
1.0
1.0
1.0
1.0
1.0
1.0
1.0
1.0
1.0
1.0
1.0
1.0
1.0
1.0
1.0
1.0
1.0
1.0
1.0
1.0
1.0
1.0
1.0
1.0
1.0
1.0
1.0
1.0
1.0
1.0
1.0
1.0
1.0
1.0
1.0
1.0
1.0
1.0
1.0
1.0
1.0
1.0
1.0
1.0
1.0
1.0
1.0
1.0
1.0
1.0
1.0
1.0
1.0
1.0
1.0
1.0
1.0
1.0
1.0
1.0
1.0
1.0
1.0
1.0
1.0
1.0
1.0
1.0
1.0
1.0
1.0
1.0
1.0
1.0
1.0
1.0
1.0
1.0
1.0
1.0
1.0
1.0
1.0
1.0
1.0
1.0
1.0
1.0
1.0
1.0
1.0
1.0
1.0
1.0
1.0
1.0
1.0
1.0
1.0
1.0
1.0
1.0
1.0
1.0
1.0
1.0
1.0
1.0
1.0
1.0
1.0
1.0
1.0
1.0
1.0
1.0
1.0
1.0
1.0
1.0
1.0
1.0
1.0
1.0
1.0
1.0
1.0
1.0
1.0
1.0
1.0
1.0
1.0
1.0
1.0
1.0
1.0
1.0
1.0
1.0
1.0
1.0
1.0
1.0
1.0
1.0
1.0
1.0
1.0
1.0
1.0
1.0
1.0
SCALARS id float 1
LOOKUP_TABLE default
138.0
304.0
141.0
297.0
293.0
325.0
285.0
241.0
126.0
207.0
240.0
140.0
197.0
258.0
50.0
92.0
98.0
60.0
154.0
188.0
298.0
106.0
80.0
10.0
183.0
277.0
171.0
41.0
180.0
213.0
23.0
58.0
32.0
6.0
327.0
291.0
174.0
158.0
128.0
264.0
234.0
89.0
263.0
37.0
328.0
331.0
48.0
329.0
121.0
172.0
88.0
164.0
200.0
9.0
305.0
274.0
186.0
135.0
257.0
40.0
173.0
246.0
61.0
119.0
70.0
225.0
122.0
38.0
260.0
64.0
84.0
288.0
81.0
193.0
205.0
47.0
149.0
192.0
102.0
34.0
229.0
94.0
143.0
198.0
278.0
137.0
85.0
227.0
199.0
321.0
259.0
130.0
62.0
79.0
169.0
127.0
265.0
12.0
184.0
273.0
142.0
232.0
72.0
230.0
247.0
163.0
295.0
292.0
17.0
44.0
314.0
159.0
73.0
195.0
153.0
100.0
322.0
216.0
2.0
30.0
35.0
239.0
275.0
103.0
66.0
13.0
144.0
222.0
296.0
252.0
160.0
238.0
203.0
212.0
22.0
75.0
49.0
228.0
249.0
55.0
99.0
319.0
156.0
245.0
301.0
308.0
105.0
201.0
217.0
276.0
248.0
253.0
155.0
8.0
18.0
250.0
294.0
233.0
133.0
152.0
31.0
175.0
33.0
208.0
147.0
269.0
317.0
267.0
107.0
204.0
24.0
19.0
157.0
236.0
324.0
306.0
151.0
93.0
165.0
290.0
261.0
145.0
286.0
220.0
280.0
333.0
146.0
182.0
77.0
101.0
82.0
4.0
118.0
45.0
69.0
26.0
221.0
117.0
97.0
237.0
336.0
326.0
307.0
132.0
210.0
310.0
181.0
65.0
5.0
206.0
108.0
111.0
272.0
161.0
115.0
242.0
95.0
166.0
179.0
224.0
302.0
231.0
46.0
185.0
39.0
29.0
189.0
68.0
282.0
28.0
83.0
104.0
25.0
279.0
134.0
337.0
3.0
74.0
42.0
177.0
303.0
202.0
124.0
51.0
114.0
311.0
167.0
148.0
300.0
14.0
112.0
91.0
194.0
116.0
53.0
309.0
235.0
136.0
176.0
20.0
281.0
196.0
330.0
215.0
218.0
131.0
251.0
271.0
21.0
191.0
315.0
27.0
255.0
52.0
223.0
190.0
56.0
123.0
76.0
139.0
162.0
332.0
96.0
335.0
71.0
318.0
170.0
43.0
54.0
63.0
270.0
209.0
268.0
262.0
168.0
78.0
214.0
59.0
113.0
7.0
334.0
316.0
86.0
15.0
120.0
109.0
87.0
67.0
178.0
125.0
219.0
57.0
16.0
110.0
243.0
90.0
11.0
36.0
1.0
312.0
226.0
150.0
256.0
284.0
323.0
211.0
320.0
254.0
289.0
266.0
187.0
299.0
129.0
283.0
287.0
313.0
244.0

