# vtk DataFile Version 2.0
Generated by lpp.py
ASCII
DATASET POLYDATA
POINTS 337 float
-0.0292955 -0.0405009 0.00986005
-0.0126991 -0.0405619 0.00561196
0.0115779 -0.0445033 0.0121474
-0.0182387 -0.0272518 0.0057706
0.00477146 -0.035696 0.00559499
0.012644 -0.0252881 0.00994205
0.0264553 -0.0368889 0.0096759
0.0435635 -0.0369018 0.00660671
-0.0337372 -0.0209798 0.0103248
-0.00625925 -0.0183994 0.00555565
0.0366738 -0.0230596 0.00515129
-0.0403313 -0.00163196 0.00949561
-0.0174399 -0.00232818 0.00880312
0.0151977 -0.0123911 0.00581587
-0.0308722 0.0122017 0.00569427
-0.00562886 0.0108907 0.00660218
0.00530643 0.00153516 0.00533259
0.018042 0.000682208 0.006883
0.032025 0.0103776 0.00924123
-0.0441225 0.0147106 0.00667878
-0.0192562 0.0196338 0.00691896
-0.00448929 0.0246384 0.006852
0.0120676 0.01722 0.00943798
0.0441386 0.0214529 0.00605893
-0.0168835 0.0372608 0.009762
0.0152913 0.0342407 0.00570842
0.0301633 0.0307963 0.0121655
-0.0383566 0.040378 0.0096562
0.00470626 0.0418843 0.00542898
0.0430945 0.0429971 0.00683475
0.00226776 -0.044353 0.021437
0.0303615 -0.0446035 0.024556
-0.0423665 -0.033914 0.0225868
-0.00621809 -0.030593 0.0168411
0.0107314 -0.0350029 0.0207133
-0.0443512 -0.0135011 0.0212147
-0.0175505 -0.0178446 0.015751
0.0223553 -0.0239424 0.0249829
0.0442614 -0.0211287 0.0148557
-0.0122007 -0.00561667 0.0243394
0.00271741 -0.00963674 0.0170073
0.03087 -0.00979147 0.0126755
0.04407 -0.00457162 0.022374
-0.0419866 0.00802779 0.0226517
-0.0281392 0.00748661 0.0175615
-0.0121618 0.01151 0.0230495
0.00316197 0.00721881 0.0189568
0.0188626 0.00326077 0.0239766
0.0442346 0.00846583 0.022104
-0.0350543 0.0225671 0.0184159
0.0184363 0.0226314 0.0245243
0.0422035 0.0203169 0.0186081
0.00514642 0.0319787 0.0133158
-0.00268407 0.0444808 0.0153491
-0.0119198 0.044274 0.0246651
0.0115784 0.0435863 0.016726
0.0241929 0.0441299 0.0210725
0.0375584 0.04453 0.0193186
-0.0200833 -0.040242 0.0284839
-0.000228613 -0.034419 0.0357579
0.0410421 -0.032307 0.0269345
-0.0406076 -0.0208006 0.0369035
-0.014459 -0.0200013 0.0326563
0.0062374 -0.0234783 0.0250258
0.0129377 -0.0146328 0.0355146
0.0390802 -0.0159783 0.0259186
-0.0443771 -0.00544161 0.0313877
-0.0289443 -0.0073744 0.0255814
-0.000899245 -0.00518487 0.0367174
0.0290017 -0.00922922 0.0372529
0.0442 -0.000541441 0.0362235
0.0345877 0.00472066 0.0294719
-0.0275365 0.0132114 0.0295623
-0.00989823 0.0246352 0.0327869
0.00519467 0.0164019 0.0334696
0.0228552 0.0178286 0.0370012
0.0306598 0.0171548 0.0254905
0.0413944 0.0151687 0.0334106
-0.0441202 0.0315096 0.0290676
-0.0142207 0.0364057 0.0354577
0.00153073 0.0357523 0.0286438
0.0237011 0.0334883 0.0285123
0.0406691 0.0320114 0.030204
-0.0439206 0.0440719 0.0265095
-0.0279325 0.0398214 0.0275159
-0.0367406 -0.040513 0.0403751
-0.0127478 -0.0435245 0.0441342
0.00524013 -0.0447134 0.0468092
0.0190863 -0.0406037 0.0378501
0.0398412 -0.040014 0.0475693
-0.0262769 -0.0271798 0.0409662
-0.0100103 -0.0272223 0.0471818
0.0305094 -0.0292614 0.038914
0.00448626 -0.0200205 0.0447037
0.0416144 -0.0237514 0.042394
-0.0441974 -0.0067176 0.0447219
-0.0323596 -0.00530895 0.0485038
0.0443549 -0.0114876 0.0434683
-0.0401374 0.00855875 0.0392642
-0.0196612 0.00277444 0.040522
0.0133307 0.00344345 0.0396231
0.0337234 0.00771073 0.0473901
-0.0240362 0.023833 0.0418142
0.0158631 0.0126473 0.0486252
0.0447052 0.0199841 0.0455894
-0.0437837 0.0254322 0.0402545
0.0315386 0.0296445 0.0481164
-0.0390987 0.0375284 0.0403673
-0.0283186 0.044558 0.0433279
-0.00454193 0.0408596 0.048067
0.0155306 0.0408949 0.0417432
0.0315958 0.0442635 0.0398866
0.0440806 0.0439409 0.0414808
-0.0443264 -0.043965 0.0544365
-0.0336692 -0.0443624 0.0621883
-0.000578723 -0.0445421 0.0581914
0.0158374 -0.0404735 0.0589551
-0.0436438 -0.0310948 0.0560541
-0.0229194 -0.0345093 0.0552869
-0.008855 -0.0284746 0.0605645
4.47608e-05 -0.0333385 0.0525976
-0.0381197 -0.0156021 0.0605478
-0.0162267 -0.0134038 0.0535762
0.00487223 -0.0197965 0.062097
0.0219908 -0.0226999 0.0511724
0.0410426 -0.0219788 0.0593717
0.000420622 -0.00759192 0.052793
0.0169485 -0.00350364 0.0536871
0.0434617 -0.00555409 0.0551178
-0.0262072 0.00561382 0.0596372
-0.00137134 0.00861306 0.0516781
-0.0401566 0.0203777 0.0559824
-0.0204589 0.0215936 0.0581037
-0.00898433 0.0242139 0.050752
0.043766 0.0162824 0.0581034
-0.0442292 0.0357624 0.0609554
-0.0276723 0.0371331 0.0575869
-0.0116899 0.034388 0.0613089
0.00815698 0.0263804 0.0544534
-0.0436606 0.0437209 0.0507013
0.0145972 0.0416071 0.058379
0.0291081 0.0442102 0.0562594
0.0430869 0.0431068 0.0551972
-0.0446417 -0.0419523 0.0672448
-0.0126232 -0.0442597 0.0641507
-0.0239487 -0.0441711 0.0708592
0.0426621 -0.0425441 0.0653132
-0.0439331 -0.0250764 0.0741828
-0.0354233 -0.031853 0.0666683
-0.000460437 -0.0370338 0.0729159
0.0296936 -0.032927 0.0626362
-0.0164925 -0.0241888 0.0695983
0.0233004 -0.0231135 0.0701125
-0.0373578 -0.00300232 0.0723155
-0.020641 -0.00830348 0.0731052
-0.00652376 -0.00289297 0.0639073
0.0144351 -0.00829316 0.0697944
0.0311708 -0.0063304 0.0681797
-0.000846296 0.00945198 0.0721491
0.00811483 0.00451705 0.0652119
0.0438313 0.00455546 0.063032
-0.027662 0.0199689 0.0683063
-0.0140707 0.0248583 0.0686023
-0.0119091 0.0134475 0.062829
-0.00194686 0.0205771 0.0661824
0.0246303 0.0177782 0.0631002
0.040923 0.0300407 0.0672976
-0.0440054 0.0441611 0.070163
-0.0170023 0.043783 0.0690493
-0.0040422 0.0438583 0.0649866
0.00777406 0.0441964 0.0691513
0.0239854 0.0408251 0.0724216
-0.0376563 -0.0395607 0.0818696
-0.0138491 -0.0439154 0.079754
0.0113173 -0.0445313 0.0816454
0.0287468 -0.0405599 0.0769117
0.0443057 -0.0441416 0.0799985
-0.0236211 -0.0326863 0.075745
-0.0106736 -0.0295399 0.0835108
0.014769 -0.0320343 0.07735
0.0434994 -0.0309752 0.0767349
-0.0445258 -0.020209 0.0868507
-0.0360514 -0.0150178 0.0778787
-0.0324325 -0.0241368 0.0866036
-0.0210856 -0.0221327 0.0821305
-0.00524041 -0.0207676 0.0757348
-0.0117903 -0.0143296 0.0858827
0.00949053 -0.0207681 0.0775395
0.0432611 -0.0173776 0.0762524
0.00102132 -0.00553497 0.0794548
0.0209251 -0.0123737 0.0855278
-0.016071 0.0114598 0.0786978
0.0183068 0.0067449 0.078616
0.0404488 0.00823268 0.0792358
-0.0401805 0.0129298 0.0771975
0.0287295 0.0240567 0.0828185
-0.0332293 0.0330487 0.0765893
-0.012009 0.032059 0.0835094
0.00751872 0.0291352 0.0767409
0.0440856 0.031514 0.0842216
-0.0446297 0.0387469 0.0865826
-0.0223005 0.0447031 0.0809268
0.000927881 0.0437499 0.0837718
0.0401604 0.0436398 0.080376
-0.0440847 -0.0443697 0.0959174
-0.022865 -0.0443733 0.0887805
-0.00307506 -0.0408134 0.0909179
0.0381286 -0.0437317 0.0914629
-0.0202479 -0.0303091 0.0969886
0.011468 -0.0350302 0.0896641
0.0336656 -0.0269836 0.0910754
-0.0381086 -0.012687 0.0946143
0.00150995 -0.0221852 0.0921737
-0.0274365 -0.000627884 0.0908111
-0.00192544 -0.000497188 0.0969505
0.0405057 -0.00811457 0.0910375
-0.0441642 0.00100978 0.0892479
0.0210987 0.0034074 0.0989216
-0.0445018 0.0201175 0.0921638
-0.0280916 0.020849 0.0923235
0.00194682 0.0129988 0.0887423
0.0444567 0.0174293 0.0929458
-0.0435168 0.0311983 0.0983141
-0.00386383 0.0258115 0.0967923
0.0141591 0.0277253 0.0966434
-0.0435637 0.044092 0.0978299
-0.0331634 0.0441448 0.0890242
0.0132411 0.043673 0.0899062
0.0303548 0.0408575 0.0946015
-0.0444395 -0.043351 0.10857
-0.0280107 -0.0437936 0.104301
-0.00704732 -0.0404763 0.108652
0.00930058 -0.0441295 0.11064
0.0221293 -0.0407782 0.100425
0.0411374 -0.0376541 0.107228
-0.0403711 -0.0289335 0.100962
0.00738853 -0.0333967 0.102696
0.0235978 -0.0274847 0.112006
-0.0283666 -0.0173413 0.103544
-0.0023803 -0.0243433 0.108667
0.0221672 -0.0175677 0.102594
0.038597 -0.0175204 0.10985
-0.0408894 -0.0102211 0.111303
-0.0267777 -0.00220358 0.107546
-0.0128976 -0.0116132 0.102796
0.00717364 -0.00945836 0.108109
-0.0404361 0.00897533 0.104232
-0.0146437 0.00883888 0.104186
0.0406287 0.00336749 0.108111
-0.0294781 0.023735 0.109236
0.00255039 0.0175839 0.1099
0.0186364 0.0146115 0.110768
0.0323034 0.021777 0.103141
-0.0438827 0.0290679 0.1114
-0.0334618 0.0367209 0.110314
-0.0151758 0.0250703 0.101211
0.0447968 0.0308266 0.109979
-0.0438323 0.0438708 0.110396
-0.0211919 0.0404717 0.100116
-0.000125004 0.0407684 0.101922
0.0165454 0.0436908 0.104759
0.035792 0.0395431 0.11041
-0.0368389 -0.0402185 0.122676
0.00288468 -0.0431582 0.12153
0.0284594 -0.0445622 0.114919
0.0360314 -0.0441803 0.124694
-0.0221783 -0.0364296 0.115497
-0.0151508 -0.0255863 0.113114
0.00782315 -0.0304608 0.115576
0.0440358 -0.0344687 0.123142
-0.0314493 -0.0246379 0.114502
-0.00655337 -0.0170028 0.118287
0.0248046 -0.0212954 0.123929
-0.0226572 -0.0116193 0.121272
0.00251155 -0.0102175 0.124043
0.024376 -0.00474923 0.118044
-0.0368277 0.000895808 0.123521
-0.0186388 0.010868 0.124259
-0.00294962 0.00207489 0.117597
0.0115169 0.00610212 0.11756
-0.0389683 0.0176685 0.122711
0.0304789 0.014894 0.122685
0.0445808 0.0185776 0.114162
-0.028337 0.0304744 0.120665
-0.0127562 0.0307042 0.116756
0.0210805 0.0263059 0.11519
0.0398407 0.0345721 0.122344
-0.00324555 0.0443216 0.118122
0.0228166 0.0410569 0.120722
-0.0239561 -0.0446159 0.13131
-0.00833351 -0.0404432 0.133069
0.0179833 -0.0401592 0.126935
-0.0139749 -0.0254139 0.126842
-0.0406293 -0.0210951 0.128488
0.00417945 -0.0246388 0.13158
0.0152451 -0.0129152 0.128972
0.0402584 -0.0209678 0.132633
-0.0406488 -0.00558875 0.134703
-0.00818201 -0.0123314 0.130161
0.0101935 -0.00115962 0.127669
0.0412692 -0.00148679 0.128553
-0.00309934 0.0023093 0.136805
-2.90031e-05 0.021566 0.129864
0.0446845 0.0172433 0.129991
0.0198136 0.0263063 0.135046
0.037424 0.0296003 0.134699
-0.0399381 0.0403725 0.126154
-0.0211369 0.0429999 0.127174
0.00533799 0.041123 0.131849
0.0351526 0.0429443 0.132949
-0.0406532 -0.0411468 0.141948
0.00627366 -0.0401246 0.142793
0.0191553 -0.0434805 0.143751
0.0392228 -0.0400429 0.140273
-0.025187 -0.0302694 0.140058
-0.0063401 -0.0279402 0.144358
0.0222511 -0.0259429 0.140706
-0.0442031 -0.0240754 0.144267
-0.0342564 -0.0164132 0.143749
-0.00400364 -0.0147755 0.143338
-0.0199642 -0.00858257 0.141303
0.0276268 -0.0106436 0.144831
0.0422128 -0.00604137 0.144383
-0.0321776 0.0078806 0.139971
0.0225856 0.00273703 0.137574
0.0392988 0.00805627 0.143346
-0.000551453 0.0172107 0.145078
0.0146155 0.0144954 0.145154
0.0432547 0.0210865 0.14335
-0.0400571 0.0266603 0.140974
-0.0188292 0.0255342 0.139699
-0.00673545 0.0373874 0.143549
0.00667607 0.030341 0.144673
-0.0433633 0.0434893 0.143422
-0.0281448 0.0426932 0.139869
0.0226428 0.0426069 0.142796
0.0433594 0.0432755 0.143359
VERTICES 337 674
1 0
1 1
1 2
1 3
1 4
1 5
1 6
1 7
1 8
1 9
1 10
1 11
1 12
1 13
1 14
1 15
1 16
1 17
1 18
1 19
1 20
1 21
1 22
1 23
1 24
1 25
1 26
1 27
1 28
1 29
1 30
1 31
1 32
1 33
1 34
1 35
1 36
1 37
1 38
1 39
1 40
1 41
1 42
1 43
1 44
1 45
1 46
1 47
1 48
1 49
1 50
1 51
1 52
1 53
1 54
1 55
1 56
1 57
1 58
1 59
1 60
1 61
1 62
1 63
1 64
1 65
1 66
1 67
1 68
1 69
1 70
1 71
1 72
1 73
1 74
1 75
1 76
1 77
1 78
1 79
1 80
1 81
1 82
1 83
1 84
1 85
1 86
1 87
1 88
1 89
1 90
1 91
1 92
1 93
1 94
1 95
1 96
1 97
1 98
1 99
1 100
1 101
1 102
1 103
1 104
1 105
1 106
1 107
1 108
1 109
1 110
1 111
1 112
1 113
1 114
1 115
1 116
1 117
1 118
1 119
1 120
1 121
1 122
1 123
1 124
1 125
1 126
1 127
1 128
1 129
1 130
1 131
1 132
1 133
1 134
1 135
1 136
1 137
1 138
1 139
1 140
1 141
1 142
1 143
1 144
1 145
1 146
1 147
1 148
1 149
1 150
1 151
1 152
1 153
1 154
1 155
1 156
1 157
1 158
1 159
1 160
1 161
1 162
1 163
1 164
1 165
1 166
1 167
1 168
1 169
1 170
1 171
1 172
1 173
1 174
1 175
1 176
1 177
1 178
1 179
1 180
1 181
1 182
1 183
1 184
1 185
1 186
1 187
1 188
1 189
1 190
1 191
1 192
1 193
1 194
1 195
1 196
1 197
1 198
1 199
1 200
1 201
1 202
1 203
1 204
1 205
1 206
1 207
1 208
1 209
1 210
1 211
1 212
1 213
1 214
1 215
1 216
1 217
1 218
1 219
1 220
1 221
1 222
1 223
1 224
1 225
1 226
1 227
1 228
1 229
1 230
1 231
1 232
1 233
1 234
1 235
1 236
1 237
1 238
1 239
1 240
1 241
1 242
1 243
1 244
1 245
1 246
1 247
1 248
1 249
1 250
1 251
1 252
1 253
1 254
1 255
1 256
1 257
1 258
1 259
1 260
1 261
1 262
1 263
1 264
1 265
1 266
1 267
1 268
1 269
1 270
1 271
1 272
1 273
1 274
1 275
1 276
1 277
1 278
1 279
1 280
1 281
1 282
1 283
1 284
1 285
1 286
1 287
1 288
1 289
1 290
1 291
1 292
1 293
1 294
1 295
1 296
1 297
1 298
1 299
1 300
1 301
1 302
1 303
1 304
1 305
1 306
1 307
1 308
1 309
1 310
1 311
1 312
1 313
1 314
1 315
1 316
1 317
1 318
1 319
1 320
1 321
1 322
1 323
1 324
1 325
1 326
1 327
1 328
1 329
1 330
1 331
1 332
1 333
1 334
1 335
1 336
POINT_DATA 337
VECTORS i float
0.0 0.0 0.0
0.0 0.0 0.0
0.0 0.0 0.0
0.0 0.0 0.0
0.0 0.0 0.0
0.0 0.0 0.0
0.0 0.0 0.0
0.0 0.0 0.0
0.0 0.0 0.0
0.0 0.0 0.0
0.0 0.0 0.0
0.0 0.0 0.0
0.0 0.0 0.0
0.0 0.0 0.0
0.0 0.0 0.0
0.0 0.0 0.0
0.0 0.0 0.0
0.0 0.0 0.0
0.0 0.0 0.0
0.0 0.0 0.0
0.0 0.0 0.0
0.0 0.0 0.0
0.0 0.0 0.0
0.0 0.0 0.0
0.0 0.0 0.0
0.0 0.0 0.0
0.0 0.0 0.0
0.0 0.0 0.0
0.0 0.0 0.0
0.0 0.0 0.0
0.0 0.0 0.0
0.0 0.0 0.0
0.0 0.0 0.0
0.0 0.0 0.0
0.0 0.0 0.0
0.0 0.0 0.0
0.0 0.0 0.0
0.0 0.0 0.0
0.0 0.0 0.0
0.0 0.0 0.0
0.0 0.0 0.0
0.0 0.0 0.0
0.0 0.0 0.0
0.0 0.0 0.0
0.0 0.0 0.0
0.0 0.0 0.0
0.0 0.0 0.0
0.0 0.0 0.0
0.0 0.0 0.0
0.0 0.0 0.0
0.0 0.0 0.0
0.0 0.0 0.0
0.0 0.0 0.0
0.0 0.0 0.0
0.0 0.0 0.0
0.0 0.0 0.0
0.0 0.0 0.0
0.0 0.0 0.0
0.0 0.0 0.0
0.0 0.0 0.0
0.0 0.0 0.0
0.0 0.0 0.0
0.0 0.0 0.0
0.0 0.0 0.0
0.0 0.0 0.0
0.0 0.0 0.0
0.0 0.0 0.0
0.0 0.0 0.0
0.0 0.0 0.0
0.0 0.0 0.0
0.0 0.0 0.0
0.0 0.0 0.0
0.0 0.0 0.0
0.0 0.0 0.0
0.0 0.0 0.0
0.0 0.0 0.0
0.0 0.0 0.0
0.0 0.0 0.0
0.0 0.0 0.0
0.0 0.0 0.0
0.0 0.0 0.0
0.0 0.0 0.0
0.0 0.0 0.0
0.0 0.0 0.0
0.0 0.0 0.0
0.0 0.0 0.0
0.0 0.0 0.0
0.0 0.0 0.0
0.0 0.0 0.0
0.0 0.0 0.0
0.0 0.0 0.0
0.0 0.0 0.0
0.0 0.0 0.0
0.0 0.0 0.0
0.0 0.0 0.0
0.0 0.0 0.0
0.0 0.0 0.0
0.0 0.0 0.0
0.0 0.0 0.0
0.0 0.0 0.0
0.0 0.0 0.0
0.0 0.0 0.0
0.0 0.0 0.0
0.0 0.0 0.0
0.0 0.0 0.0
0.0 0.0 0.0
0.0 0.0 0.0
0.0 0.0 0.0
0.0 0.0 0.0
0.0 0.0 0.0
0.0 0.0 0.0
0.0 0.0 0.0
0.0 0.0 0.0
0.0 0.0 0.0
0.0 0.0 0.0
0.0 0.0 0.0
0.0 0.0 0.0
0.0 0.0 0.0
0.0 0.0 0.0
0.0 0.0 0.0
0.0 0.0 0.0
0.0 0.0 0.0
0.0 0.0 0.0
0.0 0.0 0.0
0.0 0.0 0.0
0.0 0.0 0.0
0.0 0.0 0.0
0.0 0.0 0.0
0.0 0.0 0.0
0.0 0.0 0.0
0.0 0.0 0.0
0.0 0.0 0.0
0.0 0.0 0.0
0.0 0.0 0.0
0.0 0.0 0.0
0.0 0.0 0.0
0.0 0.0 0.0
0.0 0.0 0.0
0.0 0.0 0.0
0.0 0.0 0.0
0.0 0.0 0.0
0.0 0.0 0.0
0.0 0.0 0.0
0.0 0.0 0.0
0.0 0.0 0.0
0.0 0.0 0.0
0.0 0.0 0.0
0.0 0.0 0.0
0.0 0.0 0.0
0.0 0.0 0.0
0.0 0.0 0.0
0.0 0.0 0.0
0.0 0.0 0.0
0.0 0.0 0.0
0.0 0.0 0.0
0.0 0.0 0.0
0.0 0.0 0.0
0.0 0.0 0.0
0.0 0.0 0.0
0.0 0.0 0.0
0.0 0.0 0.0
0.0 0.0 0.0
0.0 0.0 0.0
0.0 0.0 0.0
0.0 0.0 0.0
0.0 0.0 0.0
0.0 0.0 0.0
0.0 0.0 0.0
0.0 0.0 0.0
0.0 0.0 0.0
0.0 0.0 0.0
0.0 0.0 0.0
0.0 0.0 0.0
0.0 0.0 0.0
0.0 0.0 0.0
0.0 0.0 0.0
0.0 0.0 0.0
0.0 0.0 0.0
0.0 0.0 0.0
0.0 0.0 0.0
0.0 0.0 0.0
0.0 0.0 0.0
0.0 0.0 0.0
0.0 0.0 0.0
0.0 0.0 0.0
0.0 0.0 0.0
0.0 0.0 0.0
0.0 0.0 0.0
0.0 0.0 0.0
0.0 0.0 0.0
0.0 0.0 0.0
0.0 0.0 0.0
0.0 0.0 0.0
0.0 0.0 0.0
0.0 0.0 0.0
0.0 0.0 0.0
0.0 0.0 0.0
0.0 0.0 0.0
0.0 0.0 0.0
0.0 0.0 0.0
0.0 0.0 0.0
0.0 0.0 0.0
0.0 0.0 0.0
0.0 0.0 0.0
0.0 0.0 0.0
0.0 0.0 0.0
0.0 0.0 0.0
0.0 0.0 0.0
0.0 0.0 0.0
0.0 0.0 0.0
0.0 0.0 0.0
0.0 0.0 0.0
0.0 0.0 0.0
0.0 0.0 0.0
0.0 0.0 0.0
0.0 0.0 0.0
0.0 0.0 0.0
0.0 0.0 0.0
0.0 0.0 0.0
0.0 0.0 0.0
0.0 0.0 0.0
0.0 0.0 0.0
0.0 0.0 0.0
0.0 0.0 0.0
0.0 0.0 0.0
0.0 0.0 0.0
0.0 0.0 0.0
0.0 0.0 0.0
0.0 0.0 0.0
0.0 0.0 0.0
0.0 0.0 0.0
0.0 0.0 0.0
0.0 0.0 0.0
0.0 0.0 0.0
0.0 0.0 0.0
0.0 0.0 0.0
0.0 0.0 0.0
0.0 0.0 0.0
0.0 0.0 0.0
0.0 0.0 0.0
0.0 0.0 0.0
0.0 0.0 0.0
0.0 0.0 0.0
0.0 0.0 0.0
0.0 0.0 0.0
0.0 0.0 0.0
0.0 0.0 0.0
0.0 0.0 0.0
0.0 0.0 0.0
0.0 0.0 0.0
0.0 0.0 0.0
0.0 0.0 0.0
0.0 0.0 0.0
0.0 0.0 0.0
0.0 0.0 0.0
0.0 0.0 0.0
0.0 0.0 0.0
0.0 0.0 0.0
0.0 0.0 0.0
0.0 0.0 0.0
0.0 0.0 0.0
0.0 0.0 0.0
0.0 0.0 0.0
0.0 0.0 0.0
0.0 0.0 0.0
0.0 0.0 0.0
0.0 0.0 0.0
0.0 0.0 0.0
0.0 0.0 0.0
0.0 0.0 0.0
0.0 0.0 0.0
0.0 0.0 0.0
0.0 0.0 0.0
0.0 0.0 0.0
0.0 0.0 0.0
0.0 0.0 0.0
0.0 0.0 0.0
0.0 0.0 0.0
0.0 0.0 0.0
0.0 0.0 0.0
0.0 0.0 0.0
0.0 0.0 0.0
0.0 0.0 0.0
0.0 0.0 0.0
0.0 0.0 0.0
0.0 0.0 0.0
0.0 0.0 0.0
0.0 0.0 0.0
0.0 0.0 0.0
0.0 0.0 0.0
0.0 0.0 0.0
0.0 0.0 0.0
0.0 0.0 0.0
0.0 0.0 0.0
0.0 0.0 0.0
0.0 0.0 0.0
0.0 0.0 0.0
0.0 0.0 0.0
0.0 0.0 0.0
0.0 0.0 0.0
0.0 0.0 0.0
0.0 0.0 0.0
0.0 0.0 0.0
0.0 0.0 0.0
0.0 0.0 0.0
0.0 0.0 0.0
0.0 0.0 0.0
0.0 0.0 0.0
0.0 0.0 0.0
0.0 0.0 0.0
0.0 0.0 0.0
0.0 0.0 0.0
0.0 0.0 0.0
0.0 0.0 0.0
0.0 0.0 0.0
0.0 0.0 0.0
0.0 0.0 0.0
0.0 0.0 0.0
0.0 0.0 0.0
0.0 0.0 0.0
0.0 0.0 0.0
0.0 0.0 0.0
0.0 0.0 0.0
0.0 0.0 0.0
0.0 0.0 0.0
0.0 0.0 0.0
0.0 0.0 0.0
0.0 0.0 0.0
0.0 0.0 0.0
0.0 0.0 0.0
0.0 0.0 0.0
0.0 0.0 0.0
0.0 0.0 0.0
0.0 0.0 0.0
0.0 0.0 0.0
0.0 0.0 0.0
0.0 0.0 0.0
VECTORS f float
3.43728e-05 -3.30411e-05 -8.07698e-06
7.47084e-06 -3.82094e-05 -9.65539e-07
2.5163e-05 -2.04325e-05 -4.30175e-07
1.58724e-05 -2.8036e-05 5.06303e-07
2.83112e-05 -2.55729e-05 6.99767e-06
2.39827e-05 -3.72062e-05 2.38668e-05
9.7337e-05 -0.000123429 3.13508e-05
6.93875e-06 -8.36591e-07 -7.91178e-06
7.4714e-06 -5.70149e-05 -5.69834e-05
3.07411e-05 -5.21988e-05 1.1615e-05
2.66076e-06 -2.18072e-05 7.39026e-06
-4.29368e-06 -3.59306e-05 -5.75472e-05
1.42942e-05 -0.000118447 -3.03882e-05
1.75668e-05 -3.77589e-05 1.67615e-05
3.44772e-06 -1.05585e-05 -1.07564e-05
-3.2938e-08 -2.3192e-05 -1.38238e-07
4.33233e-06 -4.23604e-05 1.96309e-05
5.4622e-06 -4.49548e-05 3.05947e-05
-1.08729e-05 -0.000175004 0.000125428
2.43659e-06 -6.74639e-06 -9.92093e-06
-3.40428e-06 -7.49994e-06 -3.13234e-06
-6.33848e-07 -1.83229e-05 1.20577e-06
1.03495e-05 -0.000180893 0.0001247
-5.77391e-06 -2.405e-05 1.87469e-05
-7.91526e-06 -1.36245e-05 -2.43309e-05
-6.40479e-07 -2.84715e-05 1.30517e-05
-3.52164e-05 -0.00017626 8.43312e-05
-5.14984e-06 -1.3755e-05 -4.54888e-05
6.83628e-07 -1.77417e-05 3.19211e-06
3.35581e-06 -2.4936e-05 7.9563e-06
1.74896e-05 -2.62153e-05 1.79263e-05
2.82791e-05 -2.80208e-05 -1.24655e-05
0.0 0.0 0.0
0.000100658 -0.000231127 7.59644e-05
2.39477e-05 -5.4937e-05 3.07319e-05
-1.30832e-05 -4.75081e-06 -2.16129e-05
1.47922e-05 -4.22347e-05 -1.14332e-05
0.000102792 -0.000299062 0.000175174
6.27399e-06 -1.96953e-05 3.92745e-06
-2.88462e-06 -6.54885e-05 1.65784e-07
0.000102214 -0.000341943 9.61188e-05
9.122e-06 -0.000209234 0.000152143
7.46005e-06 -3.55657e-05 1.46825e-05
-4.09344e-06 -1.27207e-05 -1.77081e-05
2.09867e-06 -2.49122e-05 -1.0479e-05
-1.29732e-05 -0.000215937 2.48927e-06
-3.9549e-06 -6.71822e-05 2.00716e-05
-5.71212e-05 -0.000331803 0.000190589
-1.03913e-05 -4.99592e-05 1.81354e-05
-1.35604e-05 -4.85652e-05 -8.75884e-05
-4.67802e-06 -6.60437e-05 5.01071e-05
-1.14609e-05 -4.53226e-05 3.08556e-05
-2.89527e-06 -3.7703e-05 6.20441e-06
-5.12621e-06 -1.54319e-05 -2.91868e-06
-7.10861e-06 -1.51262e-05 -4.26363e-06
-6.37036e-06 -2.20498e-05 1.96318e-06
-5.10239e-06 -2.15054e-05 4.24803e-06
-6.47257e-06 -2.277e-05 8.35923e-06
5.10244e-05 -0.000135701 -4.4674e-06
4.05203e-05 -9.2436e-05 0.000175184
0.000126068 -0.000166704 -0.000137073
-6.37454e-05 -0.000146686 -0.000288739
-8.13878e-05 -0.00022257 3.72019e-06
2.39245e-05 -5.90438e-05 3.99369e-05
-5.10226e-06 -0.000124282 5.0588e-05
1.36853e-05 -5.16805e-05 1.77896e-05
-5.06147e-06 -1.11236e-05 -1.3599e-05
-4.84089e-05 -0.000136214 -8.36743e-05
-8.3576e-05 -0.00037534 0.000116986
0.000111016 -0.000503165 0.000192144
-1.57037e-06 -5.0839e-05 5.39293e-05
-1.21043e-05 -0.000101676 4.55257e-05
-1.01064e-05 -2.63258e-05 -1.35631e-05
-1.69239e-05 -3.91958e-05 -2.58946e-06
-8.8616e-05 -0.000305891 0.000116376
0.0 0.0 0.0
-3.94798e-06 -7.95254e-05 4.93396e-05
-1.82073e-06 -8.16801e-05 1.74289e-05
-3.72063e-06 -1.31241e-05 -1.81465e-05
-1.78262e-05 -2.33993e-05 -1.19702e-05
-4.7569e-05 -0.000156 -2.45896e-05
-7.21031e-06 -3.33385e-05 1.42359e-05
-3.80126e-05 -0.000132336 4.04384e-05
-3.69565e-06 -2.00358e-06 -9.32447e-06
-5.18717e-05 -3.15637e-05 -5.58722e-05
-4.20194e-05 -0.000136484 -0.000211207
-9.25546e-07 -1.30285e-05 1.44242e-05
-1.39532e-05 3.23807e-05 8.28962e-05
3.14171e-05 -0.000161234 9.16432e-05
0.000568089 6.92864e-06 -0.000389013
-2.6244e-05 -4.49789e-05 -5.54724e-05
-1.95097e-05 -2.68778e-05 3.77584e-05
7.20083e-05 -8.32259e-05 -5.17135e-05
3.08769e-05 -0.000123457 2.86887e-05
0.000162866 -5.6633e-06 -0.000213863
1.2427e-05 -3.31512e-05 -1.01839e-05
1.50506e-05 -3.35697e-05 -3.46695e-06
3.33427e-05 -8.88259e-05 -2.21767e-05
-3.05197e-05 -6.39305e-05 -4.21349e-05
-6.23797e-05 -0.000158042 1.87035e-05
-7.21428e-06 -0.00012407 1.96566e-05
-6.44752e-06 -0.000381842 6.05862e-05
-0.000101127 -0.000106394 -4.73741e-05
-2.90156e-06 -0.000116263 -2.76889e-05
-2.09803e-05 -4.8347e-05 -1.20807e-05
2.75613e-07 -1.61252e-05 -8.95207e-06
-6.4014e-05 -0.000208082 -9.52091e-05
-2.86159e-05 -7.58015e-06 -3.37362e-05
-4.69598e-05 -9.16114e-06 -8.62094e-06
-5.38011e-05 -0.000104513 -6.20643e-05
-3.68546e-05 -9.99511e-05 -4.54532e-05
-2.52593e-07 -1.75417e-05 6.68376e-06
-1.49029e-06 -8.17248e-06 5.95681e-06
-7.99408e-06 9.71944e-06 -2.25861e-05
3.1119e-06 1.11199e-05 -4.86241e-06
0.000100013 1.89589e-05 0.0001404
0.00125332 -0.00124112 -0.000724654
-2.91363e-05 2.26574e-05 6.1703e-06
-4.397e-05 4.92618e-05 2.80298e-05
6.35338e-05 -2.76186e-05 3.66732e-05
4.91225e-05 -2.63833e-05 7.42015e-05
0.000129661 -9.09781e-06 9.49083e-06
-0.000186534 -0.000123366 0.000168622
0.000502837 -0.000358919 -1.84402e-05
0.00091027 -0.00136805 -0.000676208
0.000679375 -0.00122201 -0.000933787
3.26374e-05 -0.000129152 -1.36683e-05
0.000288087 -0.000699105 1.43353e-05
-1.54876e-05 -0.000224281 0.000122412
-9.77378e-05 -7.89226e-05 9.45272e-05
-3.98053e-05 -0.000381537 3.77817e-05
-8.06908e-05 -0.000101246 2.19279e-06
-2.09697e-05 -2.05015e-05 -3.3139e-06
-2.23262e-05 -4.93548e-05 -9.37964e-06
-3.27814e-05 -5.96519e-05 -4.18128e-06
-1.29538e-05 -1.92118e-05 3.79011e-06
-0.000195138 -5.92114e-05 -3.63506e-05
-4.29288e-05 -2.27313e-06 -2.5498e-05
-6.59142e-05 -0.000249554 -0.000155151
-1.15444e-05 -1.20798e-05 -1.91027e-05
-1.86697e-05 -2.76226e-05 -3.03164e-05
4.38065e-06 -1.92345e-05 -1.15167e-05
-7.85481e-07 -2.16684e-05 -1.60087e-05
5.96576e-06 1.33146e-05 -6.28445e-06
6.81898e-05 -4.8189e-06 3.96625e-05
2.70503e-05 3.1076e-05 2.77033e-06
0.0 0.0 0.0
1.22458e-05 1.51631e-05 2.42972e-06
-9.94773e-06 1.07012e-05 -2.34927e-06
0.000435197 5.77319e-05 0.000494366
0.000342129 -0.000616966 -0.00135239
3.36426e-05 3.08067e-05 1.09371e-05
0.0 0.0 0.0
5.79504e-05 1.33832e-05 -1.77772e-09
0.000100025 8.36826e-05 0.000124519
2.44738e-06 -1.90253e-05 2.59774e-05
1.34148e-05 -3.79032e-05 -5.12849e-05
6.06959e-05 -0.00106862 6.81024e-05
1.51774e-05 -3.81236e-05 5.34795e-05
3.28078e-06 -9.0118e-05 2.57925e-06
2.57026e-05 -0.00015855 -1.92483e-05
-1.01266e-05 -1.72309e-06 1.34215e-05
-1.72302e-05 -6.31313e-06 -2.56816e-06
-6.51413e-06 -2.8412e-05 2.21163e-05
1.17783e-06 -3.89931e-05 -8.0768e-06
-0.000134062 -0.000193686 -0.000204099
-4.6368e-05 -0.000177715 -0.000168383
-2.08953e-06 -4.38061e-06 2.72181e-06
-1.91923e-05 1.81247e-06 -1.9661e-05
-1.15584e-05 -1.48035e-05 -1.71286e-05
-3.81974e-06 -1.78872e-05 -2.36331e-05
-1.45347e-05 -9.5282e-05 -0.000139675
4.67954e-05 7.64475e-05 -2.58513e-05
2.21967e-05 1.02828e-05 3.55039e-05
0.000476281 -7.32308e-05 -0.000369098
0.00130194 -0.000738486 -0.0026132
7.01985e-05 -0.000167382 8.57221e-05
1.32729e-05 3.58355e-05 9.24822e-06
-7.65368e-05 -5.71213e-05 -0.000207783
0.000406963 5.18905e-05 -0.000807282
0.000239559 -0.000264011 -6.92108e-05
2.17459e-05 3.2584e-05 -1.55438e-05
2.10365e-05 2.1083e-05 1.23549e-05
-3.88717e-06 2.05276e-05 -1.26087e-05
-8.80502e-06 4.61125e-06 -5.91385e-05
2.20059e-05 -6.95421e-06 -0.000147641
-7.76652e-05 -0.000201863 -0.0002021
0.000153627 -3.42333e-05 -0.000199071
9.15673e-05 -0.000297097 -0.000108014
0.000192172 -0.000307446 5.71964e-06
0.000154652 -0.000169981 -0.000292148
0.00013242 -3.58428e-05 0.000159783
3.04361e-05 -0.000267171 -0.000104821
0.000165074 -0.000370291 -0.000322306
9.20546e-05 -2.60775e-05 0.000130444
-4.90265e-05 -0.0002434 -0.00034911
-4.95419e-06 -1.08351e-05 9.51344e-05
3.84319e-05 1.27794e-05 -2.44987e-05
-3.48773e-05 -0.000107519 -9.26518e-05
-3.01491e-05 -3.08711e-05 -4.72232e-05
1.47204e-06 4.45674e-06 1.03816e-05
-2.0388e-06 1.36273e-06 2.66208e-06
2.4034e-06 -2.92697e-06 -4.25468e-05
-5.78263e-05 -1.40584e-05 -4.04993e-05
9.51168e-06 1.14179e-05 -2.8317e-06
-8.93685e-06 -7.67654e-06 -9.0663e-06
0.0 0.0 0.0
-2.9038e-05 -8.07025e-05 -6.81242e-05
-0.000391521 -0.000230532 -0.000207093
0.000585782 -0.000258158 -0.00060395
0.000536684 -0.000336041 -0.0015504
0.000117849 4.77067e-06 5.43972e-06
4.24425e-05 -0.00222911 -0.0022929
0.000524034 -0.0001032 0.000278575
-0.000504448 -0.000446135 -0.000679086
0.000551536 -0.000186734 -0.000755278
8.49607e-05 -1.99884e-05 7.34251e-05
-0.00148392 0.000126351 0.000744283
4.07588e-05 -1.5423e-05 4.08692e-05
0.000286444 -5.31474e-05 0.00020047
0.000237653 -0.000285982 0.000248887
3.99503e-05 2.43639e-05 -8.90521e-05
8.15688e-06 1.38407e-06 1.30213e-05
7.50307e-05 -1.64454e-05 3.43838e-05
0.000147751 -0.000298986 -0.00012534
-3.23495e-07 4.23708e-08 7.43954e-06
5.755e-06 1.09848e-06 1.0932e-05
6.47272e-06 -2.2933e-05 3.87781e-06
-5.42689e-05 -0.000184573 -0.000156122
4.10808e-05 1.89411e-05 -9.18306e-06
-1.59647e-05 2.11523e-06 1.21864e-06
-3.56051e-05 -0.000598484 -0.000210308
2.92798e-05 -5.97142e-05 -4.64017e-05
8.56232e-05 -0.000319928 -0.000667275
0.000184609 -8.18845e-05 -0.000594653
5.95717e-05 4.99585e-05 -8.61452e-05
-2.80437e-05 -0.000379718 -0.000440097
0.000676025 -4.91186e-05 -0.000223314
-6.52425e-05 -3.21222e-05 1.53306e-06
-6.10811e-05 -0.000533934 -0.000415571
0.000394507 0.000410781 0.000432763
0.00175212 -0.000454618 -0.00163504
0.000464739 1.1035e-05 -0.000218515
0.000248841 -9.47488e-05 -1.72735e-05
-0.000693764 -0.00186365 -0.00165886
-0.00751285 -0.000215395 0.000112581
0.000334639 -5.40722e-05 0.000175019
0.000820978 -0.000356058 4.75963e-05
0.000105861 -0.00048868 -0.000523503
3.92881e-05 -1.37662e-05 5.23067e-05
0.000539074 -0.000369405 -3.92849e-05
8.46277e-05 -2.58973e-05 -9.88722e-05
0.000203554 -0.000318152 -0.000477287
-7.02722e-07 -2.34133e-05 1.767e-05
1.58756e-05 -1.27672e-05 1.69818e-05
9.10164e-05 -1.83221e-05 2.34722e-05
1.14551e-05 4.81876e-05 -3.72786e-05
3.10667e-06 -2.42346e-06 4.33426e-06
0.000117859 -2.12586e-05 4.18352e-05
0.000114 -4.83673e-05 9.43676e-05
-1.39884e-05 -1.14397e-05 -2.39972e-06
-2.9971e-05 2.91879e-05 -6.65809e-05
5.02972e-05 6.03885e-05 0.000155323
3.16248e-06 -2.59291e-05 -2.40509e-05
-1.32543e-05 5.68541e-05 -6.16104e-05
-1.0893e-05 4.29105e-05 -3.74649e-05
5.98209e-05 -2.34688e-05 9.54815e-05
3.39261e-05 -0.000214065 -0.000164162
2.61907e-05 -0.000186225 -0.000205314
1.35106e-05 4.4838e-05 -6.2143e-05
7.08454e-05 -2.07748e-05 -5.63363e-05
-0.000273691 -0.000536659 7.07243e-05
0.000373703 -0.00010635 -6.56778e-05
0.000884492 -0.000572381 -0.000442625
-0.000837301 -0.000390687 -0.0002647
-0.00143774 0.000253381 0.000541494
0.00238648 0.000109346 -0.00119266
0.000151179 8.52148e-05 0.000105065
-0.0228071 0.0171527 0.0140182
7.0895e-05 -9.30522e-05 -0.000127028
1.36132e-05 -0.000149452 0.000179636
0.000112432 -0.000223544 -0.000652092
-9.03034e-06 -1.5375e-06 -7.65745e-05
8.35242e-06 -1.24398e-05 1.89128e-05
0.000220911 -3.10186e-05 7.42882e-05
-3.05922e-05 -0.000101514 -0.000162854
-0.000112092 8.49095e-05 -1.8921e-05
1.14584e-05 1.82374e-05 1.23257e-06
-5.997e-05 -0.000195542 -0.000175833
-1.36937e-05 2.49569e-06 3.52056e-05
3.69813e-07 5.96616e-05 2.5464e-05
4.06227e-05 -0.000218644 -1.44832e-05
0.000107246 -7.06722e-05 -3.04277e-05
0.000242695 0.00023534 -8.62933e-05
0.000406966 -0.000495176 8.97408e-05
0.000112588 -0.000190602 0.000105046
0.000277323 -2.08956e-06 0.000204413
-2.71539e-05 0.000862403 -0.00185826
-6.67743e-05 -0.000235287 0.000236007
-9.89874e-05 -0.000204678 -0.000503918
0.000299439 -4.24099e-05 -0.000356272
0.000737833 -0.000443047 -0.00135029
0.000291538 -2.73919e-05 -0.000190084
-1.1662e-05 5.06567e-05 -6.13654e-05
-0.000269744 -0.000447084 -0.000440391
-0.000120031 -0.000130192 -8.5782e-05
-5.39737e-07 1.12684e-05 3.73117e-05
0.0 0.0 0.0
-2.88722e-05 8.50333e-06 -9.35585e-05
5.44564e-05 -0.000104444 -9.34124e-05
0.0 0.0 0.0
1.61513e-05 2.75974e-05 -1.64996e-05
2.46946e-05 -2.73888e-05 -1.23476e-05
0.000160766 2.03575e-05 6.73911e-05
-2.1449e-05 3.0789e-05 4.41456e-05
4.42496e-05 2.59043e-05 1.20964e-05
0.000279881 -0.000389244 1.36248e-05
1.56898e-05 7.92278e-05 -1.84091e-05
7.13156e-05 3.98931e-05 -1.94553e-05
0.000155487 2.4549e-05 5.09856e-05
0.000447374 -7.08946e-05 -0.000153526
-5.17102e-05 -3.57546e-05 -0.000109673
-1.68444e-05 4.80912e-05 -2.90941e-05
3.52556e-05 -4.50198e-05 0.000197239
-0.000521995 -0.000325348 -0.00110708
3.18688e-05 1.85447e-05 -2.40001e-05
0.000123815 -5.32183e-05 -7.02617e-05
-0.000188218 -6.24585e-05 -0.00013224
1.79458e-05 -5.40179e-05 -4.91017e-05
1.43611e-05 7.10176e-06 7.88146e-05
2.58893e-05 -2.24859e-05 4.98225e-05
-1.85797e-05 1.63066e-06 -2.17136e-05
-3.53508e-05 -1.96336e-05 -2.27796e-05
-4.63832e-06 1.06663e-06 1.41484e-06
0.0 0.0 0.0
0.0 0.0 0.0
2.57993e-05 -2.55695e-05 -2.68955e-05
VECTORS omega float
2.26188e-05 0.000108573 -4.72189e-05
-0.000584192 0.000407102 5.74726e-05
0.00176563 -0.00275546 -0.00147189
-0.000693182 0.000346189 0.000348532
-0.00159658 0.00152508 0.00110675
0.00172008 -0.00037554 0.00118534
-0.000751969 0.0013231 0.00076531
-0.00114423 0.000694446 -0.00132565
-0.000210184 7.5198e-05 0.000231107
-0.000880088 -0.00109586 0.00404435
6.63039e-05 -0.00151345 0.000178309
-2.33828e-05 -0.000229924 0.000243714
-0.000508011 -0.000341329 0.00062747
-0.00144338 -0.0017662 -0.000190082
-0.00023502 -0.000546532 -7.26153e-06
-0.000982898 -0.000857331 -0.00197534
-0.00168899 -0.00150337 -0.000413548
-0.000271013 -0.000570898 -0.000165141
-0.000847486 -0.000299714 -0.000203713
-6.66284e-05 -0.000310784 0.000305068
-0.000651236 -0.000812822 -0.000554293
-0.000219777 0.000323866 0.00164126
-0.000731315 -0.000197102 -0.000465851
-0.000413025 0.000347537 -0.000826576
0.000469919 5.6535e-05 -0.000418575
-0.00125547 -8.5764e-05 0.000769759
0.00171423 -0.00116767 -0.000195425
-0.000256103 -0.000103424 -4.60448e-05
-0.00019831 0.000797695 -0.000306206
0.00154925 0.000597789 0.00151827
0.000799084 0.000956229 -0.000784245
0.00350284 -0.00722369 0.00227383
0.0509868 0.612746 0.679115
-1.54643e-05 -0.00057999 0.000294973
-0.000639502 -0.00130207 4.04083e-05
-0.000368006 -0.000296053 0.000338669
0.000348958 -0.000179696 0.000394423
-0.000798294 -0.00275256 0.00117494
-0.00116301 0.00185865 -0.00184274
1.06143e-05 -0.000955613 0.00101534
5.86502e-05 0.000309979 -0.000305315
-0.000460653 0.000169098 3.18401e-05
-0.00285565 0.00167559 -0.00206449
4.47808e-05 0.000657376 0.000765949
0.000320557 -0.000156429 0.000532015
0.000858959 -0.000120824 0.000264025
0.000760988 -0.000383649 6.93237e-05
-0.000374397 -0.000448182 -0.000443732
0.00164358 0.00151535 0.000594372
0.00019313 -0.000324239 -0.000527905
0.000380538 -0.00151647 -0.000300746
0.000362431 -0.00102738 -6.43156e-05
0.000419396 -0.000206119 -0.000380558
-0.00157207 -0.000494383 0.00128134
-0.00156121 -0.000487871 0.000932378
-0.0013158 -0.00139689 -0.000363482
-0.00273641 0.00103602 -0.000145176
-0.00248501 -0.000817176 -0.00138716
0.000138317 -0.000363569 0.000243185
-0.00036977 -0.0014953 0.00100892
-0.00138772 0.00264382 -0.00187704
0.00173929 0.00114934 -0.000540209
0.000371616 -0.000992244 0.000526362
-0.000449969 0.000772224 0.000380934
-8.15724e-05 0.000479068 -0.00203348
1.17698e-05 -0.00147221 0.00196072
0.000129097 0.0001634 0.000182634
0.000525291 -0.000436036 0.000223141
0.000575014 3.85687e-05 0.00105454
0.000733832 -0.000695627 -0.000398136
0.00536769 0.00313218 -0.000472081
-0.00347319 -0.00121594 -0.00153181
0.000127307 8.91413e-05 0.000338946
-0.000546835 0.000864364 0.00031105
-0.00142773 0.00074099 0.00059681
-0.179851 -0.261486 0.27069
0.00126761 0.000114948 -0.000205468
0.000241029 -0.00165929 -0.000796047
0.000261801 -0.000295804 0.000132162
0.000409955 5.08935e-05 0.000130022
0.00118379 -0.00034481 -0.000809119
0.00283865 4.045e-05 -0.00148512
0.000452862 0.00109324 0.000425761
-0.000711182 -0.00054988 -4.2869e-06
-0.000384016 -0.000259834 -0.000195416
-0.00158645 -0.00108789 0.000823537
-0.000718086 -0.00331224 0.00155401
0.00237046 -0.000796374 0.000684303
0.000212706 0.00192182 -0.000359956
0.00501046 0.000203857 0.00200412
-0.00132525 -0.00291779 0.00109654
0.000427523 -0.00130102 0.000461661
0.00790748 -0.00120628 0.00274787
-0.00221954 -0.00406583 6.77862e-05
0.00453483 -0.00387291 0.000332929
-0.000544327 -0.000442421 0.000747734
0.00355651 -7.71812e-05 -0.000762865
-0.0115534 0.0047261 -0.00237631
0.000762808 -0.00036971 -0.000312087
-0.000227965 -0.000518311 5.26328e-05
-0.000735032 -0.00262407 -0.00175672
-0.000976187 -0.00108224 -0.00088162
0.000801967 0.000912254 1.67308e-05
0.00192928 -0.000153873 -0.000189099
-0.000921971 0.00220365 0.000574997
7.69222e-05 0.000145072 -0.000106553
0.000313084 0.000290879 -0.00119885
0.00155348 0.0008095 -0.000540897
-0.000397375 0.00178064 0.00112071
-0.00104784 -0.000510739 -0.000355009
-0.00207565 -0.000731536 -0.000240021
-0.00340594 0.000642104 -0.000147516
-0.00153502 0.00153038 0.000218795
0.000271258 0.000746317 0.000248929
-0.00114898 0.00210091 0.000937185
-0.0014608 -0.00416217 0.00131341
0.00410318 -0.0112169 0.00764739
0.000919895 -0.000449586 3.82416e-05
0.00233641 -0.000535709 -0.0005556
-0.00010766 -0.00263672 0.00167784
0.00262117 -0.00143088 0.00080514
0.000480294 0.00265829 -0.00102984
0.00201333 0.00174917 0.000537766
0.00372597 0.0010661 0.00209597
-0.00777052 -0.00216628 -0.00161119
-0.00718694 0.00564138 -0.00134733
-0.00379056 -0.00603515 0.000455309
-0.000131234 0.0020503 -0.00145975
0.0054803 -0.00174314 -0.00159389
0.000980918 0.000645525 0.000746615
0.000959914 -0.00119867 -0.000718945
-0.000384338 -0.00136773 -0.000989833
-0.000654646 -0.00174765 -0.000321523
-0.000886 -0.00262818 0.00139752
0.000900133 0.00274671 -0.000131171
0.00104959 -0.000964036 -0.000569242
0.000561238 -0.000937488 -0.000911009
-0.00012971 0.00199859 0.00306252
-0.00138654 -0.000361671 0.000275431
-0.00149159 -0.00103506 0.000433261
0.0033157 0.000683214 -0.00192605
-0.00145706 -0.00236158 0.000248976
-0.000243625 -0.0011798 -0.00104807
0.00136777 0.000930769 -0.00126426
-0.00294924 -0.00100103 0.00435932
-0.00235071 -0.00200179 0.000490158
-0.72064 -0.54179 1.71321
0.000494711 6.94565e-05 -0.00167557
0.000231023 0.0026406 7.16456e-05
0.00417563 0.00253686 -0.00469033
-0.0172149 -0.0100372 -0.0106631
0.00421549 0.00273078 -0.0047888
0.127296 -1.81971 1.00676
-0.0013163 -0.00440912 -0.00094037
-0.00160054 0.000564898 7.61355e-05
0.00257086 0.00276275 0.00339271
0.00449832 0.00671359 -0.00365203
0.00332741 -9.05041e-05 0.00234478
-0.00209722 0.0015595 -0.0002229
0.00533324 -0.000550732 0.002488
-0.00268498 -0.000269358 -0.00129571
-0.000593855 0.00188228 0.00010943
-0.000594165 0.000719371 -0.0017535
0.00223658 0.00258594 0.00116206
0.00433881 0.000113961 0.000998826
0.00111632 0.00120881 -0.00263894
-0.000246774 0.00134499 0.00124449
-0.00103607 -0.00116834 -0.000782844
-0.0021719 0.00184292 0.00173671
-0.000115003 0.000569621 -0.000828763
-0.00291948 -0.00206495 -0.000701374
-0.00166673 0.00128643 -0.000336431
-0.000268856 -0.000972311 1.4243e-05
-0.000389272 0.00219833 0.00168284
0.0159512 -0.041684 0.0176703
0.012726 0.0156728 0.00302324
-0.000387029 0.0023646 -4.70326e-05
0.00655827 0.00602465 -0.00138008
0.00248769 -0.00230102 -0.00064263
0.00153624 -0.0405446 0.0020909
0.00774222 0.0144167 -0.00105089
-0.00343144 0.0034751 -0.0045926
0.00319462 -0.00355753 0.00210311
-0.00117396 -0.00253931 0.00144386
0.00340977 -0.00338805 0.000619933
0.00122744 0.00123806 -0.000749671
-0.00479014 0.00374301 -0.00437273
0.0027613 -0.00172948 -0.00796439
0.0024278 0.0034832 -0.0052053
0.00161917 -0.00134603 0.000538559
-0.00262648 0.013899 -0.00275137
0.000760308 -0.00191328 -0.000234241
0.00210541 0.00475757 0.00221483
0.00354647 0.00254214 0.00125248
0.00322353 -0.000636868 -0.000105671
-0.000788672 -0.00074656 -0.000147592
-0.00102226 0.000173922 0.000207285
0.00039285 -0.00148017 -0.000235275
-0.000730832 8.59038e-05 0.000665211
-0.00237789 0.00233117 0.000619625
-0.00129831 -0.00150837 -0.000648607
-0.00209259 -0.00226577 0.0005061
-0.00507373 0.00106085 1.63607e-05
-0.000332445 0.00238437 -0.000417979
0.000220138 0.00128725 -0.000908972
0.00318125 0.000485774 0.000311076
0.403421 0.894685 0.657396
0.00556925 -0.0029131 0.00394882
-0.00348141 0.00172747 -0.000258901
-0.0182529 0.0274847 -0.00691656
-0.00879547 -0.00706429 -0.00532309
0.00651589 -0.0113931 -0.00215654
-7.4413e-05 0.00348766 -0.00644685
-0.00185208 0.00217604 0.00247826
0.0128249 0.0183903 -0.0038085
-0.00118679 -0.00145774 0.00295779
-0.0106586 -0.00141913 -0.00192665
0.0170569 0.00763354 0.0264936
-0.007589 -0.00176957 -0.000200619
0.000617776 0.00200344 0.000429749
-0.00132968 0.000192833 0.00183939
-0.00721703 0.00114561 0.00153575
0.00161736 -7.4284e-05 0.00116682
-0.00175162 0.000819254 8.7731e-05
0.0013279 0.00196928 0.00102966
0.000147044 -0.000521613 -0.000376805
-0.000634502 0.000123729 -0.000215099
-0.00481863 0.000955723 -0.00219377
-0.00159043 -0.000232988 -0.000619955
-0.00333154 -0.00375028 0.00104508
0.38485 1.50952 -0.359447
0.00240924 -0.00345828 -0.000497729
0.00296929 -0.000164148 -0.00133787
0.00573493 0.000569501 0.00279681
0.00139527 0.00395 -0.00191607
-0.000760299 -0.000459636 -0.000148256
0.00213266 -0.00235531 9.80139e-05
-0.0202681 0.00396856 -0.0479126
0.000755153 -0.00830221 0.00702338
-0.0058688 0.00604422 -0.012822
0.0178286 -0.0437919 0.061602
0.00017182 0.025868 -0.0111436
-0.0124786 0.00645854 -0.00512777
0.00576669 -0.0175496 0.0126266
0.006226 -0.00018518 -0.00934244
0.0182528 0.00718004 -0.00745302
0.012071 0.000456974 -0.0027267
-0.00439045 -0.0106639 0.00432634
-0.00220614 0.000868286 0.00689888
0.00244631 -0.00209268 0.00315597
-0.00333446 0.00346898 -0.00630706
-0.0191364 0.00200802 0.00442158
0.00156274 0.00101067 0.00330192
0.0105772 4.952e-05 -0.00746406
-0.00187931 0.000201667 0.00501042
0.00176785 -0.0036464 0.00196222
0.00196149 0.00355896 -0.000381477
-0.000123492 -0.000521759 -0.00372227
-0.00124968 -0.00196824 -0.000241171
-0.00328696 -0.000370097 -0.000241266
-0.00120555 0.003269 0.000957826
-0.00252172 -3.95538e-05 0.00049778
0.00383179 0.00257918 0.000412298
-0.00240481 0.00391452 -0.000149821
0.000716976 -0.00148227 0.000878978
0.00132971 0.000985678 -0.000271461
-0.00348751 0.000764108 -0.00243512
0.00128602 -0.00379773 -0.00633514
-0.00656126 -0.00419175 -0.00843881
-0.00316282 0.000153758 0.000437918
-0.00140749 0.00258768 -0.00107767
-0.00562674 0.00218066 -0.00686407
0.0102633 -0.0305369 -0.00438141
-0.00195346 -0.00618031 0.000847598
-0.0369775 -0.0238106 -0.0349688
-0.0167494 -0.0174606 0.0269256
0.168874 1.12167 0.463767
0.0061797 0.00504059 -0.000318729
0.579726 1.93574 0.961925
0.0409029 0.0126317 -0.0132723
-0.00534638 -0.0049205 0.00805876
-0.00045425 -0.00251275 0.00160715
0.00214476 -6.91037e-05 0.0015375
-0.00178887 -0.00541475 -0.00165473
-0.00124681 -0.000781455 0.00461021
-0.000174715 -0.00416159 0.000432288
-0.0537544 0.0154642 -0.0021478
-0.00230117 -0.00317669 -0.00591294
0.000969841 -0.00299084 0.000647495
-0.00265525 0.000878384 0.000972568
0.00202233 -0.00441924 -0.00128581
0.00196685 0.000641783 -0.000199697
-0.00314942 0.00380909 -0.00132669
-0.0120747 0.000522907 0.000513076
0.000158387 0.00194784 -0.00229629
0.00275303 0.0113232 -0.0204621
0.000824901 0.00222484 0.00161067
-0.412186 -1.64068 -0.646981
-0.00331452 0.00053761 0.00402007
-0.0287054 0.00110736 0.0176023
-0.000738666 -0.00131511 -0.00365791
0.000886442 -0.00410611 -0.00448808
0.00586622 0.00044757 0.00422906
0.649298 0.049926 0.153577
-0.00233628 0.00906536 -0.00107847
0.0499259 -0.0440113 0.0515701
-0.000192401 2.48021e-05 -0.00176828
-0.00304374 -1.3268 -0.263965
-0.00399198 0.00756714 0.000761617
-0.0695267 -0.00242513 -0.0491912
-0.622423 -1.2613 -1.11371
-0.315043 0.0477796 -0.107029
-0.00118 -0.000930764 -0.0025334
0.000316177 -5.06023e-05 -0.000944538
0.00314252 -0.00143698 -0.00329908
-0.000998326 -0.00236539 -0.00430659
-0.00301861 -0.000386515 0.000730105
0.0123536 0.000865399 0.0100962
0.00754394 -0.0013142 -0.00984512
-0.00448405 -0.00618473 0.000903031
0.00163111 0.00370331 -2.00491e-05
-0.00420752 -0.00709377 -0.00686101
-0.0190862 0.108994 -0.797974
-0.00506506 0.00531128 -0.002004
0.00117413 -0.00114579 0.00381635
-0.00036097 0.00245613 0.0256381
-0.00402462 -0.00573259 -0.00310208
0.00570048 -0.00533762 -0.00866983
0.0120439 0.00500357 -0.0179643
-0.0033019 0.00151692 -4.24987e-06
-0.00509247 -0.00341829 -0.00291548
-0.000770033 -0.00740009 0.00623796
0.00450517 -0.00856283 0.00190334
0.000491909 0.000761224 -0.000457442
2.04535 2.79711 1.72142
0.0595632 0.966557 -0.793519
0.0132328 -0.000440548 -0.0123407
VECTORS v float
2.4329e-06 2.8994e-06 5.06589e-07
5.5629e-06 5.05228e-06 2.37639e-06
1.09961e-05 7.75459e-06 1.36155e-05
3.49618e-06 5.47789e-06 8.35271e-07
1.20227e-05 1.00186e-05 6.1178e-06
7.83401e-06 1.2574e-05 1.35108e-05
1.3079e-05 1.22081e-05 2.24145e-05
4.83988e-06 8.20656e-06 2.34611e-06
5.05312e-07 4.73946e-06 1.04387e-06
-4.93487e-06 8.21398e-06 3.68265e-06
-7.70531e-06 7.90829e-06 1.65472e-05
-2.44226e-06 3.74033e-06 1.26922e-06
-4.19937e-06 1.03823e-05 5.08536e-06
-8.71677e-06 1.1316e-05 1.30448e-05
-3.95412e-06 3.95164e-06 4.169e-06
-3.66628e-06 8.15451e-06 7.07333e-06
-7.79371e-06 1.34556e-05 3.26703e-06
-7.95481e-06 1.14382e-05 1.51189e-05
-6.32266e-06 9.95178e-06 1.12182e-05
-2.74657e-06 3.32514e-06 1.62893e-06
-6.11748e-06 1.83103e-06 5.42478e-06
3.91122e-06 5.80678e-06 2.33659e-06
-3.86984e-06 1.3857e-05 5.04703e-06
-1.19531e-06 4.96344e-06 6.41469e-06
1.56208e-06 -3.37942e-06 7.45288e-06
6.23846e-07 1.09073e-05 3.16576e-06
-4.2289e-06 1.22419e-05 1.77845e-05
7.36262e-07 8.29026e-07 4.89215e-06
2.33937e-06 5.18284e-06 5.28106e-06
2.81994e-07 -1.05678e-05 8.91151e-06
3.86158e-06 8.49273e-06 9.13518e-06
-1.04054e-05 1.30019e-05 3.0462e-05
-0.00195927 0.00548724 -0.0152554
6.62137e-06 1.21395e-05 6.96476e-06
4.20131e-06 9.60801e-06 1.63913e-05
-3.25322e-06 4.63648e-06 -1.19368e-06
1.62158e-06 1.10715e-05 3.2878e-06
-9.93072e-06 2.14422e-05 3.55836e-05
-1.10451e-05 7.7429e-06 2.44531e-05
-1.08491e-05 1.69863e-05 1.16532e-05
-1.62169e-05 2.4312e-05 1.11422e-05
-1.02735e-05 1.35754e-05 2.7106e-05
-4.70738e-06 1.26246e-05 1.51391e-05
-6.24549e-06 3.64434e-06 5.08822e-06
-9.14325e-06 6.29142e-06 6.47532e-06
-1.3474e-05 1.19014e-05 1.45357e-05
-1.14707e-05 2.06018e-05 1.35717e-05
-1.38162e-05 1.88406e-05 2.27963e-05
-5.2718e-06 2.87059e-06 1.21901e-05
-5.78041e-06 3.01346e-06 8.38807e-06
-1.33846e-05 1.52332e-05 7.49997e-06
-9.31801e-06 6.17508e-06 1.58559e-05
-4.4517e-07 1.38802e-05 7.13454e-06
3.0604e-06 3.5091e-06 1.02656e-05
-8.65879e-07 3.16563e-06 9.86009e-06
6.85273e-07 4.22382e-06 1.45204e-05
-2.9183e-06 5.43331e-06 2.11866e-05
-5.98707e-06 -1.79309e-06 1.8409e-05
2.23339e-06 3.77034e-06 -3.13595e-06
-1.46746e-06 1.96037e-05 1.94535e-05
-1.69125e-05 2.26122e-05 5.37268e-05
-6.16647e-06 -1.30778e-06 -1.51494e-05
-7.44663e-06 1.14176e-05 4.55037e-06
-5.46733e-06 1.753e-05 1.04115e-05
-2.6648e-05 2.5071e-05 2.44881e-05
-1.17781e-05 2.11331e-05 3.80039e-05
-4.86021e-06 2.70541e-06 3.4461e-07
-6.97946e-06 6.57681e-06 2.58165e-06
-1.65913e-05 2.46761e-05 2.31307e-05
-3.26918e-05 6.02049e-06 4.25303e-05
-1.99805e-05 -1.91415e-06 2.25527e-05
-1.59381e-05 7.03715e-06 3.09206e-05
-9.82343e-06 2.42242e-06 1.34344e-05
-1.17505e-05 8.10185e-06 1.43082e-05
-1.28476e-05 2.01501e-05 1.5385e-05
-0.000101097 0.00206495 0.00201275
-8.79564e-06 9.96722e-06 1.29716e-05
-1.13689e-05 -5.36144e-06 2.47923e-05
-1.27503e-06 1.79718e-06 7.42088e-06
-6.52785e-06 3.53584e-06 1.70813e-05
-5.25512e-06 6.86261e-06 1.59659e-05
-8.34319e-06 -4.17868e-07 2.94462e-05
-9.03954e-06 -3.44718e-06 2.31819e-05
-2.83315e-07 5.55318e-07 3.80919e-06
-1.51975e-06 -3.21289e-07 1.12991e-05
-8.90532e-06 -1.4328e-06 -1.98544e-05
-1.21988e-05 6.74034e-06 -4.57136e-06
6.03489e-06 1.16274e-05 1.34715e-05
5.65368e-07 2.25144e-05 3.65084e-05
-1.77784e-05 -1.22489e-05 4.18693e-05
-1.34767e-05 4.58581e-06 -1.76234e-05
-1.97287e-05 8.70188e-06 5.29994e-06
-2.20708e-05 1.42644e-05 8.36151e-05
-3.38591e-05 4.10235e-05 3.79848e-05
-3.87946e-05 -6.80717e-07 0.000102846
-4.41002e-06 -7.95035e-07 3.44808e-07
-1.24209e-05 -1.71265e-06 6.85648e-06
-1.72924e-05 6.47801e-06 3.72646e-05
-4.91601e-06 -1.56075e-06 7.77065e-06
-1.40957e-05 2.57927e-06 1.92983e-05
-2.57943e-05 2.94972e-05 3.47149e-05
-2.99275e-05 -5.7177e-07 3.86957e-05
-2.83829e-06 -3.56714e-06 2.25902e-05
-2.80871e-05 2.55617e-05 5.25503e-05
-1.52254e-05 -6.45729e-06 2.02843e-05
1.96818e-06 -2.70138e-06 8.60524e-06
-1.02807e-05 -5.77333e-06 3.90659e-05
4.44768e-06 -3.59377e-06 1.55638e-05
7.57839e-06 -3.42966e-06 1.40299e-05
-1.00048e-05 4.80649e-06 1.77675e-05
-6.48893e-06 -3.83581e-07 2.89061e-05
-2.50661e-06 -7.24086e-06 2.37999e-05
-1.3161e-08 -9.89445e-07 1.1642e-05
-8.44219e-06 -1.02543e-06 -8.20376e-06
-1.34958e-05 -9.12849e-06 -1.87339e-05
-3.72779e-05 -4.55693e-06 -1.55213e-05
-7.75626e-05 3.53529e-05 9.27224e-05
-1.27908e-05 -5.98193e-06 -1.64651e-06
-3.0396e-05 -5.02901e-06 -1.97036e-05
-3.80341e-05 2.04198e-06 1.78983e-05
-2.43838e-05 1.55041e-05 1.72568e-05
-6.35534e-06 -1.63286e-05 -3.66924e-06
-1.37102e-05 -6.2618e-06 2.35485e-05
-4.94775e-05 2.20517e-05 6.3224e-05
-5.59023e-05 2.55704e-05 0.000108604
-2.10229e-05 6.58231e-06 6.56909e-05
-4.25695e-05 2.79605e-05 4.72805e-05
-3.94865e-05 2.67232e-05 4.23429e-05
-4.81842e-06 1.91361e-05 9.66217e-06
-5.09328e-06 -1.80064e-05 2.9745e-05
-2.0299e-05 2.21522e-05 3.72432e-05
-4.64594e-06 -7.97485e-06 1.69727e-05
-2.70718e-06 -1.33823e-05 3.49578e-05
-1.1847e-05 1.01292e-05 3.1217e-05
-5.20405e-06 -1.28633e-06 1.99082e-05
1.31329e-06 -4.04085e-06 9.77098e-06
7.87207e-06 -1.51123e-05 2.78124e-05
5.24864e-06 -5.8311e-06 2.86999e-05
-1.84609e-05 1.93222e-05 5.19835e-05
3.95641e-06 -9.8904e-07 1.04278e-05
-9.50475e-06 3.39424e-06 3.89028e-05
-2.48682e-06 -8.1263e-06 2.32991e-05
-6.52708e-06 -5.72718e-07 1.09419e-05
-8.94611e-07 -9.74013e-06 -3.54451e-06
-3.93958e-05 -9.45163e-07 -1.68254e-05
-2.28551e-05 -8.2994e-07 -1.88241e-05
0.00615096 0.0048964 0.00138649
2.51209e-06 -1.98637e-05 -7.29277e-06
-8.82298e-06 -1.80234e-05 -1.1196e-05
-4.80465e-05 -2.84321e-05 -3.5298e-06
-0.000113327 2.5575e-05 0.00012509
-1.37517e-05 1.5345e-07 3.66131e-05
-0.00928563 -0.00194241 0.00433067
1.40914e-05 -1.70755e-05 1.98825e-06
1.90581e-05 -1.97459e-05 4.30056e-05
3.24394e-06 -8.66693e-06 4.19988e-05
-8.4634e-06 -1.06712e-05 5.34005e-05
-6.12186e-06 8.15453e-06 4.84428e-07
6.27509e-06 -3.08484e-05 7.06213e-05
-1.94573e-05 -3.05857e-06 5.89475e-05
-8.61191e-06 9.19595e-06 1.83002e-05
1.52194e-06 -1.28183e-05 3.11567e-05
1.06956e-05 -1.09022e-05 4.65054e-05
-4.62516e-06 -4.45122e-06 3.68041e-05
-4.23491e-06 -1.19188e-05 5.49586e-05
-2.38094e-05 9.03093e-07 4.79259e-05
-6.01326e-06 -1.14944e-05 2.77758e-05
4.96141e-07 -6.64844e-06 9.90796e-06
6.7841e-06 -7.87905e-06 2.34793e-05
-3.15438e-06 2.73249e-06 1.26514e-05
-6.2486e-06 -7.74907e-06 2.96577e-05
-5.01351e-06 -9.78668e-06 3.09386e-05
1.88477e-06 -1.76304e-05 4.8407e-07
-3.05234e-05 9.54543e-07 1.92274e-06
-0.00012735 -4.6527e-05 0.00011055
-3.95538e-05 -1.49083e-05 0.000177318
2.61345e-06 3.88081e-07 8.38337e-06
-6.87009e-06 -3.85368e-06 2.81517e-06
-2.44714e-06 -2.5496e-05 4.2437e-05
-8.31861e-05 -7.98826e-05 0.000213836
-1.64533e-05 -2.61224e-06 6.54026e-05
1.23088e-05 -2.52483e-05 -2.24709e-05
8.0237e-06 -3.15567e-05 1.6304e-06
5.53987e-06 -3.23902e-05 -8.03094e-07
1.38569e-05 -1.63088e-05 4.41266e-05
-1.20872e-06 -2.89788e-05 6.23734e-05
3.45381e-05 -3.73444e-06 6.78204e-05
-1.99661e-05 -4.86046e-05 7.5493e-05
4.25123e-05 1.80587e-05 4.70271e-05
2.97108e-05 -3.39433e-05 7.7679e-05
0.000122997 -5.22216e-05 5.81013e-07
1.35252e-05 -1.89417e-05 3.88624e-05
1.30305e-05 -2.56031e-05 5.40715e-05
4.74899e-07 -1.11916e-05 2.76634e-05
1.02462e-05 -1.44293e-05 1.6733e-05
-5.29137e-06 -1.16395e-05 4.53587e-05
3.26291e-06 -1.35761e-05 2.85533e-05
5.55231e-06 -1.64846e-05 5.29117e-05
-5.08705e-06 -1.82103e-05 6.57984e-05
2.10426e-06 -1.53244e-06 2.0775e-05
8.11441e-07 -3.06681e-06 1.08141e-05
4.60209e-06 -5.17548e-06 1.9842e-05
-2.76461e-06 -7.75169e-06 3.69405e-05
-1.12105e-05 -9.71274e-06 9.3351e-06
1.67172e-06 -1.12378e-05 1.40406e-06
-3.93646e-06 -9.32201e-06 2.1132e-05
-0.00521294 0.00417056 -0.00384795
1.02022e-05 -2.84148e-05 6.78412e-05
1.61196e-05 -4.01213e-06 1.84557e-05
-0.000168884 -7.87165e-05 0.000132254
4.36314e-05 -3.33124e-05 9.50316e-05
4.12114e-05 -5.75346e-05 -2.91685e-05
9.81716e-06 -7.56563e-05 3.89062e-05
6.37211e-05 -1.63393e-05 2.79396e-05
0.000146876 -8.02022e-05 0.000128075
7.44206e-05 -3.09994e-05 1.86436e-06
1.85507e-05 -1.29916e-05 9.91351e-06
0.000175463 -0.000188443 7.49775e-06
1.52758e-05 -5.20044e-06 2.83492e-05
2.1487e-05 -1.88456e-05 3.43314e-05
1.39177e-05 -3.12277e-05 9.12437e-05
3.54505e-06 -4.5239e-06 1.38093e-05
2.33854e-06 7.42597e-06 3.51873e-06
4.68242e-06 -1.79326e-05 7.92806e-05
-2.99527e-06 -2.10422e-05 5.88631e-05
-2.66805e-06 -4.76166e-07 6.08093e-06
1.88075e-06 -4.8495e-06 1.20789e-05
-1.03011e-05 -8.6388e-06 3.28016e-05
-8.43597e-06 -6.52561e-06 2.52232e-05
-6.42001e-06 5.97976e-06 1.46015e-05
0.00241915 5.34263e-06 0.0025881
-9.56948e-06 -1.58093e-05 3.27387e-05
-1.58747e-05 -3.13365e-05 4.53726e-05
-2.29775e-05 -2.22496e-06 6.53297e-05
3.42454e-06 -1.67487e-05 5.52374e-05
4.95842e-06 -2.53126e-05 -8.21643e-06
-1.21618e-05 -4.11008e-05 9.15889e-05
0.00021362 -7.65107e-05 1.31416e-05
2.68089e-05 -1.85178e-05 -2.16309e-05
4.31984e-05 -0.000124847 1.07652e-05
0.000334092 -0.000198802 -9.06239e-05
0.000266788 -2.31366e-05 6.02863e-05
1.86027e-05 -3.92018e-05 -0.000112226
5.73609e-05 -4.33703e-05 -3.57355e-05
0.000120191 -3.13031e-05 6.19734e-05
0.000257645 -0.000476527 -0.000122815
3.22319e-05 -5.37601e-05 -5.86529e-06
4.97614e-05 7.87762e-06 8.98369e-05
0.000110718 1.66967e-06 6.07987e-06
1.95486e-05 -5.03023e-05 4.82583e-05
2.48542e-05 -9.80363e-06 9.97014e-05
2.8913e-05 -0.00013688 3.50673e-05
2.68063e-06 -2.01546e-05 1.96615e-05
-1.43435e-06 -7.36954e-05 1.10529e-05
-1.19638e-05 -4.25099e-05 2.40323e-05
9.70316e-06 -1.00505e-05 5.62897e-05
-2.50676e-06 8.36612e-06 3.00966e-05
-9.19847e-06 -1.5298e-05 4.49996e-06
-8.9465e-06 -1.23532e-05 3.24026e-05
-8.32728e-06 -1.1565e-05 4.88941e-05
-1.77611e-06 2.33599e-06 1.2544e-05
3.03011e-06 1.41945e-05 3.04996e-05
-1.40355e-05 1.55137e-05 3.75719e-05
-3.23212e-06 -1.54245e-05 4.42613e-05
8.6393e-07 -1.27069e-05 3.43994e-05
4.90558e-06 -3.81001e-06 2.2836e-05
-2.50438e-05 1.63027e-05 7.94701e-06
2.49201e-05 -1.15719e-05 2.24278e-05
-2.65239e-05 -9.09014e-05 0.000103376
1.74842e-05 -7.71792e-06 2.81811e-05
1.32816e-05 -2.91852e-05 -1.59157e-05
9.3911e-05 -6.828e-05 8.35694e-06
0.000226129 -7.35178e-05 1.54649e-05
2.8925e-05 -9.16174e-06 -2.24502e-05
0.000198014 -0.000227807 -5.48469e-05
0.000245734 -0.000168453 -1.89914e-05
0.00355169 9.36215e-05 -0.00183778
-6.22796e-06 -1.91583e-05 5.12754e-05
0.00125687 -0.0109471 0.00601634
4.6415e-05 -0.00023799 -8.48376e-05
-6.18689e-06 -0.000110193 5.25599e-05
1.24402e-05 -3.9216e-06 -2.34998e-05
1.69589e-05 7.91407e-06 2.26131e-06
-3.24819e-05 -4.62016e-05 4.48703e-05
-1.39206e-05 -2.03294e-09 7.68019e-05
4.66612e-07 -3.19765e-05 -3.65734e-05
9.75025e-05 0.00035215 0.000148911
-3.04492e-05 5.31624e-06 4.49004e-05
-9.44148e-06 1.10276e-06 -8.04646e-06
-3.77136e-06 1.33032e-05 -7.08994e-06
-4.27174e-06 -8.81563e-07 3.22976e-05
4.73044e-06 -1.79637e-05 2.62454e-05
1.72456e-05 8.68881e-06 2.87369e-05
8.2944e-06 7.1179e-05 -1.23311e-05
1.8981e-05 -3.5594e-05 7.0353e-05
0.000204177 -0.000150594 -1.2441e-06
1.83365e-05 -4.38992e-06 3.29204e-05
-7.74162e-05 0.0013001 -0.00276038
5.19884e-05 1.21845e-05 -3.41519e-05
0.000137089 -0.000205211 -0.000106223
5.53118e-05 3.89952e-05 2.63913e-05
4.31492e-05 -5.50525e-05 -1.28448e-05
4.30235e-05 -9.73062e-06 6.56122e-05
-1.7596e-06 -0.000992126 0.00032419
4.58371e-05 1.05582e-05 -1.4585e-05
2.45736e-06 0.000278657 0.000174993
-1.42344e-05 -1.71927e-05 2.33755e-06
-0.00768736 0.00603415 0.000316915
1.14104e-05 5.63069e-06 3.70078e-05
-8.52917e-06 0.000133069 -2.14687e-05
-0.016805 -0.00231207 -0.00170342
0.000167682 0.00056061 -0.000227527
5.76441e-06 -1.27153e-05 7.21742e-06
1.03299e-05 -4.11413e-06 1.17648e-05
-6.05572e-06 3.67808e-05 1.71299e-06
1.66185e-06 -8.11169e-06 3.67688e-05
1.50885e-05 -2.40415e-05 2.17297e-05
6.74669e-06 7.57314e-05 -1.27927e-05
1.26398e-05 6.604e-05 1.64372e-05
1.5735e-05 -1.11134e-05 1.64044e-05
7.22828e-06 -5.03981e-06 2.36874e-06
3.75617e-05 -1.39676e-05 -1.69917e-05
-0.000712553 -0.000126909 1.28143e-05
-8.29565e-07 -1.18739e-05 0.000112653
4.895e-05 -2.96077e-06 -6.24629e-05
-4.52243e-06 4.2112e-05 5.24273e-07
3.28985e-05 -4.28319e-05 1.86328e-05
4.02455e-05 1.0797e-05 -1.71213e-05
-2.71905e-05 9.49671e-05 2.52057e-05
-8.29572e-06 -1.02601e-05 1.09409e-05
3.0718e-05 -4.18437e-05 2.99286e-05
3.28538e-05 -1.14572e-05 3.82694e-05
5.89097e-05 1.91807e-05 1.74282e-05
-2.77333e-06 -2.51072e-06 -4.81863e-06
0.0150052 -0.00341519 -0.00757424
-0.00589551 -0.0043882 -0.00258115
-1.99012e-05 8.44848e-05 -2.42388e-05
SCALARS radius float 1
LOOKUP_TABLE default
0.0111152
0.00694698
0.00694698
0.00694698
0.00694698
0.00694698
0.0111152
0.00694698
0.0111152
0.00694698
0.00694698
0.0111152
0.0111152
0.00694698
0.00694698
0.00694698
0.00694698
0.00694698
0.0111152
0.00694698
0.00694698
0.00694698
0.0111152
0.00694698
0.0111152
0.00694698
0.0111152
0.0111152
0.00694698
0.00694698
0.00694698
0.00694698
0.00694698
0.0111152
0.00694698
0.00694698
0.00694698
0.0111152
0.00694698
0.00694698
0.0111152
0.0111152
0.00694698
0.00694698
0.00694698
0.0111152
0.00694698
0.0111152
0.00694698
0.0111152
0.00694698
0.00694698
0.00694698
0.00694698
0.00694698
0.00694698
0.00694698
0.00694698
0.0111152
0.0111152
0.0111152
0.0111152
0.0111152
0.00694698
0.00694698
0.00694698
0.00694698
0.0111152
0.0111152
0.0111152
0.00694698
0.00694698
0.00694698
0.00694698
0.0111152
0.00694698
0.00694698
0.00694698
0.00694698
0.00694698
0.0111152
0.00694698
0.0111152
0.00694698
0.0111152
0.0111152
0.00694698
0.00694698
0.0111152
0.0111152
0.00694698
0.00694698
0.00694698
0.00694698
0.00694698
0.00694698
0.00694698
0.00694698
0.0111152
0.0111152
0.00694698
0.0111152
0.0111152
0.00694698
0.00694698
0.00694698
0.0111152
0.00694698
0.00694698
0.0111152
0.0111152
0.00694698
0.00694698
0.00694698
0.00694698
0.00694698
0.0111152
0.00694698
0.0111152
0.00694698
0.00694698
0.0111152
0.0111152
0.0111152
0.0111152
0.0111152
0.00694698
0.0111152
0.00694698
0.0111152
0.0111152
0.0111152
0.00694698
0.00694698
0.00694698
0.00694698
0.0111152
0.00694698
0.0111152
0.00694698
0.00694698
0.00694698
0.00694698
0.00694698
0.00694698
0.00694698
0.00694698
0.00694698
0.00694698
0.0111152
0.00694698
0.00694698
0.00694698
0.00694698
0.0111152
0.00694698
0.00694698
0.0111152
0.00694698
0.00694698
0.00694698
0.00694698
0.00694698
0.00694698
0.00694698
0.0111152
0.0111152
0.00694698
0.00694698
0.00694698
0.00694698
0.0111152
0.0111152
0.00694698
0.00694698
0.0111152
0.00694698
0.00694698
0.00694698
0.00694698
0.00694698
0.00694698
0.00694698
0.00694698
0.00694698
0.00694698
0.00694698
0.00694698
0.00694698
0.0111152
0.0111152
0.0111152
0.0111152
0.0111152
0.0111152
0.0111152
0.0111152
0.0111152
0.0111152
0.00694698
0.00694698
0.00694698
0.00694698
0.00694698
0.00694698
0.00694698
0.00694698
0.00694698
0.0111152
0.00694698
0.0111152
0.00694698
0.0111152
0.0111152
0.00694698
0.0111152
0.00694698
0.0111152
0.00694698
0.0111152
0.0111152
0.00694698
0.00694698
0.00694698
0.0111152
0.00694698
0.00694698
0.00694698
0.0111152
0.00694698
0.00694698
0.0111152
0.00694698
0.0111152
0.0111152
0.0111152
0.00694698
0.00694698
0.00694698
0.00694698
0.00694698
0.0111152
0.0111152
0.00694698
0.0111152
0.0111152
0.0111152
0.0111152
0.0111152
0.00694698
0.0111152
0.00694698
0.0111152
0.00694698
0.00694698
0.00694698
0.00694698
0.00694698
0.0111152
0.0111152
0.00694698
0.00694698
0.0111152
0.00694698
0.00694698
0.00694698
0.00694698
0.00694698
0.00694698
0.00694698
0.00694698
0.00694698
0.00694698
0.0111152
0.00694698
0.0111152
0.00694698
0.0111152
0.00694698
0.00694698
0.0111152
0.0111152
0.00694698
0.00694698
0.0111152
0.00694698
0.00694698
0.00694698
0.0111152
0.00694698
0.0111152
0.0111152
0.00694698
0.0111152
0.0111152
0.00694698
0.0111152
0.00694698
0.00694698
0.00694698
0.0111152
0.0111152
0.0111152
0.00694698
0.0111152
0.00694698
0.0111152
0.00694698
0.0111152
0.00694698
0.00694698
0.00694698
0.00694698
0.0111152
0.0111152
0.00694698
0.0111152
0.00694698
0.00694698
0.00694698
0.0111152
0.00694698
0.00694698
0.0111152
0.0111152
0.00694698
0.00694698
0.00694698
0.00694698
0.0111152
0.0111152
0.00694698
0.00694698
0.00694698
0.00694698
0.00694698
0.00694698
SCALARS type float 1
LOOKUP_TABLE default
1.0
1.0
1.0
1.0
1.0
1.0
1.0
1.0
1.0
1.0
1.0
1.0
1.0
1.0
1.0
1.0
1.0
1.0
1.0
1.0
1.0
1.0
1.0
1.0
1.0
1.0
1.0
1.0
1.0
1.0
1.0
1.0
1.0
1.0
1.0
1.0
1.0
1.0
1.0
1.0
1.0
1.0
1.0
1.0
1.0
1.0
1.0
1.0
1.0
1.0
1.0
1.0
1.0
1.0
1.0
1.0
1.0
1.0
1.0
1.0
1.0
1.0
1.0
1.0
1.0
1.0
1.0
1.0
1.0
1.0
1.0
1.0
1.0
1.0
1.0
1.0
1.0
1.0
1.0
1.0
1.0
1.0
1.0
1.0
1.0
1.0
1.0
1.0
1.0
1.0
1.0
1.0
1.0
1.0
1.0
1.0
1.0
1.0
1.0
1.0
1.0
1.0
1.0
1.0
1.0
1.0
1.0
1.0
1.0
1.0
1.0
1.0
1.0
1.0
1.0
1.0
1.0
1.0
1.0
1.0
1.0
1.0
1.0
1.0
1.0
1.0
1.0
1.0
1.0
1.0
1.0
1.0
1.0
1.0
1.0
1.0
1.0
1.0
1.0
1.0
1.0
1.0
1.0
1.0
1.0
1.0
1.0
1.0
1.0
1.0
1.0
1.0
1.0
1.0
1.0
1.0
1.0
1.0
1.0
1.0
1.0
1.0
1.0
1.0
1.0
1.0
1.0
1.0
1.0
1.0
1.0
1.0
1.0
1.0
1.0
1.0
1.0
1.0
1.0
1.0
1.0
1.0
1.0
1.0
1.0
1.0
1.0
1.0
1.0
1.0
1.0
1.0
1.0
1.0
1.0
1.0
1.0
1.0
1.0
1.0
1.0
1.0
1.0
1.0
1.0
1.0
1.0
1.0
1.0
1.0
1.0
1.0
1.0
1.0
1.0
1.0
1.0
1.0
1.0
1.0
1.0
1.0
1.0
1.0
1.0
1.0
1.0
1.0
1.0
1.0
1.0
1.0
1.0
1.0
1.0
1.0
1.0
1.0
1.0
1.0
1.0
1.0
1.0
1.0
1.0
1.0
1.0
1.0
1.0
1.0
1.0
1.0
1.0
1.0
1.0
1.0
1.0
1.0
1.0
1.0
1.0
1.0
1.0
1.0
1.0
1.0
1.0
1.0
1.0
1.0
1.0
1.0
1.0
1.0
1.0
1.0
1.0
1.0
1.0
1.0
1.0
1.0
1.0
1.0
1.0
1.0
1.0
1.0
1.0
1.0
1.0
1.0
1.0
1.0
1.0
1.0
1.0
1.0
1.0
1.0
1.0
1.0
1.0
1.0
1.0
1.0
1.0
1.0
1.0
1.0
1.0
1.0
1.0
1.0
1.0
1.0
1.0
1.0
1.0
1.0
1.0
1.0
1.0
1.0
1.0
1.0
1.0
1.0
1.0
1.0
1.0
1.0
1.0
1.0
1.0
1.0
1.0
SCALARS id float 1
LOOKUP_TABLE default
50.0
138.0
258.0
304.0
141.0
154.0
92.0
297.0
98.0
293.0
325.0
106.0
10.0
285.0
126.0
171.0
241.0
183.0
41.0
180.0
213.0
207.0
23.0
240.0
6.0
140.0
58.0
32.0
197.0
291.0
128.0
264.0
234.0
60.0
263.0
328.0
188.0
48.0
298.0
172.0
88.0
80.0
164.0
200.0
277.0
9.0
305.0
84.0
274.0
40.0
186.0
135.0
327.0
174.0
198.0
158.0
173.0
246.0
89.0
119.0
37.0
122.0
38.0
331.0
321.0
329.0
260.0
121.0
64.0
62.0
169.0
288.0
193.0
205.0
47.0
265.0
149.0
184.0
257.0
232.0
34.0
229.0
94.0
143.0
102.0
61.0
137.0
278.0
70.0
85.0
227.0
314.0
225.0
195.0
199.0
130.0
153.0
259.0
81.0
79.0
127.0
30.0
12.0
239.0
275.0
273.0
66.0
192.0
230.0
13.0
72.0
247.0
163.0
295.0
252.0
222.0
17.0
292.0
44.0
212.0
159.0
75.0
100.0
49.0
73.0
22.0
322.0
2.0
216.0
55.0
35.0
99.0
319.0
301.0
245.0
308.0
105.0
201.0
103.0
142.0
217.0
248.0
253.0
296.0
160.0
144.0
203.0
250.0
294.0
8.0
238.0
152.0
133.0
208.0
31.0
228.0
175.0
33.0
269.0
147.0
249.0
317.0
204.0
156.0
267.0
107.0
19.0
157.0
236.0
276.0
324.0
97.0
93.0
155.0
306.0
18.0
151.0
233.0
290.0
165.0
145.0
286.0
182.0
206.0
220.0
333.0
280.0
261.0
146.0
77.0
101.0
82.0
4.0
118.0
45.0
26.0
24.0
117.0
69.0
237.0
221.0
336.0
302.0
326.0
307.0
132.0
210.0
181.0
46.0
310.0
5.0
189.0
65.0
111.0
272.0
108.0
161.0
28.0
242.0
95.0
115.0
166.0
179.0
337.0
3.0
177.0
224.0
231.0
42.0
303.0
124.0
51.0
202.0
39.0
114.0
29.0
185.0
148.0
167.0
300.0
282.0
14.0
112.0
194.0
68.0
91.0
83.0
104.0
116.0
279.0
53.0
309.0
25.0
136.0
176.0
134.0
235.0
196.0
74.0
20.0
330.0
281.0
96.0
335.0
215.0
332.0
218.0
251.0
131.0
318.0
311.0
271.0
270.0
21.0
262.0
27.0
191.0
59.0
315.0
255.0
52.0
7.0
223.0
190.0
56.0
123.0
316.0
139.0
76.0
162.0
120.0
71.0
170.0
63.0
43.0
168.0
54.0
209.0
268.0
214.0
78.0
16.0
113.0
334.0
1.0
312.0
86.0
226.0
15.0
256.0
323.0
284.0
211.0
109.0
87.0
320.0
67.0
178.0
125.0
219.0
57.0
254.0
289.0
90.0
110.0
243.0
266.0
187.0
299.0
11.0
36.0
150.0
129.0
283.0
287.0
313.0
244.0

